time,nb_sleeping,nb_switching_on,nb_switching_off,nb_idle,nb_computing
0.00240003,0,0,0,4008,384
0.00300004,0,0,0,3752,640
0.00360005,0,0,0,3240,1152
0.00420006,0,0,0,3112,1280
0.00480006,0,0,0,2984,1408
0.00540007,0,0,0,2660,1732
0.00600008,0,0,0,2336,2056
0.00660009,0,0,0,2208,2184
0.0072001,0,0,0,1952,2440
0.0078001,0,0,0,1696,2696
0.00840011,0,0,0,928,3464
0.00900012,0,0,0,800,3592
0.00960013,0,0,0,128,4264
0.0102001,0,0,0,0,4392
10590,0,0,0,128,4264
10640,0,0,0,800,3592
10643,0,0,0,476,3916
10643,0,0,0,152,4240
10643,0,0,0,24,4368
10794,0,0,0,152,4240
10936,0,0,0,280,4112
10937,0,0,0,408,3984
10963,0,0,0,536,3856
11600,0,0,0,860,3532
11603,0,0,0,188,4204
11629,0,0,0,512,3880
12325,0,0,0,768,3624
12328,0,0,0,96,4296
14077,0,0,0,864,3528
14080,0,0,0,192,4200
21139,0,0,0,448,3944
21538,0,0,0,576,3816
21645,0,0,0,832,3560
21648,0,0,0,160,4232
23097,0,0,0,832,3560
23100,0,0,0,448,3944
23100,0,0,0,320,4072
23175,0,0,0,644,3748
23178,0,0,0,320,4072
23310,0,0,0,644,3748
23313,0,0,0,320,4072
23313,0,0,0,192,4200
23815,0,0,0,864,3528
23818,0,0,0,540,3852
23818,0,0,0,216,4176
25204,0,0,0,888,3504
25828,0,0,0,1400,2992
25831,0,0,0,376,4016
32521,0,0,0,760,3632
32524,0,0,0,248,4144
32524,0,0,0,241,4151
33463,0,0,0,913,3479
33466,0,0,0,111,4281
34038,0,0,0,239,4153
34262,0,0,0,367,4025
34921,0,0,0,691,3701
34924,0,0,0,307,4085
34924,0,0,0,51,4341
34976,0,0,0,375,4017
34979,0,0,0,247,4145
34979,0,0,0,137,4255
36291,0,0,0,1161,3231
37541,0,0,0,1485,2907
37772,0,0,0,1809,2583
42923,0,0,0,2321,2071
42926,0,0,0,273,4119
42926,0,0,0,266,4126
42926,0,0,0,192,4200
42926,0,0,0,180,4212
42926,0,0,0,52,4340
45883,0,0,0,180,4212
46862,0,0,0,564,3828
46865,0,0,0,240,4152
51606,0,0,0,496,3896
51609,0,0,0,172,4220
53661,0,0,0,300,4092
53664,0,0,0,114,4278
53664,0,0,0,30,4362
54279,0,0,0,37,4355
56650,0,0,0,147,4245
56653,0,0,0,49,4343
59972,0,0,0,373,4019
59975,0,0,0,281,4111
59975,0,0,0,159,4233
61041,0,0,0,171,4221
61930,0,0,0,178,4214
62199,0,0,0,252,4140
63302,0,0,0,576,3816
63305,0,0,0,252,4140
63305,0,0,0,124,4268
65769,0,0,0,2172,2220
65772,0,0,0,1500,2892
65772,0,0,0,828,3564
65772,0,0,0,156,4236
66292,0,0,0,240,4152
66606,0,0,0,426,3966
66609,0,0,0,102,4290
67433,0,0,0,486,3906
67436,0,0,0,162,4230
67436,0,0,0,34,4358
68681,0,0,0,132,4260
71209,0,0,0,224,4168
71359,0,0,0,346,4046
74222,0,0,0,474,3918
74225,0,0,0,90,4302
74817,0,0,0,414,3978
74820,0,0,0,90,4302
76621,0,0,0,762,3630
76624,0,0,0,438,3954
76624,0,0,0,182,4210
76679,0,0,0,854,3538
77454,0,0,0,1526,2866
77457,0,0,0,502,3890
77457,0,0,0,178,4214
77496,0,0,0,306,4086
79354,0,0,0,630,3762
79357,0,0,0,306,4086
79357,0,0,0,178,4214
80128,0,0,0,502,3890
80131,0,0,0,246,4146
87291,0,0,0,570,3822
87294,0,0,0,314,4078
87294,0,0,0,186,4206
88016,0,0,0,1210,3182
88019,0,0,0,886,3506
88019,0,0,0,630,3762
88019,0,0,0,374,4018
88019,0,0,0,246,4146
88180,0,0,0,502,3890
88183,0,0,0,178,4214
88183,0,0,0,50,4342
89243,0,0,0,374,4018
89246,0,0,0,50,4342
90125,0,0,0,374,4018
90154,0,0,0,502,3890
90157,0,0,0,118,4274
90850,0,0,0,442,3950
90853,0,0,0,250,4142
90853,0,0,0,122,4270
96310,0,0,0,378,4014
98077,0,0,0,506,3886
98975,0,0,0,634,3758
99087,0,0,0,762,3630
99116,0,0,0,1086,3306
99119,0,0,0,62,4330
99496,0,0,0,386,4006
100697,0,0,0,710,3682
101452,0,0,0,902,3490
101726,0,0,0,1030,3362
101729,0,0,0,6,4386
103298,0,0,0,262,4130
106768,0,0,0,646,3746
106771,0,0,0,322,4070
109124,0,0,0,578,3814
109127,0,0,0,254,4138
109754,0,0,0,510,3882
109757,0,0,0,186,4206
109757,0,0,0,58,4334
118351,0,0,0,1082,3310
118354,0,0,0,954,3438
118354,0,0,0,630,3762
118354,0,0,0,306,4086
118354,0,0,0,50,4342
119618,0,0,0,1074,3318
119621,0,0,0,562,3830
119621,0,0,0,434,3958
119959,0,0,0,1236,3156
119962,0,0,0,724,3668
119962,0,0,0,468,3924
119962,0,0,0,144,4248
120657,0,0,0,272,4120
120660,0,0,0,16,4376
121264,0,0,0,340,4052
121267,0,0,0,84,4308
121310,0,0,0,408,3984
121313,0,0,0,152,4240
122126,0,0,0,476,3916
122129,0,0,0,92,4300
122409,0,0,0,476,3916
122412,0,0,0,220,4172
122412,0,0,0,92,4300
129286,0,0,0,348,4044
129344,0,0,0,476,3916
129461,0,0,0,800,3592
129740,0,0,0,1124,3268
129743,0,0,0,100,4292
130516,0,0,0,228,4164
130519,0,0,0,100,4292
130882,0,0,0,356,4036
130885,0,0,0,100,4292
131041,0,0,0,424,3968
131044,0,0,0,168,4224
132145,0,0,0,424,3968
132148,0,0,0,100,4292
133314,0,0,0,228,4164
134079,0,0,0,484,3908
134082,0,0,0,100,4292
135734,0,0,0,356,4036
135737,0,0,0,100,4292
135851,0,0,0,356,4036
135854,0,0,0,100,4292
141316,0,0,0,228,4164
141319,0,0,0,100,4292
141714,0,0,0,612,3780
141717,0,0,0,356,4036
141717,0,0,0,32,4360
141717,0,0,0,31,4361
143152,0,0,0,355,4037
143583,0,0,0,1379,3013
143586,0,0,0,995,3397
143586,0,0,0,323,4069
152116,0,0,0,835,3557
152119,0,0,0,163,4229
152163,0,0,0,291,4101
152478,0,0,0,547,3845
152682,0,0,0,803,3589
152685,0,0,0,131,4261
152770,0,0,0,455,3937
152773,0,0,0,131,4261
154672,0,0,0,515,3877
154675,0,0,0,191,4201
154923,0,0,0,447,3945
154926,0,0,0,63,4329
156178,0,0,0,735,3657
156181,0,0,0,479,3913
156181,0,0,0,223,4169
157598,0,0,0,479,3913
157601,0,0,0,223,4169
160145,0,0,0,607,3785
160148,0,0,0,351,4041
163408,0,0,0,607,3785
163411,0,0,0,223,4169
163631,0,0,0,895,3497
163634,0,0,0,127,4265
164184,0,0,0,451,3941
164187,0,0,0,195,4197
164187,0,0,0,67,4325
165290,0,0,0,739,3653
165293,0,0,0,483,3909
165293,0,0,0,339,4053
165293,0,0,0,159,4233
165293,0,0,0,31,4361
166339,0,0,0,355,4037
166342,0,0,0,99,4293
166604,0,0,0,483,3909
166607,0,0,0,227,4165
166607,0,0,0,99,4293
175159,0,0,0,227,4165
175644,0,0,0,407,3985
175660,0,0,0,535,3857
176230,0,0,0,791,3601
176286,0,0,0,935,3457
177282,0,0,0,1191,3201
177539,0,0,0,1319,3073
177561,0,0,0,1575,2817
177762,0,0,0,1831,2561
177830,0,0,0,2087,2305
177833,0,0,0,39,4353
179202,0,0,0,295,4097
179205,0,0,0,39,4353
181800,0,0,0,295,4097
181803,0,0,0,39,4353
184135,0,0,0,807,3585
184138,0,0,0,551,3841
184138,0,0,0,39,4353
185819,0,0,0,295,4097
185822,0,0,0,39,4353
187454,0,0,0,423,3969
187457,0,0,0,167,4225
187457,0,0,0,39,4353
188427,0,0,0,2087,2305
188430,0,0,0,1831,2561
188430,0,0,0,1507,2885
188430,0,0,0,483,3909
188430,0,0,0,227,4165
188430,0,0,0,99,4293
190643,0,0,0,355,4037
190646,0,0,0,227,4165
190646,0,0,0,99,4293
197321,0,0,0,355,4037
198390,0,0,0,483,3909
199354,0,0,0,611,3781
199379,0,0,0,867,3525
199705,0,0,0,1191,3201
199708,0,0,0,167,4225
200944,0,0,0,295,4097
200947,0,0,0,39,4353
201582,0,0,0,167,4225
202369,0,0,0,1191,3201
202372,0,0,0,935,3457
202372,0,0,0,679,3713
202372,0,0,0,423,3969
202372,0,0,0,99,4293
203553,0,0,0,355,4037
205287,0,0,0,611,3781
208313,0,0,0,995,3397
209111,0,0,0,1251,3141
209114,0,0,0,227,4165
209114,0,0,0,99,4293
210063,0,0,0,355,4037
210066,0,0,0,99,4293
213692,0,0,0,423,3969
213695,0,0,0,295,4097
213815,0,0,0,296,4096
214567,0,0,0,552,3840
214570,0,0,0,228,4164
216656,0,0,0,740,3652
216659,0,0,0,416,3976
216659,0,0,0,288,4104
219479,0,0,0,416,3976
219482,0,0,0,32,4360
219936,0,0,0,1056,3336
219939,0,0,0,928,3464
219939,0,0,0,800,3592
219939,0,0,0,672,3720
219939,0,0,0,416,3976
219939,0,0,0,288,4104
219939,0,0,0,160,4232
219939,0,0,0,32,4360
220999,0,0,0,288,4104
221002,0,0,0,160,4232
222656,0,0,0,416,3976
223962,0,0,0,672,3720
223965,0,0,0,160,4232
223965,0,0,0,32,4360
224056,0,0,0,288,4104
224059,0,0,0,160,4232
224059,0,0,0,32,4360
224583,0,0,0,160,4232
224586,0,0,0,32,4360
226399,0,0,0,356,4036
226402,0,0,0,228,4164
226402,0,0,0,100,4292
227580,0,0,0,228,4164
227583,0,0,0,100,4292
228471,0,0,0,424,3968
228474,0,0,0,296,4096
230765,0,0,0,424,3968
230817,0,0,0,1448,2944
230820,0,0,0,924,3468
230834,0,0,0,1052,3340
230862,0,0,0,1180,3212
230886,0,0,0,1308,3084
230977,0,0,0,1436,2956
232024,0,0,0,1564,2828
234275,0,0,0,1692,2700
234500,0,0,0,1820,2572
234970,0,0,0,1948,2444
235525,0,0,0,2076,2316
236879,0,0,0,2204,2188
237327,0,0,0,2332,2060
237772,0,0,0,2204,2188
237803,0,0,0,2076,2316
238518,0,0,0,2204,2188
238795,0,0,0,2332,2060
238999,0,0,0,2460,1932
241626,0,0,0,2716,1676
247934,0,0,0,2844,1548
248277,0,0,0,3228,1164
248695,0,0,0,3356,1036
256445,0,0,0,3868,524
259056,0,0,0,3740,652
259056,0,0,0,3596,796
263334,0,0,0,4120,272
268250,0,0,0,3992,400
268286,0,0,0,3864,528
269420,0,0,0,3992,400
269995,0,0,0,4136,256
272049,0,0,0,4008,384
274546,0,0,0,3880,512
276180,0,0,0,3752,640
278055,0,0,0,3751,641
278303,0,0,0,3743,649
278629,0,0,0,3871,521
278688,0,0,0,3999,393
279123,0,0,0,3997,395
279189,0,0,0,3995,397
279513,0,0,0,3739,653
282973,0,0,0,3867,525
285480,0,0,0,3995,397
287189,0,0,0,4123,269
292036,0,0,0,4125,267
292057,0,0,0,4127,265
293796,0,0,0,4135,257
293823,0,0,0,4136,256
301276,0,0,0,4392,0
310834,0,0,0,4136,256
319839,0,0,0,3812,580
319844,0,0,0,3488,904
322309,0,0,0,3232,1160
324038,0,0,0,3488,904
324111,0,0,0,2464,1928
324331,0,0,0,1440,2952
331121,0,0,0,1764,2628
331136,0,0,0,2088,2304
331806,0,0,0,1832,2560
336325,0,0,0,2088,2304
341269,0,0,0,1764,2628
342359,0,0,0,1440,2952
343908,0,0,0,1696,2696
353577,0,0,0,2020,2372
354109,0,0,0,1892,2500
354128,0,0,0,1764,2628
354176,0,0,0,1636,2756
354189,0,0,0,1508,2884
354195,0,0,0,1380,3012
354208,0,0,0,1252,3140
355044,0,0,0,1124,3268
355059,0,0,0,996,3396
355063,0,0,0,868,3524
355106,0,0,0,740,3652
355135,0,0,0,612,3780
355156,0,0,0,484,3908
355172,0,0,0,356,4036
355804,0,0,0,680,3712
364441,0,0,0,808,3584
364441,0,0,0,936,3456
364499,0,0,0,1064,3328
364503,0,0,0,1192,3200
364525,0,0,0,1320,3072
364651,0,0,0,1448,2944
365338,0,0,0,1576,2816
365352,0,0,0,1704,2688
365371,0,0,0,1832,2560
365453,0,0,0,1960,2432
365456,0,0,0,2088,2304
365459,0,0,0,40,4352
365485,0,0,0,168,4224
365499,0,0,0,296,4096
365502,0,0,0,40,4352
375490,0,0,0,2088,2304
375493,0,0,0,1960,2432
375493,0,0,0,1704,2688
375493,0,0,0,1320,3072
375493,0,0,0,296,4096
380490,0,0,0,168,4224
386418,0,0,0,296,4096
386421,0,0,0,40,4352
386666,0,0,0,296,4096
386669,0,0,0,168,4224
389337,0,0,0,1192,3200
389340,0,0,0,936,3456
389340,0,0,0,680,3712
391383,0,0,0,808,3584
397268,0,0,0,1064,3328
397627,0,0,0,1192,3200
397630,0,0,0,40,4352
401730,0,0,0,296,4096
406924,0,0,0,552,3840
406927,0,0,0,168,4224
406927,0,0,0,40,4352
407996,0,0,0,424,3968
407999,0,0,0,296,4096
409156,0,0,0,1320,3072
409222,0,0,0,1576,2816
409629,0,0,0,2600,1792
409873,0,0,0,2472,1920
410214,0,0,0,2344,2048
410235,0,0,0,2216,2176
417217,0,0,0,2344,2048
418325,0,0,0,2472,1920
419774,0,0,0,2856,1536
420802,0,0,0,2984,1408
421148,0,0,0,3112,1280
421218,0,0,0,3240,1152
423118,0,0,0,2916,1476
430443,0,0,0,2788,1604
430598,0,0,0,2660,1732
430642,0,0,0,2532,1860
430710,0,0,0,2404,1988
434340,0,0,0,2728,1664
436340,0,0,0,2600,1792
440751,0,0,0,2728,1664
440873,0,0,0,2856,1536
440986,0,0,0,2984,1408
441047,0,0,0,3112,1280
444167,0,0,0,2984,1408
447291,0,0,0,3112,1280
454379,0,0,0,2728,1664
454482,0,0,0,2856,1536
456321,0,0,0,2728,1664
456396,0,0,0,2600,1792
456655,0,0,0,2472,1920
456764,0,0,0,2344,2048
456828,0,0,0,2216,2176
456901,0,0,0,2088,2304
457199,0,0,0,1704,2688
463095,0,0,0,1448,2944
464838,0,0,0,424,3968
466575,0,0,0,552,3840
466722,0,0,0,680,3712
466982,0,0,0,808,3584
467123,0,0,0,936,3456
467195,0,0,0,1064,3328
467225,0,0,0,1192,3200
468258,0,0,0,868,3524
469348,0,0,0,1252,3140
471519,0,0,0,1124,3268
472980,0,0,0,996,3396
473132,0,0,0,868,3524
473191,0,0,0,740,3652
473257,0,0,0,612,3780
473325,0,0,0,484,3908
475802,0,0,0,1508,2884
479440,0,0,0,1832,2560
482456,0,0,0,1960,2432
483288,0,0,0,2088,2304
483426,0,0,0,3240,1152
483473,0,0,0,3368,1024
483583,0,0,0,3496,896
483588,0,0,0,3624,768
483616,0,0,0,3752,640
484815,0,0,0,4008,384
486956,0,0,0,4392,0
486959,0,0,0,296,4096
486959,0,0,0,168,4224
486959,0,0,0,40,4352
497008,0,0,0,168,4224
497273,0,0,0,296,4096
497489,0,0,0,4392,0
497492,0,0,0,4008,384
497492,0,0,0,3684,708
497492,0,0,0,3556,836
497492,0,0,0,3428,964
497492,0,0,0,1380,3012
497492,0,0,0,1252,3140
497492,0,0,0,1124,3268
497492,0,0,0,996,3396
497492,0,0,0,672,3720
498027,0,0,0,544,3848
498081,0,0,0,416,3976
507883,0,0,0,544,3848
507888,0,0,0,672,3720
507902,0,0,0,800,3592
508452,0,0,0,928,3464
508477,0,0,0,1056,3336
508566,0,0,0,1184,3208
508654,0,0,0,1312,3080
508740,0,0,0,1636,2756
509005,0,0,0,1960,2432
510249,0,0,0,2344,2048
510252,0,0,0,296,4096
510252,0,0,0,40,4352
531987,0,0,0,296,4096
531990,0,0,0,168,4224
531990,0,0,0,40,4352
542254,0,0,0,168,4224
542257,0,0,0,40,4352
542277,0,0,0,168,4224
542280,0,0,0,40,4352
552570,0,0,0,168,4224
552573,0,0,0,40,4352
552628,0,0,0,168,4224
562955,0,0,0,296,4096
584052,0,0,0,2344,2048
584055,0,0,0,1960,2432
584055,0,0,0,1576,2816
584055,0,0,0,1252,3140
584055,0,0,0,996,3396
584055,0,0,0,612,3780
584055,0,0,0,356,4036
584055,0,0,0,100,4292
595387,0,0,0,424,3968
595390,0,0,0,168,4224
596580,0,0,0,552,3840
596583,0,0,0,228,4164
596802,0,0,0,2276,2116
596805,0,0,0,1252,3140
596805,0,0,0,228,4164
597757,0,0,0,612,3780
598404,0,0,0,868,3524
605215,0,0,0,1124,3268
605218,0,0,0,100,4292
605788,0,0,0,356,4036
608165,0,0,0,680,3712
609500,0,0,0,936,3456
609746,0,0,0,1320,3072
609749,0,0,0,296,4096
609749,0,0,0,40,4352
631459,0,0,0,296,4096
631462,0,0,0,40,4352
653207,0,0,0,296,4096
653210,0,0,0,136,4256
653210,0,0,0,8,4384
663366,0,0,0,168,4224
663369,0,0,0,40,4352
664126,0,0,0,168,4224
664129,0,0,0,40,4352
674286,0,0,0,168,4224
674462,0,0,0,296,4096
679858,0,0,0,1320,3072
679861,0,0,0,296,4096
679891,0,0,0,1320,3072
679894,0,0,0,296,4096
679894,0,0,0,168,4224
679894,0,0,0,40,4352
688283,0,0,0,1064,3328
688286,0,0,0,40,4352
690301,0,0,0,168,4224
690301,0,0,0,296,4096
692840,0,0,0,1320,3072
692843,0,0,0,296,4096
692843,0,0,0,40,4352
692843,0,0,0,39,4353
692843,0,0,0,38,4354
709061,0,0,0,39,4353
713977,0,0,0,295,4097
713980,0,0,0,39,4353
735700,0,0,0,295,4097
735703,0,0,0,167,4225
735703,0,0,0,39,4353
746089,0,0,0,167,4225
746092,0,0,0,39,4353
746117,0,0,0,167,4225
746120,0,0,0,39,4353
756419,0,0,0,167,4225
756441,0,0,0,295,4097
762930,0,0,0,1319,3073
762933,0,0,0,935,3457
762933,0,0,0,611,3781
762933,0,0,0,251,4141
762933,0,0,0,123,4269
762974,0,0,0,1147,3245
762977,0,0,0,1019,3373
762977,0,0,0,891,3501
762977,0,0,0,763,3629
762977,0,0,0,635,3757
762977,0,0,0,379,4013
762977,0,0,0,251,4141
762977,0,0,0,123,4269
766165,0,0,0,124,4268
771325,0,0,0,1148,3244
773310,0,0,0,1276,3116
773329,0,0,0,1404,2988
773332,0,0,0,1532,2860
773352,0,0,0,1660,2732
773414,0,0,0,2020,2372
773842,0,0,0,2148,2244
773845,0,0,0,100,4292
773851,0,0,0,228,4164
773931,0,0,0,484,3908
773931,0,0,0,612,3780
773937,0,0,0,288,4104
774548,0,0,0,612,3780
774551,0,0,0,288,4104
775868,0,0,0,1312,3080
775871,0,0,0,928,3464
775871,0,0,0,544,3848
775871,0,0,0,416,3976
775871,0,0,0,288,4104
775871,0,0,0,160,4232
775871,0,0,0,32,4360
785381,0,0,0,356,4036
786041,0,0,0,680,3712
786154,0,0,0,808,3584
786184,0,0,0,936,3456
786265,0,0,0,1064,3328
786273,0,0,0,1192,3200
786276,0,0,0,40,4352
786371,0,0,0,424,3968
786374,0,0,0,168,4224
788634,0,0,0,552,3840
788637,0,0,0,228,4164
795449,0,0,0,612,3780
795452,0,0,0,288,4104
795452,0,0,0,160,4232
795452,0,0,0,32,4360
800042,0,0,0,356,4036
805785,0,0,0,484,3908
806388,0,0,0,612,3780
806889,0,0,0,936,3456
806892,0,0,0,264,4128
806892,0,0,0,136,4256
806892,0,0,0,8,4384
808031,0,0,0,264,4128
808034,0,0,0,136,4256
808034,0,0,0,8,4384
817209,0,0,0,136,4256
817268,0,0,0,264,4128
818383,0,0,0,392,4000
818962,0,0,0,520,3872
819640,0,0,0,1192,3200
819643,0,0,0,520,3872
819643,0,0,0,392,4000
819643,0,0,0,264,4128
819643,0,0,0,136,4256
819643,0,0,0,8,4384
829673,0,0,0,136,4256
829938,0,0,0,264,4128
829971,0,0,0,392,4000
830569,0,0,0,520,3872
832615,0,0,0,1192,3200
832618,0,0,0,520,3872
832618,0,0,0,392,4000
832618,0,0,0,264,4128
832618,0,0,0,136,4256
832618,0,0,0,8,4384
842934,0,0,0,136,4256
842955,0,0,0,264,4128
843556,0,0,0,392,4000
843594,0,0,0,520,3872
844023,0,0,0,1192,3200
844026,0,0,0,520,3872
844026,0,0,0,8,4384
855459,0,0,0,680,3712
855462,0,0,0,8,4384
856118,0,0,0,520,3872
860384,0,0,0,2568,1824
860387,0,0,0,1896,2496
860387,0,0,0,1512,2880
860387,0,0,0,1256,3136
860387,0,0,0,1000,3392
860387,0,0,0,744,3648
860387,0,0,0,420,3972
860387,0,0,0,96,4296
868181,0,0,0,768,3624
868184,0,0,0,384,4008
871753,0,0,0,708,3684
871756,0,0,0,208,4184
871882,0,0,0,880,3512
871956,0,0,0,1204,3188
871959,0,0,0,52,4340
872558,0,0,0,308,4084
874913,0,0,0,692,3700
874916,0,0,0,368,4024
874916,0,0,0,44,4348
880817,0,0,0,1196,3196
880820,0,0,0,812,3580
880820,0,0,0,488,3904
880820,0,0,0,164,4228
881481,0,0,0,420,3972
881484,0,0,0,36,4356
881551,0,0,0,420,3972
881554,0,0,0,36,4356
882091,0,0,0,292,4100
886456,0,0,0,616,3776
886459,0,0,0,292,4100
886576,0,0,0,616,3776
892000,0,0,0,940,3452
892047,0,0,0,1264,3128
892050,0,0,0,240,4152
894267,0,0,0,624,3768
894270,0,0,0,240,4152
898016,0,0,0,564,3828
898019,0,0,0,240,4152
903188,0,0,0,624,3768
903191,0,0,0,240,4152
904330,0,0,0,740,3652
904333,0,0,0,416,3976
904333,0,0,0,415,3977
904333,0,0,0,255,4137
904333,0,0,0,127,4265
907757,0,0,0,511,3881
907760,0,0,0,383,4009
907760,0,0,0,127,4265
909135,0,0,0,451,3941
909138,0,0,0,323,4069
909138,0,0,0,67,4325
913356,0,0,0,451,3941
913359,0,0,0,195,4197
915636,0,0,0,519,3873
915639,0,0,0,135,4257
915858,0,0,0,263,4129
915861,0,0,0,7,4385
919725,0,0,0,135,4257
919728,0,0,0,7,4385
921293,0,0,0,263,4129
921296,0,0,0,135,4257
931497,0,0,0,391,4001
931500,0,0,0,135,4257
931500,0,0,0,7,4385
931897,0,0,0,135,4257
931900,0,0,0,6,4386
935720,0,0,0,390,4002
935723,0,0,0,134,4258
935723,0,0,0,6,4386
941951,0,0,0,166,4226
941954,0,0,0,38,4354
943503,0,0,0,294,4098
943506,0,0,0,38,4354
949290,0,0,0,166,4226
949796,0,0,0,1190,3202
949799,0,0,0,806,3586
949799,0,0,0,598,3794
949799,0,0,0,274,4118
949799,0,0,0,146,4246
949799,0,0,0,18,4374
952209,0,0,0,146,4246
952212,0,0,0,18,4374
958531,0,0,0,1170,3222
958534,0,0,0,978,3414
958534,0,0,0,654,3738
958534,0,0,0,398,3994
958534,0,0,0,390,4002
958534,0,0,0,382,4010
958534,0,0,0,381,4011
958534,0,0,0,253,4139
958534,0,0,0,125,4267
958925,0,0,0,509,3883
958928,0,0,0,381,4011
958928,0,0,0,253,4139
960762,0,0,0,381,4011
961233,0,0,0,705,3687
961236,0,0,0,321,4071
961236,0,0,0,65,4327
961874,0,0,0,273,4119
961877,0,0,0,145,4247
962015,0,0,0,273,4119
963247,0,0,0,401,3991
963659,0,0,0,529,3863
963662,0,0,0,17,4375
963829,0,0,0,146,4246
963832,0,0,0,18,4374
964320,0,0,0,274,4118
964323,0,0,0,18,4374
967470,0,0,0,146,4246
968909,0,0,0,274,4118
968912,0,0,0,18,4374
968912,0,0,0,17,4375
969329,0,0,0,145,4247
969332,0,0,0,17,4375
969357,0,0,0,145,4247
969985,0,0,0,469,3923
969988,0,0,0,213,4179
970118,0,0,0,341,4051
970121,0,0,0,17,4375
972449,0,0,0,145,4247
972452,0,0,0,17,4375
972829,0,0,0,145,4247
972832,0,0,0,17,4375
974863,0,0,0,145,4247
975895,0,0,0,401,3991
975898,0,0,0,145,4247
976010,0,0,0,401,3991
976013,0,0,0,77,4315
977603,0,0,0,78,4314
978570,0,0,0,334,4058
978573,0,0,0,206,4186
978573,0,0,0,78,4314
979420,0,0,0,334,4058
979423,0,0,0,206,4186
979423,0,0,0,78,4314
980271,0,0,0,206,4186
980274,0,0,0,78,4314
982561,0,0,0,402,3990
982564,0,0,0,274,4118
982564,0,0,0,146,4246
982564,0,0,0,18,4374
983028,0,0,0,274,4118
983452,0,0,0,402,3990
983455,0,0,0,18,4374
983815,0,0,0,402,3990
983818,0,0,0,274,4118
983845,0,0,0,402,3990
983848,0,0,0,18,4374
985464,0,0,0,530,3862
985467,0,0,0,146,4246
985467,0,0,0,18,4374
985966,0,0,0,274,4118
985969,0,0,0,146,4246
987385,0,0,0,470,3922
987388,0,0,0,214,4178
988581,0,0,0,470,3922
988584,0,0,0,86,4306
988829,0,0,0,342,4050
988832,0,0,0,18,4374
988914,0,0,0,146,4246
988955,0,0,0,274,4118
989658,0,0,0,275,4117
989772,0,0,0,403,3989
989775,0,0,0,79,4313
989778,0,0,0,207,4185
989891,0,0,0,215,4177
990618,0,0,0,471,3921
990621,0,0,0,87,4305
990660,0,0,0,215,4177
990663,0,0,0,87,4305
990681,0,0,0,95,4297
991549,0,0,0,287,4105
991552,0,0,0,159,4233
991552,0,0,0,31,4361
993548,0,0,0,159,4233
993606,0,0,0,287,4105
993657,0,0,0,415,3977
993832,0,0,0,799,3593
994656,0,0,0,927,3465
996415,0,0,0,1055,3337
996927,0,0,0,1183,3209
997853,0,0,0,1439,2953
1.0014e+06,0,0,0,1567,2825
1.00205e+06,0,0,0,1695,2697
1.00248e+06,0,0,0,1823,2569
1.00252e+06,0,0,0,2147,2245
1.00252e+06,0,0,0,99,4293
1.00345e+06,0,0,0,423,3969
1.00345e+06,0,0,0,168,4224
1.00551e+06,0,0,0,552,3840
1.00551e+06,0,0,0,40,4352
1.00678e+06,0,0,0,424,3968
1.00678e+06,0,0,0,168,4224
1.00678e+06,0,0,0,40,4352
1.00903e+06,0,0,0,424,3968
1.00904e+06,0,0,0,168,4224
1.01527e+06,0,0,0,2216,2176
1.01527e+06,0,0,0,1960,2432
1.01527e+06,0,0,0,1832,2560
1.01527e+06,0,0,0,1576,2816
1.01527e+06,0,0,0,1448,2944
1.01527e+06,0,0,0,1320,3072
1.01527e+06,0,0,0,1064,3328
1.01527e+06,0,0,0,680,3712
1.01527e+06,0,0,0,296,4096
1.01527e+06,0,0,0,40,4352
1.01623e+06,0,0,0,295,4097
1.01624e+06,0,0,0,167,4225
1.01624e+06,0,0,0,39,4353
1.01771e+06,0,0,0,167,4225
1.01771e+06,0,0,0,39,4353
1.01788e+06,0,0,0,295,4097
1.01789e+06,0,0,0,39,4353
1.01803e+06,0,0,0,423,3969
1.01878e+06,0,0,0,935,3457
1.01878e+06,0,0,0,423,3969
1.01878e+06,0,0,0,295,4097
1.0232e+06,0,0,0,679,3713
1.0232e+06,0,0,0,295,4097
1.02559e+06,0,0,0,423,3969
1.02559e+06,0,0,0,99,4293
1.02563e+06,0,0,0,227,4165
1.0257e+06,0,0,0,355,4037
1.02571e+06,0,0,0,31,4361
1.02717e+06,0,0,0,159,4233
1.02717e+06,0,0,0,31,4361
1.0272e+06,0,0,0,159,4233
1.02862e+06,0,0,0,287,4105
1.02862e+06,0,0,0,95,4297
1.02969e+06,0,0,0,607,3785
1.02975e+06,0,0,0,735,3657
1.02999e+06,0,0,0,991,3401
1.03078e+06,0,0,0,1247,3145
1.03339e+06,0,0,0,1503,2889
1.03404e+06,0,0,0,1887,2505
1.03586e+06,0,0,0,2271,2121
1.03586e+06,0,0,0,223,4169
1.03688e+06,0,0,0,479,3913
1.03689e+06,0,0,0,223,4169
1.03701e+06,0,0,0,479,3913
1.03701e+06,0,0,0,95,4297
1.03706e+06,0,0,0,419,3973
1.03706e+06,0,0,0,291,4101
1.03706e+06,0,0,0,35,4357
1.03709e+06,0,0,0,291,4101
1.0371e+06,0,0,0,163,4229
1.0371e+06,0,0,0,35,4357
1.03756e+06,0,0,0,163,4229
1.03756e+06,0,0,0,35,4357
1.03758e+06,0,0,0,359,4033
1.03758e+06,0,0,0,35,4357
1.03824e+06,0,0,0,419,3973
1.03824e+06,0,0,0,35,4357
1.0396e+06,0,0,0,227,4165
1.0396e+06,0,0,0,99,4293
1.04231e+06,0,0,0,100,4292
1.04738e+06,0,0,0,228,4164
1.04739e+06,0,0,0,100,4292
1.04745e+06,0,0,0,228,4164
1.04745e+06,0,0,0,100,4292
1.04759e+06,0,0,0,228,4164
1.04759e+06,0,0,0,100,4292
1.04804e+06,0,0,0,228,4164
1.04805e+06,0,0,0,100,4292
1.04889e+06,0,0,0,424,3968
1.04889e+06,0,0,0,100,4292
1.05015e+06,0,0,0,228,4164
1.05015e+06,0,0,0,100,4292
1.05059e+06,0,0,0,484,3908
1.05502e+06,0,0,0,740,3652
1.05634e+06,0,0,0,1124,3268
1.05791e+06,0,0,0,1252,3140
1.05833e+06,0,0,0,1380,3012
1.05836e+06,0,0,0,1508,2884
1.05866e+06,0,0,0,1764,2628
1.05902e+06,0,0,0,1892,2500
1.06024e+06,0,0,0,2216,2176
1.06114e+06,0,0,0,2344,2048
1.06485e+06,0,0,0,4392,0
1.06485e+06,0,0,0,1320,3072
1.06485e+06,0,0,0,680,3712
1.06485e+06,0,0,0,8,4384
1.0776e+06,0,0,0,680,3712
1.0776e+06,0,0,0,8,4384
1.08965e+06,0,0,0,680,3712
1.09386e+06,0,0,0,3752,640
1.09386e+06,0,0,0,2728,1664
1.09386e+06,0,0,0,1704,2688
1.09386e+06,0,0,0,680,3712
1.09386e+06,0,0,0,8,4384
1.10589e+06,0,0,0,680,3712
1.10797e+06,0,0,0,1320,3072
1.10798e+06,0,0,0,296,4096
1.10798e+06,0,0,0,40,4352
1.12915e+06,0,0,0,1064,3328
1.12915e+06,0,0,0,40,4352
1.12976e+06,0,0,0,296,4096
1.12976e+06,0,0,0,40,4352
1.15151e+06,0,0,0,296,4096
1.15151e+06,0,0,0,40,4352
1.17329e+06,0,0,0,296,4096
1.17875e+06,0,0,0,1320,3072
1.17875e+06,0,0,0,2344,2048
1.17876e+06,0,0,0,1320,3072
1.17876e+06,0,0,0,296,4096
1.17876e+06,0,0,0,124,4268
1.18962e+06,0,0,0,296,4096
1.19285e+06,0,0,0,1320,3072
1.19285e+06,0,0,0,648,3744
1.19285e+06,0,0,0,136,4256
1.19285e+06,0,0,0,8,4384
1.20378e+06,0,0,0,136,4256
1.20461e+06,0,0,0,808,3584
1.20462e+06,0,0,0,424,3968
1.20462e+06,0,0,0,40,4352
1.21101e+06,0,0,0,552,3840
1.21102e+06,0,0,0,228,4164
1.21597e+06,0,0,0,1252,3140
1.21598e+06,0,0,0,928,3464
1.21598e+06,0,0,0,604,3788
1.21598e+06,0,0,0,280,4112
1.21598e+06,0,0,0,152,4240
1.21598e+06,0,0,0,24,4368
1.21692e+06,0,0,0,408,3984
1.21693e+06,0,0,0,216,4176
1.21693e+06,0,0,0,88,4304
1.22245e+06,0,0,0,412,3980
1.22703e+06,0,0,0,540,3852
1.22703e+06,0,0,0,668,3724
1.2273e+06,0,0,0,992,3400
1.22733e+06,0,0,0,1316,3076
1.22742e+06,0,0,0,1508,2884
1.22788e+06,0,0,0,1636,2756
1.22866e+06,0,0,0,1960,2432
1.22866e+06,0,0,0,296,4096
1.22866e+06,0,0,0,40,4352
1.23728e+06,0,0,0,424,3968
1.23729e+06,0,0,0,168,4224
1.23729e+06,0,0,0,40,4352
1.24062e+06,0,0,0,296,4096
1.24063e+06,0,0,0,40,4352
1.2481e+06,0,0,0,168,4224
1.24811e+06,0,0,0,40,4352
1.24945e+06,0,0,0,296,4096
1.25811e+06,0,0,0,424,3968
1.25812e+06,0,0,0,100,4292
1.26245e+06,0,0,0,356,4036
1.26245e+06,0,0,0,100,4292
1.26431e+06,0,0,0,1124,3268
1.26431e+06,0,0,0,2148,2244
1.26432e+06,0,0,0,1824,2568
1.26432e+06,0,0,0,1440,2952
1.26432e+06,0,0,0,1116,3276
1.26432e+06,0,0,0,792,3600
1.26432e+06,0,0,0,468,3924
1.26951e+06,0,0,0,792,3600
1.26951e+06,0,0,0,152,4240
1.27575e+06,0,0,0,476,3916
1.27575e+06,0,0,0,220,4172
1.27583e+06,0,0,0,544,3848
1.27584e+06,0,0,0,288,4104
1.27584e+06,0,0,0,32,4360
1.27604e+06,0,0,0,356,4036
1.27604e+06,0,0,0,100,4292
1.27608e+06,0,0,0,424,3968
1.27608e+06,0,0,0,100,4292
1.27647e+06,0,0,0,484,3908
1.27647e+06,0,0,0,160,4232
1.27647e+06,0,0,0,32,4360
1.28419e+06,0,0,0,288,4104
1.28742e+06,0,0,0,416,3976
1.28743e+06,0,0,0,740,3652
1.2876e+06,0,0,0,996,3396
1.28786e+06,0,0,0,1320,3072
1.28786e+06,0,0,0,296,4096
1.2977e+06,0,0,0,552,3840
1.29771e+06,0,0,0,168,4224
1.29772e+06,0,0,0,424,3968
1.29772e+06,0,0,0,40,4352
1.29793e+06,0,0,0,296,4096
1.29852e+06,0,0,0,936,3456
1.29852e+06,0,0,0,612,3780
1.30571e+06,0,0,0,1636,2756
1.30572e+06,0,0,0,900,3492
1.30572e+06,0,0,0,516,3876
1.30994e+06,0,0,0,840,3552
1.31099e+06,0,0,0,1224,3168
1.31523e+06,0,0,0,2888,1504
1.31523e+06,0,0,0,840,3552
1.31523e+06,0,0,0,456,3936
1.31523e+06,0,0,0,200,4192
1.31523e+06,0,0,0,72,4320
1.32619e+06,0,0,0,200,4192
1.32619e+06,0,0,0,72,4320
1.3303e+06,0,0,0,456,3936
1.33714e+06,0,0,0,584,3808
1.33746e+06,0,0,0,968,3424
1.33814e+06,0,0,0,1224,3168
1.33814e+06,0,0,0,200,4192
1.33826e+06,0,0,0,584,3808
1.33826e+06,0,0,0,60,4332
1.34181e+06,0,0,0,796,3596
1.34181e+06,0,0,0,540,3852
1.34181e+06,0,0,0,284,4108
1.34181e+06,0,0,0,28,4364
1.35079e+06,0,0,0,1052,3340
1.35079e+06,0,0,0,28,4364
1.36356e+06,0,0,0,284,4108
1.36356e+06,0,0,0,28,4364
1.36358e+06,0,0,0,284,4108
1.3636e+06,0,0,0,540,3852
1.3636e+06,0,0,0,156,4236
1.36899e+06,0,0,0,1180,3212
1.369e+06,0,0,0,924,3468
1.369e+06,0,0,0,284,4108
1.37083e+06,0,0,0,808,3584
1.37084e+06,0,0,0,296,4096
1.37313e+06,0,0,0,2344,2048
1.37313e+06,0,0,0,1541,2851
1.37313e+06,0,0,0,1413,2979
1.37313e+06,0,0,0,1157,3235
1.37313e+06,0,0,0,1029,3363
1.37313e+06,0,0,0,773,3619
1.37313e+06,0,0,0,645,3747
1.37313e+06,0,0,0,517,3875
1.37313e+06,0,0,0,389,4003
1.37412e+06,0,0,0,773,3619
1.37413e+06,0,0,0,261,4131
1.3833e+06,0,0,0,389,4003
1.38408e+06,0,0,0,517,3875
1.38408e+06,0,0,0,645,3747
1.38408e+06,0,0,0,773,3619
1.38409e+06,0,0,0,261,4131
1.3841e+06,0,0,0,389,4003
1.38528e+06,0,0,0,645,3747
1.38528e+06,0,0,0,145,4247
1.38528e+06,0,0,0,17,4375
1.38535e+06,0,0,0,273,4119
1.38535e+06,0,0,0,145,4247
1.39089e+06,0,0,0,401,3991
1.39089e+06,0,0,0,145,4247
1.39089e+06,0,0,0,17,4375
1.3948e+06,0,0,0,273,4119
1.39481e+06,0,0,0,145,4247
1.39622e+06,0,0,0,273,4119
1.39627e+06,0,0,0,401,3991
1.39627e+06,0,0,0,113,4279
1.40307e+06,0,0,0,241,4151
1.40344e+06,0,0,0,753,3639
1.40344e+06,0,0,0,497,3895
1.40583e+06,0,0,0,625,3767
1.4067e+06,0,0,0,1137,3255
1.4067e+06,0,0,0,335,4057
1.4067e+06,0,0,0,79,4313
1.40697e+06,0,0,0,367,4025
1.40697e+06,0,0,0,111,4281
1.4092e+06,0,0,0,914,3478
1.4092e+06,0,0,0,658,3734
1.4092e+06,0,0,0,402,3990
1.4092e+06,0,0,0,401,3991
1.4092e+06,0,0,0,17,4375
1.41213e+06,0,0,0,657,3735
1.41269e+06,0,0,0,913,3479
1.41669e+06,0,0,0,1425,2967
1.41773e+06,0,0,0,1681,2711
1.41785e+06,0,0,0,2181,2211
1.41785e+06,0,0,0,133,4259
1.41785e+06,0,0,0,5,4387
1.41792e+06,0,0,0,261,4131
1.41792e+06,0,0,0,133,4259
1.41792e+06,0,0,0,5,4387
1.42014e+06,0,0,0,261,4131
1.42014e+06,0,0,0,133,4259
1.42014e+06,0,0,0,5,4387
1.4202e+06,0,0,0,261,4131
1.4202e+06,0,0,0,5,4387
1.42508e+06,0,0,0,261,4131
1.42509e+06,0,0,0,133,4259
1.42509e+06,0,0,0,5,4387
1.42815e+06,0,0,0,133,4259
1.42816e+06,0,0,0,5,4387
1.42864e+06,0,0,0,133,4259
1.42864e+06,0,0,0,5,4387
1.42877e+06,0,0,0,133,4259
1.42878e+06,0,0,0,5,4387
1.43107e+06,0,0,0,133,4259
1.43107e+06,0,0,0,5,4387
1.43119e+06,0,0,0,133,4259
1.43119e+06,0,0,0,5,4387
1.4356e+06,0,0,0,133,4259
1.4356e+06,0,0,0,5,4387
1.4361e+06,0,0,0,133,4259
1.4361e+06,0,0,0,5,4387
1.43913e+06,0,0,0,133,4259
1.43953e+06,0,0,0,261,4131
1.43971e+06,0,0,0,389,4003
1.44011e+06,0,0,0,2437,1955
1.44012e+06,0,0,0,389,4003
1.44181e+06,0,0,0,773,3619
1.44181e+06,0,0,0,261,4131
1.44188e+06,0,0,0,517,3875
1.44189e+06,0,0,0,5,4387
1.44208e+06,0,0,0,133,4259
1.44208e+06,0,0,0,261,4131
1.44669e+06,0,0,0,389,4003
1.44669e+06,0,0,0,69,4323
1.44707e+06,0,0,0,197,4195
1.44873e+06,0,0,0,999,3393
1.44873e+06,0,0,0,743,3649
1.44873e+06,0,0,0,487,3905
1.44873e+06,0,0,0,231,4161
1.45418e+06,0,0,0,743,3649
1.45418e+06,0,0,0,487,3905
1.45418e+06,0,0,0,231,4161
1.45418e+06,0,0,0,103,4289
1.46418e+06,0,0,0,231,4161
1.46849e+06,0,0,0,551,3841
1.46849e+06,0,0,0,295,4097
1.46849e+06,0,0,0,39,4353
1.47034e+06,0,0,0,295,4097
1.47034e+06,0,0,0,39,4353
1.47036e+06,0,0,0,295,4097
1.47036e+06,0,0,0,39,4353
1.47055e+06,0,0,0,295,4097
1.47056e+06,0,0,0,39,4353
1.47452e+06,0,0,0,551,3841
1.47453e+06,0,0,0,295,4097
1.47453e+06,0,0,0,39,4353
1.4759e+06,0,0,0,295,4097
1.47591e+06,0,0,0,39,4353
1.47599e+06,0,0,0,295,4097
1.476e+06,0,0,0,39,4353
1.48254e+06,0,0,0,40,4352
1.49027e+06,0,0,0,296,4096
1.49027e+06,0,0,0,40,4352
1.49148e+06,0,0,0,296,4096
1.49149e+06,0,0,0,40,4352
1.49216e+06,0,0,0,296,4096
1.49216e+06,0,0,0,40,4352
1.49219e+06,0,0,0,296,4096
1.49219e+06,0,0,0,40,4352
1.49241e+06,0,0,0,296,4096
1.49241e+06,0,0,0,40,4352
1.49633e+06,0,0,0,296,4096
1.49633e+06,0,0,0,40,4352
1.49751e+06,0,0,0,296,4096
1.49751e+06,0,0,0,40,4352
1.49767e+06,0,0,0,296,4096
1.49767e+06,0,0,0,158,4234
1.49767e+06,0,0,0,30,4362
1.49778e+06,0,0,0,286,4106
1.49778e+06,0,0,0,158,4234
1.49778e+06,0,0,0,30,4362
1.50832e+06,0,0,0,158,4234
1.50869e+06,0,0,0,286,4106
1.50916e+06,0,0,0,424,3968
1.5099e+06,0,0,0,552,3840
1.51212e+06,0,0,0,808,3584
1.51321e+06,0,0,0,1064,3328
1.51391e+06,0,0,0,1320,3072
1.51396e+06,0,0,0,1576,2816
1.51431e+06,0,0,0,1832,2560
1.51839e+06,0,0,0,2088,2304
1.5184e+06,0,0,0,40,4352
1.52065e+06,0,0,0,296,4096
1.52671e+06,0,0,0,2344,2048
1.52672e+06,0,0,0,296,4096
1.52672e+06,0,0,0,40,4352
1.52672e+06,0,0,0,39,4353
1.52672e+06,0,0,0,38,4354
1.52672e+06,0,0,0,37,4355
1.5485e+06,0,0,0,293,4099
1.54851e+06,0,0,0,37,4355
1.57037e+06,0,0,0,293,4099
1.57037e+06,0,0,0,37,4355
1.59215e+06,0,0,0,293,4099
1.59215e+06,0,0,0,165,4227
1.59215e+06,0,0,0,37,4355
1.59886e+06,0,0,0,38,4354
1.59893e+06,0,0,0,39,4353
1.60082e+06,0,0,0,40,4352
1.60265e+06,0,0,0,168,4224
1.6031e+06,0,0,0,296,4096
1.60506e+06,0,0,0,2344,2048
1.60507e+06,0,0,0,1704,2688
1.60507e+06,0,0,0,1320,3072
1.60507e+06,0,0,0,808,3584
1.60507e+06,0,0,0,680,3712
1.60507e+06,0,0,0,424,3968
1.60507e+06,0,0,0,168,4224
1.60823e+06,0,0,0,2216,2176
1.60824e+06,0,0,0,1960,2432
1.60824e+06,0,0,0,1704,2688
1.60824e+06,0,0,0,1448,2944
1.60824e+06,0,0,0,1192,3200
1.60824e+06,0,0,0,936,3456
1.60824e+06,0,0,0,424,3968
1.60824e+06,0,0,0,40,4352
1.61945e+06,0,0,0,552,3840
1.62634e+06,0,0,0,936,3456
1.62685e+06,0,0,0,1192,3200
1.62685e+06,0,0,0,168,4224
1.62779e+06,0,0,0,424,3968
1.62779e+06,0,0,0,168,4224
1.62998e+06,0,0,0,424,3968
1.62999e+06,0,0,0,680,3712
1.62999e+06,0,0,0,180,4212
1.63004e+06,0,0,0,436,3956
1.63005e+06,0,0,0,52,4340
1.63009e+06,0,0,0,308,4084
1.63009e+06,0,0,0,52,4340
1.6311e+06,0,0,0,308,4084
1.63762e+06,0,0,0,820,3572
1.63762e+06,0,0,0,308,4084
1.63765e+06,0,0,0,692,3700
1.63766e+06,0,0,0,52,4340
1.64766e+06,0,0,0,308,4084
1.64825e+06,0,0,0,948,3444
1.64826e+06,0,0,0,436,3956
1.64826e+06,0,0,0,180,4212
1.6483e+06,0,0,0,692,3700
1.64831e+06,0,0,0,436,3956
1.64831e+06,0,0,0,180,4212
1.65177e+06,0,0,0,436,3956
1.65177e+06,0,0,0,180,4212
1.65996e+06,0,0,0,436,3956
1.65996e+06,0,0,0,180,4212
1.65996e+06,0,0,0,52,4340
1.66253e+06,0,0,0,552,3840
1.66254e+06,0,0,0,424,3968
1.66254e+06,0,0,0,296,4096
1.66254e+06,0,0,0,168,4224
1.66273e+06,0,0,0,552,3840
1.66274e+06,0,0,0,296,4096
1.66274e+06,0,0,0,168,4224
1.66995e+06,0,0,0,424,3968
1.66995e+06,0,0,0,40,4352
1.67006e+06,0,0,0,296,4096
1.67006e+06,0,0,0,40,4352
1.67089e+06,0,0,0,168,4224
1.67349e+06,0,0,0,296,4096
1.6735e+06,0,0,0,424,3968
1.6735e+06,0,0,0,168,4224
1.67353e+06,0,0,0,296,4096
1.67353e+06,0,0,0,552,3840
1.67354e+06,0,0,0,296,4096
1.67354e+06,0,0,0,40,4352
1.67366e+06,0,0,0,168,4224
1.68076e+06,0,0,0,808,3584
1.68077e+06,0,0,0,322,4070
1.68077e+06,0,0,0,194,4198
1.68077e+06,0,0,0,66,4326
1.68081e+06,0,0,0,578,3814
1.68081e+06,0,0,0,66,4326
1.68163e+06,0,0,0,322,4070
1.68163e+06,0,0,0,194,4198
1.68163e+06,0,0,0,66,4326
1.68439e+06,0,0,0,322,4070
1.68439e+06,0,0,0,194,4198
1.68439e+06,0,0,0,66,4326
1.69161e+06,0,0,0,194,4198
1.69171e+06,0,0,0,322,4070
1.69182e+06,0,0,0,578,3814
1.69245e+06,0,0,0,706,3686
1.69265e+06,0,0,0,834,3558
1.69295e+06,0,0,0,1346,3046
1.69478e+06,0,0,0,1474,2918
1.69496e+06,0,0,0,1602,2790
1.69527e+06,0,0,0,1858,2534
1.69528e+06,0,0,0,2114,2278
1.69528e+06,0,0,0,66,4326
1.6953e+06,0,0,0,322,4070
1.6953e+06,0,0,0,194,4198
1.6953e+06,0,0,0,66,4326
1.70368e+06,0,0,0,450,3942
1.70574e+06,0,0,0,578,3814
1.70627e+06,0,0,0,706,3686
1.71333e+06,0,0,0,1192,3200
1.71334e+06,0,0,0,390,4002
1.71338e+06,0,0,0,1414,2978
1.71622e+06,0,0,0,3462,930
1.71623e+06,0,0,0,1414,2978
1.71623e+06,0,0,0,1286,3106
1.71623e+06,0,0,0,1158,3234
1.71623e+06,0,0,0,646,3746
1.71623e+06,0,0,0,518,3874
1.71623e+06,0,0,0,390,4002
1.71623e+06,0,0,0,262,4130
1.71623e+06,0,0,0,134,4258
1.71623e+06,0,0,0,6,4386
1.72636e+06,0,0,0,134,4258
1.72715e+06,0,0,0,262,4130
1.72716e+06,0,0,0,390,4002
1.72717e+06,0,0,0,518,3874
1.72719e+06,0,0,0,646,3746
1.72719e+06,0,0,0,774,3618
1.72723e+06,0,0,0,902,3490
1.72839e+06,0,0,0,1414,2978
1.73503e+06,0,0,0,2216,2176
1.73503e+06,0,0,0,168,4224
1.73503e+06,0,0,0,40,4352
1.74596e+06,0,0,0,168,4224
1.74596e+06,0,0,0,40,4352
1.75698e+06,0,0,0,168,4224
1.75698e+06,0,0,0,40,4352
1.76802e+06,0,0,0,168,4224
1.77397e+06,0,0,0,2216,2176
1.77397e+06,0,0,0,168,4224
1.77397e+06,0,0,0,40,4352
1.785e+06,0,0,0,168,4224
1.79276e+06,0,0,0,2216,2176
1.79277e+06,0,0,0,1960,2432
1.79277e+06,0,0,0,1704,2688
1.79277e+06,0,0,0,1240,3152
1.79277e+06,0,0,0,88,4304
1.81286e+06,0,0,0,344,4048
1.81286e+06,0,0,0,88,4304
1.81445e+06,0,0,0,552,3840
1.81445e+06,0,0,0,168,4224
1.81445e+06,0,0,0,40,4352
1.81449e+06,0,0,0,296,4096
1.81449e+06,0,0,0,48,4344
1.8254e+06,0,0,0,176,4216
1.82547e+06,0,0,0,424,3968
1.83176e+06,0,0,0,2472,1920
1.83176e+06,0,0,0,1832,2560
1.83176e+06,0,0,0,1576,2816
1.83176e+06,0,0,0,1320,3072
1.83176e+06,0,0,0,1064,3328
1.83176e+06,0,0,0,808,3584
1.83176e+06,0,0,0,552,3840
1.83176e+06,0,0,0,296,4096
1.83176e+06,0,0,0,40,4352
1.83466e+06,0,0,0,296,4096
1.83466e+06,0,0,0,104,4288
1.84428e+06,0,0,0,360,4032
1.84566e+06,0,0,0,552,3840
1.84566e+06,0,0,0,168,4224
1.84699e+06,0,0,0,552,3840
1.84699e+06,0,0,0,296,4096
1.84699e+06,0,0,0,40,4352
1.85336e+06,0,0,0,296,4096
1.85336e+06,0,0,0,40,4352
1.85339e+06,0,0,0,296,4096
1.85347e+06,0,0,0,552,3840
1.8535e+06,0,0,0,808,3584
1.8535e+06,0,0,0,1064,3328
1.85351e+06,0,0,0,40,4352
1.85357e+06,0,0,0,296,4096
1.85357e+06,0,0,0,168,4224
1.85357e+06,0,0,0,16,4376
1.86455e+06,0,0,0,144,4248
1.86583e+06,0,0,0,296,4096
1.86585e+06,0,0,0,552,3840
1.86996e+06,0,0,0,808,3584
1.86997e+06,0,0,0,1064,3328
1.86997e+06,0,0,0,40,4352
1.87608e+06,0,0,0,680,3712
1.87829e+06,0,0,0,1064,3328
1.87829e+06,0,0,0,40,4352
1.88061e+06,0,0,0,1192,3200
1.88061e+06,0,0,0,168,4224
1.88061e+06,0,0,0,40,4352
1.89124e+06,0,0,0,168,4224
1.89124e+06,0,0,0,40,4352
1.90344e+06,0,0,0,168,4224
1.90344e+06,0,0,0,40,4352
1.91444e+06,0,0,0,168,4224
1.91674e+06,0,0,0,1192,3200
1.91675e+06,0,0,0,168,4224
1.91675e+06,0,0,0,40,4352
1.92694e+06,0,0,0,168,4224
1.93772e+06,0,0,0,1192,3200
1.93772e+06,0,0,0,168,4224
1.95304e+06,0,0,0,1192,3200
1.95304e+06,0,0,0,168,4224
1.9613e+06,0,0,0,1192,3200
1.9613e+06,0,0,0,168,4224
1.96473e+06,0,0,0,40,4352
1.97572e+06,0,0,0,168,4224
1.98892e+06,0,0,0,1192,3200
1.98893e+06,0,0,0,168,4224
1.99326e+06,0,0,0,1192,3200
1.99327e+06,0,0,0,168,4224
2.00698e+06,0,0,0,1192,3200
2.00698e+06,0,0,0,168,4224
2.00886e+06,0,0,0,1192,3200
2.00886e+06,0,0,0,168,4224
2.01717e+06,0,0,0,1192,3200
2.01717e+06,0,0,0,168,4224
2.0251e+06,0,0,0,1192,3200
2.0251e+06,0,0,0,168,4224
2.02706e+06,0,0,0,1192,3200
2.02706e+06,0,0,0,168,4224
2.03135e+06,0,0,0,1192,3200
2.03135e+06,0,0,0,168,4224
2.03135e+06,0,0,0,167,4225
2.0374e+06,0,0,0,1191,3201
2.03741e+06,0,0,0,935,3457
2.03741e+06,0,0,0,133,4259
2.04121e+06,0,0,0,5,4387
2.04276e+06,0,0,0,1029,3363
2.04276e+06,0,0,0,5,4387
2.04926e+06,0,0,0,1029,3363
2.04926e+06,0,0,0,773,3619
2.04926e+06,0,0,0,517,3875
2.04926e+06,0,0,0,261,4131
2.04926e+06,0,0,0,5,4387
2.05214e+06,0,0,0,133,4259
2.05774e+06,0,0,0,1157,3235
2.05774e+06,0,0,0,901,3491
2.05774e+06,0,0,0,645,3747
2.05774e+06,0,0,0,389,4003
2.05774e+06,0,0,0,197,4195
2.05774e+06,0,0,0,5,4387
2.05915e+06,0,0,0,261,4131
2.05915e+06,0,0,0,5,4387
2.06023e+06,0,0,0,261,4131
2.06023e+06,0,0,0,5,4387
2.06803e+06,0,0,0,197,4195
2.06866e+06,0,0,0,389,4003
2.06866e+06,0,0,0,133,4259
2.07017e+06,0,0,0,389,4003
2.07018e+06,0,0,0,133,4259
2.07098e+06,0,0,0,389,4003
2.07099e+06,0,0,0,133,4259
2.07102e+06,0,0,0,389,4003
2.07102e+06,0,0,0,133,4259
2.07105e+06,0,0,0,389,4003
2.07119e+06,0,0,0,645,3747
2.07941e+06,0,0,0,901,3491
2.07943e+06,0,0,0,1157,3235
2.0795e+06,0,0,0,1413,2979
2.09032e+06,0,0,0,1669,2723
2.09191e+06,0,0,0,1925,2467
2.09276e+06,0,0,0,2181,2211
2.09276e+06,0,0,0,133,4259
2.09283e+06,0,0,0,389,4003
2.09283e+06,0,0,0,133,4259
2.09936e+06,0,0,0,1157,3235
2.09936e+06,0,0,0,133,4259
2.10342e+06,0,0,0,389,4003
2.10342e+06,0,0,0,133,4259
2.1046e+06,0,0,0,134,4258
2.11439e+06,0,0,0,390,4002
2.11954e+06,0,0,0,1414,2978
2.12394e+06,0,0,0,2216,2176
2.12395e+06,0,0,0,168,4224
2.12395e+06,0,0,0,167,4225
2.12395e+06,0,0,0,39,4353
2.13486e+06,0,0,0,167,4225
2.13487e+06,0,0,0,39,4353
2.14573e+06,0,0,0,167,4225
2.17929e+06,0,0,0,2215,2177
2.17929e+06,0,0,0,1715,2677
2.17929e+06,0,0,0,1203,3189
2.17929e+06,0,0,0,691,3701
2.17929e+06,0,0,0,690,3702
2.17929e+06,0,0,0,434,3958
2.17929e+06,0,0,0,306,4086
2.17929e+06,0,0,0,178,4214
2.18989e+06,0,0,0,306,4086
2.19024e+06,0,0,0,434,3958
2.19029e+06,0,0,0,690,3702
2.19609e+06,0,0,0,691,3701
2.21048e+06,0,0,0,2739,1653
2.21048e+06,0,0,0,1715,2677
2.21048e+06,0,0,0,691,3701
2.21183e+06,0,0,0,1191,3201
2.21184e+06,0,0,0,167,4225
2.21184e+06,0,0,0,679,3713
2.2119e+06,0,0,0,1191,3201
2.2119e+06,0,0,0,167,4225
2.2119e+06,0,0,0,166,4226
2.22449e+06,0,0,0,167,4225
2.22983e+06,0,0,0,39,4353
2.23308e+06,0,0,0,167,4225
2.23772e+06,0,0,0,39,4353
2.24076e+06,0,0,0,167,4225
2.24128e+06,0,0,0,39,4353
2.24864e+06,0,0,0,167,4225
2.25142e+06,0,0,0,168,4224
2.25205e+06,0,0,0,296,4096
2.25205e+06,0,0,0,40,4352
2.27388e+06,0,0,0,296,4096
2.27388e+06,0,0,0,40,4352
2.29558e+06,0,0,0,296,4096
2.29599e+06,0,0,0,1320,3072
2.29599e+06,0,0,0,936,3456
2.29599e+06,0,0,0,552,3840
2.29614e+06,0,0,0,1576,2816
2.29614e+06,0,0,0,424,3968
2.29673e+06,0,0,0,1448,2944
2.29673e+06,0,0,0,2472,1920
2.29674e+06,0,0,0,424,3968
2.29674e+06,0,0,0,40,4352
2.30732e+06,0,0,0,424,3968
2.30732e+06,0,0,0,40,4352
2.31607e+06,0,0,0,424,3968
2.31607e+06,0,0,0,100,4292
2.32049e+06,0,0,0,484,3908
2.3205e+06,0,0,0,160,4232
2.32738e+06,0,0,0,484,3908
2.32739e+06,0,0,0,160,4232
2.32803e+06,0,0,0,2208,2184
2.32804e+06,0,0,0,1884,2508
2.32804e+06,0,0,0,1560,2832
2.32804e+06,0,0,0,1236,3156
2.32804e+06,0,0,0,980,3412
2.32804e+06,0,0,0,852,3540
2.32804e+06,0,0,0,724,3668
2.32804e+06,0,0,0,4,4388
2.32852e+06,0,0,0,388,4004
2.32853e+06,0,0,0,260,4132
2.32853e+06,0,0,0,132,4260
2.32853e+06,0,0,0,4,4388
2.33177e+06,0,0,0,328,4064
2.33177e+06,0,0,0,200,4192
2.33867e+06,0,0,0,524,3868
2.33868e+06,0,0,0,200,4192
2.33899e+06,0,0,0,328,4064
2.33899e+06,0,0,0,4,4388
2.33905e+06,0,0,0,132,4260
2.33927e+06,0,0,0,456,3936
2.33927e+06,0,0,0,132,4260
2.33931e+06,0,0,0,456,3936
2.33936e+06,0,0,0,780,3612
2.33936e+06,0,0,0,268,4124
2.33943e+06,0,0,0,396,3996
2.33943e+06,0,0,0,72,4320
2.33944e+06,0,0,0,200,4192
2.33944e+06,0,0,0,328,4064
2.34255e+06,0,0,0,456,3936
2.34329e+06,0,0,0,1176,3216
2.34329e+06,0,0,0,664,3728
2.34329e+06,0,0,0,536,3856
2.34329e+06,0,0,0,408,3984
2.34329e+06,0,0,0,280,4112
2.34329e+06,0,0,0,152,4240
2.34329e+06,0,0,0,24,4368
2.34976e+06,0,0,0,280,4112
2.35e+06,0,0,0,604,3788
2.35e+06,0,0,0,280,4112
2.35029e+06,0,0,0,604,3788
2.35029e+06,0,0,0,280,4112
2.35061e+06,0,0,0,604,3788
2.35089e+06,0,0,0,928,3464
2.35089e+06,0,0,0,208,4184
2.35089e+06,0,0,0,80,4312
2.35425e+06,0,0,0,208,4184
2.35426e+06,0,0,0,336,4056
2.35426e+06,0,0,0,80,4312
2.35426e+06,0,0,0,208,4184
2.35429e+06,0,0,0,336,4056
2.35429e+06,0,0,0,80,4312
2.35435e+06,0,0,0,208,4184
2.35435e+06,0,0,0,80,4312
2.36125e+06,0,0,0,404,3988
2.36125e+06,0,0,0,276,4116
2.36125e+06,0,0,0,148,4244
2.36125e+06,0,0,0,20,4372
2.36182e+06,0,0,0,344,4048
2.36185e+06,0,0,0,472,3920
2.36388e+06,0,0,0,1192,3200
2.36389e+06,0,0,0,168,4224
2.36526e+06,0,0,0,296,4096
2.37189e+06,0,0,0,808,3584
2.37218e+06,0,0,0,936,3456
2.37221e+06,0,0,0,1064,3328
2.37221e+06,0,0,0,40,4352
2.37221e+06,0,0,0,168,4224
2.37246e+06,0,0,0,424,3968
2.37247e+06,0,0,0,680,3712
2.3759e+06,0,0,0,1192,3200
2.3759e+06,0,0,0,168,4224
2.38016e+06,0,0,0,1320,3072
2.38016e+06,0,0,0,296,4096
2.38016e+06,0,0,0,168,4224
2.38016e+06,0,0,0,40,4352
2.39111e+06,0,0,0,168,4224
2.39111e+06,0,0,0,40,4352
2.39115e+06,0,0,0,168,4224
2.39115e+06,0,0,0,40,4352
2.40193e+06,0,0,0,168,4224
2.40332e+06,0,0,0,296,4096
2.40332e+06,0,0,0,40,4352
2.41366e+06,0,0,0,1064,3328
2.41366e+06,0,0,0,740,3652
2.41366e+06,0,0,0,484,3908
2.41366e+06,0,0,0,228,4164
2.41918e+06,0,0,0,1252,3140
2.41918e+06,0,0,0,996,3396
2.41918e+06,0,0,0,740,3652
2.41918e+06,0,0,0,484,3908
2.41918e+06,0,0,0,483,3909
2.41918e+06,0,0,0,227,4165
2.42152e+06,0,0,0,483,3909
2.42152e+06,0,0,0,99,4293
2.42524e+06,0,0,0,423,3969
2.42525e+06,0,0,0,167,4225
2.4261e+06,0,0,0,1191,3201
2.4261e+06,0,0,0,935,3457
2.4261e+06,0,0,0,679,3713
2.4261e+06,0,0,0,423,3969
2.4261e+06,0,0,0,167,4225
2.43115e+06,0,0,0,423,3969
2.43116e+06,0,0,0,167,4225
2.43185e+06,0,0,0,423,3969
2.43185e+06,0,0,0,167,4225
2.43187e+06,0,0,0,1191,3201
2.43187e+06,0,0,0,935,3457
2.43187e+06,0,0,0,679,3713
2.43544e+06,0,0,0,935,3457
2.43702e+06,0,0,0,1191,3201
2.43708e+06,0,0,0,1447,2945
2.43713e+06,0,0,0,1703,2689
2.43745e+06,0,0,0,1959,2433
2.43845e+06,0,0,0,2215,2177
2.43845e+06,0,0,0,167,4225
2.44093e+06,0,0,0,423,3969
2.44093e+06,0,0,0,167,4225
2.44093e+06,0,0,0,39,4353
2.44094e+06,0,0,0,295,4097
2.441e+06,0,0,0,551,3841
2.44327e+06,0,0,0,935,3457
2.45194e+06,0,0,0,1063,3329
2.45291e+06,0,0,0,1319,3073
2.45291e+06,0,0,0,167,4225
2.45291e+06,0,0,0,166,4226
2.45355e+06,0,0,0,422,3970
2.45359e+06,0,0,0,678,3714
2.45363e+06,0,0,0,934,3458
2.45593e+06,0,0,0,606,3786
2.45593e+06,0,0,0,278,4114
2.46267e+06,0,0,0,534,3858
2.46267e+06,0,0,0,206,4186
2.46267e+06,0,0,0,78,4314
2.47477e+06,0,0,0,206,4186
2.47771e+06,0,0,0,534,3858
2.47771e+06,0,0,0,206,4186
2.47891e+06,0,0,0,534,3858
2.47891e+06,0,0,0,206,4186
2.48447e+06,0,0,0,534,3858
2.48447e+06,0,0,0,206,4186
2.48447e+06,0,0,0,78,4314
2.49247e+06,0,0,0,79,4313
2.49658e+06,0,0,0,207,4185
2.49958e+06,0,0,0,535,3857
2.49959e+06,0,0,0,207,4185
2.50072e+06,0,0,0,535,3857
2.50073e+06,0,0,0,207,4185
2.50623e+06,0,0,0,535,3857
2.50623e+06,0,0,0,207,4185
2.50623e+06,0,0,0,79,4313
2.51809e+06,0,0,0,207,4185
2.52134e+06,0,0,0,535,3857
2.52134e+06,0,0,0,207,4185
2.52159e+06,0,0,0,2255,2137
2.5216e+06,0,0,0,1999,2393
2.5216e+06,0,0,0,1615,2777
2.5216e+06,0,0,0,1115,3277
2.5216e+06,0,0,0,987,3405
2.5216e+06,0,0,0,663,3729
2.5216e+06,0,0,0,339,4053
2.5216e+06,0,0,0,83,4309
2.52257e+06,0,0,0,411,3981
2.52258e+06,0,0,0,155,4237
2.52512e+06,0,0,0,156,4236
2.528e+06,0,0,0,484,3908
2.52801e+06,0,0,0,228,4164
2.53255e+06,0,0,0,356,4036
2.53256e+06,0,0,0,100,4292
2.53286e+06,0,0,0,424,3968
2.53286e+06,0,0,0,168,4224
2.53301e+06,0,0,0,492,3900
2.53301e+06,0,0,0,236,4156
2.53609e+06,0,0,0,1388,3004
2.53609e+06,0,0,0,1132,3260
2.53609e+06,0,0,0,876,3516
2.53609e+06,0,0,0,620,3772
2.53609e+06,0,0,0,364,4028
2.53609e+06,0,0,0,236,4156
2.53609e+06,0,0,0,108,4284
2.54209e+06,0,0,0,364,4028
2.54209e+06,0,0,0,236,4156
2.54209e+06,0,0,0,108,4284
2.54259e+06,0,0,0,364,4028
2.54259e+06,0,0,0,236,4156
2.54259e+06,0,0,0,108,4284
2.54309e+06,0,0,0,436,3956
2.54309e+06,0,0,0,308,4084
2.54459e+06,0,0,0,564,3828
2.54459e+06,0,0,0,180,4212
2.547e+06,0,0,0,308,4084
2.54701e+06,0,0,0,52,4340
2.54701e+06,0,0,0,51,4341
2.54702e+06,0,0,0,179,4213
2.54736e+06,0,0,0,563,3829
2.54736e+06,0,0,0,63,4329
2.54865e+06,0,0,0,319,4073
2.54865e+06,0,0,0,191,4201
2.55189e+06,0,0,0,447,3945
2.55189e+06,0,0,0,63,4329
2.55211e+06,0,0,0,319,4073
2.55286e+06,0,0,0,575,3817
2.55287e+06,0,0,0,191,4201
2.55299e+06,0,0,0,319,4073
2.55351e+06,0,0,0,447,3945
2.55352e+06,0,0,0,63,4329
2.55354e+06,0,0,0,191,4201
2.55401e+06,0,0,0,319,4073
2.55415e+06,0,0,0,819,3573
2.55416e+06,0,0,0,435,3957
2.55416e+06,0,0,0,51,4341
2.55422e+06,0,0,0,179,4213
2.55527e+06,0,0,0,435,3957
2.55528e+06,0,0,0,51,4341
2.55553e+06,0,0,0,307,4085
2.55581e+06,0,0,0,563,3829
2.55582e+06,0,0,0,179,4213
2.55584e+06,0,0,0,435,3957
2.55584e+06,0,0,0,51,4341
2.55963e+06,0,0,0,179,4213
2.56725e+06,0,0,0,563,3829
2.56725e+06,0,0,0,239,4153
2.56725e+06,0,0,0,111,4281
2.56884e+06,0,0,0,367,4025
2.56884e+06,0,0,0,239,4153
2.56884e+06,0,0,0,111,4281
2.57134e+06,0,0,0,495,3897
2.57135e+06,0,0,0,367,4025
2.57135e+06,0,0,0,239,4153
2.57135e+06,0,0,0,111,4281
2.57448e+06,0,0,0,495,3897
2.57449e+06,0,0,0,239,4153
2.5747e+06,0,0,0,623,3769
2.57471e+06,0,0,0,299,4093
2.57522e+06,0,0,0,683,3709
2.57523e+06,0,0,0,359,4033
2.57523e+06,0,0,0,231,4161
2.57523e+06,0,0,0,103,4289
2.57576e+06,0,0,0,487,3905
2.57576e+06,0,0,0,359,4033
2.57576e+06,0,0,0,231,4161
2.57586e+06,0,0,0,615,3777
2.57586e+06,0,0,0,359,4033
2.57586e+06,0,0,0,103,4289
2.57672e+06,0,0,0,487,3905
2.57672e+06,0,0,0,231,4161
2.57689e+06,0,0,0,615,3777
2.57689e+06,0,0,0,359,4033
2.57827e+06,0,0,0,487,3905
2.57852e+06,0,0,0,811,3581
2.57976e+06,0,0,0,939,3453
2.57978e+06,0,0,0,1067,3325
2.57994e+06,0,0,0,1567,2825
2.58198e+06,0,0,0,1695,2697
2.58229e+06,0,0,0,1823,2569
2.5823e+06,0,0,0,1951,2441
2.58597e+06,0,0,0,2275,2117
2.58616e+06,0,0,0,2403,1989
2.58618e+06,0,0,0,2531,1861
2.58664e+06,0,0,0,2855,1537
2.58672e+06,0,0,0,2983,1409
2.58675e+06,0,0,0,3111,1281
2.58864e+06,0,0,0,2983,1409
2.58875e+06,0,0,0,2855,1537
2.59401e+06,0,0,0,3111,1281
2.59402e+06,0,0,0,3367,1025
2.59621e+06,0,0,0,3623,769
2.59848e+06,0,0,0,3879,513
2.59858e+06,0,0,0,4135,257
2.59963e+06,0,0,0,4263,129
2.59967e+06,0,0,0,4391,1
2.60215e+06,0,0,0,3879,513
2.60593e+06,0,0,0,3623,769
2.60636e+06,0,0,0,3367,1025
2.60669e+06,0,0,0,3239,1153
2.60835e+06,0,0,0,3111,1281
2.60884e+06,0,0,0,3110,1282
2.61052e+06,0,0,0,2726,1666
2.6114e+06,0,0,0,2342,2050
2.61244e+06,0,0,0,2086,2306
2.6177e+06,0,0,0,2214,2178
2.6192e+06,0,0,0,2215,2177
2.61935e+06,0,0,0,2343,2049
2.62043e+06,0,0,0,2855,1537
2.62377e+06,0,0,0,2471,1921
2.62449e+06,0,0,0,1447,2945
2.6245e+06,0,0,0,423,3969
2.62633e+06,0,0,0,295,4097
2.62732e+06,0,0,0,167,4225
2.62745e+06,0,0,0,39,4353
2.62764e+06,0,0,0,295,4097
2.62813e+06,0,0,0,551,3841
2.63333e+06,0,0,0,423,3969
2.63367e+06,0,0,0,295,4097
2.63421e+06,0,0,0,551,3841
2.6345e+06,0,0,0,423,3969
2.63452e+06,0,0,0,295,4097
2.63458e+06,0,0,0,167,4225
2.6363e+06,0,0,0,551,3841
2.63666e+06,0,0,0,679,3713
2.63697e+06,0,0,0,1063,3329
2.63765e+06,0,0,0,1191,3201
2.63782e+06,0,0,0,1319,3073
2.64347e+06,0,0,0,2343,2049
2.64362e+06,0,0,0,3367,1025
2.64402e+06,0,0,0,3751,641
2.64427e+06,0,0,0,3879,513
2.64466e+06,0,0,0,4007,385
2.64482e+06,0,0,0,4135,257
2.64493e+06,0,0,0,4263,129
2.64496e+06,0,0,0,4391,1
2.64641e+06,0,0,0,3891,501
2.64844e+06,0,0,0,3763,629
2.64918e+06,0,0,0,3635,757
2.64925e+06,0,0,0,3507,885
2.64938e+06,0,0,0,3379,1013
2.6496e+06,0,0,0,3251,1141
2.64964e+06,0,0,0,3123,1269
2.64968e+06,0,0,0,2995,1397
2.65003e+06,0,0,0,2867,1525
2.65014e+06,0,0,0,2739,1653
2.65779e+06,0,0,0,2611,1781
2.65909e+06,0,0,0,2483,1909
2.65942e+06,0,0,0,2611,1781
2.65954e+06,0,0,0,2739,1653
2.65956e+06,0,0,0,2867,1525
2.65972e+06,0,0,0,2995,1397
2.65998e+06,0,0,0,3123,1269
2.65998e+06,0,0,0,3251,1141
2.66004e+06,0,0,0,3379,1013
2.66037e+06,0,0,0,3507,885
2.66049e+06,0,0,0,3635,757
2.66857e+06,0,0,0,4135,257
2.66875e+06,0,0,0,4263,129
2.67006e+06,0,0,0,4391,1
2.68105e+06,0,0,0,4392,0
2.68837e+06,0,0,0,4136,256
2.68897e+06,0,0,0,4008,384
2.68924e+06,0,0,0,3336,1056
2.68927e+06,0,0,0,2664,1728
2.6893e+06,0,0,0,1992,2400
2.69002e+06,0,0,0,1736,2656
2.69039e+06,0,0,0,1480,2912
2.69262e+06,0,0,0,1352,3040
2.69284e+06,0,0,0,1224,3168
2.69299e+06,0,0,0,1096,3296
2.6931e+06,0,0,0,968,3424
2.6935e+06,0,0,0,840,3552
2.69353e+06,0,0,0,712,3680
2.69356e+06,0,0,0,584,3808
2.69426e+06,0,0,0,456,3936
2.6947e+06,0,0,0,455,3937
2.701e+06,0,0,0,583,3809
2.70131e+06,0,0,0,1255,3137
2.70166e+06,0,0,0,871,3521
2.70185e+06,0,0,0,743,3649
2.70194e+06,0,0,0,487,3905
2.702e+06,0,0,0,1159,3233
2.70204e+06,0,0,0,1831,2561
2.70217e+06,0,0,0,2087,2305
2.703e+06,0,0,0,2215,2177
2.70317e+06,0,0,0,2343,2049
2.70334e+06,0,0,0,2471,1921
2.70347e+06,0,0,0,2599,1793
2.70389e+06,0,0,0,2727,1665
2.7039e+06,0,0,0,2855,1537
2.70459e+06,0,0,0,2983,1409
2.7051e+06,0,0,0,3111,1281
2.70598e+06,0,0,0,2855,1537
2.7082e+06,0,0,0,2856,1536
2.70828e+06,0,0,0,2855,1537
2.70854e+06,0,0,0,3111,1281
2.70999e+06,0,0,0,3367,1025
2.71232e+06,0,0,0,2983,1409
2.71287e+06,0,0,0,3111,1281
2.71526e+06,0,0,0,2855,1537
2.72358e+06,0,0,0,3111,1281
2.7276e+06,0,0,0,3367,1025
2.73147e+06,0,0,0,3751,641
2.73703e+06,0,0,0,4007,385
2.74403e+06,0,0,0,3507,885
2.74609e+06,0,0,0,3891,501
2.75041e+06,0,0,0,3567,825
2.75476e+06,0,0,0,3439,953
2.75928e+06,0,0,0,2637,1755
2.76255e+06,0,0,0,2509,1883
2.76276e+06,0,0,0,2381,2011
2.76288e+06,0,0,0,2253,2139
2.76403e+06,0,0,0,2125,2267
2.76497e+06,0,0,0,2449,1943
2.76572e+06,0,0,0,2577,1815
2.77292e+06,0,0,0,2705,1687
2.77315e+06,0,0,0,2833,1559
2.77326e+06,0,0,0,2961,1431
2.77439e+06,0,0,0,3089,1303
2.77656e+06,0,0,0,3589,803
2.78155e+06,0,0,0,3590,802
2.78292e+06,0,0,0,3462,930
2.78296e+06,0,0,0,3334,1058
2.78821e+06,0,0,0,4136,256
2.79393e+06,0,0,0,4264,128
2.79396e+06,0,0,0,4392,0
2.79558e+06,0,0,0,4264,128
2.80591e+06,0,0,0,4392,0
2.80793e+06,0,0,0,4136,256
2.8223e+06,0,0,0,3812,580
2.82266e+06,0,0,0,3684,708
2.82572e+06,0,0,0,3556,836
2.82594e+06,0,0,0,3428,964
2.8278e+06,0,0,0,3300,1092
2.82959e+06,0,0,0,3556,836
2.83298e+06,0,0,0,3684,708
2.83683e+06,0,0,0,4008,384
2.83695e+06,0,0,0,4136,256
2.83806e+06,0,0,0,4264,128
2.83875e+06,0,0,0,4392,0
2.85505e+06,0,0,0,4264,128
2.85545e+06,0,0,0,4136,256
2.85546e+06,0,0,0,4008,384
2.85547e+06,0,0,0,3880,512
2.85567e+06,0,0,0,3752,640
2.85583e+06,0,0,0,3624,768
2.8654e+06,0,0,0,3752,640
2.8658e+06,0,0,0,3880,512
2.86581e+06,0,0,0,4008,384
2.86581e+06,0,0,0,4136,256
2.86618e+06,0,0,0,4264,128
2.8663e+06,0,0,0,4392,0
2.8668e+06,0,0,0,4136,256
2.88376e+06,0,0,0,40,4352
2.88852e+06,0,0,0,296,4096
2.89457e+06,0,0,0,4392,0
2.89457e+06,0,0,0,3880,512
2.89457e+06,0,0,0,3752,640
2.89457e+06,0,0,0,3624,768
2.90225e+06,0,0,0,2600,1792
2.90234e+06,0,0,0,1576,2816
2.90241e+06,0,0,0,552,3840
2.90493e+06,0,0,0,680,3712
2.90495e+06,0,0,0,808,3584
2.90552e+06,0,0,0,1320,3072
2.90553e+06,0,0,0,296,4096
2.90553e+06,0,0,0,40,4352
2.92721e+06,0,0,0,296,4096
2.92721e+06,0,0,0,40,4352
2.94845e+06,0,0,0,296,4096
2.94845e+06,0,0,0,40,4352
2.97018e+06,0,0,0,296,4096
2.97018e+06,0,0,0,168,4224
2.98054e+06,0,0,0,296,4096
2.98777e+06,0,0,0,1320,3072
2.98777e+06,0,0,0,296,4096
2.98788e+06,0,0,0,1320,3072
2.98788e+06,0,0,0,296,4096
2.98916e+06,0,0,0,1320,3072
2.98917e+06,0,0,0,296,4096
2.99106e+06,0,0,0,1320,3072
2.99107e+06,0,0,0,296,4096
2.99107e+06,0,0,0,40,4352
3.01285e+06,0,0,0,296,4096
3.01285e+06,0,0,0,40,4352
3.03458e+06,0,0,0,296,4096
3.03561e+06,0,0,0,40,4352
3.05373e+06,0,0,0,296,4096
3.05373e+06,0,0,0,40,4352
3.07181e+06,0,0,0,296,4096
3.07261e+06,0,0,0,1320,3072
3.07271e+06,0,0,0,2344,2048
3.07271e+06,0,0,0,296,4096
3.07401e+06,0,0,0,1320,3072
3.07401e+06,0,0,0,996,3396
3.07401e+06,0,0,0,672,3720
3.07591e+06,0,0,0,1696,2696
3.07591e+06,0,0,0,672,3720
3.07591e+06,0,0,0,416,3976
3.07591e+06,0,0,0,160,4232
3.07591e+06,0,0,0,32,4360
3.08522e+06,0,0,0,356,4036
3.08533e+06,0,0,0,680,3712
3.08682e+06,0,0,0,936,3456
3.08684e+06,0,0,0,1064,3328
3.08684e+06,0,0,0,40,4352
3.08684e+06,0,0,0,39,4353
3.08686e+06,0,0,0,295,4097
3.08686e+06,0,0,0,39,4353
3.10843e+06,0,0,0,295,4097
3.12758e+06,0,0,0,39,4353
3.14917e+06,0,0,0,295,4097
3.14917e+06,0,0,0,167,4225
3.14917e+06,0,0,0,39,4353
3.1595e+06,0,0,0,167,4225
3.16007e+06,0,0,0,295,4097
3.16007e+06,0,0,0,296,4096
3.16011e+06,0,0,0,1320,3072
3.16012e+06,0,0,0,296,4096
3.1604e+06,0,0,0,2344,2048
3.16041e+06,0,0,0,296,4096
3.16987e+06,0,0,0,1320,3072
3.16988e+06,0,0,0,992,3400
3.16988e+06,0,0,0,608,3784
3.16988e+06,0,0,0,224,4168
3.16988e+06,0,0,0,96,4296
3.1802e+06,0,0,0,224,4168
3.18945e+06,0,0,0,608,3784
3.18945e+06,0,0,0,224,4168
3.19163e+06,0,0,0,552,3840
3.19164e+06,0,0,0,168,4224
3.20243e+06,0,0,0,552,3840
3.20243e+06,0,0,0,168,4224
3.20873e+06,0,0,0,552,3840
3.20873e+06,0,0,0,168,4224
3.21099e+06,0,0,0,552,3840
3.21099e+06,0,0,0,168,4224
3.21813e+06,0,0,0,2216,2176
3.21814e+06,0,0,0,1832,2560
3.21814e+06,0,0,0,1448,2944
3.21814e+06,0,0,0,1064,3328
3.21814e+06,0,0,0,680,3712
3.21814e+06,0,0,0,8,4384
3.22209e+06,0,0,0,392,4000
3.2221e+06,0,0,0,216,4176
3.2221e+06,0,0,0,88,4304
3.22922e+06,0,0,0,472,3920
3.23026e+06,0,0,0,856,3536
3.23085e+06,0,0,0,1528,2864
3.23085e+06,0,0,0,504,3888
3.23085e+06,0,0,0,503,3889
3.23085e+06,0,0,0,247,4145
3.23294e+06,0,0,0,423,3969
3.23295e+06,0,0,0,167,4225
3.23295e+06,0,0,0,39,4353
3.23302e+06,0,0,0,167,4225
3.23734e+06,0,0,0,551,3841
3.2374e+06,0,0,0,935,3457
3.23748e+06,0,0,0,1319,3073
3.23748e+06,0,0,0,295,4097
3.24313e+06,0,0,0,1319,3073
3.24314e+06,0,0,0,935,3457
3.24314e+06,0,0,0,551,3841
3.24314e+06,0,0,0,167,4225
3.24386e+06,0,0,0,295,4097
3.24766e+06,0,0,0,1319,3073
3.24766e+06,0,0,0,935,3457
3.24766e+06,0,0,0,551,3841
3.24766e+06,0,0,0,167,4225
3.25071e+06,0,0,0,551,3841
3.25071e+06,0,0,0,167,4225
3.25227e+06,0,0,0,1191,3201
3.25227e+06,0,0,0,807,3585
3.25227e+06,0,0,0,423,3969
3.25227e+06,0,0,0,167,4225
3.25227e+06,0,0,0,39,4353
3.25244e+06,0,0,0,295,4097
3.25244e+06,0,0,0,39,4353
3.25453e+06,0,0,0,295,4097
3.2625e+06,0,0,0,679,3713
3.26253e+06,0,0,0,1063,3329
3.26253e+06,0,0,0,39,4353
3.26254e+06,0,0,0,423,3969
3.26297e+06,0,0,0,679,3713
3.26323e+06,0,0,0,807,3585
3.2669e+06,0,0,0,1191,3201
3.2669e+06,0,0,0,167,4225
3.2669e+06,0,0,0,166,4226
3.26693e+06,0,0,0,550,3842
3.26693e+06,0,0,0,294,4098
3.26693e+06,0,0,0,38,4354
3.26701e+06,0,0,0,422,3970
3.2699e+06,0,0,0,806,3586
3.26991e+06,0,0,0,294,4098
3.27147e+06,0,0,0,678,3714
3.27186e+06,0,0,0,1062,3330
3.27186e+06,0,0,0,6,4386
3.27415e+06,0,0,0,262,4130
3.27415e+06,0,0,0,6,4386
3.28841e+06,0,0,0,1030,3362
3.28842e+06,0,0,0,902,3490
3.2885e+06,0,0,0,1158,3234
3.28857e+06,0,0,0,1414,2978
3.2956e+06,0,0,0,1670,2722
3.29935e+06,0,0,0,1798,2594
3.29991e+06,0,0,0,1797,2595
3.30199e+06,0,0,0,1029,3363
3.30217e+06,0,0,0,901,3491
3.30243e+06,0,0,0,1413,2979
3.30294e+06,0,0,0,1414,2978
3.3079e+06,0,0,0,2470,1922
3.30982e+06,0,0,0,1958,2434
3.31125e+06,0,0,0,1830,2562
3.31192e+06,0,0,0,1574,2818
3.31207e+06,0,0,0,1318,3074
3.31308e+06,0,0,0,1446,2946
3.31608e+06,0,0,0,1318,3074
3.31689e+06,0,0,0,294,4098
3.31843e+06,0,0,0,38,4354
3.32222e+06,0,0,0,166,4226
3.32223e+06,0,0,0,38,4354
3.3236e+06,0,0,0,806,3586
3.32701e+06,0,0,0,934,3458
3.33275e+06,0,0,0,1446,2946
3.33303e+06,0,0,0,1574,2818
3.3335e+06,0,0,0,1830,2562
3.33365e+06,0,0,0,2086,2306
3.33856e+06,0,0,0,3110,1282
3.33901e+06,0,0,0,3111,1281
3.34008e+06,0,0,0,3367,1025
3.34904e+06,0,0,0,4391,1
3.37314e+06,0,0,0,4392,0
