time,nb_sleeping,nb_switching_on,nb_switching_off,nb_idle,nb_computing
0.00240003,0,0,0,4008,384
0.00300004,0,0,0,3880,512
0.00360005,0,0,0,3752,640
0.00420006,0,0,0,3624,768
0.00480006,0,0,0,3432,960
0.00540007,0,0,0,3240,1152
0.00600008,0,0,0,2916,1476
0.00660009,0,0,0,2592,1800
0.0072001,0,0,0,2464,1928
0.0078001,0,0,0,2208,2184
0.00840011,0,0,0,1952,2440
0.00900012,0,0,0,1628,2764
0.00960013,0,0,0,1116,3276
0.0102001,0,0,0,988,3404
0.0108001,0,0,0,860,3532
0.0114002,0,0,0,668,3724
0.0120002,0,0,0,412,3980
0.0126002,0,0,0,284,4108
0.0132002,0,0,0,156,4236
0.0138002,0,0,0,28,4364
5716.01,0,0,0,284,4108
6383.01,0,0,0,412,3980
6434.01,0,0,0,540,3852
6437.01,0,0,0,28,4364
7334.01,0,0,0,284,4108
7336.01,0,0,0,412,3980
7340.01,0,0,0,220,4172
7340.02,0,0,0,28,4364
7443.01,0,0,0,156,4236
8315.01,0,0,0,348,4044
8318.01,0,0,0,92,4300
8408.01,0,0,0,220,4172
8981.01,0,0,0,412,3980
8984.01,0,0,0,88,4304
9099,0,0,0,216,4176
9254,0,0,0,408,3984
9257.01,0,0,0,152,4240
10895,0,0,0,280,4112
10898,0,0,0,24,4368
10900,0,0,0,152,4240
10932,0,0,0,408,3984
10935,0,0,0,152,4240
10990,0,0,0,280,4112
10993,0,0,0,24,4368
11107,0,0,0,348,4044
11386,0,0,0,672,3720
11389,0,0,0,288,4104
11389,0,0,0,32,4360
14539,0,0,0,356,4036
14542,0,0,0,228,4164
14542,0,0,0,100,4292
16018,0,0,0,292,4100
16021,0,0,0,164,4228
17939,0,0,0,356,4036
19238,0,0,0,612,3780
19415,0,0,0,868,3524
20063,0,0,0,1192,3200
20066,0,0,0,168,4224
20742,0,0,0,424,3968
20745,0,0,0,168,4224
23056,0,0,0,424,3968
23059,0,0,0,168,4224
25402,0,0,0,424,3968
25405,0,0,0,100,4292
25415,0,0,0,228,4164
25418,0,0,0,36,4356
25444,0,0,0,164,4228
25447,0,0,0,36,4356
25531,0,0,0,292,4100
25534,0,0,0,164,4228
26818,0,0,0,292,4100
28189,0,0,0,804,3588
28192,0,0,0,420,3972
28192,0,0,0,164,4228
32495,0,0,0,676,3716
32498,0,0,0,484,3908
32498,0,0,0,100,4292
32498,0,0,0,99,4293
32521,0,0,0,483,3909
32524,0,0,0,227,4165
33686,0,0,0,419,3973
33689,0,0,0,163,4229
33906,0,0,0,1187,3205
33909,0,0,0,995,3397
33909,0,0,0,867,3525
33909,0,0,0,611,3781
33909,0,0,0,287,4105
33909,0,0,0,286,4106
33909,0,0,0,158,4234
33971,0,0,0,286,4106
33974,0,0,0,30,4362
34173,0,0,0,286,4106
34176,0,0,0,158,4234
35443,0,0,0,286,4106
35446,0,0,0,94,4298
36409,0,0,0,418,3974
40944,0,0,0,419,3973
41279,0,0,0,611,3781
41282,0,0,0,99,4293
42338,0,0,0,355,4037
42341,0,0,0,227,4165
42341,0,0,0,99,4293
42379,0,0,0,227,4165
42382,0,0,0,35,4357
42661,0,0,0,227,4165
43379,0,0,0,419,3973
43382,0,0,0,95,4297
43932,0,0,0,479,3913
43935,0,0,0,287,4105
44697,0,0,0,543,3849
44700,0,0,0,219,4173
44700,0,0,0,91,4301
44753,0,0,0,219,4173
44756,0,0,0,27,4365
44962,0,0,0,351,4041
44965,0,0,0,223,4169
45112,0,0,0,351,4041
45115,0,0,0,95,4297
46299,0,0,0,351,4041
46302,0,0,0,223,4169
49057,0,0,0,607,3785
49060,0,0,0,351,4041
51284,0,0,0,543,3849
51710,0,0,0,799,3593
51713,0,0,0,31,4361
52510,0,0,0,223,4169
52513,0,0,0,31,4361
53278,0,0,0,159,4233
53302,0,0,0,351,4041
53304,0,0,0,479,3913
53308,0,0,0,287,4105
53985,0,0,0,415,3977
54597,0,0,0,543,3849
55011,0,0,0,867,3525
55014,0,0,0,195,4197
55290,0,0,0,323,4069
55433,0,0,0,579,3813
55600,0,0,0,835,3557
55603,0,0,0,163,4229
56300,0,0,0,487,3905
60714,0,0,0,871,3521
60717,0,0,0,199,4193
61353,0,0,0,391,4001
62160,0,0,0,583,3809
65654,0,0,0,1255,3137
65657,0,0,0,583,3809
65657,0,0,0,455,3937
65657,0,0,0,263,4129
65790,0,0,0,1031,3361
65793,0,0,0,707,3685
65793,0,0,0,383,4009
65793,0,0,0,255,4137
65793,0,0,0,127,4265
66254,0,0,0,383,4009
67110,0,0,0,895,3497
67113,0,0,0,223,4169
68195,0,0,0,895,3497
68198,0,0,0,223,4169
70705,0,0,0,479,3913
72229,0,0,0,1151,3241
72232,0,0,0,479,3913
74856,0,0,0,671,3721
74947,0,0,0,799,3593
74950,0,0,0,127,4265
76451,0,0,0,255,4137
76688,0,0,0,383,4009
78262,0,0,0,1055,3337
78265,0,0,0,671,3721
78265,0,0,0,347,4045
78265,0,0,0,23,4369
78325,0,0,0,347,4045
78460,0,0,0,671,3721
78463,0,0,0,159,4233
78967,0,0,0,831,3561
78970,0,0,0,631,3761
78970,0,0,0,503,3889
78970,0,0,0,375,4017
78970,0,0,0,230,4162
79325,0,0,0,902,3490
79328,0,0,0,578,3814
79328,0,0,0,254,4138
79328,0,0,0,126,4266
83356,0,0,0,798,3594
83359,0,0,0,670,3722
84741,0,0,0,815,3577
85307,0,0,0,1015,3377
86662,0,0,0,1143,3249
86665,0,0,0,119,4273
86765,0,0,0,791,3601
86768,0,0,0,279,4113
86768,0,0,0,272,4120
86989,0,0,0,784,3608
89873,0,0,0,1108,3284
89876,0,0,0,306,4086
89908,0,0,0,434,3958
89911,0,0,0,50,4342
89919,0,0,0,178,4214
90063,0,0,0,502,3890
90066,0,0,0,246,4146
90066,0,0,0,118,4274
90066,0,0,0,8,4384
90703,0,0,0,136,4256
90706,0,0,0,8,4384
93051,0,0,0,332,4060
93282,0,0,0,656,3736
96252,0,0,0,784,3608
97125,0,0,0,1808,2584
97167,0,0,0,2320,2072
97170,0,0,0,272,4120
97170,0,0,0,265,4127
97170,0,0,0,191,4201
97170,0,0,0,179,4213
100970,0,0,0,307,4085
102027,0,0,0,691,3701
102030,0,0,0,367,4025
102030,0,0,0,43,4349
106007,0,0,0,44,4348
106748,0,0,0,300,4092
106751,0,0,0,114,4278
106751,0,0,0,30,4362
108523,0,0,0,37,4355
111737,0,0,0,147,4245
111740,0,0,0,19,4373
113723,0,0,0,343,4049
113726,0,0,0,245,4147
113726,0,0,0,153,4239
113726,0,0,0,31,4361
115137,0,0,0,355,4037
115140,0,0,0,245,4147
115285,0,0,0,257,4135
116174,0,0,0,264,4128
116443,0,0,0,338,4054
116446,0,0,0,14,4378
119379,0,0,0,98,4294
119693,0,0,0,284,4108
120013,0,0,0,2332,2060
120016,0,0,0,1660,2732
120016,0,0,0,988,3404
120016,0,0,0,316,4076
122420,0,0,0,700,3692
122423,0,0,0,376,4016
122423,0,0,0,52,4340
122475,0,0,0,180,4212
122478,0,0,0,52,4340
122993,0,0,0,162,4230
122996,0,0,0,34,4358
124960,0,0,0,126,4266
125110,0,0,0,248,4144
125113,0,0,0,120,4272
125754,0,0,0,218,4174
127958,0,0,0,542,3850
127961,0,0,0,158,4234
130865,0,0,0,830,3562
130868,0,0,0,638,3754
130868,0,0,0,446,3946
130868,0,0,0,122,4270
130923,0,0,0,794,3598
130926,0,0,0,470,3922
130926,0,0,0,214,4178
130926,0,0,0,86,4306
131698,0,0,0,758,3634
131701,0,0,0,566,3826
131701,0,0,0,438,3954
131701,0,0,0,246,4146
132538,0,0,0,374,4018
133913,0,0,0,502,3890
134337,0,0,0,630,3762
135115,0,0,0,954,3438
135168,0,0,0,1278,3114
135171,0,0,0,254,4138
139041,0,0,0,382,4010
139424,0,0,0,510,3882
140312,0,0,0,702,3690
140340,0,0,0,894,3498
140414,0,0,0,1086,3306
140417,0,0,0,62,4330
140863,0,0,0,254,4138
142482,0,0,0,510,3882
142485,0,0,0,186,4206
143339,0,0,0,510,3882
143342,0,0,0,186,4206
143342,0,0,0,58,4334
143545,0,0,0,382,4010
143548,0,0,0,126,4266
145730,0,0,0,1150,3242
145733,0,0,0,894,3498
145733,0,0,0,702,3690
145733,0,0,0,510,3882
145733,0,0,0,318,4074
150275,0,0,0,1342,3050
150278,0,0,0,1018,3374
150278,0,0,0,762,3630
150278,0,0,0,506,3886
150278,0,0,0,314,4078
150278,0,0,0,122,4270
154139,0,0,0,250,4142
154142,0,0,0,122,4270
154320,0,0,0,314,4078
154323,0,0,0,186,4206
154711,0,0,0,378,4014
154714,0,0,0,54,4338
154835,0,0,0,378,4014
154838,0,0,0,250,4142
154838,0,0,0,58,4334
154838,0,0,0,56,4336
155027,0,0,0,248,4144
155030,0,0,0,56,4336
155153,0,0,0,380,4012
155156,0,0,0,56,4336
158327,0,0,0,248,4144
158999,0,0,0,440,3952
159002,0,0,0,56,4336
159727,0,0,0,312,4080
160504,0,0,0,696,3696
160856,0,0,0,824,3568
161375,0,0,0,1148,3244
161378,0,0,0,124,4268
161737,0,0,0,380,4012
162006,0,0,0,382,4010
163740,0,0,0,574,3818
163909,0,0,0,766,3626
165279,0,0,0,894,3498
165742,0,0,0,1022,3370
166027,0,0,0,1346,3046
166030,0,0,0,322,4070
166030,0,0,0,130,4262
166607,0,0,0,454,3938
166610,0,0,0,262,4130
171383,0,0,0,518,3874
171386,0,0,0,194,4198
171386,0,0,0,66,4326
172013,0,0,0,322,4070
174631,0,0,0,514,3878
174634,0,0,0,190,4202
174634,0,0,0,62,4330
175872,0,0,0,254,4138
175875,0,0,0,62,4330
176369,0,0,0,864,3528
176372,0,0,0,540,3852
176372,0,0,0,216,4176
176372,0,0,0,88,4304
180447,0,0,0,216,4176
180450,0,0,0,88,4304
180610,0,0,0,1112,3280
180613,0,0,0,728,3664
180613,0,0,0,472,3920
180613,0,0,0,216,4176
183523,0,0,0,540,3852
183526,0,0,0,284,4108
183526,0,0,0,28,4364
183919,0,0,0,1052,3340
183922,0,0,0,668,3724
184735,0,0,0,860,3532
184738,0,0,0,92,4300
184806,0,0,0,220,4172
185417,0,0,0,348,4044
185420,0,0,0,92,4300
187003,0,0,0,416,3976
187006,0,0,0,160,4232
187006,0,0,0,32,4360
187783,0,0,0,356,4036
187786,0,0,0,100,4292
188036,0,0,0,424,3968
188039,0,0,0,280,4112
188039,0,0,0,88,4304
189540,0,0,0,216,4176
189543,0,0,0,24,4368
191254,0,0,0,408,3984
191257,0,0,0,280,4112
191257,0,0,0,88,4304
196710,0,0,0,280,4112
197904,0,0,0,408,3984
197943,0,0,0,664,3728
197967,0,0,0,856,3536
197978,0,0,0,984,3408
199032,0,0,0,1128,3264
199224,0,0,0,1384,3008
200084,0,0,0,1576,2816
202194,0,0,0,1832,2560
202262,0,0,0,2088,2304
202265,0,0,0,40,4352
205127,0,0,0,296,4096
205130,0,0,0,40,4352
205178,0,0,0,296,4096
205181,0,0,0,40,4352
205239,0,0,0,808,3584
205242,0,0,0,296,4096
205242,0,0,0,104,4288
207052,0,0,0,360,4032
207055,0,0,0,180,4212
212859,0,0,0,2228,2164
212862,0,0,0,1972,2420
212862,0,0,0,1716,2676
212862,0,0,0,1460,2932
212862,0,0,0,1136,3256
212862,0,0,0,880,3512
212862,0,0,0,624,3768
212862,0,0,0,368,4024
213141,0,0,0,752,3640
214043,0,0,0,944,3448
217406,0,0,0,1124,3268
217409,0,0,0,100,4292
219879,0,0,0,356,4036
223802,0,0,0,612,3780
223816,0,0,0,868,3524
224137,0,0,0,1192,3200
224140,0,0,0,168,4224
224361,0,0,0,424,3968
224364,0,0,0,168,4224
226330,0,0,0,424,3968
226333,0,0,0,168,4224
226880,0,0,0,424,3968
226883,0,0,0,168,4224
228824,0,0,0,552,3840
228827,0,0,0,296,4096
228827,0,0,0,40,4352
231348,0,0,0,1064,3328
231351,0,0,0,936,3456
231351,0,0,0,680,3712
231351,0,0,0,356,4036
231351,0,0,0,164,4228
234495,0,0,0,420,3972
234516,0,0,0,676,3716
237760,0,0,0,1188,3204
237763,0,0,0,164,4228
238602,0,0,0,420,3972
238605,0,0,0,228,4164
238605,0,0,0,100,4292
239776,0,0,0,356,4036
239779,0,0,0,228,4164
239779,0,0,0,100,4292
239930,0,0,0,292,4100
239933,0,0,0,164,4228
241022,0,0,0,420,3972
241025,0,0,0,228,4164
241025,0,0,0,36,4356
241718,0,0,0,164,4228
241721,0,0,0,36,4356
242671,0,0,0,360,4032
242674,0,0,0,232,4160
244368,0,0,0,1256,3136
244371,0,0,0,936,3456
244371,0,0,0,744,3648
244371,0,0,0,552,3840
244371,0,0,0,296,4096
244371,0,0,0,168,4224
246073,0,0,0,424,3968
246076,0,0,0,100,4292
248017,0,0,0,356,4036
248020,0,0,0,32,4360
248139,0,0,0,224,4168
248142,0,0,0,96,4296
248473,0,0,0,352,4040
249537,0,0,0,480,3912
249540,0,0,0,96,4296
249848,0,0,0,288,4104
249851,0,0,0,32,4360
249867,0,0,0,224,4168
249870,0,0,0,96,4296
250703,0,0,0,224,4168
250706,0,0,0,96,4296
250712,0,0,0,224,4168
250715,0,0,0,96,4296
250817,0,0,0,416,3976
250820,0,0,0,160,4232
250820,0,0,0,32,4360
250869,0,0,0,160,4232
250872,0,0,0,32,4360
252019,0,0,0,160,4232
252022,0,0,0,32,4360
253039,0,0,0,160,4232
253042,0,0,0,32,4360
253358,0,0,0,224,4168
253390,0,0,0,416,3976
255259,0,0,0,544,3848
255262,0,0,0,32,4360
255304,0,0,0,288,4104
255307,0,0,0,160,4232
255307,0,0,0,32,4360
257905,0,0,0,356,4036
257908,0,0,0,228,4164
257908,0,0,0,100,4292
259063,0,0,0,228,4164
259066,0,0,0,100,4292
259466,0,0,0,1124,3268
259469,0,0,0,996,3396
259469,0,0,0,868,3524
259469,0,0,0,740,3652
259469,0,0,0,216,4176
259469,0,0,0,88,4304
259716,0,0,0,344,4048
259719,0,0,0,216,4176
259719,0,0,0,24,4368
259832,0,0,0,348,4044
259835,0,0,0,156,4236
259835,0,0,0,28,4364
260765,0,0,0,156,4236
260768,0,0,0,12,4380
261541,0,0,0,140,4252
261629,0,0,0,268,4124
261819,0,0,0,396,3996
263060,0,0,0,524,3868
264064,0,0,0,652,3740
264863,0,0,0,524,3868
264899,0,0,0,396,3996
265617,0,0,0,524,3868
265748,0,0,0,652,3740
268604,0,0,0,844,3548
268662,0,0,0,716,3676
268819,0,0,0,844,3548
268847,0,0,0,972,3420
268902,0,0,0,1164,3228
269790,0,0,0,1292,3100
269850,0,0,0,1420,2972
269880,0,0,0,1548,2844
269946,0,0,0,1676,2716
269991,0,0,0,1804,2588
270199,0,0,0,1932,2460
270392,0,0,0,2060,2332
270404,0,0,0,2188,2204
270700,0,0,0,2060,2332
270882,0,0,0,1932,2460
271159,0,0,0,1804,2588
271707,0,0,0,1948,2444
272507,0,0,0,2204,2188
272793,0,0,0,2076,2316
274668,0,0,0,2075,2317
274916,0,0,0,2067,2325
275242,0,0,0,2195,2197
275301,0,0,0,2323,2069
275736,0,0,0,2321,2071
275802,0,0,0,2319,2073
276126,0,0,0,2063,2329
278103,0,0,0,2191,2201
278335,0,0,0,2575,1817
278672,0,0,0,2703,1689
279586,0,0,0,2831,1561
282093,0,0,0,2959,1433
283802,0,0,0,3087,1305
287742,0,0,0,3599,793
288649,0,0,0,3601,791
288670,0,0,0,3603,789
290409,0,0,0,3611,781
290436,0,0,0,3612,780
291983,0,0,0,4136,256
297889,0,0,0,4392,0
301743,0,0,0,4136,256
307447,0,0,0,3880,512
311473,0,0,0,4136,256
313483,0,0,0,3944,448
313640,0,0,0,3752,640
316452,0,0,0,3428,964
316457,0,0,0,3104,1288
318922,0,0,0,2848,1544
320651,0,0,0,3104,1288
320724,0,0,0,2080,2312
320944,0,0,0,1056,3336
321801,0,0,0,1248,3144
322285,0,0,0,1440,2952
322579,0,0,0,1312,3080
327115,0,0,0,1120,3272
327438,0,0,0,928,3464
327734,0,0,0,1252,3140
327749,0,0,0,1576,2816
328419,0,0,0,1320,3072
331428,0,0,0,1448,2944
332938,0,0,0,1704,2688
336053,0,0,0,1896,2496
336165,0,0,0,1704,2688
336469,0,0,0,1896,2496
337050,0,0,0,1704,2688
337882,0,0,0,1380,3012
338972,0,0,0,1056,3336
340521,0,0,0,1312,3080
345185,0,0,0,1504,2888
345193,0,0,0,1696,2696
350190,0,0,0,2020,2372
350722,0,0,0,1892,2500
350741,0,0,0,1764,2628
350789,0,0,0,1636,2756
350802,0,0,0,1508,2884
350808,0,0,0,1380,3012
350821,0,0,0,1252,3140
351657,0,0,0,1124,3268
351672,0,0,0,996,3396
351676,0,0,0,868,3524
351719,0,0,0,740,3652
351748,0,0,0,612,3780
351769,0,0,0,484,3908
351785,0,0,0,356,4036
352179,0,0,0,211,4181
352417,0,0,0,535,3857
357858,0,0,0,680,3712
361054,0,0,0,808,3584
361054,0,0,0,936,3456
361112,0,0,0,1064,3328
361116,0,0,0,1192,3200
361138,0,0,0,1320,3072
361264,0,0,0,1448,2944
361951,0,0,0,1576,2816
361965,0,0,0,1704,2688
361984,0,0,0,1832,2560
362066,0,0,0,1960,2432
362069,0,0,0,2088,2304
362072,0,0,0,40,4352
362098,0,0,0,168,4224
362112,0,0,0,296,4096
362115,0,0,0,40,4352
372103,0,0,0,2088,2304
372106,0,0,0,1896,2496
372106,0,0,0,1768,2624
372106,0,0,0,1640,2752
372106,0,0,0,1384,3008
372106,0,0,0,1000,3392
372106,0,0,0,808,3584
379449,0,0,0,936,3456
381722,0,0,0,1128,3264
381725,0,0,0,104,4288
381855,0,0,0,296,4096
381858,0,0,0,168,4224
383031,0,0,0,296,4096
383034,0,0,0,104,4288
383279,0,0,0,360,4032
383282,0,0,0,232,4160
383282,0,0,0,104,4288
390606,0,0,0,232,4160
390609,0,0,0,104,4288
390986,0,0,0,232,4160
391752,0,0,0,424,3968
391755,0,0,0,168,4224
391755,0,0,0,40,4352
393881,0,0,0,296,4096
393884,0,0,0,40,4352
394175,0,0,0,168,4224
395569,0,0,0,1192,3200
395572,0,0,0,936,3456
397585,0,0,0,1064,3328
402713,0,0,0,1192,3200
402716,0,0,0,40,4352
404609,0,0,0,424,3968
404612,0,0,0,40,4352
405769,0,0,0,1064,3328
405772,0,0,0,936,3456
405772,0,0,0,808,3584
405772,0,0,0,680,3712
405772,0,0,0,488,3904
406242,0,0,0,1512,2880
406486,0,0,0,1384,3008
406827,0,0,0,1256,3136
406848,0,0,0,1128,3264
407064,0,0,0,1384,3008
411264,0,0,0,1256,3136
411287,0,0,0,1128,3264
413098,0,0,0,1256,3136
413156,0,0,0,1512,2880
413766,0,0,0,1768,2624
414608,0,0,0,1960,2432
416062,0,0,0,2088,2304
416098,0,0,0,2216,2176
417415,0,0,0,2344,2048
417459,0,0,0,2728,1664
417761,0,0,0,2856,1536
417831,0,0,0,2984,1408
419451,0,0,0,3112,1280
419731,0,0,0,2788,1604
419740,0,0,0,2916,1476
427056,0,0,0,2788,1604
427211,0,0,0,2660,1732
427255,0,0,0,2532,1860
427285,0,0,0,2404,1988
427323,0,0,0,2276,2116
429976,0,0,0,2084,2308
430953,0,0,0,2408,1984
432953,0,0,0,2280,2112
436105,0,0,0,2408,1984
437364,0,0,0,2536,1856
437486,0,0,0,2664,1728
437599,0,0,0,2792,1600
437660,0,0,0,2920,1472
438507,0,0,0,3112,1280
440663,0,0,0,2984,1408
440780,0,0,0,2856,1536
442244,0,0,0,2728,1664
443904,0,0,0,2856,1536
448322,0,0,0,2728,1664
450165,0,0,0,2856,1536
450992,0,0,0,2472,1920
451095,0,0,0,2600,1792
451800,0,0,0,2728,1664
452934,0,0,0,2600,1792
453009,0,0,0,2472,1920
453268,0,0,0,2344,2048
453377,0,0,0,2216,2176
453441,0,0,0,2088,2304
453514,0,0,0,1960,2432
453812,0,0,0,1576,2816
454556,0,0,0,1320,3072
455181,0,0,0,1448,2944
456036,0,0,0,1320,3072
456854,0,0,0,1192,3200
458511,0,0,0,1064,3328
459708,0,0,0,808,3584
460007,0,0,0,296,4096
462022,0,0,0,552,3840
463188,0,0,0,680,3712
463335,0,0,0,808,3584
463595,0,0,0,936,3456
463736,0,0,0,1064,3328
463739,0,0,0,40,4352
463808,0,0,0,168,4224
463811,0,0,0,8,4384
463838,0,0,0,136,4256
465537,0,0,0,264,4128
465917,0,0,0,392,4000
465920,0,0,0,68,4324
465961,0,0,0,452,3940
466002,0,0,0,324,4068
466613,0,0,0,452,3940
466780,0,0,0,324,4068
467515,0,0,0,836,3556
468132,0,0,0,708,3684
469593,0,0,0,580,3812
469745,0,0,0,452,3940
469804,0,0,0,324,4068
469870,0,0,0,196,4196
469901,0,0,0,68,4324
470694,0,0,0,228,4164
470697,0,0,0,100,4292
474703,0,0,0,1124,3268
474706,0,0,0,740,3652
475449,0,0,0,868,3524
475536,0,0,0,740,3652
476006,0,0,0,868,3524
476036,0,0,0,740,3652
476130,0,0,0,416,3976
476469,0,0,0,544,3848
477102,0,0,0,868,3524
479069,0,0,0,996,3396
479901,0,0,0,1124,3268
480086,0,0,0,1252,3140
480196,0,0,0,1380,3012
480201,0,0,0,1508,2884
480988,0,0,0,1636,2756
481428,0,0,0,1892,2500
482544,0,0,0,1764,2628
483569,0,0,0,2148,2244
484165,0,0,0,2276,2116
484603,0,0,0,2404,1988
487378,0,0,0,2728,1664
487463,0,0,0,3112,1280
487588,0,0,0,3240,1152
488512,0,0,0,4392,0
488515,0,0,0,296,4096
488515,0,0,0,168,4224
488515,0,0,0,40,4352
498564,0,0,0,168,4224
498567,0,0,0,40,4352
499045,0,0,0,4136,256
499048,0,0,0,2088,2304
499048,0,0,0,40,4352
499475,0,0,0,168,4224
499478,0,0,0,40,4352
509552,0,0,0,168,4224
509555,0,0,0,40,4352
509792,0,0,0,168,4224
509795,0,0,0,40,4352
519951,0,0,0,168,4224
519954,0,0,0,40,4352
520186,0,0,0,168,4224
520189,0,0,0,40,4352
529233,0,0,0,168,4224
530364,0,0,0,296,4096
530367,0,0,0,40,4352
552102,0,0,0,296,4096
552105,0,0,0,168,4224
552105,0,0,0,40,4352
559809,0,0,0,168,4224
559812,0,0,0,40,4352
561238,0,0,0,168,4224
561241,0,0,0,40,4352
568326,0,0,0,168,4224
568329,0,0,0,40,4352
571868,0,0,0,168,4224
571871,0,0,0,40,4352
576915,0,0,0,168,4224
576918,0,0,0,40,4352
578814,0,0,0,168,4224
578817,0,0,0,40,4352
582195,0,0,0,168,4224
584100,0,0,0,296,4096
585598,0,0,0,2344,2048
585601,0,0,0,1960,2432
585601,0,0,0,1636,2756
585601,0,0,0,1252,3140
585601,0,0,0,928,3464
585601,0,0,0,800,3592
585601,0,0,0,672,3720
585601,0,0,0,416,3976
585601,0,0,0,32,4360
585608,0,0,0,2080,2312
585611,0,0,0,1824,2568
585611,0,0,0,1568,2824
585611,0,0,0,1312,3080
585611,0,0,0,1184,3208
585611,0,0,0,1056,3336
585611,0,0,0,928,3464
585611,0,0,0,800,3592
585611,0,0,0,672,3720
585611,0,0,0,348,4044
585611,0,0,0,220,4172
585611,0,0,0,92,4300
590944,0,0,0,220,4172
593802,0,0,0,348,4044
594076,0,0,0,476,3916
595397,0,0,0,604,3788
595865,0,0,0,732,3660
595888,0,0,0,860,3532
595924,0,0,0,988,3404
595959,0,0,0,1116,3276
595962,0,0,0,92,4300
595993,0,0,0,220,4172
596933,0,0,0,544,3848
597114,0,0,0,868,3524
597193,0,0,0,1192,3200
597196,0,0,0,168,4224
598126,0,0,0,552,3840
599303,0,0,0,936,3456
599721,0,0,0,1192,3200
599724,0,0,0,168,4224
599724,0,0,0,40,4352
599960,0,0,0,296,4096
599963,0,0,0,136,4256
605529,0,0,0,264,4128
605584,0,0,0,424,3968
606771,0,0,0,680,3712
607334,0,0,0,936,3456
611292,0,0,0,1320,3072
611295,0,0,0,296,4096
611295,0,0,0,40,4352
617624,0,0,0,39,4353
633005,0,0,0,295,4097
633008,0,0,0,39,4353
633842,0,0,0,40,4352
654753,0,0,0,296,4096
654756,0,0,0,136,4256
654756,0,0,0,8,4384
663967,0,0,0,168,4224
663970,0,0,0,8,4384
665672,0,0,0,136,4256
665675,0,0,0,8,4384
670775,0,0,0,168,4224
670778,0,0,0,40,4352
676592,0,0,0,168,4224
677388,0,0,0,296,4096
679048,0,0,0,1320,3072
679051,0,0,0,296,4096
680249,0,0,0,1320,3072
680252,0,0,0,296,4096
682789,0,0,0,1320,3072
682792,0,0,0,296,4096
682792,0,0,0,136,4256
682792,0,0,0,8,4384
692948,0,0,0,168,4224
693125,0,0,0,296,4096
694386,0,0,0,1320,3072
694389,0,0,0,296,4096
694389,0,0,0,40,4352
706969,0,0,0,38,4354
711976,0,0,0,40,4352
715523,0,0,0,296,4096
715526,0,0,0,40,4352
737246,0,0,0,296,4096
737249,0,0,0,168,4224
737249,0,0,0,40,4352
747656,0,0,0,168,4224
747656,0,0,0,296,4096
747662,0,0,0,168,4224
747662,0,0,0,40,4352
758048,0,0,0,168,4224
758076,0,0,0,296,4096
762120,0,0,0,1320,3072
762123,0,0,0,936,3456
762123,0,0,0,424,3968
762123,0,0,0,100,4292
763332,0,0,0,1124,3268
763335,0,0,0,764,3628
765831,0,0,0,1788,2604
767726,0,0,0,2300,2092
767729,0,0,0,252,4140
767729,0,0,0,124,4268
773738,0,0,0,448,3944
773741,0,0,0,320,4072
773816,0,0,0,680,3712
773819,0,0,0,356,4036
773819,0,0,0,32,4360
777414,0,0,0,1056,3336
777417,0,0,0,672,3720
777417,0,0,0,288,4104
777417,0,0,0,160,4232
777417,0,0,0,32,4360
778056,0,0,0,160,4232
778059,0,0,0,32,4360
784062,0,0,0,160,4232
784477,0,0,0,288,4104
785263,0,0,0,612,3780
785309,0,0,0,936,3456
785971,0,0,0,1064,3328
787917,0,0,0,1448,2944
787920,0,0,0,296,4096
787920,0,0,0,40,4352
788335,0,0,0,168,4224
790180,0,0,0,552,3840
790183,0,0,0,228,4164
790183,0,0,0,100,4292
794639,0,0,0,484,3908
794642,0,0,0,356,4036
794642,0,0,0,228,4164
794642,0,0,0,100,4292
800558,0,0,0,228,4164
800561,0,0,0,100,4292
801588,0,0,0,424,3968
801591,0,0,0,100,4292
803844,0,0,0,228,4164
803847,0,0,0,100,4292
804975,0,0,0,228,4164
804994,0,0,0,356,4036
808898,0,0,0,484,3908
809577,0,0,0,740,3652
809580,0,0,0,68,4324
810916,0,0,0,196,4196
810919,0,0,0,68,4324
813028,0,0,0,392,4000
813031,0,0,0,136,4256
813031,0,0,0,8,4384
820316,0,0,0,264,4128
821518,0,0,0,392,4000
821784,0,0,0,520,3872
822328,0,0,0,1192,3200
822331,0,0,0,520,3872
822331,0,0,0,264,4128
822331,0,0,0,8,4384
829662,0,0,0,264,4128
833285,0,0,0,520,3872
835303,0,0,0,1192,3200
835306,0,0,0,520,3872
835306,0,0,0,392,4000
835306,0,0,0,68,4324
846260,0,0,0,196,4196
846672,0,0,0,520,3872
846711,0,0,0,1192,3200
846714,0,0,0,520,3872
846714,0,0,0,264,4128
846714,0,0,0,8,4384
852719,0,0,0,264,4128
853845,0,0,0,520,3872
854268,0,0,0,2568,1824
854271,0,0,0,1896,2496
854271,0,0,0,1224,3168
854271,0,0,0,840,3552
854271,0,0,0,839,3553
854271,0,0,0,583,3809
854271,0,0,0,327,4065
854271,0,0,0,71,4321
858147,0,0,0,743,3649
858150,0,0,0,419,3973
858150,0,0,0,35,4357
865766,0,0,0,707,3685
865769,0,0,0,207,4185
865769,0,0,0,79,4313
866442,0,0,0,335,4057
866445,0,0,0,207,4185
866445,0,0,0,79,4313
866990,0,0,0,751,3641
866993,0,0,0,623,3769
866993,0,0,0,431,3961
866993,0,0,0,239,4153
866993,0,0,0,111,4281
868797,0,0,0,495,3897
869719,0,0,0,819,3573
871517,0,0,0,1203,3189
871520,0,0,0,51,4341
875361,0,0,0,179,4213
875365,0,0,0,435,3957
875368,0,0,0,243,4149
875402,0,0,0,435,3957
875405,0,0,0,111,4281
875425,0,0,0,303,4089
875428,0,0,0,111,4281
875975,0,0,0,367,4025
875978,0,0,0,239,4153
876171,0,0,0,367,4025
876174,0,0,0,43,4349
876728,0,0,0,171,4221
876731,0,0,0,43,4349
876731,0,0,0,42,4350
876839,0,0,0,170,4222
877306,0,0,0,298,4094
881820,0,0,0,299,4093
882461,0,0,0,1451,2941
882464,0,0,0,1067,3325
882464,0,0,0,875,3517
882464,0,0,0,683,3709
882464,0,0,0,555,3837
882464,0,0,0,427,3965
882464,0,0,0,299,4093
882464,0,0,0,171,4221
882464,0,0,0,43,4349
884344,0,0,0,235,4157
884347,0,0,0,107,4285
884816,0,0,0,299,4093
884819,0,0,0,171,4221
884829,0,0,0,299,4093
885791,0,0,0,427,3965
885794,0,0,0,103,4289
887065,0,0,0,427,3965
887068,0,0,0,103,4289
887714,0,0,0,427,3965
887717,0,0,0,43,4349
889635,0,0,0,171,4221
890050,0,0,0,299,4093
890053,0,0,0,107,4285
891416,0,0,0,299,4093
891419,0,0,0,171,4221
891419,0,0,0,43,4349
891429,0,0,0,235,4157
891432,0,0,0,43,4349
892781,0,0,0,171,4221
892797,0,0,0,299,4093
893400,0,0,0,427,3965
893403,0,0,0,43,4349
894723,0,0,0,171,4221
894726,0,0,0,43,4349
895168,0,0,0,171,4221
895171,0,0,0,43,4349
896974,0,0,0,367,4025
896977,0,0,0,239,4153
896977,0,0,0,111,4281
898295,0,0,0,435,3957
898298,0,0,0,111,4281
898343,0,0,0,611,3781
898346,0,0,0,419,3973
898346,0,0,0,291,4101
898346,0,0,0,161,4231
898896,0,0,0,289,4103
899097,0,0,0,417,3975
899114,0,0,0,609,3783
900362,0,0,0,801,3591
900500,0,0,0,1185,3207
900503,0,0,0,161,4231
904173,0,0,0,289,4103
904176,0,0,0,97,4295
905466,0,0,0,225,4167
905469,0,0,0,97,4295
905576,0,0,0,225,4167
905579,0,0,0,97,4295
905654,0,0,0,225,4167
905657,0,0,0,97,4295
906734,0,0,0,227,4165
906737,0,0,0,99,4293
907305,0,0,0,227,4165
907308,0,0,0,99,4293
908180,0,0,0,291,4101
909855,0,0,0,615,3777
909858,0,0,0,231,4161
909858,0,0,0,103,4289
912523,0,0,0,231,4161
912526,0,0,0,39,4353
912586,0,0,0,167,4225
913974,0,0,0,359,4033
913977,0,0,0,35,4357
914087,0,0,0,163,4229
915000,0,0,0,547,3845
915003,0,0,0,163,4229
915037,0,0,0,547,3845
915040,0,0,0,223,4169
915040,0,0,0,222,4170
915040,0,0,0,30,4362
916767,0,0,0,158,4234
918234,0,0,0,286,4106
920796,0,0,0,414,3978
922220,0,0,0,606,3786
922223,0,0,0,94,4298
923345,0,0,0,478,3914
923786,0,0,0,670,3722
923789,0,0,0,158,4234
925093,0,0,0,482,3910
926343,0,0,0,806,3586
926346,0,0,0,294,4098
926346,0,0,0,166,4226
926346,0,0,0,38,4354
927593,0,0,0,39,4353
932748,0,0,0,551,3841
932751,0,0,0,423,3969
932751,0,0,0,263,4129
932751,0,0,0,135,4257
932751,0,0,0,7,4385
932943,0,0,0,135,4257
932946,0,0,0,7,4385
933708,0,0,0,135,4257
933711,0,0,0,7,4385
934315,0,0,0,519,3873
934318,0,0,0,263,4129
934318,0,0,0,135,4257
934318,0,0,0,7,4385
934566,0,0,0,519,3873
934569,0,0,0,263,4129
934569,0,0,0,71,4321
942607,0,0,0,199,4193
942745,0,0,0,391,4001
942748,0,0,0,135,4257
943067,0,0,0,263,4129
943088,0,0,0,391,4001
943091,0,0,0,7,4385
943727,0,0,0,135,4257
943730,0,0,0,7,4385
944471,0,0,0,135,4257
944905,0,0,0,263,4129
944908,0,0,0,71,4321
947532,0,0,0,455,3937
947535,0,0,0,199,4193
947535,0,0,0,71,4321
947851,0,0,0,327,4065
947854,0,0,0,199,4193
950676,0,0,0,327,4065
950679,0,0,0,71,4321
952966,0,0,0,263,4129
952969,0,0,0,135,4257
952969,0,0,0,6,4386
958092,0,0,0,1158,3234
958095,0,0,0,902,3490
958095,0,0,0,774,3618
958095,0,0,0,646,3746
958095,0,0,0,390,4002
958095,0,0,0,6,4386
958249,0,0,0,1030,3362
958252,0,0,0,902,3490
958252,0,0,0,694,3698
958252,0,0,0,502,3890
958252,0,0,0,178,4214
958252,0,0,0,50,4342
958455,0,0,0,178,4214
958458,0,0,0,50,4342
960886,0,0,0,306,4086
960889,0,0,0,178,4214
960889,0,0,0,50,4342
964948,0,0,0,178,4214
964957,0,0,0,306,4086
964960,0,0,0,114,4278
966610,0,0,0,306,4086
968934,0,0,0,562,3830
968937,0,0,0,238,4154
969215,0,0,0,366,4026
969218,0,0,0,110,4282
969686,0,0,0,434,3958
969689,0,0,0,306,4086
969689,0,0,0,298,4094
969689,0,0,0,106,4286
969689,0,0,0,98,4294
969689,0,0,0,97,4295
970327,0,0,0,305,4087
970330,0,0,0,177,4215
970330,0,0,0,49,4343
970369,0,0,0,209,4183
970372,0,0,0,81,4311
971924,0,0,0,209,4183
971927,0,0,0,81,4311
973105,0,0,0,209,4183
973108,0,0,0,81,4311
975241,0,0,0,209,4183
975244,0,0,0,81,4311
976355,0,0,0,209,4183
976358,0,0,0,81,4311
976767,0,0,0,209,4183
977046,0,0,0,337,4055
978577,0,0,0,465,3927
978580,0,0,0,81,4311
978811,0,0,0,273,4119
978814,0,0,0,17,4375
980016,0,0,0,145,4247
980019,0,0,0,17,4375
980388,0,0,0,341,4051
982302,0,0,0,469,3923
984692,0,0,0,597,3795
984695,0,0,0,85,4307
984898,0,0,0,214,4178
985128,0,0,0,342,4050
985645,0,0,0,470,3922
985648,0,0,0,86,4306
986377,0,0,0,470,3922
986380,0,0,0,278,4114
986380,0,0,0,150,4242
986380,0,0,0,22,4370
986579,0,0,0,278,4114
986582,0,0,0,22,4370
986787,0,0,0,150,4242
988310,0,0,0,151,4241
988970,0,0,0,279,4113
988973,0,0,0,23,4369
988973,0,0,0,22,4370
989842,0,0,0,150,4242
989845,0,0,0,22,4370
990591,0,0,0,150,4242
990599,0,0,0,406,3986
990602,0,0,0,150,4242
992111,0,0,0,534,3858
992114,0,0,0,210,4182
992114,0,0,0,82,4310
992265,0,0,0,466,3926
992268,0,0,0,338,4054
992268,0,0,0,210,4182
995411,0,0,0,402,3990
995414,0,0,0,146,4246
995414,0,0,0,18,4374
995792,0,0,0,146,4246
995994,0,0,0,402,3990
995997,0,0,0,78,4314
997411,0,0,0,206,4186
997414,0,0,0,14,4378
997749,0,0,0,270,4122
997752,0,0,0,142,4250
997752,0,0,0,14,4378
997975,0,0,0,206,4186
997978,0,0,0,78,4314
998302,0,0,0,206,4186
998305,0,0,0,78,4314
1.00061e+06,0,0,0,334,4058
1.00061e+06,0,0,0,206,4186
1.00061e+06,0,0,0,78,4314
1.00078e+06,0,0,0,206,4186
1.00079e+06,0,0,0,78,4314
1.00081e+06,0,0,0,79,4313
1.00105e+06,0,0,0,87,4305
1.00169e+06,0,0,0,215,4177
1.00169e+06,0,0,0,87,4305
1.00179e+06,0,0,0,343,4049
1.00184e+06,0,0,0,351,4041
1.00327e+06,0,0,0,479,3913
1.00327e+06,0,0,0,95,4297
1.00328e+06,0,0,0,223,4169
1.00328e+06,0,0,0,95,4297
1.00455e+06,0,0,0,419,3973
1.0061e+06,0,0,0,611,3781
1.0065e+06,0,0,0,1123,3269
1.00737e+06,0,0,0,1447,2945
1.00809e+06,0,0,0,1575,2817
1.0081e+06,0,0,0,1831,2561
1.00813e+06,0,0,0,1959,2433
1.00823e+06,0,0,0,2215,2177
1.00823e+06,0,0,0,167,4225
1.00823e+06,0,0,0,39,4353
1.00833e+06,0,0,0,167,4225
1.00833e+06,0,0,0,39,4353
1.00866e+06,0,0,0,167,4225
1.00866e+06,0,0,0,39,4353
1.00944e+06,0,0,0,295,4097
1.00945e+06,0,0,0,167,4225
1.00945e+06,0,0,0,39,4353
1.0106e+06,0,0,0,167,4225
1.01068e+06,0,0,0,423,3969
1.011e+06,0,0,0,551,3841
1.01118e+06,0,0,0,935,3457
1.01165e+06,0,0,0,1063,3329
1.01188e+06,0,0,0,1191,3201
1.01268e+06,0,0,0,1319,3073
1.01478e+06,0,0,0,1447,2945
1.01503e+06,0,0,0,1575,2817
1.01515e+06,0,0,0,1703,2689
1.01534e+06,0,0,0,1831,2561
1.01551e+06,0,0,0,1959,2433
1.01561e+06,0,0,0,4007,385
1.01561e+06,0,0,0,1959,2433
1.01561e+06,0,0,0,1831,2561
1.01561e+06,0,0,0,1447,2945
1.01561e+06,0,0,0,1063,3329
1.01561e+06,0,0,0,871,3521
1.01561e+06,0,0,0,743,3649
1.01561e+06,0,0,0,615,3777
1.01561e+06,0,0,0,359,4033
1.01561e+06,0,0,0,231,4161
1.01561e+06,0,0,0,103,4289
1.02245e+06,0,0,0,231,4161
1.0225e+06,0,0,0,359,4033
1.02296e+06,0,0,0,2407,1985
1.02296e+06,0,0,0,2023,2369
1.02296e+06,0,0,0,1831,2561
1.02296e+06,0,0,0,1507,2885
1.02296e+06,0,0,0,1183,3209
1.02296e+06,0,0,0,1055,3337
1.02296e+06,0,0,0,927,3465
1.02296e+06,0,0,0,735,3657
1.02296e+06,0,0,0,351,4041
1.02296e+06,0,0,0,223,4169
1.02296e+06,0,0,0,95,4297
1.02449e+06,0,0,0,287,4105
1.0245e+06,0,0,0,95,4297
1.02607e+06,0,0,0,351,4041
1.02608e+06,0,0,0,96,4296
1.02645e+06,0,0,0,224,4168
1.02645e+06,0,0,0,96,4296
1.02656e+06,0,0,0,224,4168
1.02656e+06,0,0,0,96,4296
1.02657e+06,0,0,0,224,4168
1.02657e+06,0,0,0,96,4296
1.02659e+06,0,0,0,480,3912
1.0266e+06,0,0,0,352,4040
1.0266e+06,0,0,0,224,4168
1.0266e+06,0,0,0,96,4296
1.0304e+06,0,0,0,224,4168
1.03066e+06,0,0,0,352,4040
1.03205e+06,0,0,0,544,3848
1.03224e+06,0,0,0,799,3593
1.03246e+06,0,0,0,927,3465
1.03274e+06,0,0,0,1055,3337
1.03287e+06,0,0,0,1183,3209
1.03289e+06,0,0,0,1375,3017
1.03318e+06,0,0,0,1503,2889
1.0332e+06,0,0,0,1631,2761
1.0333e+06,0,0,0,1759,2633
1.03341e+06,0,0,0,1887,2505
1.03369e+06,0,0,0,2015,2377
1.03435e+06,0,0,0,2207,2185
1.03435e+06,0,0,0,159,4233
1.03664e+06,0,0,0,483,3909
1.03664e+06,0,0,0,228,4164
1.03665e+06,0,0,0,552,3840
1.03665e+06,0,0,0,40,4352
1.03989e+06,0,0,0,424,3968
1.03989e+06,0,0,0,296,4096
1.03989e+06,0,0,0,40,4352
1.0408e+06,0,0,0,424,3968
1.0408e+06,0,0,0,296,4096
1.0408e+06,0,0,0,151,4241
1.0465e+06,0,0,0,296,4096
1.0471e+06,0,0,0,2344,2048
1.0471e+06,0,0,0,1320,3072
1.0471e+06,0,0,0,296,4096
1.0471e+06,0,0,0,168,4224
1.04817e+06,0,0,0,552,3840
1.04817e+06,0,0,0,296,4096
1.04817e+06,0,0,0,40,4352
1.04942e+06,0,0,0,295,4097
1.04942e+06,0,0,0,167,4225
1.04992e+06,0,0,0,679,3713
1.04992e+06,0,0,0,423,3969
1.04992e+06,0,0,0,295,4097
1.04992e+06,0,0,0,167,4225
1.05039e+06,0,0,0,295,4097
1.05039e+06,0,0,0,39,4353
1.05099e+06,0,0,0,295,4097
1.05173e+06,0,0,0,423,3969
1.05443e+06,0,0,0,1447,2945
1.05443e+06,0,0,0,423,3969
1.05443e+06,0,0,0,39,4353
1.05468e+06,0,0,0,1063,3329
1.05468e+06,0,0,0,679,3713
1.05468e+06,0,0,0,423,3969
1.05468e+06,0,0,0,295,4097
1.05468e+06,0,0,0,167,4225
1.05468e+06,0,0,0,39,4353
1.05554e+06,0,0,0,423,3969
1.05554e+06,0,0,0,295,4097
1.05554e+06,0,0,0,103,4289
1.05803e+06,0,0,0,231,4161
1.05985e+06,0,0,0,359,4033
1.05986e+06,0,0,0,103,4289
1.06024e+06,0,0,0,231,4161
1.06028e+06,0,0,0,359,4033
1.0619e+06,0,0,0,1383,3009
1.06191e+06,0,0,0,871,3521
1.06191e+06,0,0,0,743,3649
1.06191e+06,0,0,0,615,3777
1.06191e+06,0,0,0,487,3905
1.06191e+06,0,0,0,359,4033
1.06191e+06,0,0,0,231,4161
1.06191e+06,0,0,0,103,4289
1.06237e+06,0,0,0,104,4288
1.06469e+06,0,0,0,296,4096
1.0653e+06,0,0,0,424,3968
1.06559e+06,0,0,0,552,3840
1.06561e+06,0,0,0,680,3712
1.06565e+06,0,0,0,808,3584
1.06851e+06,0,0,0,1064,3328
1.06876e+06,0,0,0,1192,3200
1.06896e+06,0,0,0,1320,3072
1.06924e+06,0,0,0,1448,2944
1.06927e+06,0,0,0,1576,2816
1.06948e+06,0,0,0,1704,2688
1.06978e+06,0,0,0,1832,2560
1.06992e+06,0,0,0,2088,2304
1.06992e+06,0,0,0,40,4352
1.06999e+06,0,0,0,296,4096
1.07e+06,0,0,0,168,4224
1.07166e+06,0,0,0,424,3968
1.07166e+06,0,0,0,40,4352
1.07196e+06,0,0,0,296,4096
1.07281e+06,0,0,0,808,3584
1.07282e+06,0,0,0,484,3908
1.07282e+06,0,0,0,160,4232
1.07282e+06,0,0,0,32,4360
1.0732e+06,0,0,0,416,3976
1.0732e+06,0,0,0,224,4168
1.07629e+06,0,0,0,480,3912
1.07726e+06,0,0,0,2528,1864
1.07726e+06,0,0,0,480,3912
1.07726e+06,0,0,0,224,4168
1.07765e+06,0,0,0,608,3784
1.07765e+06,0,0,0,224,4168
1.07765e+06,0,0,0,96,4296
1.08096e+06,0,0,0,224,4168
1.08096e+06,0,0,0,96,4296
1.0832e+06,0,0,0,224,4168
1.0832e+06,0,0,0,96,4296
1.08417e+06,0,0,0,420,3972
1.08417e+06,0,0,0,36,4356
1.08418e+06,0,0,0,228,4164
1.08418e+06,0,0,0,100,4292
1.08431e+06,0,0,0,484,3908
1.08432e+06,0,0,0,160,4232
1.08432e+06,0,0,0,32,4360
1.0848e+06,0,0,0,356,4036
1.08481e+06,0,0,0,100,4292
1.08798e+06,0,0,0,228,4164
1.08798e+06,0,0,0,100,4292
1.0893e+06,0,0,0,228,4164
1.08931e+06,0,0,0,100,4292
1.09141e+06,0,0,0,228,4164
1.09141e+06,0,0,0,100,4292
1.09258e+06,0,0,0,228,4164
1.09258e+06,0,0,0,100,4292
1.09467e+06,0,0,0,228,4164
1.09467e+06,0,0,0,100,4292
1.09562e+06,0,0,0,424,3968
1.09563e+06,0,0,0,40,4352
1.09652e+06,0,0,0,168,4224
1.09652e+06,0,0,0,552,3840
1.09652e+06,0,0,0,40,4352
1.09698e+06,0,0,0,424,3968
1.09698e+06,0,0,0,296,4096
1.09698e+06,0,0,0,168,4224
1.09698e+06,0,0,0,40,4352
1.09904e+06,0,0,0,296,4096
1.09904e+06,0,0,0,168,4224
1.09904e+06,0,0,0,40,4352
1.0998e+06,0,0,0,168,4224
1.1009e+06,0,0,0,552,3840
1.1019e+06,0,0,0,680,3712
1.10262e+06,0,0,0,808,3584
1.10277e+06,0,0,0,1064,3328
1.10313e+06,0,0,0,1192,3200
1.10443e+06,0,0,0,1320,3072
1.10458e+06,0,0,0,1448,2944
1.10489e+06,0,0,0,1576,2816
1.10561e+06,0,0,0,1704,2688
1.10571e+06,0,0,0,1832,2560
1.10572e+06,0,0,0,2344,2048
1.10625e+06,0,0,0,4392,0
1.10625e+06,0,0,0,1320,3072
1.10625e+06,0,0,0,680,3712
1.10625e+06,0,0,0,8,4384
1.119e+06,0,0,0,680,3712
1.119e+06,0,0,0,8,4384
1.13105e+06,0,0,0,680,3712
1.13526e+06,0,0,0,3752,640
1.13526e+06,0,0,0,2728,1664
1.13526e+06,0,0,0,1704,2688
1.13526e+06,0,0,0,680,3712
1.13526e+06,0,0,0,8,4384
1.1473e+06,0,0,0,680,3712
1.14937e+06,0,0,0,1320,3072
1.14938e+06,0,0,0,296,4096
1.14938e+06,0,0,0,168,4224
1.14938e+06,0,0,0,40,4352
1.16029e+06,0,0,0,168,4224
1.1603e+06,0,0,0,40,4352
1.16032e+06,0,0,0,168,4224
1.16032e+06,0,0,0,40,4352
1.16899e+06,0,0,0,168,4224
1.16903e+06,0,0,0,296,4096
1.17055e+06,0,0,0,1320,3072
1.17055e+06,0,0,0,296,4096
1.17055e+06,0,0,0,40,4352
1.19233e+06,0,0,0,296,4096
1.19233e+06,0,0,0,40,4352
1.21408e+06,0,0,0,296,4096
1.21409e+06,0,0,0,40,4352
1.21954e+06,0,0,0,296,4096
1.22015e+06,0,0,0,1320,3072
1.22015e+06,0,0,0,2344,2048
1.22016e+06,0,0,0,1320,3072
1.22016e+06,0,0,0,296,4096
1.22016e+06,0,0,0,168,4224
1.22016e+06,0,0,0,40,4352
1.23048e+06,0,0,0,168,4224
1.23113e+06,0,0,0,296,4096
1.23425e+06,0,0,0,1320,3072
1.23425e+06,0,0,0,648,3744
1.23425e+06,0,0,0,324,4068
1.23425e+06,0,0,0,68,4324
1.2456e+06,0,0,0,392,4000
1.24601e+06,0,0,0,1064,3328
1.24602e+06,0,0,0,552,3840
1.24602e+06,0,0,0,168,4224
1.24602e+06,0,0,0,40,4352
1.25442e+06,0,0,0,168,4224
1.25603e+06,0,0,0,424,3968
1.25603e+06,0,0,0,40,4352
1.25738e+06,0,0,0,1064,3328
1.25738e+06,0,0,0,740,3652
1.25738e+06,0,0,0,416,3976
1.25738e+06,0,0,0,92,4300
1.26418e+06,0,0,0,604,3788
1.26418e+06,0,0,0,476,3916
1.26418e+06,0,0,0,348,4044
1.26418e+06,0,0,0,220,4172
1.26418e+06,0,0,0,92,4300
1.26834e+06,0,0,0,476,3916
1.2687e+06,0,0,0,800,3592
1.26881e+06,0,0,0,1124,3268
1.26974e+06,0,0,0,1252,3140
1.26974e+06,0,0,0,1380,3012
1.26976e+06,0,0,0,1508,2884
1.26979e+06,0,0,0,1636,2756
1.27006e+06,0,0,0,1960,2432
1.27006e+06,0,0,0,296,4096
1.27006e+06,0,0,0,40,4352
1.27801e+06,0,0,0,296,4096
1.27869e+06,0,0,0,680,3712
1.27869e+06,0,0,0,356,4036
1.27869e+06,0,0,0,100,4292
1.29004e+06,0,0,0,424,3968
1.29004e+06,0,0,0,168,4224
1.29065e+06,0,0,0,424,3968
1.29065e+06,0,0,0,168,4224
1.29065e+06,0,0,0,40,4352
1.29914e+06,0,0,0,168,4224
1.29939e+06,0,0,0,424,3968
1.29939e+06,0,0,0,168,4224
1.30281e+06,0,0,0,424,3968
1.30282e+06,0,0,0,100,4292
1.30571e+06,0,0,0,1124,3268
1.30572e+06,0,0,0,2148,2244
1.30572e+06,0,0,0,1892,2500
1.30572e+06,0,0,0,1568,2824
1.30572e+06,0,0,0,1184,3208
1.30572e+06,0,0,0,860,3532
1.30572e+06,0,0,0,536,3856
1.30572e+06,0,0,0,212,4180
1.30572e+06,0,0,0,84,4308
1.31421e+06,0,0,0,408,3984
1.31421e+06,0,0,0,280,4112
1.31421e+06,0,0,0,24,4368
1.31494e+06,0,0,0,152,4240
1.31494e+06,0,0,0,24,4368
1.31715e+06,0,0,0,348,4044
1.31715e+06,0,0,0,92,4300
1.31724e+06,0,0,0,416,3976
1.31724e+06,0,0,0,160,4232
1.31724e+06,0,0,0,32,4360
1.31744e+06,0,0,0,356,4036
1.31744e+06,0,0,0,100,4292
1.31748e+06,0,0,0,424,3968
1.31748e+06,0,0,0,100,4292
1.31787e+06,0,0,0,484,3908
1.31787e+06,0,0,0,160,4232
1.31787e+06,0,0,0,32,4360
1.32122e+06,0,0,0,288,4104
1.32122e+06,0,0,0,160,4232
1.32122e+06,0,0,0,32,4360
1.32375e+06,0,0,0,160,4232
1.32375e+06,0,0,0,32,4360
1.3252e+06,0,0,0,160,4232
1.3252e+06,0,0,0,32,4360
1.32543e+06,0,0,0,160,4232
1.32544e+06,0,0,0,32,4360
1.32571e+06,0,0,0,160,4232
1.32571e+06,0,0,0,32,4360
1.32606e+06,0,0,0,288,4104
1.32607e+06,0,0,0,32,4360
1.32746e+06,0,0,0,288,4104
1.32746e+06,0,0,0,116,4276
1.32883e+06,0,0,0,440,3952
1.32883e+06,0,0,0,56,4336
1.32926e+06,0,0,0,380,4012
1.32926e+06,0,0,0,56,4336
1.3293e+06,0,0,0,184,4208
1.3293e+06,0,0,0,56,4336
1.32962e+06,0,0,0,184,4208
1.32962e+06,0,0,0,56,4336
1.33181e+06,0,0,0,184,4208
1.33181e+06,0,0,0,56,4336
1.3321e+06,0,0,0,184,4208
1.3321e+06,0,0,0,56,4336
1.33308e+06,0,0,0,184,4208
1.33308e+06,0,0,0,56,4336
1.33403e+06,0,0,0,184,4208
1.33403e+06,0,0,0,56,4336
1.33569e+06,0,0,0,312,4080
1.33569e+06,0,0,0,184,4208
1.33569e+06,0,0,0,56,4336
1.33832e+06,0,0,0,228,4164
1.33833e+06,0,0,0,100,4292
1.33861e+06,0,0,0,228,4164
1.33861e+06,0,0,0,100,4292
1.33902e+06,0,0,0,356,4036
1.33902e+06,0,0,0,228,4164
1.33902e+06,0,0,0,100,4292
1.33904e+06,0,0,0,228,4164
1.33904e+06,0,0,0,100,4292
1.33912e+06,0,0,0,356,4036
1.33912e+06,0,0,0,164,4228
1.33912e+06,0,0,0,36,4356
1.33933e+06,0,0,0,292,4100
1.33934e+06,0,0,0,164,4228
1.33934e+06,0,0,0,36,4356
1.34e+06,0,0,0,164,4228
1.34e+06,0,0,0,36,4356
1.34035e+06,0,0,0,164,4228
1.34036e+06,0,0,0,36,4356
1.34059e+06,0,0,0,164,4228
1.3406e+06,0,0,0,36,4356
1.34068e+06,0,0,0,360,4032
1.34068e+06,0,0,0,232,4160
1.34068e+06,0,0,0,104,4288
1.34177e+06,0,0,0,232,4160
1.34177e+06,0,0,0,104,4288
1.34211e+06,0,0,0,488,3904
1.34211e+06,0,0,0,104,4288
1.34274e+06,0,0,0,232,4160
1.34274e+06,0,0,0,104,4288
1.34462e+06,0,0,0,232,4160
1.34463e+06,0,0,0,104,4288
1.345e+06,0,0,0,232,4160
1.345e+06,0,0,0,104,4288
1.3454e+06,0,0,0,232,4160
1.3454e+06,0,0,0,104,4288
1.34542e+06,0,0,0,232,4160
1.34542e+06,0,0,0,104,4288
1.34544e+06,0,0,0,232,4160
1.34544e+06,0,0,0,104,4288
1.34565e+06,0,0,0,232,4160
1.34566e+06,0,0,0,104,4288
1.34648e+06,0,0,0,232,4160
1.34648e+06,0,0,0,104,4288
1.34674e+06,0,0,0,232,4160
1.34675e+06,0,0,0,104,4288
1.34735e+06,0,0,0,232,4160
1.34736e+06,0,0,0,104,4288
1.34807e+06,0,0,0,232,4160
1.34807e+06,0,0,0,104,4288
1.34815e+06,0,0,0,232,4160
1.34815e+06,0,0,0,72,4320
1.34962e+06,0,0,0,264,4128
1.34962e+06,0,0,0,136,4256
1.34962e+06,0,0,0,8,4384
1.3501e+06,0,0,0,136,4256
1.3501e+06,0,0,0,8,4384
1.35029e+06,0,0,0,136,4256
1.35029e+06,0,0,0,8,4384
1.35141e+06,0,0,0,136,4256
1.35159e+06,0,0,0,264,4128
1.35183e+06,0,0,0,392,4000
1.35263e+06,0,0,0,776,3616
1.35272e+06,0,0,0,904,3488
1.3536e+06,0,0,0,1032,3360
1.3537e+06,0,0,0,1160,3232
1.35394e+06,0,0,0,1288,3104
1.35488e+06,0,0,0,1448,2944
1.35533e+06,0,0,0,1576,2816
1.35543e+06,0,0,0,1704,2688
1.35555e+06,0,0,0,1832,2560
1.35558e+06,0,0,0,1960,2432
1.35595e+06,0,0,0,2088,2304
1.35617e+06,0,0,0,2216,2176
1.35634e+06,0,0,0,2344,2048
1.35636e+06,0,0,0,2472,1920
1.35638e+06,0,0,0,2600,1792
1.3564e+06,0,0,0,2728,1664
1.35663e+06,0,0,0,4392,0
1.35663e+06,0,0,0,296,4096
1.35663e+06,0,0,0,168,4224
1.35663e+06,0,0,0,40,4352
1.3627e+06,0,0,0,168,4224
1.36312e+06,0,0,0,296,4096
1.36333e+06,0,0,0,4392,0
1.36333e+06,0,0,0,3752,640
1.36333e+06,0,0,0,2728,1664
1.36333e+06,0,0,0,2344,2048
1.36333e+06,0,0,0,1608,2784
1.36333e+06,0,0,0,584,3808
1.36333e+06,0,0,0,328,4064
1.36333e+06,0,0,0,200,4192
1.36333e+06,0,0,0,72,4320
1.3735e+06,0,0,0,200,4192
1.3735e+06,0,0,0,72,4320
1.37428e+06,0,0,0,200,4192
1.37428e+06,0,0,0,72,4320
1.37547e+06,0,0,0,328,4064
1.37548e+06,0,0,0,72,4320
1.37598e+06,0,0,0,1096,3296
1.37598e+06,0,0,0,840,3552
1.37598e+06,0,0,0,584,3808
1.37598e+06,0,0,0,328,4064
1.37977e+06,0,0,0,456,3936
1.38072e+06,0,0,0,712,3680
1.38086e+06,0,0,0,840,3552
1.38102e+06,0,0,0,1096,3296
1.38104e+06,0,0,0,1352,3040
1.3811e+06,0,0,0,1608,2784
1.38119e+06,0,0,0,2632,1760
1.38119e+06,0,0,0,584,3808
1.38119e+06,0,0,0,200,4192
1.38119e+06,0,0,0,72,4320
1.38855e+06,0,0,0,200,4192
1.38856e+06,0,0,0,2248,2144
1.38856e+06,0,0,0,200,4192
1.39234e+06,0,0,0,840,3552
1.39234e+06,0,0,0,456,3936
1.39591e+06,0,0,0,840,3552
1.39592e+06,0,0,0,316,4076
1.39592e+06,0,0,0,60,4332
1.39942e+06,0,0,0,796,3596
1.39943e+06,0,0,0,668,3724
1.39943e+06,0,0,0,540,3852
1.39943e+06,0,0,0,412,3980
1.39943e+06,0,0,0,284,4108
1.39943e+06,0,0,0,156,4236
1.39943e+06,0,0,0,28,4364
1.40797e+06,0,0,0,156,4236
1.40861e+06,0,0,0,284,4108
1.41034e+06,0,0,0,412,3980
1.41037e+06,0,0,0,540,3852
1.41045e+06,0,0,0,668,3724
1.41161e+06,0,0,0,796,3596
1.41373e+06,0,0,0,1180,3212
1.41374e+06,0,0,0,156,4236
1.41457e+06,0,0,0,540,3852
1.41457e+06,0,0,0,284,4108
1.41457e+06,0,0,0,28,4364
1.41882e+06,0,0,0,284,4108
1.41882e+06,0,0,0,28,4364
1.42849e+06,0,0,0,552,3840
1.42849e+06,0,0,0,296,4096
1.42849e+06,0,0,0,40,4352
1.43194e+06,0,0,0,1064,3328
1.43195e+06,0,0,0,424,3968
1.43632e+06,0,0,0,680,3712
1.43632e+06,0,0,0,168,4224
1.43632e+06,0,0,0,40,4352
1.43634e+06,0,0,0,296,4096
1.43634e+06,0,0,0,40,4352
1.44061e+06,0,0,0,296,4096
1.44462e+06,0,0,0,552,3840
1.44558e+06,0,0,0,680,3712
1.44646e+06,0,0,0,2728,1664
1.44646e+06,0,0,0,1925,2467
1.44646e+06,0,0,0,1669,2723
1.44646e+06,0,0,0,1157,3235
1.44646e+06,0,0,0,645,3747
1.44646e+06,0,0,0,145,4247
1.44646e+06,0,0,0,17,4375
1.45028e+06,0,0,0,273,4119
1.45029e+06,0,0,0,17,4375
1.45038e+06,0,0,0,273,4119
1.45038e+06,0,0,0,17,4375
1.45738e+06,0,0,0,145,4247
1.45739e+06,0,0,0,17,4375
1.46131e+06,0,0,0,273,4119
1.46131e+06,0,0,0,145,4247
1.46131e+06,0,0,0,17,4375
1.46133e+06,0,0,0,273,4119
1.46133e+06,0,0,0,145,4247
1.46133e+06,0,0,0,17,4375
1.46744e+06,0,0,0,145,4247
1.46748e+06,0,0,0,273,4119
1.46762e+06,0,0,0,401,3991
1.46813e+06,0,0,0,657,3735
1.46864e+06,0,0,0,785,3607
1.46892e+06,0,0,0,913,3479
1.46892e+06,0,0,0,1425,2967
1.46893e+06,0,0,0,401,3991
1.46893e+06,0,0,0,145,4247
1.46893e+06,0,0,0,17,4375
1.47498e+06,0,0,0,145,4247
1.47508e+06,0,0,0,785,3607
1.47508e+06,0,0,0,497,3895
1.47508e+06,0,0,0,241,4151
1.47834e+06,0,0,0,1265,3127
1.47834e+06,0,0,0,463,3929
1.47834e+06,0,0,0,207,4185
1.47904e+06,0,0,0,719,3673
1.47904e+06,0,0,0,1219,3173
1.47904e+06,0,0,0,963,3429
1.47904e+06,0,0,0,962,3430
1.47904e+06,0,0,0,578,3814
1.47904e+06,0,0,0,450,3942
1.47904e+06,0,0,0,322,4070
1.47904e+06,0,0,0,194,4198
1.47904e+06,0,0,0,66,4326
1.47906e+06,0,0,0,578,3814
1.47907e+06,0,0,0,450,3942
1.47907e+06,0,0,0,322,4070
1.47907e+06,0,0,0,194,4198
1.47907e+06,0,0,0,66,4326
1.48253e+06,0,0,0,869,3523
1.48503e+06,0,0,0,997,3395
1.48505e+06,0,0,0,1125,3267
1.48508e+06,0,0,0,1253,3139
1.4851e+06,0,0,0,1381,3011
1.48526e+06,0,0,0,1509,2883
1.48536e+06,0,0,0,1637,2755
1.48537e+06,0,0,0,1765,2627
1.48541e+06,0,0,0,1893,2499
1.48578e+06,0,0,0,2181,2211
1.48579e+06,0,0,0,133,4259
1.48579e+06,0,0,0,5,4387
1.48928e+06,0,0,0,261,4131
1.48928e+06,0,0,0,133,4259
1.48928e+06,0,0,0,5,4387
1.49004e+06,0,0,0,261,4131
1.49005e+06,0,0,0,133,4259
1.49005e+06,0,0,0,5,4387
1.49073e+06,0,0,0,261,4131
1.49073e+06,0,0,0,133,4259
1.49073e+06,0,0,0,5,4387
1.49651e+06,0,0,0,133,4259
1.49651e+06,0,0,0,5,4387
1.49673e+06,0,0,0,261,4131
1.49673e+06,0,0,0,133,4259
1.49673e+06,0,0,0,5,4387
1.49821e+06,0,0,0,133,4259
1.49822e+06,0,0,0,5,4387
1.49845e+06,0,0,0,133,4259
1.49845e+06,0,0,0,5,4387
1.49969e+06,0,0,0,133,4259
1.50005e+06,0,0,0,261,4131
1.50006e+06,0,0,0,5,4387
1.50021e+06,0,0,0,133,4259
1.50178e+06,0,0,0,261,4131
1.50179e+06,0,0,0,5,4387
1.50554e+06,0,0,0,261,4131
1.50558e+06,0,0,0,389,4003
1.50572e+06,0,0,0,517,3875
1.50702e+06,0,0,0,645,3747
1.50729e+06,0,0,0,901,3491
1.5077e+06,0,0,0,1029,3363
1.50774e+06,0,0,0,1157,3235
1.50805e+06,0,0,0,3205,1187
1.50805e+06,0,0,0,1157,3235
1.50805e+06,0,0,0,133,4259
1.51165e+06,0,0,0,517,3875
1.51527e+06,0,0,0,1541,2851
1.51634e+06,0,0,0,3589,803
1.51635e+06,0,0,0,1541,2851
1.51635e+06,0,0,0,1285,3107
1.51635e+06,0,0,0,773,3619
1.51635e+06,0,0,0,261,4131
1.52037e+06,0,0,0,1063,3329
1.52037e+06,0,0,0,743,3649
1.52037e+06,0,0,0,487,3905
1.52037e+06,0,0,0,231,4161
1.52173e+06,0,0,0,103,4289
1.52855e+06,0,0,0,231,4161
1.52864e+06,0,0,0,743,3649
1.52864e+06,0,0,0,487,3905
1.52864e+06,0,0,0,231,4161
1.52864e+06,0,0,0,103,4289
1.53788e+06,0,0,0,231,4161
1.53803e+06,0,0,0,487,3905
1.53803e+06,0,0,0,231,4161
1.54198e+06,0,0,0,487,3905
1.54198e+06,0,0,0,231,4161
1.542e+06,0,0,0,487,3905
1.542e+06,0,0,0,231,4161
1.54217e+06,0,0,0,551,3841
1.54218e+06,0,0,0,295,4097
1.54218e+06,0,0,0,39,4353
1.54906e+06,0,0,0,551,3841
1.54906e+06,0,0,0,295,4097
1.54906e+06,0,0,0,39,4353
1.55045e+06,0,0,0,295,4097
1.55046e+06,0,0,0,39,4353
1.55046e+06,0,0,0,295,4097
1.55046e+06,0,0,0,39,4353
1.55238e+06,0,0,0,40,4352
1.55975e+06,0,0,0,296,4096
1.55976e+06,0,0,0,40,4352
1.56375e+06,0,0,0,296,4096
1.56376e+06,0,0,0,40,4352
1.56397e+06,0,0,0,296,4096
1.56398e+06,0,0,0,40,4352
1.56403e+06,0,0,0,296,4096
1.56403e+06,0,0,0,40,4352
1.56499e+06,0,0,0,296,4096
1.565e+06,0,0,0,40,4352
1.57091e+06,0,0,0,296,4096
1.57091e+06,0,0,0,40,4352
1.57204e+06,0,0,0,296,4096
1.57204e+06,0,0,0,40,4352
1.57222e+06,0,0,0,296,4096
1.57223e+06,0,0,0,40,4352
1.57226e+06,0,0,0,296,4096
1.57226e+06,0,0,0,168,4224
1.57226e+06,0,0,0,40,4352
1.58154e+06,0,0,0,296,4096
1.58155e+06,0,0,0,168,4224
1.58155e+06,0,0,0,40,4352
1.58302e+06,0,0,0,168,4224
1.58302e+06,0,0,0,40,4352
1.58333e+06,0,0,0,168,4224
1.58333e+06,0,0,0,40,4352
1.5856e+06,0,0,0,296,4096
1.58561e+06,0,0,0,40,4352
1.5857e+06,0,0,0,296,4096
1.5857e+06,0,0,0,40,4352
1.58582e+06,0,0,0,296,4096
1.58582e+06,0,0,0,40,4352
1.58671e+06,0,0,0,296,4096
1.59116e+06,0,0,0,552,3840
1.59133e+06,0,0,0,808,3584
1.59243e+06,0,0,0,936,3456
1.59256e+06,0,0,0,1064,3328
1.59281e+06,0,0,0,1320,3072
1.59307e+06,0,0,0,1576,2816
1.59334e+06,0,0,0,1704,2688
1.5941e+06,0,0,0,1832,2560
1.59411e+06,0,0,0,2088,2304
1.59411e+06,0,0,0,40,4352
1.59536e+06,0,0,0,296,4096
1.59537e+06,0,0,0,151,4241
1.60103e+06,0,0,0,296,4096
1.60294e+06,0,0,0,2344,2048
1.60295e+06,0,0,0,296,4096
1.60295e+06,0,0,0,40,4352
1.60295e+06,0,0,0,39,4353
1.60295e+06,0,0,0,38,4354
1.60295e+06,0,0,0,37,4355
1.62473e+06,0,0,0,293,4099
1.62473e+06,0,0,0,37,4355
1.6466e+06,0,0,0,293,4099
1.6466e+06,0,0,0,37,4355
1.66838e+06,0,0,0,293,4099
1.66838e+06,0,0,0,165,4227
1.66838e+06,0,0,0,27,4365
1.67509e+06,0,0,0,28,4364
1.67516e+06,0,0,0,29,4363
1.67705e+06,0,0,0,30,4362
1.67935e+06,0,0,0,158,4234
1.67987e+06,0,0,0,296,4096
1.68078e+06,0,0,0,2344,2048
1.68078e+06,0,0,0,1704,2688
1.68078e+06,0,0,0,1320,3072
1.68078e+06,0,0,0,808,3584
1.68078e+06,0,0,0,680,3712
1.68078e+06,0,0,0,424,3968
1.68078e+06,0,0,0,168,4224
1.68446e+06,0,0,0,2216,2176
1.68447e+06,0,0,0,1960,2432
1.68447e+06,0,0,0,1704,2688
1.68447e+06,0,0,0,1448,2944
1.68447e+06,0,0,0,1192,3200
1.68447e+06,0,0,0,936,3456
1.68447e+06,0,0,0,424,3968
1.68447e+06,0,0,0,296,4096
1.68447e+06,0,0,0,168,4224
1.68447e+06,0,0,0,40,4352
1.695e+06,0,0,0,168,4224
1.695e+06,0,0,0,40,4352
1.69549e+06,0,0,0,168,4224
1.69549e+06,0,0,0,40,4352
1.69568e+06,0,0,0,552,3840
1.69569e+06,0,0,0,296,4096
1.69569e+06,0,0,0,40,4352
1.69658e+06,0,0,0,168,4224
1.70111e+06,0,0,0,424,3968
1.70132e+06,0,0,0,680,3712
1.70155e+06,0,0,0,808,3584
1.70194e+06,0,0,0,936,3456
1.70256e+06,0,0,0,1192,3200
1.70257e+06,0,0,0,168,4224
1.7035e+06,0,0,0,424,3968
1.70351e+06,0,0,0,168,4224
1.70621e+06,0,0,0,424,3968
1.70622e+06,0,0,0,680,3712
1.70622e+06,0,0,0,180,4212
1.70627e+06,0,0,0,436,3956
1.70628e+06,0,0,0,52,4340
1.70632e+06,0,0,0,308,4084
1.70632e+06,0,0,0,52,4340
1.70733e+06,0,0,0,308,4084
1.70733e+06,0,0,0,52,4340
1.71298e+06,0,0,0,308,4084
1.71333e+06,0,0,0,820,3572
1.71334e+06,0,0,0,308,4084
1.71337e+06,0,0,0,692,3700
1.71337e+06,0,0,0,308,4084
1.71337e+06,0,0,0,180,4212
1.71337e+06,0,0,0,52,4340
1.72257e+06,0,0,0,180,4212
1.72337e+06,0,0,0,436,3956
1.72387e+06,0,0,0,564,3828
1.72397e+06,0,0,0,1204,3188
1.72397e+06,0,0,0,564,3828
1.72397e+06,0,0,0,52,4340
1.72402e+06,0,0,0,564,3828
1.72402e+06,0,0,0,308,4084
1.72402e+06,0,0,0,52,4340
1.72799e+06,0,0,0,308,4084
1.728e+06,0,0,0,52,4340
1.73148e+06,0,0,0,436,3956
1.73148e+06,0,0,0,180,4212
1.73148e+06,0,0,0,52,4340
1.73758e+06,0,0,0,180,4212
1.73876e+06,0,0,0,680,3712
1.73877e+06,0,0,0,424,3968
1.73877e+06,0,0,0,296,4096
1.73877e+06,0,0,0,168,4224
1.73877e+06,0,0,0,40,4352
1.73896e+06,0,0,0,424,3968
1.73896e+06,0,0,0,296,4096
1.73896e+06,0,0,0,168,4224
1.73965e+06,0,0,0,424,3968
1.73965e+06,0,0,0,168,4224
1.73965e+06,0,0,0,40,4352
1.74571e+06,0,0,0,296,4096
1.74577e+06,0,0,0,552,3840
1.74578e+06,0,0,0,168,4224
1.7497e+06,0,0,0,296,4096
1.7497e+06,0,0,0,40,4352
1.74971e+06,0,0,0,168,4224
1.74976e+06,0,0,0,296,4096
1.74976e+06,0,0,0,40,4352
1.74992e+06,0,0,0,168,4224
1.74992e+06,0,0,0,296,4096
1.74993e+06,0,0,0,40,4352
1.75057e+06,0,0,0,168,4224
1.75324e+06,0,0,0,424,3968
1.75325e+06,0,0,0,168,4224
1.75652e+06,0,0,0,680,3712
1.75652e+06,0,0,0,194,4198
1.76043e+06,0,0,0,450,3942
1.76044e+06,0,0,0,194,4198
1.76044e+06,0,0,0,66,4326
1.7613e+06,0,0,0,322,4070
1.76131e+06,0,0,0,194,4198
1.76131e+06,0,0,0,66,4326
1.76708e+06,0,0,0,706,3686
1.76929e+06,0,0,0,962,3430
1.77121e+06,0,0,0,1090,3302
1.77138e+06,0,0,0,1218,3174
1.77144e+06,0,0,0,1346,3046
1.77146e+06,0,0,0,1602,2790
1.77154e+06,0,0,0,1858,2534
1.77166e+06,0,0,0,2114,2278
1.77166e+06,0,0,0,66,4326
1.77501e+06,0,0,0,322,4070
1.77951e+06,0,0,0,706,3686
1.77952e+06,0,0,0,194,4198
1.77952e+06,0,0,0,66,4326
1.78834e+06,0,0,0,194,4198
1.78909e+06,0,0,0,680,3712
1.7891e+06,0,0,0,1704,2688
1.7891e+06,0,0,0,902,3490
1.79165e+06,0,0,0,1414,2978
1.7926e+06,0,0,0,3462,930
1.79261e+06,0,0,0,1414,2978
1.79261e+06,0,0,0,1286,3106
1.79261e+06,0,0,0,1158,3234
1.79261e+06,0,0,0,1030,3362
1.79261e+06,0,0,0,902,3490
1.79261e+06,0,0,0,774,3618
1.79261e+06,0,0,0,646,3746
1.79261e+06,0,0,0,518,3874
1.79261e+06,0,0,0,390,4002
1.79261e+06,0,0,0,262,4130
1.79261e+06,0,0,0,6,4386
1.79777e+06,0,0,0,262,4130
1.79777e+06,0,0,0,6,4386
1.803e+06,0,0,0,134,4258
1.803e+06,0,0,0,6,4386
1.80305e+06,0,0,0,134,4258
1.80305e+06,0,0,0,6,4386
1.80317e+06,0,0,0,134,4258
1.80343e+06,0,0,0,262,4130
1.80343e+06,0,0,0,6,4386
1.80345e+06,0,0,0,134,4258
1.80357e+06,0,0,0,262,4130
1.80357e+06,0,0,0,390,4002
1.80357e+06,0,0,0,518,3874
1.80363e+06,0,0,0,646,3746
1.80881e+06,0,0,0,774,3618
1.80904e+06,0,0,0,902,3490
1.80968e+06,0,0,0,1158,3234
1.81029e+06,0,0,0,1414,2978
1.81079e+06,0,0,0,2216,2176
1.81079e+06,0,0,0,168,4224
1.81079e+06,0,0,0,40,4352
1.82173e+06,0,0,0,168,4224
1.82173e+06,0,0,0,40,4352
1.83273e+06,0,0,0,168,4224
1.83273e+06,0,0,0,40,4352
1.84366e+06,0,0,0,168,4224
1.84366e+06,0,0,0,40,4352
1.84987e+06,0,0,0,168,4224
1.85035e+06,0,0,0,2216,2176
1.85035e+06,0,0,0,168,4224
1.85035e+06,0,0,0,40,4352
1.86129e+06,0,0,0,168,4224
1.86129e+06,0,0,0,40,4352
1.86698e+06,0,0,0,168,4224
1.86853e+06,0,0,0,2216,2176
1.86853e+06,0,0,0,1960,2432
1.86853e+06,0,0,0,1704,2688
1.86853e+06,0,0,0,1240,3152
1.86853e+06,0,0,0,88,4304
1.88862e+06,0,0,0,344,4048
1.89021e+06,0,0,0,808,3584
1.89022e+06,0,0,0,296,4096
1.89022e+06,0,0,0,40,4352
1.89025e+06,0,0,0,296,4096
1.89025e+06,0,0,0,168,4224
1.89025e+06,0,0,0,40,4352
1.90118e+06,0,0,0,168,4224
1.90127e+06,0,0,0,296,4096
1.90238e+06,0,0,0,808,3584
1.90238e+06,0,0,0,424,3968
1.90238e+06,0,0,0,296,4096
1.9081e+06,0,0,0,424,3968
1.90814e+06,0,0,0,2472,1920
1.90814e+06,0,0,0,1960,2432
1.90814e+06,0,0,0,1320,3072
1.90814e+06,0,0,0,1064,3328
1.90814e+06,0,0,0,808,3584
1.90814e+06,0,0,0,552,3840
1.90814e+06,0,0,0,296,4096
1.90814e+06,0,0,0,40,4352
1.91201e+06,0,0,0,296,4096
1.91202e+06,0,0,0,40,4352
1.91553e+06,0,0,0,552,3840
1.91553e+06,0,0,0,40,4352
1.92291e+06,0,0,0,552,3840
1.92291e+06,0,0,0,424,3968
1.92291e+06,0,0,0,296,4096
1.92904e+06,0,0,0,424,3968
1.92969e+06,0,0,0,552,3840
1.92974e+06,0,0,0,808,3584
1.92977e+06,0,0,0,1064,3328
1.92978e+06,0,0,0,40,4352
1.92988e+06,0,0,0,296,4096
1.92988e+06,0,0,0,552,3840
1.92989e+06,0,0,0,168,4224
1.92995e+06,0,0,0,424,3968
1.92995e+06,0,0,0,168,4224
1.93373e+06,0,0,0,424,3968
1.93373e+06,0,0,0,168,4224
1.93492e+06,0,0,0,552,3840
1.93492e+06,0,0,0,296,4096
1.93661e+06,0,0,0,1320,3072
1.93662e+06,0,0,0,296,4096
1.93662e+06,0,0,0,168,4224
1.93662e+06,0,0,0,40,4352
1.94639e+06,0,0,0,168,4224
1.94644e+06,0,0,0,296,4096
1.94741e+06,0,0,0,552,3840
1.95246e+06,0,0,0,1192,3200
1.95247e+06,0,0,0,168,4224
1.95291e+06,0,0,0,424,3968
1.95637e+06,0,0,0,1576,2816
1.95637e+06,0,0,0,552,3840
1.95637e+06,0,0,0,424,3968
1.95637e+06,0,0,0,296,4096
1.95637e+06,0,0,0,168,4224
1.95637e+06,0,0,0,40,4352
1.95671e+06,0,0,0,296,4096
1.95671e+06,0,0,0,104,4288
1.96251e+06,0,0,0,488,3904
1.96502e+06,0,0,0,680,3712
1.96614e+06,0,0,0,808,3584
1.96614e+06,0,0,0,936,3456
1.96615e+06,0,0,0,1064,3328
1.96616e+06,0,0,0,40,4352
1.96617e+06,0,0,0,168,4224
1.96618e+06,0,0,0,40,4352
1.97722e+06,0,0,0,168,4224
1.97722e+06,0,0,0,40,4352
1.98825e+06,0,0,0,168,4224
1.98826e+06,0,0,0,40,4352
1.9992e+06,0,0,0,168,4224
2.00229e+06,0,0,0,1192,3200
2.00229e+06,0,0,0,168,4224
2.00229e+06,0,0,0,40,4352
2.01328e+06,0,0,0,168,4224
2.01328e+06,0,0,0,40,4352
2.0206e+06,0,0,0,168,4224
2.02083e+06,0,0,0,1192,3200
2.02083e+06,0,0,0,168,4224
2.02083e+06,0,0,0,16,4376
2.03309e+06,0,0,0,168,4224
2.03553e+06,0,0,0,1192,3200
2.03553e+06,0,0,0,168,4224
2.03939e+06,0,0,0,1192,3200
2.03939e+06,0,0,0,168,4224
2.03939e+06,0,0,0,40,4352
2.05002e+06,0,0,0,168,4224
2.05002e+06,0,0,0,40,4352
2.06222e+06,0,0,0,168,4224
2.06222e+06,0,0,0,40,4352
2.07322e+06,0,0,0,168,4224
2.07447e+06,0,0,0,1192,3200
2.07447e+06,0,0,0,168,4224
2.07637e+06,0,0,0,1192,3200
2.07638e+06,0,0,0,168,4224
2.07638e+06,0,0,0,40,4352
2.08657e+06,0,0,0,168,4224
2.09009e+06,0,0,0,1192,3200
2.09009e+06,0,0,0,168,4224
2.09135e+06,0,0,0,1192,3200
2.09136e+06,0,0,0,168,4224
2.09525e+06,0,0,0,1192,3200
2.09526e+06,0,0,0,168,4224
2.09526e+06,0,0,0,40,4352
2.10508e+06,0,0,0,168,4224
2.10821e+06,0,0,0,1192,3200
2.10821e+06,0,0,0,168,4224
2.10955e+06,0,0,0,1192,3200
2.10956e+06,0,0,0,168,4224
2.10956e+06,0,0,0,40,4352
2.11502e+06,0,0,0,168,4224
2.11546e+06,0,0,0,1192,3200
2.11546e+06,0,0,0,168,4224
2.11549e+06,0,0,0,1192,3200
2.11549e+06,0,0,0,168,4224
2.1169e+06,0,0,0,1192,3200
2.1169e+06,0,0,0,944,3448
2.1169e+06,0,0,0,943,3449
2.1169e+06,0,0,0,687,3705
2.1169e+06,0,0,0,495,3897
2.1169e+06,0,0,0,367,4025
2.1169e+06,0,0,0,239,4153
2.1169e+06,0,0,0,47,4345
2.12599e+06,0,0,0,239,4153
2.12625e+06,0,0,0,367,4025
2.12669e+06,0,0,0,495,3897
2.12719e+06,0,0,0,687,3705
2.12722e+06,0,0,0,1711,2681
2.12722e+06,0,0,0,909,3483
2.12788e+06,0,0,0,1157,3235
2.12788e+06,0,0,0,133,4259
2.1334e+06,0,0,0,1157,3235
2.1334e+06,0,0,0,965,3427
2.1334e+06,0,0,0,837,3555
2.1334e+06,0,0,0,709,3683
2.1334e+06,0,0,0,517,3875
2.1334e+06,0,0,0,389,4003
2.1334e+06,0,0,0,197,4195
2.1334e+06,0,0,0,69,4323
2.13864e+06,0,0,0,325,4067
2.1403e+06,0,0,0,453,3939
2.14046e+06,0,0,0,581,3811
2.14189e+06,0,0,0,709,3683
2.14205e+06,0,0,0,837,3555
2.14208e+06,0,0,0,1029,3363
2.14269e+06,0,0,0,1221,3171
2.14286e+06,0,0,0,2245,2147
2.14286e+06,0,0,0,197,4195
2.14286e+06,0,0,0,5,4387
2.14286e+06,0,0,0,4,4388
2.1444e+06,0,0,0,196,4196
2.1444e+06,0,0,0,68,4324
2.15378e+06,0,0,0,260,4132
2.15378e+06,0,0,0,4,4388
2.15539e+06,0,0,0,132,4260
2.15539e+06,0,0,0,4,4388
2.15546e+06,0,0,0,5,4387
2.16474e+06,0,0,0,261,4131
2.16475e+06,0,0,0,5,4387
2.16632e+06,0,0,0,133,4259
2.16633e+06,0,0,0,5,4387
2.17724e+06,0,0,0,133,4259
2.17724e+06,0,0,0,5,4387
2.18653e+06,0,0,0,261,4131
2.18654e+06,0,0,0,5,4387
2.18775e+06,0,0,0,1029,3363
2.18776e+06,0,0,0,773,3619
2.18776e+06,0,0,0,517,3875
2.18776e+06,0,0,0,261,4131
2.18776e+06,0,0,0,5,4387
2.1881e+06,0,0,0,133,4259
2.18811e+06,0,0,0,5,4387
2.19015e+06,0,0,0,6,4386
2.1952e+06,0,0,0,134,4258
2.19521e+06,0,0,0,6,4386
2.2058e+06,0,0,0,134,4258
2.20829e+06,0,0,0,390,4002
2.20942e+06,0,0,0,646,3746
2.20944e+06,0,0,0,902,3490
2.20948e+06,0,0,0,1158,3234
2.20951e+06,0,0,0,1414,2978
2.21376e+06,0,0,0,2216,2176
2.21376e+06,0,0,0,168,4224
2.21376e+06,0,0,0,167,4225
2.21376e+06,0,0,0,39,4353
2.22471e+06,0,0,0,167,4225
2.22939e+06,0,0,0,2215,2177
2.22939e+06,0,0,0,1715,2677
2.22939e+06,0,0,0,1203,3189
2.22939e+06,0,0,0,691,3701
2.22939e+06,0,0,0,435,3957
2.22939e+06,0,0,0,179,4213
2.22939e+06,0,0,0,34,4358
2.23514e+06,0,0,0,179,4213
2.23514e+06,0,0,0,51,4341
2.24017e+06,0,0,0,179,4213
2.24035e+06,0,0,0,435,3957
2.24035e+06,0,0,0,179,4213
2.24035e+06,0,0,0,178,4214
2.24035e+06,0,0,0,50,4342
2.24042e+06,0,0,0,306,4086
2.24042e+06,0,0,0,114,4278
2.2491e+06,0,0,0,306,4086
2.2491e+06,0,0,0,114,4278
2.25016e+06,0,0,0,242,4150
2.25016e+06,0,0,0,50,4342
2.25693e+06,0,0,0,242,4150
2.25881e+06,0,0,0,434,3958
2.26194e+06,0,0,0,934,3458
2.26194e+06,0,0,0,1446,2946
2.26195e+06,0,0,0,422,3970
2.26195e+06,0,0,0,166,4226
2.262e+06,0,0,0,678,3714
2.262e+06,0,0,0,422,3970
2.262e+06,0,0,0,230,4162
2.262e+06,0,0,0,38,4354
2.26201e+06,0,0,0,294,4098
2.26202e+06,0,0,0,38,4354
2.27056e+06,0,0,0,230,4162
2.27056e+06,0,0,0,38,4354
2.271e+06,0,0,0,230,4162
2.271e+06,0,0,0,38,4354
2.2726e+06,0,0,0,294,4098
2.2726e+06,0,0,0,102,4290
2.27933e+06,0,0,0,294,4098
2.27975e+06,0,0,0,486,3906
2.28041e+06,0,0,0,678,3714
2.28213e+06,0,0,0,1702,2690
2.28214e+06,0,0,0,678,3714
2.28368e+06,0,0,0,934,3458
2.28377e+06,0,0,0,1190,3202
2.28378e+06,0,0,0,166,4226
2.28378e+06,0,0,0,38,4354
2.28591e+06,0,0,0,39,4353
2.29358e+06,0,0,0,167,4225
2.29358e+06,0,0,0,39,4353
2.2988e+06,0,0,0,167,4225
2.30029e+06,0,0,0,2215,2177
2.3003e+06,0,0,0,1191,3201
2.3003e+06,0,0,0,167,4225
2.3003e+06,0,0,0,39,4353
2.30578e+06,0,0,0,167,4225
2.30879e+06,0,0,0,295,4097
2.3088e+06,0,0,0,39,4353
2.31249e+06,0,0,0,40,4352
2.3306e+06,0,0,0,296,4096
2.33061e+06,0,0,0,40,4352
2.34158e+06,0,0,0,296,4096
2.34158e+06,0,0,0,40,4352
2.35258e+06,0,0,0,296,4096
2.35259e+06,0,0,0,104,4288
2.36128e+06,0,0,0,296,4096
2.36128e+06,0,0,0,168,4224
2.36128e+06,0,0,0,40,4352
2.36653e+06,0,0,0,168,4224
2.36676e+06,0,0,0,296,4096
2.36779e+06,0,0,0,1320,3072
2.36779e+06,0,0,0,936,3456
2.36779e+06,0,0,0,552,3840
2.36779e+06,0,0,0,168,4224
2.36928e+06,0,0,0,1192,3200
2.36929e+06,0,0,0,40,4352
2.37472e+06,0,0,0,424,3968
2.37472e+06,0,0,0,232,4160
2.37472e+06,0,0,0,40,4352
2.37912e+06,0,0,0,424,3968
2.37912e+06,0,0,0,296,4096
2.37912e+06,0,0,0,168,4224
2.37912e+06,0,0,0,40,4352
2.3835e+06,0,0,0,232,4160
2.38353e+06,0,0,0,424,3968
2.38449e+06,0,0,0,552,3840
2.38452e+06,0,0,0,680,3712
2.38456e+06,0,0,0,808,3584
2.38512e+06,0,0,0,1832,2560
2.38519e+06,0,0,0,2856,1536
2.3852e+06,0,0,0,808,3584
2.3852e+06,0,0,0,616,3776
2.3852e+06,0,0,0,232,4160
2.3852e+06,0,0,0,40,4352
2.39332e+06,0,0,0,232,4160
2.39425e+06,0,0,0,424,3968
2.39426e+06,0,0,0,40,4352
2.40032e+06,0,0,0,424,3968
2.40033e+06,0,0,0,232,4160
2.40453e+06,0,0,0,616,3776
2.40453e+06,0,0,0,292,4100
2.40743e+06,0,0,0,676,3716
2.40744e+06,0,0,0,352,4040
2.40744e+06,0,0,0,224,4168
2.40744e+06,0,0,0,32,4360
2.40942e+06,0,0,0,224,4168
2.40942e+06,0,0,0,96,4296
2.41471e+06,0,0,0,224,4168
2.41584e+06,0,0,0,548,3844
2.41584e+06,0,0,0,292,4100
2.41634e+06,0,0,0,484,3908
2.41635e+06,0,0,0,160,4232
2.41649e+06,0,0,0,2208,2184
2.4165e+06,0,0,0,1952,2440
2.4165e+06,0,0,0,1824,2568
2.4165e+06,0,0,0,1632,2760
2.4165e+06,0,0,0,1308,3084
2.4165e+06,0,0,0,1180,3212
2.4165e+06,0,0,0,856,3536
2.4165e+06,0,0,0,664,3728
2.4165e+06,0,0,0,340,4052
2.4165e+06,0,0,0,84,4308
2.41837e+06,0,0,0,212,4180
2.41837e+06,0,0,0,84,4308
2.41871e+06,0,0,0,408,3984
2.41871e+06,0,0,0,280,4112
2.41871e+06,0,0,0,152,4240
2.41871e+06,0,0,0,24,4368
2.42391e+06,0,0,0,152,4240
2.42504e+06,0,0,0,280,4112
2.42504e+06,0,0,0,472,3920
2.42505e+06,0,0,0,280,4112
2.42505e+06,0,0,0,152,4240
2.42537e+06,0,0,0,344,4048
2.42726e+06,0,0,0,472,3920
2.42741e+06,0,0,0,600,3792
2.42763e+06,0,0,0,924,3468
2.42764e+06,0,0,0,204,4188
2.42764e+06,0,0,0,76,4316
2.42773e+06,0,0,0,400,3992
2.42773e+06,0,0,0,272,4120
2.42773e+06,0,0,0,144,4248
2.42773e+06,0,0,0,16,4376
2.42777e+06,0,0,0,340,4052
2.42777e+06,0,0,0,212,4180
2.42777e+06,0,0,0,84,4308
2.42782e+06,0,0,0,408,3984
2.42782e+06,0,0,0,216,4176
2.42966e+06,0,0,0,344,4048
2.42967e+06,0,0,0,20,4372
2.42972e+06,0,0,0,148,4244
2.43402e+06,0,0,0,340,4052
2.43402e+06,0,0,0,16,4376
2.43449e+06,0,0,0,144,4248
2.43451e+06,0,0,0,272,4120
2.43451e+06,0,0,0,80,4312
2.43476e+06,0,0,0,208,4184
2.43685e+06,0,0,0,400,3992
2.43685e+06,0,0,0,76,4316
2.43767e+06,0,0,0,332,4060
2.4382e+06,0,0,0,588,3804
2.4382e+06,0,0,0,76,4316
2.43822e+06,0,0,0,332,4060
2.43822e+06,0,0,0,8,4384
2.43855e+06,0,0,0,136,4256
2.43855e+06,0,0,0,264,4128
2.43864e+06,0,0,0,392,4000
2.43865e+06,0,0,0,520,3872
2.43865e+06,0,0,0,8,4384
2.44099e+06,0,0,0,332,4060
2.44099e+06,0,0,0,204,4188
2.44099e+06,0,0,0,76,4316
2.44248e+06,0,0,0,268,4124
2.44248e+06,0,0,0,140,4252
2.44248e+06,0,0,0,12,4380
2.44289e+06,0,0,0,732,3660
2.44289e+06,0,0,0,604,3788
2.44289e+06,0,0,0,476,3916
2.44289e+06,0,0,0,348,4044
2.44289e+06,0,0,0,24,4368
2.44532e+06,0,0,0,348,4044
2.44532e+06,0,0,0,24,4368
2.44819e+06,0,0,0,348,4044
2.44921e+06,0,0,0,476,3916
2.44955e+06,0,0,0,604,3788
2.44968e+06,0,0,0,928,3464
2.44968e+06,0,0,0,208,4184
2.44968e+06,0,0,0,80,4312
2.45194e+06,0,0,0,208,4184
2.45195e+06,0,0,0,336,4056
2.45195e+06,0,0,0,80,4312
2.45331e+06,0,0,0,1232,3160
2.45331e+06,0,0,0,976,3416
2.45331e+06,0,0,0,848,3544
2.45331e+06,0,0,0,720,3672
2.45331e+06,0,0,0,592,3800
2.45331e+06,0,0,0,464,3928
2.45331e+06,0,0,0,336,4056
2.45331e+06,0,0,0,208,4184
2.45331e+06,0,0,0,80,4312
2.45348e+06,0,0,0,208,4184
2.45348e+06,0,0,0,80,4312
2.45386e+06,0,0,0,208,4184
2.45386e+06,0,0,0,80,4312
2.45394e+06,0,0,0,208,4184
2.45395e+06,0,0,0,80,4312
2.45414e+06,0,0,0,404,3988
2.45415e+06,0,0,0,276,4116
2.45415e+06,0,0,0,148,4244
2.45415e+06,0,0,0,20,4372
2.45684e+06,0,0,0,344,4048
2.45685e+06,0,0,0,216,4176
2.45834e+06,0,0,0,344,4048
2.45837e+06,0,0,0,472,3920
2.45866e+06,0,0,0,600,3792
2.4587e+06,0,0,0,728,3664
2.4588e+06,0,0,0,856,3536
2.45939e+06,0,0,0,984,3408
2.45944e+06,0,0,0,1112,3280
2.45944e+06,0,0,0,88,4304
2.45946e+06,0,0,0,216,4176
2.45946e+06,0,0,0,344,4048
2.46064e+06,0,0,0,472,3920
2.46204e+06,0,0,0,600,3792
2.46267e+06,0,0,0,1320,3072
2.46267e+06,0,0,0,296,4096
2.46267e+06,0,0,0,168,4224
2.46267e+06,0,0,0,40,4352
2.46422e+06,0,0,0,168,4224
2.46423e+06,0,0,0,40,4352
2.46427e+06,0,0,0,168,4224
2.46427e+06,0,0,0,40,4352
2.46441e+06,0,0,0,168,4224
2.46442e+06,0,0,0,40,4352
2.46482e+06,0,0,0,168,4224
2.46482e+06,0,0,0,40,4352
2.46805e+06,0,0,0,168,4224
2.4681e+06,0,0,0,296,4096
2.46944e+06,0,0,0,424,3968
2.46951e+06,0,0,0,552,3840
2.4697e+06,0,0,0,680,3712
2.47e+06,0,0,0,808,3584
2.47015e+06,0,0,0,1064,3328
2.47015e+06,0,0,0,40,4352
2.47073e+06,0,0,0,552,3840
2.47125e+06,0,0,0,1064,3328
2.47126e+06,0,0,0,40,4352
2.47149e+06,0,0,0,296,4096
2.47149e+06,0,0,0,168,4224
2.47149e+06,0,0,0,40,4352
2.48009e+06,0,0,0,168,4224
2.48009e+06,0,0,0,40,4352
2.48244e+06,0,0,0,168,4224
2.48244e+06,0,0,0,40,4352
2.48558e+06,0,0,0,168,4224
2.48559e+06,0,0,0,40,4352
2.48778e+06,0,0,0,168,4224
2.48779e+06,0,0,0,40,4352
2.49214e+06,0,0,0,168,4224
2.49214e+06,0,0,0,40,4352
2.49283e+06,0,0,0,168,4224
2.49283e+06,0,0,0,40,4352
2.4979e+06,0,0,0,168,4224
2.4979e+06,0,0,0,40,4352
2.50313e+06,0,0,0,168,4224
2.50313e+06,0,0,0,40,4352
2.50337e+06,0,0,0,168,4224
2.50337e+06,0,0,0,40,4352
2.50846e+06,0,0,0,168,4224
2.50871e+06,0,0,0,296,4096
2.50921e+06,0,0,0,1320,3072
2.50922e+06,0,0,0,996,3396
2.50922e+06,0,0,0,740,3652
2.50922e+06,0,0,0,484,3908
2.50964e+06,0,0,0,1508,2884
2.50965e+06,0,0,0,868,3524
2.50965e+06,0,0,0,612,3780
2.50965e+06,0,0,0,356,4036
2.50965e+06,0,0,0,100,4292
2.51823e+06,0,0,0,740,3652
2.51824e+06,0,0,0,484,3908
2.51824e+06,0,0,0,483,3909
2.51824e+06,0,0,0,227,4165
2.52035e+06,0,0,0,1251,3141
2.52036e+06,0,0,0,867,3525
2.52036e+06,0,0,0,611,3781
2.52036e+06,0,0,0,355,4037
2.52036e+06,0,0,0,99,4293
2.5208e+06,0,0,0,423,3969
2.5208e+06,0,0,0,167,4225
2.52297e+06,0,0,0,1191,3201
2.52297e+06,0,0,0,935,3457
2.52297e+06,0,0,0,679,3713
2.52297e+06,0,0,0,423,3969
2.52297e+06,0,0,0,167,4225
2.5274e+06,0,0,0,423,3969
2.52741e+06,0,0,0,167,4225
2.52741e+06,0,0,0,39,4353
2.52741e+06,0,0,0,295,4097
2.52742e+06,0,0,0,167,4225
2.52742e+06,0,0,0,39,4353
2.53021e+06,0,0,0,295,4097
2.53021e+06,0,0,0,167,4225
2.53128e+06,0,0,0,423,3969
2.53141e+06,0,0,0,679,3713
2.53142e+06,0,0,0,935,3457
2.53146e+06,0,0,0,1191,3201
2.53183e+06,0,0,0,1447,2945
2.53256e+06,0,0,0,1703,2689
2.5327e+06,0,0,0,1959,2433
2.53395e+06,0,0,0,2215,2177
2.53395e+06,0,0,0,167,4225
2.53395e+06,0,0,0,39,4353
2.53683e+06,0,0,0,167,4225
2.53683e+06,0,0,0,39,4353
2.53684e+06,0,0,0,167,4225
2.53685e+06,0,0,0,39,4353
2.53719e+06,0,0,0,167,4225
2.53822e+06,0,0,0,295,4097
2.53823e+06,0,0,0,39,4353
2.53999e+06,0,0,0,295,4097
2.53999e+06,0,0,0,167,4225
2.54211e+06,0,0,0,551,3841
2.5442e+06,0,0,0,679,3713
2.54426e+06,0,0,0,807,3585
2.54466e+06,0,0,0,1063,3329
2.54469e+06,0,0,0,1319,3073
2.54469e+06,0,0,0,167,4225
2.54469e+06,0,0,0,166,4226
2.54469e+06,0,0,0,38,4354
2.54472e+06,0,0,0,294,4098
2.54473e+06,0,0,0,38,4354
2.54612e+06,0,0,0,166,4226
2.54916e+06,0,0,0,422,3970
2.54916e+06,0,0,0,94,4298
2.55099e+06,0,0,0,222,4170
2.55317e+06,0,0,0,350,4042
2.55318e+06,0,0,0,22,4370
2.5533e+06,0,0,0,278,4114
2.5533e+06,0,0,0,22,4370
2.55987e+06,0,0,0,278,4114
2.55996e+06,0,0,0,534,3858
2.55997e+06,0,0,0,206,4186
2.55997e+06,0,0,0,78,4314
2.56511e+06,0,0,0,206,4186
2.56511e+06,0,0,0,78,4314
2.57119e+06,0,0,0,206,4186
2.57215e+06,0,0,0,534,3858
2.57215e+06,0,0,0,206,4186
2.57496e+06,0,0,0,534,3858
2.57496e+06,0,0,0,206,4186
2.57496e+06,0,0,0,78,4314
2.58041e+06,0,0,0,206,4186
2.58177e+06,0,0,0,534,3858
2.58177e+06,0,0,0,206,4186
2.58177e+06,0,0,0,78,4314
2.59152e+06,0,0,0,79,4313
2.59387e+06,0,0,0,207,4185
2.59402e+06,0,0,0,535,3857
2.59402e+06,0,0,0,207,4185
2.59677e+06,0,0,0,535,3857
2.59678e+06,0,0,0,207,4185
2.59678e+06,0,0,0,79,4313
2.60339e+06,0,0,0,207,4185
2.60352e+06,0,0,0,535,3857
2.60353e+06,0,0,0,207,4185
2.60353e+06,0,0,0,79,4313
2.61563e+06,0,0,0,207,4185
2.61577e+06,0,0,0,535,3857
2.61578e+06,0,0,0,207,4185
2.61689e+06,0,0,0,208,4184
2.61709e+06,0,0,0,2256,2136
2.6171e+06,0,0,0,2000,2392
2.6171e+06,0,0,0,1616,2776
2.6171e+06,0,0,0,1116,3276
2.6171e+06,0,0,0,860,3532
2.6171e+06,0,0,0,604,3788
2.6171e+06,0,0,0,476,3916
2.6171e+06,0,0,0,348,4044
2.6171e+06,0,0,0,220,4172
2.61863e+06,0,0,0,548,3844
2.61863e+06,0,0,0,224,4168
2.6229e+06,0,0,0,480,3912
2.6229e+06,0,0,0,156,4236
2.6229e+06,0,0,0,28,4364
2.62401e+06,0,0,0,284,4108
2.62401e+06,0,0,0,156,4236
2.6253e+06,0,0,0,484,3908
2.6253e+06,0,0,0,228,4164
2.62684e+06,0,0,0,356,4036
2.62685e+06,0,0,0,100,4292
2.62786e+06,0,0,0,1252,3140
2.62786e+06,0,0,0,996,3396
2.62786e+06,0,0,0,740,3652
2.62786e+06,0,0,0,484,3908
2.62786e+06,0,0,0,228,4164
2.62805e+06,0,0,0,356,4036
2.62806e+06,0,0,0,100,4292
2.62895e+06,0,0,0,228,4164
2.63004e+06,0,0,0,552,3840
2.63005e+06,0,0,0,296,4096
2.63005e+06,0,0,0,40,4352
2.63105e+06,0,0,0,168,4224
2.63149e+06,0,0,0,296,4096
2.6315e+06,0,0,0,40,4352
2.63417e+06,0,0,0,364,4028
2.63417e+06,0,0,0,236,4156
2.63417e+06,0,0,0,108,4284
2.63752e+06,0,0,0,436,3956
2.63753e+06,0,0,0,308,4084
2.63753e+06,0,0,0,180,4212
2.63753e+06,0,0,0,52,4340
2.64009e+06,0,0,0,308,4084
2.64009e+06,0,0,0,180,4212
2.64009e+06,0,0,0,52,4340
2.64204e+06,0,0,0,180,4212
2.64205e+06,0,0,0,52,4340
2.64286e+06,0,0,0,436,3956
2.64286e+06,0,0,0,308,4084
2.6451e+06,0,0,0,436,3956
2.64511e+06,0,0,0,52,4340
2.64579e+06,0,0,0,308,4084
2.6458e+06,0,0,0,52,4340
2.6458e+06,0,0,0,51,4341
2.64686e+06,0,0,0,307,4085
2.64689e+06,0,0,0,563,3829
2.64689e+06,0,0,0,63,4329
2.64699e+06,0,0,0,191,4201
2.64699e+06,0,0,0,63,4329
2.64742e+06,0,0,0,319,4073
2.6475e+06,0,0,0,575,3817
2.6475e+06,0,0,0,191,4201
2.64772e+06,0,0,0,447,3945
2.64772e+06,0,0,0,63,4329
2.64843e+06,0,0,0,191,4201
2.64844e+06,0,0,0,319,4073
2.64851e+06,0,0,0,575,3817
2.64851e+06,0,0,0,191,4201
2.64923e+06,0,0,0,447,3945
2.64923e+06,0,0,0,63,4329
2.64965e+06,0,0,0,563,3829
2.64965e+06,0,0,0,691,3701
2.64966e+06,0,0,0,307,4085
2.64977e+06,0,0,0,563,3829
2.64977e+06,0,0,0,179,4213
2.65102e+06,0,0,0,307,4085
2.65124e+06,0,0,0,563,3829
2.65125e+06,0,0,0,179,4213
2.65299e+06,0,0,0,307,4085
2.65378e+06,0,0,0,435,3957
2.65379e+06,0,0,0,51,4341
2.65797e+06,0,0,0,179,4213
2.65797e+06,0,0,0,51,4341
2.66286e+06,0,0,0,435,3957
2.66286e+06,0,0,0,179,4213
2.66537e+06,0,0,0,307,4085
2.66763e+06,0,0,0,563,3829
2.66763e+06,0,0,0,239,4153
2.66763e+06,0,0,0,111,4281
2.66956e+06,0,0,0,495,3897
2.66956e+06,0,0,0,367,4025
2.66956e+06,0,0,0,239,4153
2.66956e+06,0,0,0,111,4281
2.67021e+06,0,0,0,495,3897
2.67021e+06,0,0,0,367,4025
2.67021e+06,0,0,0,239,4153
2.67021e+06,0,0,0,111,4281
2.67022e+06,0,0,0,495,3897
2.67022e+06,0,0,0,367,4025
2.67022e+06,0,0,0,239,4153
2.67022e+06,0,0,0,111,4281
2.67023e+06,0,0,0,367,4025
2.67024e+06,0,0,0,239,4153
2.67024e+06,0,0,0,111,4281
2.67026e+06,0,0,0,495,3897
2.67026e+06,0,0,0,367,4025
2.67026e+06,0,0,0,239,4153
2.67071e+06,0,0,0,623,3769
2.67071e+06,0,0,0,367,4025
2.67071e+06,0,0,0,43,4349
2.67186e+06,0,0,0,427,3965
2.67186e+06,0,0,0,103,4289
2.67232e+06,0,0,0,487,3905
2.67232e+06,0,0,0,359,4033
2.67232e+06,0,0,0,231,4161
2.67232e+06,0,0,0,103,4289
2.67466e+06,0,0,0,487,3905
2.67467e+06,0,0,0,359,4033
2.67467e+06,0,0,0,231,4161
2.67467e+06,0,0,0,103,4289
2.67488e+06,0,0,0,231,4161
2.67488e+06,0,0,0,103,4289
2.67491e+06,0,0,0,231,4161
2.67491e+06,0,0,0,103,4289
2.67494e+06,0,0,0,231,4161
2.67495e+06,0,0,0,103,4289
2.67548e+06,0,0,0,231,4161
2.67548e+06,0,0,0,103,4289
2.67553e+06,0,0,0,231,4161
2.67553e+06,0,0,0,103,4289
2.67563e+06,0,0,0,231,4161
2.67569e+06,0,0,0,359,4033
2.67569e+06,0,0,0,103,4289
2.6769e+06,0,0,0,231,4161
2.6775e+06,0,0,0,359,4033
2.6775e+06,0,0,0,103,4289
2.67775e+06,0,0,0,231,4161
2.6789e+06,0,0,0,555,3837
2.6789e+06,0,0,0,299,4093
2.6789e+06,0,0,0,43,4349
2.67946e+06,0,0,0,543,3849
2.67947e+06,0,0,0,415,3977
2.67947e+06,0,0,0,287,4105
2.67947e+06,0,0,0,159,4233
2.67984e+06,0,0,0,287,4105
2.67987e+06,0,0,0,415,3977
2.67998e+06,0,0,0,543,3849
2.67998e+06,0,0,0,31,4361
2.68022e+06,0,0,0,159,4233
2.68056e+06,0,0,0,287,4105
2.68056e+06,0,0,0,31,4361
2.68059e+06,0,0,0,159,4233
2.68089e+06,0,0,0,287,4105
2.68089e+06,0,0,0,31,4361
2.68114e+06,0,0,0,159,4233
2.68114e+06,0,0,0,31,4361
2.68116e+06,0,0,0,159,4233
2.68116e+06,0,0,0,31,4361
2.68116e+06,0,0,0,30,4362
2.68118e+06,0,0,0,158,4234
2.68118e+06,0,0,0,30,4362
2.68121e+06,0,0,0,158,4234
2.68197e+06,0,0,0,482,3910
2.68198e+06,0,0,0,98,4294
2.68326e+06,0,0,0,226,4166
2.68328e+06,0,0,0,550,3842
2.68328e+06,0,0,0,166,4226
2.68562e+06,0,0,0,294,4098
2.68563e+06,0,0,0,38,4354
2.68584e+06,0,0,0,166,4226
2.68625e+06,0,0,0,294,4098
2.68652e+06,0,0,0,422,3970
2.68652e+06,0,0,0,38,4354
2.68811e+06,0,0,0,166,4226
2.68811e+06,0,0,0,38,4354
2.69039e+06,0,0,0,166,4226
2.69045e+06,0,0,0,294,4098
2.69216e+06,0,0,0,422,3970
2.69216e+06,0,0,0,550,3842
2.69243e+06,0,0,0,806,3586
2.69361e+06,0,0,0,934,3458
2.69384e+06,0,0,0,1190,3202
2.69384e+06,0,0,0,166,4226
2.69384e+06,0,0,0,38,4354
2.69567e+06,0,0,0,294,4098
2.69826e+06,0,0,0,806,3586
2.69902e+06,0,0,0,934,3458
2.69906e+06,0,0,0,1318,3074
2.69906e+06,0,0,0,294,4098
2.69906e+06,0,0,0,166,4226
2.69906e+06,0,0,0,38,4354
2.70059e+06,0,0,0,294,4098
2.70059e+06,0,0,0,166,4226
2.70059e+06,0,0,0,38,4354
2.70067e+06,0,0,0,294,4098
2.70067e+06,0,0,0,166,4226
2.70067e+06,0,0,0,38,4354
2.70227e+06,0,0,0,294,4098
2.70227e+06,0,0,0,166,4226
2.70227e+06,0,0,0,38,4354
2.70266e+06,0,0,0,294,4098
2.70266e+06,0,0,0,166,4226
2.70266e+06,0,0,0,38,4354
2.70736e+06,0,0,0,166,4226
2.70737e+06,0,0,0,38,4354
2.70739e+06,0,0,0,294,4098
2.70739e+06,0,0,0,38,4354
2.70741e+06,0,0,0,166,4226
2.70741e+06,0,0,0,38,4354
2.70842e+06,0,0,0,422,3970
2.70843e+06,0,0,0,294,4098
2.70843e+06,0,0,0,166,4226
2.70883e+06,0,0,0,294,4098
2.70939e+06,0,0,0,422,3970
2.7094e+06,0,0,0,550,3842
2.7094e+06,0,0,0,50,4342
2.71096e+06,0,0,0,178,4214
2.71097e+06,0,0,0,50,4342
2.71161e+06,0,0,0,178,4214
2.71161e+06,0,0,0,50,4342
2.71297e+06,0,0,0,1074,3318
2.71297e+06,0,0,0,946,3446
2.71297e+06,0,0,0,818,3574
2.71297e+06,0,0,0,690,3702
2.71297e+06,0,0,0,562,3830
2.71297e+06,0,0,0,434,3958
2.71297e+06,0,0,0,306,4086
2.71297e+06,0,0,0,178,4214
2.71297e+06,0,0,0,50,4342
2.71299e+06,0,0,0,178,4214
2.71299e+06,0,0,0,50,4342
2.71304e+06,0,0,0,178,4214
2.71304e+06,0,0,0,50,4342
2.71306e+06,0,0,0,178,4214
2.71307e+06,0,0,0,50,4342
2.71326e+06,0,0,0,178,4214
2.71326e+06,0,0,0,50,4342
2.71354e+06,0,0,0,306,4086
2.71354e+06,0,0,0,178,4214
2.71354e+06,0,0,0,50,4342
2.71397e+06,0,0,0,178,4214
2.71473e+06,0,0,0,306,4086
2.71474e+06,0,0,0,50,4342
2.7159e+06,0,0,0,434,3958
2.71591e+06,0,0,0,306,4086
2.71775e+06,0,0,0,434,3958
2.71799e+06,0,0,0,435,3957
2.71803e+06,0,0,0,1459,2933
2.71804e+06,0,0,0,787,3605
2.71804e+06,0,0,0,115,4277
2.71843e+06,0,0,0,243,4149
2.7189e+06,0,0,0,371,4021
2.71958e+06,0,0,0,499,3893
2.71967e+06,0,0,0,627,3765
2.71999e+06,0,0,0,755,3637
2.72e+06,0,0,0,83,4309
2.72195e+06,0,0,0,211,4181
2.72196e+06,0,0,0,339,4053
2.72197e+06,0,0,0,83,4309
2.72327e+06,0,0,0,211,4181
2.72328e+06,0,0,0,339,4053
2.72329e+06,0,0,0,83,4309
2.72332e+06,0,0,0,211,4181
2.72332e+06,0,0,0,83,4309
2.72332e+06,0,0,0,211,4181
2.72333e+06,0,0,0,83,4309
2.72333e+06,0,0,0,211,4181
2.72333e+06,0,0,0,83,4309
2.72336e+06,0,0,0,211,4181
2.72336e+06,0,0,0,83,4309
2.72338e+06,0,0,0,211,4181
2.72338e+06,0,0,0,83,4309
2.72394e+06,0,0,0,211,4181
2.72394e+06,0,0,0,83,4309
2.72401e+06,0,0,0,211,4181
2.72402e+06,0,0,0,83,4309
2.72793e+06,0,0,0,211,4181
2.72794e+06,0,0,0,83,4309
2.72855e+06,0,0,0,211,4181
2.72855e+06,0,0,0,83,4309
2.72857e+06,0,0,0,211,4181
2.72857e+06,0,0,0,83,4309
2.72867e+06,0,0,0,211,4181
2.72868e+06,0,0,0,83,4309
2.72874e+06,0,0,0,211,4181
2.72874e+06,0,0,0,83,4309
2.7301e+06,0,0,0,755,3637
2.73011e+06,0,0,0,627,3765
2.73011e+06,0,0,0,499,3893
2.73011e+06,0,0,0,371,4021
2.73011e+06,0,0,0,243,4149
2.73011e+06,0,0,0,115,4277
2.73076e+06,0,0,0,787,3605
2.73077e+06,0,0,0,659,3733
2.73077e+06,0,0,0,531,3861
2.73077e+06,0,0,0,403,3989
2.73077e+06,0,0,0,275,4117
2.73077e+06,0,0,0,147,4245
2.73077e+06,0,0,0,19,4373
2.73156e+06,0,0,0,519,3873
2.73156e+06,0,0,0,391,4001
2.73156e+06,0,0,0,263,4129
2.73156e+06,0,0,0,262,4130
2.73273e+06,0,0,0,934,3458
2.73274e+06,0,0,0,550,3842
2.73274e+06,0,0,0,422,3970
2.73274e+06,0,0,0,166,4226
2.73377e+06,0,0,0,294,4098
2.73377e+06,0,0,0,38,4354
2.73377e+06,0,0,0,37,4355
2.73412e+06,0,0,0,293,4099
2.73428e+06,0,0,0,421,3971
2.73428e+06,0,0,0,37,4355
2.73437e+06,0,0,0,165,4227
2.73636e+06,0,0,0,421,3971
2.73636e+06,0,0,0,165,4227
2.73831e+06,0,0,0,293,4099
2.73832e+06,0,0,0,421,3971
2.73841e+06,0,0,0,549,3843
2.73844e+06,0,0,0,677,3715
2.73853e+06,0,0,0,805,3587
2.73986e+06,0,0,0,933,3459
2.7399e+06,0,0,0,1061,3331
2.7399e+06,0,0,0,1189,3203
2.73992e+06,0,0,0,1317,3075
2.73998e+06,0,0,0,1445,2947
2.74027e+06,0,0,0,1573,2819
2.74046e+06,0,0,0,1445,2947
2.74046e+06,0,0,0,1317,3075
2.74048e+06,0,0,0,1189,3203
2.74048e+06,0,0,0,1061,3331
2.74054e+06,0,0,0,1189,3203
2.74055e+06,0,0,0,1317,3075
2.74056e+06,0,0,0,1445,2947
2.74064e+06,0,0,0,945,3447
2.74111e+06,0,0,0,1073,3319
2.74115e+06,0,0,0,1201,3191
2.74143e+06,0,0,0,1457,2935
2.7419e+06,0,0,0,1585,2807
2.7422e+06,0,0,0,1457,2935
2.74234e+06,0,0,0,1585,2807
2.74376e+06,0,0,0,1713,2679
2.74507e+06,0,0,0,1714,2678
2.74555e+06,0,0,0,1842,2550
2.74557e+06,0,0,0,1970,2422
2.74559e+06,0,0,0,2098,2294
2.74594e+06,0,0,0,2226,2166
2.74703e+06,0,0,0,1902,2490
2.74915e+06,0,0,0,2030,2362
2.75076e+06,0,0,0,1902,2490
2.75076e+06,0,0,0,1774,2618
2.75076e+06,0,0,0,1646,2746
2.75077e+06,0,0,0,1518,2874
2.75138e+06,0,0,0,1390,3002
2.75337e+06,0,0,0,1391,3001
2.75438e+06,0,0,0,1647,2745
2.75539e+06,0,0,0,1903,2489
2.75587e+06,0,0,0,2031,2361
2.75589e+06,0,0,0,1229,3163
2.75616e+06,0,0,0,1357,3035
2.75617e+06,0,0,0,1485,2907
2.75624e+06,0,0,0,1613,2779
2.75813e+06,0,0,0,1869,2523
2.75916e+06,0,0,0,1741,2651
2.75937e+06,0,0,0,1613,2779
2.7595e+06,0,0,0,1485,2907
2.76064e+06,0,0,0,1357,3035
2.76158e+06,0,0,0,1681,2711
2.76234e+06,0,0,0,1809,2583
2.76255e+06,0,0,0,2193,2199
2.76805e+06,0,0,0,2577,1815
2.76954e+06,0,0,0,2705,1687
2.76976e+06,0,0,0,2833,1559
2.76987e+06,0,0,0,2961,1431
2.771e+06,0,0,0,3089,1303
2.77301e+06,0,0,0,2833,1559
2.77317e+06,0,0,0,3333,1059
2.77953e+06,0,0,0,3205,1187
2.77957e+06,0,0,0,3077,1315
2.78039e+06,0,0,0,3333,1059
2.78482e+06,0,0,0,4135,257
2.79054e+06,0,0,0,4263,129
2.79057e+06,0,0,0,4391,1
2.7922e+06,0,0,0,4263,129
2.79493e+06,0,0,0,4135,257
2.80036e+06,0,0,0,4263,129
2.80252e+06,0,0,0,4391,1
2.80455e+06,0,0,0,4135,257
2.80705e+06,0,0,0,4136,256
2.8088e+06,0,0,0,3991,401
2.8118e+06,0,0,0,3863,529
2.81574e+06,0,0,0,4008,384
2.81891e+06,0,0,0,3684,708
2.81917e+06,0,0,0,3812,580
2.81928e+06,0,0,0,3684,708
2.82233e+06,0,0,0,3556,836
2.82255e+06,0,0,0,3428,964
2.82442e+06,0,0,0,3300,1092
2.8262e+06,0,0,0,3556,836
2.82959e+06,0,0,0,3684,708
2.83344e+06,0,0,0,4008,384
2.83356e+06,0,0,0,4136,256
2.83467e+06,0,0,0,4264,128
2.83536e+06,0,0,0,4392,0
2.85166e+06,0,0,0,4264,128
2.85206e+06,0,0,0,4136,256
2.85208e+06,0,0,0,4008,384
2.85208e+06,0,0,0,3880,512
2.85228e+06,0,0,0,3752,640
2.85244e+06,0,0,0,3624,768
2.86201e+06,0,0,0,3752,640
2.86241e+06,0,0,0,3880,512
2.86243e+06,0,0,0,4008,384
2.86243e+06,0,0,0,4136,256
2.86279e+06,0,0,0,4264,128
2.86292e+06,0,0,0,4392,0
2.86342e+06,0,0,0,4136,256
2.88037e+06,0,0,0,40,4352
2.88513e+06,0,0,0,296,4096
2.89118e+06,0,0,0,4392,0
2.89119e+06,0,0,0,296,4096
2.89119e+06,0,0,0,168,4224
2.89664e+06,0,0,0,296,4096
2.89668e+06,0,0,0,4392,0
2.89669e+06,0,0,0,296,4096
2.90222e+06,0,0,0,4392,0
2.90222e+06,0,0,0,296,4096
2.90779e+06,0,0,0,4392,0
2.9078e+06,0,0,0,296,4096
2.91334e+06,0,0,0,4392,0
2.91334e+06,0,0,0,296,4096
2.91886e+06,0,0,0,4392,0
2.91887e+06,0,0,0,296,4096
2.92442e+06,0,0,0,4392,0
2.92442e+06,0,0,0,296,4096
2.92994e+06,0,0,0,4392,0
2.92994e+06,0,0,0,296,4096
2.93548e+06,0,0,0,4392,0
2.93548e+06,0,0,0,296,4096
2.941e+06,0,0,0,4392,0
2.94101e+06,0,0,0,296,4096
2.94655e+06,0,0,0,4392,0
2.94656e+06,0,0,0,296,4096
2.95208e+06,0,0,0,4392,0
2.95208e+06,0,0,0,296,4096
2.95789e+06,0,0,0,4392,0
2.95789e+06,0,0,0,296,4096
2.95789e+06,0,0,0,168,4224
2.95789e+06,0,0,0,40,4352
2.96376e+06,0,0,0,168,4224
2.96379e+06,0,0,0,296,4096
2.96381e+06,0,0,0,4392,0
2.96382e+06,0,0,0,296,4096
2.96969e+06,0,0,0,4392,0
2.96969e+06,0,0,0,296,4096
2.97537e+06,0,0,0,4392,0
2.97537e+06,0,0,0,296,4096
2.98116e+06,0,0,0,4392,0
2.98116e+06,0,0,0,296,4096
2.98688e+06,0,0,0,4392,0
2.98688e+06,0,0,0,296,4096
2.9925e+06,0,0,0,4392,0
2.9925e+06,0,0,0,296,4096
2.99813e+06,0,0,0,4392,0
2.99813e+06,0,0,0,296,4096
3.0037e+06,0,0,0,4392,0
3.00371e+06,0,0,0,3880,512
3.00371e+06,0,0,0,3752,640
3.00371e+06,0,0,0,3624,768
3.00371e+06,0,0,0,3496,896
3.00371e+06,0,0,0,3368,1024
3.00371e+06,0,0,0,3240,1152
3.00371e+06,0,0,0,2216,2176
3.00371e+06,0,0,0,1192,3200
3.00371e+06,0,0,0,168,4224
3.00371e+06,0,0,0,40,4352
3.00964e+06,0,0,0,168,4224
3.00999e+06,0,0,0,296,4096
3.01017e+06,0,0,0,424,3968
3.01147e+06,0,0,0,552,3840
3.01406e+06,0,0,0,680,3712
3.01408e+06,0,0,0,808,3584
3.01466e+06,0,0,0,1320,3072
3.01466e+06,0,0,0,296,4096
3.01466e+06,0,0,0,40,4352
3.03634e+06,0,0,0,296,4096
3.03635e+06,0,0,0,40,4352
3.05759e+06,0,0,0,296,4096
3.05759e+06,0,0,0,40,4352
3.07931e+06,0,0,0,296,4096
3.07932e+06,0,0,0,168,4224
3.07932e+06,0,0,0,40,4352
3.08435e+06,0,0,0,168,4224
3.08499e+06,0,0,0,296,4096
3.08922e+06,0,0,0,1320,3072
3.08922e+06,0,0,0,296,4096
3.08925e+06,0,0,0,1320,3072
3.08925e+06,0,0,0,296,4096
3.09046e+06,0,0,0,1320,3072
3.09047e+06,0,0,0,296,4096
3.09047e+06,0,0,0,168,4224
3.09606e+06,0,0,0,296,4096
3.1002e+06,0,0,0,1320,3072
3.1002e+06,0,0,0,296,4096
3.1002e+06,0,0,0,40,4352
3.1002e+06,0,0,0,39,4353
3.12198e+06,0,0,0,295,4097
3.12199e+06,0,0,0,39,4353
3.14371e+06,0,0,0,295,4097
3.14372e+06,0,0,0,167,4225
3.14372e+06,0,0,0,39,4353
3.15407e+06,0,0,0,167,4225
3.15407e+06,0,0,0,39,4353
3.15464e+06,0,0,0,167,4225
3.15465e+06,0,0,0,39,4353
3.16136e+06,0,0,0,167,4225
3.16137e+06,0,0,0,39,4353
3.16554e+06,0,0,0,167,4225
3.16555e+06,0,0,0,39,4353
3.17169e+06,0,0,0,167,4225
3.17321e+06,0,0,0,295,4097
3.17343e+06,0,0,0,296,4096
3.17406e+06,0,0,0,1320,3072
3.17408e+06,0,0,0,2344,2048
3.17408e+06,0,0,0,296,4096
3.17531e+06,0,0,0,1320,3072
3.17531e+06,0,0,0,996,3396
3.17531e+06,0,0,0,672,3720
3.17531e+06,0,0,0,416,3976
3.17531e+06,0,0,0,32,4360
3.18074e+06,0,0,0,416,3976
3.18104e+06,0,0,0,672,3720
3.18504e+06,0,0,0,1696,2696
3.18505e+06,0,0,0,672,3720
3.18652e+06,0,0,0,996,3396
3.18663e+06,0,0,0,1320,3072
3.18664e+06,0,0,0,296,4096
3.18664e+06,0,0,0,40,4352
3.18664e+06,0,0,0,39,4353
3.20476e+06,0,0,0,295,4097
3.20476e+06,0,0,0,39,4353
3.22284e+06,0,0,0,295,4097
3.22284e+06,0,0,0,39,4353
3.23375e+06,0,0,0,295,4097
3.23376e+06,0,0,0,39,4353
3.2447e+06,0,0,0,295,4097
3.2447e+06,0,0,0,39,4353
3.2554e+06,0,0,0,295,4097
3.2554e+06,0,0,0,167,4225
3.2554e+06,0,0,0,39,4353
3.25873e+06,0,0,0,40,4352
3.2613e+06,0,0,0,168,4224
3.26138e+06,0,0,0,296,4096
3.26177e+06,0,0,0,2344,2048
3.26178e+06,0,0,0,1320,3072
3.26178e+06,0,0,0,1128,3264
3.26242e+06,0,0,0,1000,3392
3.26242e+06,0,0,0,872,3520
3.26242e+06,0,0,0,744,3648
3.26242e+06,0,0,0,616,3776
3.26242e+06,0,0,0,488,3904
3.26764e+06,0,0,0,616,3776
3.26772e+06,0,0,0,744,3648
3.26788e+06,0,0,0,872,3520
3.2679e+06,0,0,0,1000,3392
3.26809e+06,0,0,0,1128,3264
3.26863e+06,0,0,0,1320,3072
3.26925e+06,0,0,0,2344,2048
3.26925e+06,0,0,0,296,4096
3.26966e+06,0,0,0,1320,3072
3.26967e+06,0,0,0,992,3400
3.26967e+06,0,0,0,608,3784
3.26967e+06,0,0,0,224,4168
3.26967e+06,0,0,0,96,4296
3.27999e+06,0,0,0,224,4168
3.28e+06,0,0,0,32,4360
3.28757e+06,0,0,0,224,4168
3.28924e+06,0,0,0,608,3784
3.28924e+06,0,0,0,224,4168
3.29143e+06,0,0,0,552,3840
3.29143e+06,0,0,0,168,4224
3.29143e+06,0,0,0,40,4352
3.29662e+06,0,0,0,168,4224
3.29663e+06,0,0,0,40,4352
3.30177e+06,0,0,0,168,4224
3.30222e+06,0,0,0,552,3840
3.30223e+06,0,0,0,168,4224
3.30223e+06,0,0,0,40,4352
3.30731e+06,0,0,0,168,4224
3.30852e+06,0,0,0,552,3840
3.30852e+06,0,0,0,168,4224
3.31078e+06,0,0,0,552,3840
3.31078e+06,0,0,0,168,4224
3.31078e+06,0,0,0,40,4352
3.32171e+06,0,0,0,168,4224
3.32189e+06,0,0,0,552,3840
3.32189e+06,0,0,0,168,4224
3.32698e+06,0,0,0,2216,2176
3.32698e+06,0,0,0,1832,2560
3.32698e+06,0,0,0,1448,2944
3.32698e+06,0,0,0,1064,3328
3.32698e+06,0,0,0,808,3584
3.32698e+06,0,0,0,136,4256
3.32698e+06,0,0,0,8,4384
3.32901e+06,0,0,0,392,4000
3.32902e+06,0,0,0,264,4128
3.32902e+06,0,0,0,136,4256
3.32902e+06,0,0,0,8,4384
3.33005e+06,0,0,0,392,4000
3.33005e+06,0,0,0,264,4128
3.33005e+06,0,0,0,136,4256
3.33005e+06,0,0,0,8,4384
3.33616e+06,0,0,0,136,4256
3.3363e+06,0,0,0,264,4128
3.33635e+06,0,0,0,392,4000
3.33637e+06,0,0,0,520,3872
3.33638e+06,0,0,0,648,3744
3.33739e+06,0,0,0,776,3616
3.33789e+06,0,0,0,904,3488
3.33969e+06,0,0,0,1576,2816
3.33969e+06,0,0,0,552,3840
3.33969e+06,0,0,0,296,4096
3.33969e+06,0,0,0,40,4352
3.34123e+06,0,0,0,424,3968
3.34123e+06,0,0,0,168,4224
3.34479e+06,0,0,0,1192,3200
3.3448e+06,0,0,0,168,4224
3.34618e+06,0,0,0,552,3840
3.34619e+06,0,0,0,168,4224
3.34625e+06,0,0,0,552,3840
3.34625e+06,0,0,0,168,4224
3.34856e+06,0,0,0,424,3968
3.34856e+06,0,0,0,40,4352
3.35497e+06,0,0,0,1064,3328
3.35498e+06,0,0,0,680,3712
3.35498e+06,0,0,0,296,4096
3.35956e+06,0,0,0,680,3712
3.35956e+06,0,0,0,296,4096
3.36112e+06,0,0,0,1320,3072
3.36112e+06,0,0,0,936,3456
3.36112e+06,0,0,0,552,3840
3.36112e+06,0,0,0,168,4224
3.36112e+06,0,0,0,40,4352
3.36128e+06,0,0,0,296,4096
3.36129e+06,0,0,0,168,4224
3.36129e+06,0,0,0,424,3968
3.36282e+06,0,0,0,680,3712
3.36559e+06,0,0,0,1064,3328
3.36564e+06,0,0,0,1448,2944
3.3672e+06,0,0,0,1576,2816
3.36746e+06,0,0,0,1704,2688
3.36793e+06,0,0,0,2088,2304
3.36793e+06,0,0,0,40,4352
3.3734e+06,0,0,0,2088,2304
3.3734e+06,0,0,0,40,4352
3.37421e+06,0,0,0,424,3968
3.37424e+06,0,0,0,808,3584
3.37891e+06,0,0,0,2856,1536
3.37891e+06,0,0,0,808,3584
3.37891e+06,0,0,0,1192,3200
3.38031e+06,0,0,0,1576,2816
3.38032e+06,0,0,0,1960,2432
3.38071e+06,0,0,0,2344,2048
3.38071e+06,0,0,0,296,4096
3.3843e+06,0,0,0,2344,2048
3.38431e+06,0,0,0,296,4096
3.38612e+06,0,0,0,2344,2048
3.38612e+06,0,0,0,1320,3072
3.38612e+06,0,0,0,1064,3328
3.38612e+06,0,0,0,40,4352
3.38975e+06,0,0,0,2088,2304
3.38975e+06,0,0,0,1912,2480
3.38975e+06,0,0,0,1911,2481
3.38975e+06,0,0,0,1655,2737
3.38975e+06,0,0,0,1399,2993
3.38975e+06,0,0,0,887,3505
3.38975e+06,0,0,0,759,3633
3.38975e+06,0,0,0,631,3761
3.38975e+06,0,0,0,503,3889
3.38975e+06,0,0,0,375,4017
3.38975e+06,0,0,0,247,4145
3.38975e+06,0,0,0,119,4273
3.3971e+06,0,0,0,247,4145
3.40055e+06,0,0,0,375,4017
3.4006e+06,0,0,0,551,3841
3.40066e+06,0,0,0,679,3713
3.40068e+06,0,0,0,807,3585
3.40069e+06,0,0,0,935,3457
3.40071e+06,0,0,0,1063,3329
3.40071e+06,0,0,0,7,4385
3.40764e+06,0,0,0,1031,3361
3.40764e+06,0,0,0,775,3617
3.40764e+06,0,0,0,774,3618
3.40764e+06,0,0,0,6,4386
3.40783e+06,0,0,0,262,4130
3.41133e+06,0,0,0,518,3874
3.41133e+06,0,0,0,6,4386
3.4114e+06,0,0,0,262,4130
3.42228e+06,0,0,0,774,3618
3.42228e+06,0,0,0,262,4130
3.42862e+06,0,0,0,774,3618
3.42862e+06,0,0,0,262,4130
3.42909e+06,0,0,0,518,3874
3.42909e+06,0,0,0,6,4386
3.42925e+06,0,0,0,774,3618
3.42925e+06,0,0,0,262,4130
3.42925e+06,0,0,0,134,4258
3.43425e+06,0,0,0,646,3746
3.43426e+06,0,0,0,390,4002
3.43426e+06,0,0,0,134,4258
3.43502e+06,0,0,0,646,3746
3.4355e+06,0,0,0,1158,3234
3.4355e+06,0,0,0,134,4258
3.4366e+06,0,0,0,646,3746
3.4366e+06,0,0,0,390,4002
3.43675e+06,0,0,0,1446,2946
3.43675e+06,0,0,0,230,4162
3.44022e+06,0,0,0,358,4034
3.44585e+06,0,0,0,1574,2818
3.45583e+06,0,0,0,1830,2562
3.45584e+06,0,0,0,2086,2306
3.45584e+06,0,0,0,38,4354
3.45718e+06,0,0,0,1062,3330
3.45825e+06,0,0,0,1318,3074
3.46142e+06,0,0,0,3366,1026
3.46142e+06,0,0,0,1318,3074
3.46187e+06,0,0,0,1319,3073
3.46681e+06,0,0,0,3367,1025
3.46681e+06,0,0,0,1319,3073
3.47218e+06,0,0,0,3367,1025
3.47218e+06,0,0,0,1319,3073
3.47263e+06,0,0,0,2343,2049
3.47264e+06,0,0,0,295,4097
3.4776e+06,0,0,0,2343,2049
3.4776e+06,0,0,0,295,4097
3.47807e+06,0,0,0,2343,2049
3.48087e+06,0,0,0,2344,2048
3.48491e+06,0,0,0,4392,0
