job_id,workload_name,profile,submission_time,requested_number_of_resources,requested_time,success,final_state,starting_time,execution_time,finish_time,waiting_time,turnaround_time,stretch,allocated_resources,consumed_energy,metadata
14_0_1,w0,profile_14,0.000000,384,21600.000000,1,COMPLETED_SUCCESSFULLY,0.005400,20371.000000,20371.005400,0.005400,20371.005400,1.000000,1681-2064,-1.000000,""
11_0_1,w0,profile_11,0.000000,256,21733.000000,1,COMPLETED_SUCCESSFULLY,0.003600,21732.000000,21732.003600,0.003600,21732.003600,1.000000,913-1168,-1.000000,""
12_0_1,w0,profile_12,0.000000,256,21780.000000,1,COMPLETED_SUCCESSFULLY,0.004200,21779.000000,21779.004200,0.004200,21779.004200,1.000000,1169-1424,-1.000000,""
13_0_1,w0,profile_13,0.000000,256,22907.000000,1,COMPLETED_SUCCESSFULLY,0.004800,22906.000000,22906.004800,0.004800,22906.004800,1.000000,1425-1680,-1.000000,""
10_0_1,w0,profile_10,0.000000,529,24145.000000,1,COMPLETED_SUCCESSFULLY,0.003000,24144.000000,24144.003000,0.003000,24144.003000,1.000000,384-912,-1.000000,""
16_0_1,w0,profile_16,0.000000,512,28904.000000,1,COMPLETED_SUCCESSFULLY,0.006600,28903.000000,28903.006600,0.006600,28903.006600,1.000000,2577-3088,-1.000000,""
15_0_1,w0,profile_15,0.000000,512,28907.000000,1,COMPLETED_SUCCESSFULLY,0.006000,28906.000000,28906.006000,0.006000,28906.006000,1.000000,2065-2576,-1.000000,""
17_0_1,w0,profile_17,0.000000,512,28909.000000,1,COMPLETED_SUCCESSFULLY,0.007200,28908.000000,28908.007200,0.007200,28908.007200,1.000000,3089-3600,-1.000000,""
18_0_1,w0,profile_18,0.000000,512,28941.000000,1,COMPLETED_SUCCESSFULLY,0.007800,28940.000000,28940.007800,0.007800,28940.007800,1.000000,3601-4112,-1.000000,""
0_0_1,w0,profile_0,0.000000,384,32522.000000,1,COMPLETED_SUCCESSFULLY,0.002400,32521.000000,32521.002400,0.002400,32521.002400,1.000000,0-383,-1.000000,""
1_0_1,w0,profile_1,0.000000,256,21750.000000,1,COMPLETED_SUCCESSFULLY,21735.005250,21749.000000,43484.005250,21735.005250,43484.005250,1.999357,913-1168,-1.000000,""
19_0_1,w0,profile_19,0.000000,512,28932.000000,1,COMPLETED_SUCCESSFULLY,20374.007050,28931.000000,49305.007050,20374.007050,49305.007050,1.704228,1681-2064 4113-4240,-1.000000,""
20_0_1,w0,profile_20,0.000000,512,28910.000000,1,COMPLETED_SUCCESSFULLY,22909.006450,28909.000000,51818.006450,22909.006450,51818.006450,1.792452,1169-1680,-1.000000,""
24_0_1,w0,profile_24,0.000000,512,32400.000000,1,COMPLETED_SUCCESSFULLY,32524.004050,23525.000000,56049.004050,32524.004050,56049.004050,2.382529,0-383 3968-4095,-1.000000,""
23_0_1,w0,profile_23,0.000000,384,32536.000000,1,COMPLETED_SUCCESSFULLY,28943.009450,32535.000000,61478.009450,28943.009450,61478.009450,1.889596,3584-3967,-1.000000,""
25_0_1,w0,profile_25,0.000000,256,21627.000000,1,COMPLETED_SUCCESSFULLY,43487.006900,21626.000000,65113.006900,43487.006900,65113.006900,3.010867,913-1168,-1.000000,""
26_0_1,w0,profile_26,0.000000,256,21600.000000,1,COMPLETED_SUCCESSFULLY,49308.008700,21564.000000,70872.008700,49308.008700,70872.008700,3.286589,1681-1936,-1.000000,""
27_0_1,w0,profile_27,0.000000,256,21705.000000,1,COMPLETED_SUCCESSFULLY,49308.009300,21704.000000,71012.009300,49308.009300,71012.009300,3.271840,1937-2064 4096-4223,-1.000000,""
28_0_1,w0,profile_28,0.000000,256,21744.000000,1,COMPLETED_SUCCESSFULLY,51821.008100,21743.000000,73564.008100,51821.008100,73564.008100,3.383342,1169-1424,-1.000000,""
22_0_1,w0,profile_22,0.000000,1024,86400.000000,1,COMPLETED_SUCCESSFULLY,28912.010950,47924.000000,76836.010950,28912.010950,76836.010950,1.603289,2560-3583,-1.000000,""
2_0_1,w0,profile_2,0.000000,512,21698.000000,1,COMPLETED_SUCCESSFULLY,56052.005700,21697.000000,77749.005700,56052.005700,77749.005700,3.583399,0-383 3968-4095,-1.000000,""
29_0_1,w0,profile_29,0.000000,384,32400.000000,1,COMPLETED_SUCCESSFULLY,51821.008700,32348.000000,84169.008700,51821.008700,84169.008700,2.601985,1425-1680 4224-4351,-1.000000,""
3_0_1,w0,profile_3,0.000000,1024,21715.000000,1,COMPLETED_SUCCESSFULLY,76839.012600,21714.000000,98553.012600,76839.012600,98553.012600,4.538685,1169-1424 1937-2064 2560-3199,-1.000000,""
30_0_1,w0,profile_30,0.000000,802,28910.000000,1,COMPLETED_SUCCESSFULLY,70875.010350,28909.000000,99784.010350,70875.010350,99784.010350,3.451659,913-1168 1681-1936 3584-3873,-1.000000,""
4_0_1,w0,profile_4,0.000000,512,32400.000000,1,COMPLETED_SUCCESSFULLY,76839.013200,24100.000000,100939.013200,76839.013200,100939.013200,4.188341,3200-3583 3874-3967 4096-4129,-1.000000,""
5_0_1,w0,profile_5,0.000000,512,32400.000000,1,COMPLETED_SUCCESSFULLY,77752.007350,24244.000000,101996.007350,77752.007350,101996.007350,4.207062,0-383 3968-4095,-1.000000,""
21_0_1,w0,profile_21,0.000000,1024,86400.000000,1,COMPLETED_SUCCESSFULLY,28912.010350,81072.000000,109984.010350,28912.010350,109984.010350,1.356621,384-912 2065-2559,-1.000000,""
6_0_1,w0,profile_6,0.000000,2048,21747.000000,1,COMPLETED_SUCCESSFULLY,99787.012000,21746.000000,121533.012000,99787.012000,121533.012000,5.588753,913-2064 2560-3199 3584-3839,-1.000000,""
7_0_1,w0,profile_7,0.000000,256,21772.000000,1,COMPLETED_SUCCESSFULLY,99787.012600,21771.000000,121558.012600,99787.012600,121558.012600,5.583483,3840-3873 4130-4351,-1.000000,""
9_0_1,w0,profile_9,0.000000,256,21746.000000,1,COMPLETED_SUCCESSFULLY,101999.009000,21745.000000,123744.009000,101999.009000,123744.009000,5.690688,0-255,-1.000000,""
31_0_1,w0,profile_31,18962.000000,256,21754.000000,1,COMPLETED_SUCCESSFULLY,101999.009600,21753.000000,123752.009600,83037.009600,104790.009600,4.817267,256-383 3874-4001,-1.000000,""
34_0_1,w0,profile_34,45331.000000,256,21600.000000,1,COMPLETED_SUCCESSFULLY,109987.013200,20309.000000,130296.013200,64656.013200,84965.013200,4.183614,2176-2431,-1.000000,""
35_0_1,w0,profile_35,68613.000000,256,21699.000000,1,COMPLETED_SUCCESSFULLY,109987.013800,21698.000000,131685.013800,41374.013800,63072.013800,2.906812,2432-2559 4002-4129,-1.000000,""
33_0_1,w0,profile_33,39055.000000,256,21779.000000,1,COMPLETED_SUCCESSFULLY,109987.012600,21778.000000,131765.012600,70932.012600,92710.012600,4.257049,768-912 2065-2175,-1.000000,""
8_0_1,w0,profile_8,0.000000,384,32400.000000,1,COMPLETED_SUCCESSFULLY,100942.014850,32307.000000,133249.014850,100942.014850,133249.014850,4.124463,3200-3583,-1.000000,""
32_0_1,w0,profile_32,26730.000000,384,32538.000000,1,COMPLETED_SUCCESSFULLY,109987.012000,32537.000000,142524.012000,83257.012000,115794.012000,3.558841,384-767,-1.000000,""
36_0_1,w0,profile_36,68675.000000,256,21722.000000,1,COMPLETED_SUCCESSFULLY,121536.013650,21721.000000,143257.013650,52861.013650,74582.013650,3.433636,913-1168,-1.000000,""
37_0_1,w0,profile_37,77419.000000,384,21733.000000,1,COMPLETED_SUCCESSFULLY,121536.014250,21732.000000,143268.014250,44117.014250,65849.014250,3.030049,1169-1552,-1.000000,""
38_0_1,w0,profile_38,97879.000000,256,21739.000000,1,COMPLETED_SUCCESSFULLY,121536.014850,21738.000000,143274.014850,23657.014850,45395.014850,2.088279,1553-1808,-1.000000,""
41_0_1,w0,profile_41,112932.000000,256,21739.000000,1,COMPLETED_SUCCESSFULLY,130299.014850,21738.000000,152037.014850,17367.014850,39105.014850,1.798924,2176-2431,-1.000000,""
42_0_1,w0,profile_42,180482.000000,256,21692.000000,1,COMPLETED_SUCCESSFULLY,180482.001800,21691.000000,202173.001800,0.001800,21691.001800,1.000000,384-639,-1.000000,""
39_0_1,w0,profile_39,109166.000000,1008,87767.000000,1,COMPLETED_SUCCESSFULLY,121536.015450,87766.000000,209302.015450,12370.015450,100136.015450,1.140943,1809-2064 2560-3199 3584-3695,-1.000000,""
40_0_1,w0,profile_40,111883.000000,824,86541.000000,1,COMPLETED_SUCCESSFULLY,123755.011250,86540.000000,210295.011250,11872.011250,98412.011250,1.137185,0-383 3696-4001 4130-4263,-1.000000,""
48_0_1,w0,profile_48,225330.000000,256,21738.000000,1,COMPLETED_SUCCESSFULLY,225330.001800,21737.000000,247067.001800,0.001800,21737.001800,1.000000,4096-4351,-1.000000,""
44_0_1,w0,profile_44,192578.000000,1024,86400.000000,1,COMPLETED_SUCCESSFULLY,192578.001800,61784.000000,254362.001800,0.001800,61784.001800,1.000000,1664-1808 2065-2559 3200-3583,-1.000000,""
45_0_1,w0,profile_45,192618.000000,1024,86400.000000,1,COMPLETED_SUCCESSFULLY,209305.017100,58921.000000,268226.017100,16687.017100,75608.017100,1.283210,384-639 1809-2064 2560-3071,-1.000000,""
49_0_1,w0,profile_49,226671.000000,256,21616.000000,1,COMPLETED_SUCCESSFULLY,247070.003450,21615.000000,268685.003450,20399.003450,42014.003450,1.943743,4096-4351,-1.000000,""
43_0_1,w0,profile_43,191933.000000,1024,86400.000000,1,COMPLETED_SUCCESSFULLY,191933.001800,85552.000000,277485.001800,0.001800,85552.001800,1.000000,640-1663,-1.000000,""
47_0_1,w0,profile_47,208825.000000,512,28964.000000,1,COMPLETED_SUCCESSFULLY,254365.003450,28963.000000,283328.003450,45540.003450,74503.003450,2.572351,1664-1808 2065-2431,-1.000000,""
50_0_1,w0,profile_50,271382.000000,256,21638.000000,1,COMPLETED_SUCCESSFULLY,271382.001800,21637.000000,293019.001800,0.001800,21637.001800,1.000000,384-639,-1.000000,""
46_0_1,w0,profile_46,195931.000000,1024,86400.000000,1,COMPLETED_SUCCESSFULLY,210298.012900,85515.000000,295813.012900,14367.012900,99882.012900,1.168006,0-383 3072-3199 3584-4095,-1.000000,""
51_0_1,w0,profile_51,282252.000000,256,21618.000000,1,COMPLETED_SUCCESSFULLY,282252.001800,21617.000000,303869.001800,0.001800,21617.001800,1.000000,640-895,-1.000000,""
52_0_1,w0,profile_52,291576.000000,256,21641.000000,1,COMPLETED_SUCCESSFULLY,291576.001800,21640.000000,313216.001800,0.001800,21640.001800,1.000000,896-1151,-1.000000,""
54_0_1,w0,profile_54,294680.000000,256,21820.000000,1,COMPLETED_SUCCESSFULLY,294680.001800,21819.000000,316499.001800,0.001800,21819.001800,1.000000,1159-1414,-1.000000,""
56_0_1,w0,profile_56,311668.000000,256,21736.000000,1,COMPLETED_SUCCESSFULLY,311668.001800,21735.000000,333403.001800,0.001800,21735.001800,1.000000,640-895,-1.000000,""
55_0_1,w0,profile_55,296593.000000,781,43312.000000,1,COMPLETED_SUCCESSFULLY,296593.001800,43311.000000,339904.001800,0.001800,43311.001800,1.000000,0-383 1415-1811,-1.000000,""
57_0_1,w0,profile_57,327442.000000,384,21722.000000,1,COMPLETED_SUCCESSFULLY,327442.001800,21721.000000,349163.001800,0.001800,21721.001800,1.000000,896-1151 1159-1286,-1.000000,""
58_0_1,w0,profile_58,356707.000000,256,21620.000000,1,COMPLETED_SUCCESSFULLY,356707.001800,21619.000000,378326.001800,0.001800,21619.001800,1.000000,0-255,-1.000000,""
59_0_1,w0,profile_59,357509.000000,529,24169.000000,1,COMPLETED_SUCCESSFULLY,357509.001800,24168.000000,381677.001800,0.001800,24168.001800,1.000000,256-383 640-1040,-1.000000,""
61_0_1,w0,profile_61,378989.000000,384,32400.000000,1,COMPLETED_SUCCESSFULLY,378989.001800,32277.000000,411266.001800,0.001800,32277.001800,1.000000,0-255 2072-2199,-1.000000,""
60_0_1,w0,profile_60,373750.000000,1024,86531.000000,1,COMPLETED_SUCCESSFULLY,373750.001800,86530.000000,460280.001800,0.001800,86530.001800,1.000000,1041-1151 1159-2071,-1.000000,""
62_0_1,w0,profile_62,379931.000000,1024,86400.000000,1,COMPLETED_SUCCESSFULLY,379931.001800,83014.000000,462945.001800,0.001800,83014.001800,1.000000,2200-3223,-1.000000,""
63_0_1,w0,profile_63,379972.000000,1024,86400.000000,1,COMPLETED_SUCCESSFULLY,379972.001800,83076.000000,463048.001800,0.001800,83076.001800,1.000000,3224-4247,-1.000000,""
66_0_1,w0,profile_66,390899.000000,256,21610.000000,1,COMPLETED_SUCCESSFULLY,460283.004050,21609.000000,481892.004050,69384.004050,90993.004050,4.210885,1304-1559,-1.000000,""
67_0_1,w0,profile_67,390906.000000,256,21616.000000,1,COMPLETED_SUCCESSFULLY,460283.004650,21615.000000,481898.004650,69377.004650,90992.004650,4.209669,1560-1815,-1.000000,""
65_0_1,w0,profile_65,390886.000000,256,21626.000000,1,COMPLETED_SUCCESSFULLY,460283.003450,21625.000000,481908.003450,69397.003450,91022.003450,4.209110,1041-1151 1159-1303,-1.000000,""
68_0_1,w0,profile_68,390924.000000,256,21628.000000,1,COMPLETED_SUCCESSFULLY,460283.005250,21627.000000,481910.005250,69359.005250,90986.005250,4.207056,1816-2071,-1.000000,""
71_0_1,w0,profile_71,447289.000000,256,21600.000000,1,COMPLETED_SUCCESSFULLY,462948.004650,21589.000000,484537.004650,15659.004650,37248.004650,1.725323,2985-3223 4359-4375,-1.000000,""
69_0_1,w0,profile_69,440895.000000,256,21640.000000,1,COMPLETED_SUCCESSFULLY,462948.003450,21639.000000,484587.003450,22053.003450,43692.003450,2.019132,2200-2455,-1.000000,""
72_0_1,w0,profile_72,447301.000000,256,21605.000000,1,COMPLETED_SUCCESSFULLY,463051.003450,21604.000000,484655.003450,15750.003450,37354.003450,1.729032,3224-3479,-1.000000,""
73_0_1,w0,profile_73,448804.000000,256,21708.000000,1,COMPLETED_SUCCESSFULLY,463051.004050,21707.000000,484758.004050,14247.004050,35954.004050,1.656332,3480-3735,-1.000000,""
70_0_1,w0,profile_70,443479.000000,529,24141.000000,1,COMPLETED_SUCCESSFULLY,462948.004050,24140.000000,487088.004050,19469.004050,43609.004050,1.806504,2456-2984,-1.000000,""
75_0_1,w0,profile_75,470999.000000,256,21628.000000,1,COMPLETED_SUCCESSFULLY,470999.001800,21627.000000,492626.001800,0.001800,21627.001800,1.000000,3992-4247,-1.000000,""
74_0_1,w0,profile_74,470974.000000,256,21684.000000,1,COMPLETED_SUCCESSFULLY,470974.001800,21683.000000,492657.001800,0.001800,21683.001800,1.000000,3736-3991,-1.000000,""
64_0_1,w0,profile_64,380005.000000,1024,86400.000000,1,COMPLETED_SUCCESSFULLY,411269.003450,83048.000000,494317.003450,31264.003450,114312.003450,1.376457,0-383 640-1040 2072-2199 4248-4358,-1.000000,""
77_0_1,w0,profile_77,471058.000000,256,21600.000000,1,COMPLETED_SUCCESSFULLY,481901.006300,21599.000000,503500.006300,10843.006300,32442.006300,1.502014,1560-1815,-1.000000,""
76_0_1,w0,profile_76,471013.000000,256,21612.000000,1,COMPLETED_SUCCESSFULLY,481895.005700,21611.000000,503506.005700,10882.005700,32493.005700,1.503540,1304-1559,-1.000000,""
79_0_1,w0,profile_79,471326.000000,256,21656.000000,1,COMPLETED_SUCCESSFULLY,481914.006750,21655.000000,503569.006750,10588.006750,32243.006750,1.488941,1816-2071,-1.000000,""
78_0_1,w0,profile_78,471302.000000,256,21659.000000,1,COMPLETED_SUCCESSFULLY,481914.006150,21658.000000,503572.006150,10612.006150,32270.006150,1.489981,1041-1151 1159-1303,-1.000000,""
80_0_1,w0,profile_80,471340.000000,256,21655.000000,1,COMPLETED_SUCCESSFULLY,484540.006300,21654.000000,506194.006300,13200.006300,34854.006300,1.609587,2985-3223 4359-4375,-1.000000,""
81_0_1,w0,profile_81,494288.000000,1024,21696.000000,1,COMPLETED_SUCCESSFULLY,494288.001800,21695.000000,515983.001800,0.001800,21695.001800,1.000000,2200-2984 3224-3462,-1.000000,""
82_0_1,w0,profile_82,533801.000000,529,24137.000000,1,COMPLETED_SUCCESSFULLY,533801.001800,24136.000000,557937.001800,0.001800,24136.001800,1.000000,0-383 640-784,-1.000000,""
84_0_1,w0,profile_84,539695.000000,256,21600.000000,1,COMPLETED_SUCCESSFULLY,539695.001800,20176.000000,559871.001800,0.001800,20176.001800,1.000000,1594-1849,-1.000000,""
86_0_1,w0,profile_86,547615.000000,1024,28800.000000,1,COMPLETED_SUCCESSFULLY,547615.001800,27044.000000,574659.001800,0.001800,27044.001800,1.000000,2874-3897,-1.000000,""
87_0_1,w0,profile_87,555834.000000,512,28951.000000,1,COMPLETED_SUCCESSFULLY,557940.003450,28950.000000,586890.003450,2106.003450,31056.003450,1.072746,0-383 640-767,-1.000000,""
88_0_1,w0,profile_88,558226.000000,512,28955.000000,1,COMPLETED_SUCCESSFULLY,559874.003450,28954.000000,588828.003450,1648.003450,30602.003450,1.056918,768-784 1594-1849 3898-4136,-1.000000,""
89_0_1,w0,profile_89,558923.000000,512,28929.000000,1,COMPLETED_SUCCESSFULLY,574662.003450,28928.000000,603590.003450,15739.003450,44667.003450,1.544075,2874-3385,-1.000000,""
53_0_1,w0,profile_53,293769.000000,263,324170.000000,1,COMPLETED_SUCCESSFULLY,293769.001800,324169.000000,617938.001800,0.001800,324169.001800,1.000000,384-639 1152-1158,-1.000000,""
85_0_1,w0,profile_85,547518.000000,1024,86400.000000,1,COMPLETED_SUCCESSFULLY,547518.001800,73259.000000,620777.001800,0.001800,73259.001800,1.000000,1850-2873,-1.000000,""
83_0_1,w0,profile_83,534482.000000,802,86521.000000,1,COMPLETED_SUCCESSFULLY,534482.001800,86520.000000,621002.001800,0.001800,86520.001800,1.000000,785-1151 1159-1593,-1.000000,""
90_0_1,w0,profile_90,567424.000000,1024,86400.000000,1,COMPLETED_SUCCESSFULLY,586893.005100,51419.000000,638312.005100,19469.005100,70888.005100,1.378634,0-383 640-767 3386-3897,-1.000000,""
95_0_1,w0,profile_95,620272.000000,256,21745.000000,1,COMPLETED_SUCCESSFULLY,621005.003450,21744.000000,642749.003450,733.003450,22477.003450,1.033711,785-1040,-1.000000,""
94_0_1,w0,profile_94,617720.000000,529,24151.000000,1,COMPLETED_SUCCESSFULLY,620780.004050,24150.000000,644930.004050,3060.004050,27210.004050,1.126708,2234-2762,-1.000000,""
92_0_1,w0,profile_92,576003.000000,384,32400.000000,1,COMPLETED_SUCCESSFULLY,617941.003450,27917.000000,645858.003450,41938.003450,69855.003450,2.502239,384-639 1152-1158 4137-4257,-1.000000,""
93_0_1,w0,profile_93,579438.000000,384,32542.000000,1,COMPLETED_SUCCESSFULLY,620780.003450,32541.000000,653321.003450,41342.003450,73883.003450,2.270459,1850-2233,-1.000000,""
91_0_1,w0,profile_91,567463.000000,1024,86400.000000,1,COMPLETED_SUCCESSFULLY,603593.005100,51244.000000,654837.005100,36130.005100,87374.005100,1.705058,768-784 1594-1849 2874-3385 3898-4136,-1.000000,""
96_0_1,w0,profile_96,642685.000000,256,21732.000000,1,COMPLETED_SUCCESSFULLY,642685.001800,21731.000000,664416.001800,0.001800,21731.001800,1.000000,0-255,-1.000000,""
97_0_1,w0,profile_97,662774.000000,1024,86400.000000,1,COMPLETED_SUCCESSFULLY,662774.001800,21987.000000,684761.001800,0.001800,21987.001800,1.000000,256-1279,-1.000000,""
98_0_1,w0,profile_98,662792.000000,1024,86400.000000,1,COMPLETED_SUCCESSFULLY,662792.001800,21986.000000,684778.001800,0.001800,21986.001800,1.000000,1280-2303,-1.000000,""
99_0_1,w0,profile_99,696473.000000,384,32539.000000,1,COMPLETED_SUCCESSFULLY,696473.001800,32538.000000,729011.001800,0.001800,32538.001800,1.000000,0-383,-1.000000,""
101_0_1,w0,profile_101,705564.000000,1024,86400.000000,1,COMPLETED_SUCCESSFULLY,705564.001800,24297.000000,729861.001800,0.001800,24297.001800,1.000000,1408-2431,-1.000000,""
100_0_1,w0,profile_100,705555.000000,1024,86400.000000,1,COMPLETED_SUCCESSFULLY,705555.001800,24331.000000,729886.001800,0.001800,24331.001800,1.000000,384-1407,-1.000000,""
102_0_1,w0,profile_102,725239.000000,256,21600.000000,1,COMPLETED_SUCCESSFULLY,725239.001800,20976.000000,746215.001800,0.001800,20976.001800,1.000000,2432-2687,-1.000000,""
104_0_1,w0,profile_104,727456.000000,256,21600.000000,1,COMPLETED_SUCCESSFULLY,727456.001800,20158.000000,747614.001800,0.001800,20158.001800,1.000000,2944-3199,-1.000000,""
103_0_1,w0,profile_103,727436.000000,256,21600.000000,1,COMPLETED_SUCCESSFULLY,727436.001800,20447.000000,747883.001800,0.001800,20447.001800,1.000000,2688-2943,-1.000000,""
105_0_1,w0,profile_105,728100.000000,256,21720.000000,1,COMPLETED_SUCCESSFULLY,728100.001800,21719.000000,749819.001800,0.001800,21719.001800,1.000000,3200-3455,-1.000000,""
106_0_1,w0,profile_106,728121.000000,256,21748.000000,1,COMPLETED_SUCCESSFULLY,728121.001800,21747.000000,749868.001800,0.001800,21747.001800,1.000000,3456-3711,-1.000000,""
107_0_1,w0,profile_107,728761.000000,384,32400.000000,1,COMPLETED_SUCCESSFULLY,728761.001800,32329.000000,761090.001800,0.001800,32329.001800,1.000000,3712-4095,-1.000000,""
108_0_1,w0,profile_108,752093.000000,256,21663.000000,1,COMPLETED_SUCCESSFULLY,752093.001800,21662.000000,773755.001800,0.001800,21662.001800,1.000000,0-255,-1.000000,""
109_0_1,w0,profile_109,757812.000000,256,21696.000000,1,COMPLETED_SUCCESSFULLY,757812.001800,21695.000000,779507.001800,0.001800,21695.001800,1.000000,256-511,-1.000000,""
110_0_1,w0,profile_110,763648.000000,256,21600.000000,1,COMPLETED_SUCCESSFULLY,763648.001800,21321.000000,784969.001800,0.001800,21321.001800,1.000000,512-767,-1.000000,""
111_0_1,w0,profile_111,764297.000000,512,32614.000000,1,COMPLETED_SUCCESSFULLY,764297.001800,32613.000000,796910.001800,0.001800,32613.001800,1.000000,768-1279,-1.000000,""
112_0_1,w0,profile_112,783852.000000,256,21825.000000,1,COMPLETED_SUCCESSFULLY,783852.001800,21824.000000,805676.001800,0.001800,21824.001800,1.000000,0-255,-1.000000,""
113_0_1,w0,profile_113,786036.000000,256,22838.000000,1,COMPLETED_SUCCESSFULLY,786036.001800,22837.000000,808873.001800,0.001800,22837.001800,1.000000,256-511,-1.000000,""
115_0_1,w0,profile_115,830215.000000,256,21735.000000,1,COMPLETED_SUCCESSFULLY,830215.001800,21734.000000,851949.001800,0.001800,21734.001800,1.000000,1024-1279,-1.000000,""
116_0_1,w0,profile_116,848104.000000,384,32521.000000,1,COMPLETED_SUCCESSFULLY,848104.001800,32520.000000,880624.001800,0.001800,32520.001800,1.000000,1280-1663,-1.000000,""
117_0_1,w0,profile_117,888794.000000,256,21644.000000,1,COMPLETED_SUCCESSFULLY,888794.001800,21643.000000,910437.001800,0.001800,21643.001800,1.000000,1024-1279,-1.000000,""
118_0_1,w0,profile_118,888939.000000,256,21600.000000,1,COMPLETED_SUCCESSFULLY,888939.001800,21593.000000,910532.001800,0.001800,21593.001800,1.000000,1280-1535,-1.000000,""
114_0_1,w0,profile_114,828300.000000,1024,86910.000000,1,COMPLETED_SUCCESSFULLY,828300.001800,86909.000000,915209.001800,0.001800,86909.001800,1.000000,0-1023,-1.000000,""
119_0_1,w0,profile_119,901666.000000,1008,86573.000000,1,COMPLETED_SUCCESSFULLY,901666.001800,86572.000000,988238.001800,0.001800,86572.001800,1.000000,1536-2543,-1.000000,""
120_0_1,w0,profile_120,902065.000000,824,86556.000000,1,COMPLETED_SUCCESSFULLY,902065.001800,86555.000000,988620.001800,0.001800,86555.001800,1.000000,2544-3367,-1.000000,""
121_0_1,w0,profile_121,960769.000000,512,28969.000000,1,COMPLETED_SUCCESSFULLY,960769.001800,28968.000000,989737.001800,0.001800,28968.001800,1.000000,0-511,-1.000000,""
123_0_1,w0,profile_123,961547.000000,1024,86400.000000,1,COMPLETED_SUCCESSFULLY,961547.001800,46607.000000,1008154.001800,0.001800,46607.001800,1.000000,3368-4391,-1.000000,""
127_0_1,w0,profile_127,977535.000000,256,21736.000000,1,COMPLETED_SUCCESSFULLY,988623.004650,21735.000000,1010358.004650,11088.004650,32823.004650,1.510145,3072-3327,-1.000000,""
125_0_1,w0,profile_125,975378.000000,512,21822.000000,1,COMPLETED_SUCCESSFULLY,988623.003450,21821.000000,1010444.003450,13245.003450,35066.003450,1.606984,2048-2559,-1.000000,""
126_0_1,w0,profile_126,976491.000000,512,25200.000000,1,COMPLETED_SUCCESSFULLY,988623.004050,24199.000000,1012822.004050,12132.004050,36331.004050,1.501343,2560-3071,-1.000000,""
124_0_1,w0,profile_124,964001.000000,512,28950.000000,1,COMPLETED_SUCCESSFULLY,988241.003450,28949.000000,1017190.003450,24240.003450,53189.003450,1.837335,1536-2047,-1.000000,""
132_0_1,w0,profile_132,988607.000000,256,21719.000000,1,COMPLETED_SUCCESSFULLY,1012825.006300,21718.000000,1034543.006300,24218.006300,45936.006300,2.115112,2816-3071,-1.000000,""
131_0_1,w0,profile_131,987348.000000,256,21779.000000,1,COMPLETED_SUCCESSFULLY,1012825.005700,21778.000000,1034603.005700,25477.005700,47255.005700,2.169851,2560-2815,-1.000000,""
122_0_1,w0,profile_122,961540.000000,1024,86400.000000,1,COMPLETED_SUCCESSFULLY,961540.001800,74130.000000,1035670.001800,0.001800,74130.001800,1.000000,512-1535,-1.000000,""
133_0_1,w0,profile_133,995473.000000,524,32400.000000,1,COMPLETED_SUCCESSFULLY,1017193.005100,24310.000000,1041503.005100,21720.005100,46030.005100,1.893460,1536-2047 4359-4370,-1.000000,""
134_0_1,w0,profile_134,1024893.000000,512,32553.000000,1,COMPLETED_SUCCESSFULLY,1034606.007350,32552.000000,1067158.007350,9713.007350,42265.007350,1.298384,2560-3071,-1.000000,""
135_0_1,w0,profile_135,1025413.000000,384,32513.000000,1,COMPLETED_SUCCESSFULLY,1035673.003450,32512.000000,1068185.003450,10260.003450,42772.003450,1.315576,512-895,-1.000000,""
136_0_1,w0,profile_136,1029279.000000,802,28949.000000,1,COMPLETED_SUCCESSFULLY,1041506.006750,28948.000000,1070454.006750,12227.006750,41175.006750,1.422378,896-1697,-1.000000,""
140_0_1,w0,profile_140,1068207.000000,256,21698.000000,1,COMPLETED_SUCCESSFULLY,1070457.009000,21697.000000,1092154.009000,2250.009000,23947.009000,1.103701,1152-1407,-1.000000,""
139_0_1,w0,profile_139,1054974.000000,256,21767.000000,1,COMPLETED_SUCCESSFULLY,1070457.008400,21766.000000,1092223.008400,15483.008400,37249.008400,1.711339,896-1151,-1.000000,""
129_0_1,w0,profile_129,984045.000000,1024,86531.000000,1,COMPLETED_SUCCESSFULLY,1008157.003450,86530.000000,1094687.003450,24112.003450,110642.003450,1.278655,263-511 3328-4102,-1.000000,""
130_0_1,w0,profile_130,984082.000000,1024,86562.000000,1,COMPLETED_SUCCESSFULLY,1010447.005100,86561.000000,1097008.005100,26365.005100,112926.005100,1.304583,2048-2559 3072-3327 4103-4358,-1.000000,""
137_0_1,w0,profile_137,1048655.000000,1024,86400.000000,1,COMPLETED_SUCCESSFULLY,1068188.005100,29583.000000,1097771.005100,19533.005100,49116.005100,1.660278,512-895 1698-2047 2560-2849,-1.000000,""
141_0_1,w0,profile_141,1116279.000000,384,32445.000000,1,COMPLETED_SUCCESSFULLY,1116279.001800,32444.000000,1148723.001800,0.001800,32444.001800,1.000000,512-895,-1.000000,""
142_0_1,w0,profile_142,1133383.000000,512,32564.000000,1,COMPLETED_SUCCESSFULLY,1133383.001800,32563.000000,1165946.001800,0.001800,32563.001800,1.000000,1698-2209,-1.000000,""
138_0_1,w0,profile_138,1049900.000000,2048,86534.000000,1,COMPLETED_SUCCESSFULLY,1094690.005100,86533.000000,1181223.005100,44790.005100,131323.005100,1.517606,263-511 896-1697 2850-3071 3328-4102,-1.000000,""
152_0_1,w0,profile_152,1140997.000000,256,21600.000000,1,COMPLETED_SUCCESSFULLY,1181226.010950,21581.000000,1202807.010950,40229.010950,61810.010950,2.864094,3847-4102,-1.000000,""
147_0_1,w0,profile_147,1136119.000000,256,21600.000000,1,COMPLETED_SUCCESSFULLY,1181226.007950,21594.000000,1202820.007950,45107.007950,66701.007950,3.088868,1159-1414,-1.000000,""
150_0_1,w0,profile_150,1140993.000000,256,21610.000000,1,COMPLETED_SUCCESSFULLY,1181226.009750,21609.000000,1202835.009750,40233.009750,61842.009750,2.861864,3335-3590,-1.000000,""
151_0_1,w0,profile_151,1140995.000000,256,21627.000000,1,COMPLETED_SUCCESSFULLY,1181226.010350,21626.000000,1202852.010350,40231.010350,61857.010350,2.860308,3591-3846,-1.000000,""
149_0_1,w0,profile_149,1140981.000000,256,21641.000000,1,COMPLETED_SUCCESSFULLY,1181226.009150,21640.000000,1202866.009150,40245.009150,61885.009150,2.859751,1671-1697 2850-3071 3328-3334,-1.000000,""
145_0_1,w0,profile_145,1136101.000000,256,21649.000000,1,COMPLETED_SUCCESSFULLY,1181226.006750,21648.000000,1202874.006750,45125.006750,66773.006750,3.084488,263-511 896-902,-1.000000,""
148_0_1,w0,profile_148,1136123.000000,256,21672.000000,1,COMPLETED_SUCCESSFULLY,1181226.008550,21671.000000,1202897.008550,45103.008550,66774.008550,3.081261,1415-1670,-1.000000,""
146_0_1,w0,profile_146,1136104.000000,256,21702.000000,1,COMPLETED_SUCCESSFULLY,1181226.007350,21701.000000,1202927.007350,45122.007350,66823.007350,3.079259,903-1158,-1.000000,""
143_0_1,w0,profile_143,1133564.000000,1024,86400.000000,1,COMPLETED_SUCCESSFULLY,1133564.001800,85538.000000,1219102.001800,0.001800,85538.001800,1.000000,2210-2849 3072-3327 4103-4230,-1.000000,""
153_0_1,w0,profile_153,1149097.000000,256,21726.000000,1,COMPLETED_SUCCESSFULLY,1202810.012600,21725.000000,1224535.012600,53713.012600,75438.012600,3.472406,3847-4102,-1.000000,""
154_0_1,w0,profile_154,1158816.000000,512,28922.000000,1,COMPLETED_SUCCESSFULLY,1202838.011400,28921.000000,1231759.011400,44022.011400,72943.011400,2.522147,1159-1414 3335-3590,-1.000000,""
156_0_1,w0,profile_156,1222155.000000,256,21603.000000,1,COMPLETED_SUCCESSFULLY,1222155.001800,21602.000000,1243757.001800,0.001800,21602.001800,1.000000,903-1158,-1.000000,""
155_0_1,w0,profile_155,1222152.000000,256,21644.000000,1,COMPLETED_SUCCESSFULLY,1222152.001800,21643.000000,1243795.001800,0.001800,21643.001800,1.000000,263-511 896-902,-1.000000,""
157_0_1,w0,profile_157,1223275.000000,1024,86400.000000,1,COMPLETED_SUCCESSFULLY,1223275.001800,26468.000000,1249743.001800,0.001800,26468.001800,1.000000,1415-1697 2210-2950,-1.000000,""
144_0_1,w0,profile_144,1133578.000000,1024,86400.000000,1,COMPLETED_SUCCESSFULLY,1165949.003450,85524.000000,1251473.003450,32371.003450,117895.003450,1.378502,512-895 1698-2209 4231-4358,-1.000000,""
158_0_1,w0,profile_158,1226468.000000,384,32510.000000,1,COMPLETED_SUCCESSFULLY,1226468.001800,32509.000000,1258977.001800,0.001800,32509.001800,1.000000,2951-3334,-1.000000,""
159_0_1,w0,profile_159,1271018.000000,256,21763.000000,1,COMPLETED_SUCCESSFULLY,1271018.001800,21762.000000,1292780.001800,0.001800,21762.001800,1.000000,263-518,-1.000000,""
128_0_1,w0,profile_128,977908.000000,263,325327.000000,1,COMPLETED_SUCCESSFULLY,989740.003450,325326.000000,1315066.003450,11832.003450,337158.003450,1.036370,0-262,-1.000000,""
160_0_1,w0,profile_160,1285281.000000,384,32589.000000,1,COMPLETED_SUCCESSFULLY,1285281.001800,32588.000000,1317869.001800,0.001800,32588.001800,1.000000,519-902,-1.000000,""
162_0_1,w0,profile_162,1304314.000000,256,21749.000000,1,COMPLETED_SUCCESSFULLY,1304314.001800,21748.000000,1326062.001800,0.001800,21748.001800,1.000000,1449-1704,-1.000000,""
164_0_1,w0,profile_164,1311483.000000,256,21693.000000,1,COMPLETED_SUCCESSFULLY,1311483.001800,21692.000000,1333175.001800,0.001800,21692.001800,1.000000,2217-2472,-1.000000,""
165_0_1,w0,profile_165,1313427.000000,256,21757.000000,1,COMPLETED_SUCCESSFULLY,1313427.001800,21756.000000,1335183.001800,0.001800,21756.001800,1.000000,2473-2728,-1.000000,""
166_0_1,w0,profile_166,1315562.000000,256,21689.000000,1,COMPLETED_SUCCESSFULLY,1315562.001800,21688.000000,1337250.001800,0.001800,21688.001800,1.000000,0-255,-1.000000,""
163_0_1,w0,profile_163,1309236.000000,512,32520.000000,1,COMPLETED_SUCCESSFULLY,1309236.001800,32519.000000,1341755.001800,0.001800,32519.001800,1.000000,1705-2216,-1.000000,""
167_0_1,w0,profile_167,1338450.000000,256,21718.000000,1,COMPLETED_SUCCESSFULLY,1338450.001800,21717.000000,1360167.001800,0.001800,21717.001800,1.000000,0-255,-1.000000,""
168_0_1,w0,profile_168,1338502.000000,256,21737.000000,1,COMPLETED_SUCCESSFULLY,1338502.001800,21736.000000,1360238.001800,0.001800,21736.001800,1.000000,256-262 519-767,-1.000000,""
169_0_1,w0,profile_169,1340363.000000,512,21600.000000,1,COMPLETED_SUCCESSFULLY,1340363.001800,20009.000000,1360372.001800,0.001800,20009.001800,1.000000,768-902 1449-1704 2217-2337,-1.000000,""
171_0_1,w0,profile_171,1340369.000000,512,21600.000000,1,COMPLETED_SUCCESSFULLY,1340369.001800,20178.000000,1360547.001800,0.001800,20178.001800,1.000000,2850-3361,-1.000000,""
170_0_1,w0,profile_170,1340366.000000,512,21600.000000,1,COMPLETED_SUCCESSFULLY,1340366.001800,20588.000000,1360954.001800,0.001800,20588.001800,1.000000,2338-2849,-1.000000,""
172_0_1,w0,profile_172,1340387.000000,512,21794.000000,1,COMPLETED_SUCCESSFULLY,1340387.001800,21793.000000,1362180.001800,0.001800,21793.001800,1.000000,3362-3873,-1.000000,""
173_0_1,w0,profile_173,1348595.000000,256,21811.000000,1,COMPLETED_SUCCESSFULLY,1348595.001800,21810.000000,1370405.001800,0.001800,21810.001800,1.000000,1705-1960,-1.000000,""
174_0_1,w0,profile_174,1353036.000000,256,21735.000000,1,COMPLETED_SUCCESSFULLY,1353036.001800,21734.000000,1374770.001800,0.001800,21734.001800,1.000000,1961-2216,-1.000000,""
161_0_1,w0,profile_161,1299490.000000,802,86568.000000,1,COMPLETED_SUCCESSFULLY,1299490.001800,86567.000000,1386057.001800,0.001800,86567.001800,1.000000,263-518 903-1448,-1.000000,""
175_0_1,w0,profile_175,1370395.000000,384,33737.000000,1,COMPLETED_SUCCESSFULLY,1370395.001800,33736.000000,1404131.001800,0.001800,33736.001800,1.000000,0-262 519-639,-1.000000,""
178_0_1,w0,profile_178,1396724.000000,256,21721.000000,1,COMPLETED_SUCCESSFULLY,1396724.001800,21720.000000,1418444.001800,0.001800,21720.001800,1.000000,1664-1919,-1.000000,""
177_0_1,w0,profile_177,1396681.000000,256,21765.000000,1,COMPLETED_SUCCESSFULLY,1396681.001800,21764.000000,1418445.001800,0.001800,21764.001800,1.000000,1408-1663,-1.000000,""
179_0_1,w0,profile_179,1397784.000000,256,21754.000000,1,COMPLETED_SUCCESSFULLY,1397784.001800,21753.000000,1419537.001800,0.001800,21753.001800,1.000000,1920-2175,-1.000000,""
181_0_1,w0,profile_181,1401245.000000,256,21728.000000,1,COMPLETED_SUCCESSFULLY,1401245.001800,21727.000000,1422972.001800,0.001800,21727.001800,1.000000,2688-2943,-1.000000,""
182_0_1,w0,profile_182,1403034.000000,256,21648.000000,1,COMPLETED_SUCCESSFULLY,1403034.001800,21647.000000,1424681.001800,0.001800,21647.001800,1.000000,2944-3199,-1.000000,""
180_0_1,w0,profile_180,1399345.000000,512,28923.000000,1,COMPLETED_SUCCESSFULLY,1399345.001800,28922.000000,1428267.001800,0.001800,28922.001800,1.000000,2176-2687,-1.000000,""
183_0_1,w0,profile_183,1422340.000000,256,21746.000000,1,COMPLETED_SUCCESSFULLY,1422340.001800,21745.000000,1444085.001800,0.001800,21745.001800,1.000000,0-255,-1.000000,""
184_0_1,w0,profile_184,1427210.000000,256,21695.000000,1,COMPLETED_SUCCESSFULLY,1427210.001800,21694.000000,1448904.001800,0.001800,21694.001800,1.000000,256-262 519-639 1408-1535,-1.000000,""
185_0_1,w0,profile_185,1437541.000000,256,21618.000000,1,COMPLETED_SUCCESSFULLY,1437541.001800,21617.000000,1459158.001800,0.001800,21617.001800,1.000000,1536-1791,-1.000000,""
187_0_1,w0,profile_187,1438527.000000,256,21666.000000,1,COMPLETED_SUCCESSFULLY,1438527.001800,21665.000000,1460192.001800,0.001800,21665.001800,1.000000,2304-2559,-1.000000,""
188_0_1,w0,profile_188,1443612.000000,256,21761.000000,1,COMPLETED_SUCCESSFULLY,1443612.001800,21760.000000,1465372.001800,0.001800,21760.001800,1.000000,2560-2815,-1.000000,""
186_0_1,w0,profile_186,1438312.000000,512,32448.000000,1,COMPLETED_SUCCESSFULLY,1438312.001800,32447.000000,1470759.001800,0.001800,32447.001800,1.000000,1792-2303,-1.000000,""
189_0_1,w0,profile_189,1452343.000000,256,21878.000000,1,COMPLETED_SUCCESSFULLY,1452343.001800,21877.000000,1474220.001800,0.001800,21877.001800,1.000000,0-255,-1.000000,""
176_0_1,w0,profile_176,1393844.000000,1024,86621.000000,1,COMPLETED_SUCCESSFULLY,1393844.001800,86620.000000,1480464.001800,0.001800,86620.001800,1.000000,263-518 640-1407,-1.000000,""
190_0_1,w0,profile_190,1452858.000000,384,32504.000000,1,COMPLETED_SUCCESSFULLY,1452858.001800,32503.000000,1485361.001800,0.001800,32503.001800,1.000000,256-262 519-639 1408-1535 2816-2943,-1.000000,""
191_0_1,w0,profile_191,1466021.000000,256,21733.000000,1,COMPLETED_SUCCESSFULLY,1466021.001800,21732.000000,1487753.001800,0.001800,21732.001800,1.000000,1536-1791,-1.000000,""
193_0_1,w0,profile_193,1483219.000000,256,21759.000000,1,COMPLETED_SUCCESSFULLY,1483219.001800,21758.000000,1504977.001800,0.001800,21758.001800,1.000000,263-518,-1.000000,""
192_0_1,w0,profile_192,1479092.000000,512,32400.000000,1,COMPLETED_SUCCESSFULLY,1479092.001800,27164.000000,1506256.001800,0.001800,27164.001800,1.000000,0-255 1792-2047,-1.000000,""
194_0_1,w0,profile_194,1484535.000000,256,21750.000000,1,COMPLETED_SUCCESSFULLY,1484535.001800,21749.000000,1506284.001800,0.001800,21749.001800,1.000000,640-895,-1.000000,""
195_0_1,w0,profile_195,1489339.000000,529,24115.000000,1,COMPLETED_SUCCESSFULLY,1489339.001800,24114.000000,1513453.001800,0.001800,24114.001800,1.000000,256-262 519-639 896-1296,-1.000000,""
200_0_1,w0,profile_200,1506827.000000,256,21690.000000,1,COMPLETED_SUCCESSFULLY,1506827.001800,21689.000000,1528516.001800,0.001800,21689.001800,1.000000,0-255,-1.000000,""
198_0_1,w0,profile_198,1498147.000000,512,32423.000000,1,COMPLETED_SUCCESSFULLY,1498147.001800,32422.000000,1530569.001800,0.001800,32422.001800,1.000000,3089-3600,-1.000000,""
197_0_1,w0,profile_197,1498113.000000,512,33680.000000,1,COMPLETED_SUCCESSFULLY,1498113.001800,33679.000000,1531792.001800,0.001800,33679.001800,1.000000,2577-3088,-1.000000,""
196_0_1,w0,profile_196,1496425.000000,1024,86400.000000,1,COMPLETED_SUCCESSFULLY,1496425.001800,49767.000000,1546192.001800,0.001800,49767.001800,1.000000,1297-1791 2048-2576,-1.000000,""
199_0_1,w0,profile_199,1502392.000000,4096,86400.000000,1,COMPLETED_SUCCESSFULLY,1546195.003450,31056.000000,1577251.003450,43803.003450,74859.003450,2.410452,0-4095,-1.000000,""
202_0_1,w0,profile_202,1570472.000000,512,32450.000000,1,COMPLETED_SUCCESSFULLY,1577254.005100,32449.000000,1609703.005100,6782.005100,39231.005100,1.209005,0-511,-1.000000,""
206_0_1,w0,profile_206,1588918.000000,272,21618.000000,1,COMPLETED_SUCCESSFULLY,1588918.001800,21617.000000,1610535.001800,0.001800,21617.001800,1.000000,2944-3215,-1.000000,""
205_0_1,w0,profile_205,1586572.000000,384,32503.000000,1,COMPLETED_SUCCESSFULLY,1586572.001800,32502.000000,1619074.001800,0.001800,32502.001800,1.000000,2560-2943,-1.000000,""
204_0_1,w0,profile_204,1577172.000000,1024,86400.000000,1,COMPLETED_SUCCESSFULLY,1577254.006300,47748.000000,1625002.006300,82.006300,47830.006300,1.001717,1536-2559,-1.000000,""
207_0_1,w0,profile_207,1609482.000000,256,21648.000000,1,COMPLETED_SUCCESSFULLY,1609482.001800,21647.000000,1631129.001800,0.001800,21647.001800,1.000000,3216-3471,-1.000000,""
203_0_1,w0,profile_203,1577166.000000,1024,86400.000000,1,COMPLETED_SUCCESSFULLY,1577254.005700,84159.000000,1661413.005700,88.005700,84247.005700,1.001046,512-1535,-1.000000,""
209_0_1,w0,profile_209,1660255.000000,256,21702.000000,1,COMPLETED_SUCCESSFULLY,1660255.001800,21701.000000,1681956.001800,0.001800,21701.001800,1.000000,1548-1803,-1.000000,""
210_0_1,w0,profile_210,1660724.000000,512,28952.000000,1,COMPLETED_SUCCESSFULLY,1660724.001800,28951.000000,1689675.001800,0.001800,28951.001800,1.000000,1804-2315,-1.000000,""
208_0_1,w0,profile_208,1658786.000000,524,32553.000000,1,COMPLETED_SUCCESSFULLY,1658786.001800,32552.000000,1691338.001800,0.001800,32552.001800,1.000000,0-511 1536-1547,-1.000000,""
211_0_1,w0,profile_211,1665541.000000,1000,86534.000000,1,COMPLETED_SUCCESSFULLY,1665541.001800,86533.000000,1752074.001800,0.001800,86533.001800,1.000000,512-1511,-1.000000,""
213_0_1,w0,profile_213,1736547.000000,256,21708.000000,1,COMPLETED_SUCCESSFULLY,1736547.001800,21707.000000,1758254.001800,0.001800,21707.001800,1.000000,1512-1767,-1.000000,""
212_0_1,w0,profile_212,1733534.000000,512,32496.000000,1,COMPLETED_SUCCESSFULLY,1733534.001800,32495.000000,1766029.001800,0.001800,32495.001800,1.000000,0-511,-1.000000,""
215_0_1,w0,profile_215,1746177.000000,1536,86400.000000,1,COMPLETED_SUCCESSFULLY,1746177.001800,23585.000000,1769762.001800,0.001800,23585.001800,1.000000,2280-3815,-1.000000,""
214_0_1,w0,profile_214,1744415.000000,512,28969.000000,1,COMPLETED_SUCCESSFULLY,1744415.001800,28968.000000,1773383.001800,0.001800,28968.001800,1.000000,1768-2279,-1.000000,""
216_0_1,w0,profile_216,1767329.000000,256,21825.000000,1,COMPLETED_SUCCESSFULLY,1767329.001800,21824.000000,1789153.001800,0.001800,21824.001800,1.000000,0-255,-1.000000,""
217_0_1,w0,profile_217,1804929.000000,384,32518.000000,1,COMPLETED_SUCCESSFULLY,1804929.001800,32517.000000,1837446.001800,0.001800,32517.001800,1.000000,0-383,-1.000000,""
218_0_1,w0,profile_218,1825266.000000,408,28873.000000,1,COMPLETED_SUCCESSFULLY,1825266.001800,28872.000000,1854138.001800,0.001800,28872.001800,1.000000,384-791,-1.000000,""
201_0_1,w0,profile_201,1511270.000000,263,325321.000000,1,COMPLETED_SUCCESSFULLY,1546195.004050,325320.000000,1871515.004050,34925.004050,360245.004050,1.107356,4096-4358,-1.000000,""
220_0_1,w0,profile_220,1844259.000000,512,28941.000000,1,COMPLETED_SUCCESSFULLY,1844259.001800,28940.000000,1873199.001800,0.001800,28940.001800,1.000000,0-383 1944-2071,-1.000000,""
219_0_1,w0,profile_219,1837316.000000,1152,86400.000000,1,COMPLETED_SUCCESSFULLY,1837316.001800,81259.000000,1918575.001800,0.001800,81259.001800,1.000000,792-1943,-1.000000,""
221_0_1,w0,profile_221,1888205.000000,384,32572.000000,1,COMPLETED_SUCCESSFULLY,1888205.001800,32571.000000,1920776.001800,0.001800,32571.001800,1.000000,0-383,-1.000000,""
222_0_1,w0,profile_222,1917112.000000,256,21652.000000,1,COMPLETED_SUCCESSFULLY,1917112.001800,21651.000000,1938763.001800,0.001800,21651.001800,1.000000,384-639,-1.000000,""
223_0_1,w0,profile_223,1917278.000000,512,32454.000000,1,COMPLETED_SUCCESSFULLY,1917278.001800,32453.000000,1949731.001800,0.001800,32453.001800,1.000000,640-791 1944-2303,-1.000000,""
224_0_1,w0,profile_224,1925303.000000,384,32587.000000,1,COMPLETED_SUCCESSFULLY,1925303.001800,32586.000000,1957889.001800,0.001800,32586.001800,1.000000,0-383,-1.000000,""
225_0_1,w0,profile_225,1945970.000000,500,32526.000000,1,COMPLETED_SUCCESSFULLY,1945970.001800,32525.000000,1978495.001800,0.001800,32525.001800,1.000000,384-639 792-1035,-1.000000,""
226_0_1,w0,profile_226,1992272.000000,256,21716.000000,1,COMPLETED_SUCCESSFULLY,1992272.001800,21715.000000,2013987.001800,0.001800,21715.001800,1.000000,0-255,-1.000000,""
227_0_1,w0,profile_227,1992390.000000,256,21764.000000,1,COMPLETED_SUCCESSFULLY,1992390.001800,21763.000000,2014153.001800,0.001800,21763.001800,1.000000,256-511,-1.000000,""
228_0_1,w0,profile_228,1993082.000000,256,21769.000000,1,COMPLETED_SUCCESSFULLY,1993082.001800,21768.000000,2014850.001800,0.001800,21768.001800,1.000000,512-767,-1.000000,""
229_0_1,w0,profile_229,2006735.000000,512,32400.000000,1,COMPLETED_SUCCESSFULLY,2006735.001800,32379.000000,2039114.001800,0.001800,32379.001800,1.000000,768-1279,-1.000000,""
230_0_1,w0,profile_230,2023820.000000,512,28931.000000,1,COMPLETED_SUCCESSFULLY,2023820.001800,28930.000000,2052750.001800,0.001800,28930.001800,1.000000,0-511,-1.000000,""
231_0_1,w0,profile_231,2082544.000000,512,32465.000000,1,COMPLETED_SUCCESSFULLY,2082544.001800,32464.000000,2115008.001800,0.001800,32464.001800,1.000000,0-511,-1.000000,""
232_0_1,w0,profile_232,2083120.000000,512,32442.000000,1,COMPLETED_SUCCESSFULLY,2083120.001800,32441.000000,2115561.001800,0.001800,32441.001800,1.000000,512-1023,-1.000000,""
233_0_1,w0,profile_233,2088556.000000,512,28993.000000,1,COMPLETED_SUCCESSFULLY,2088556.001800,28992.000000,2117548.001800,0.001800,28992.001800,1.000000,1024-1535,-1.000000,""
234_0_1,w0,profile_234,2091211.000000,512,28981.000000,1,COMPLETED_SUCCESSFULLY,2091211.001800,28980.000000,2120191.001800,0.001800,28980.001800,1.000000,1536-2047,-1.000000,""
235_0_1,w0,profile_235,2100563.000000,384,33742.000000,1,COMPLETED_SUCCESSFULLY,2100563.001800,33741.000000,2134304.001800,0.001800,33741.001800,1.000000,2048-2431,-1.000000,""
236_0_1,w0,profile_236,2105733.000000,512,32498.000000,1,COMPLETED_SUCCESSFULLY,2105733.001800,32497.000000,2138230.001800,0.001800,32497.001800,1.000000,2432-2943,-1.000000,""
237_0_1,w0,profile_237,2130475.000000,500,32607.000000,1,COMPLETED_SUCCESSFULLY,2130475.001800,32606.000000,2163081.001800,0.001800,32606.001800,1.000000,0-499,-1.000000,""
238_0_1,w0,profile_238,2145513.000000,256,21751.000000,1,COMPLETED_SUCCESSFULLY,2145513.001800,21750.000000,2167263.001800,0.001800,21750.001800,1.000000,500-755,-1.000000,""
239_0_1,w0,profile_239,2152886.000000,256,21629.000000,1,COMPLETED_SUCCESSFULLY,2152886.001800,21628.000000,2174514.001800,0.001800,21628.001800,1.000000,756-1011,-1.000000,""
240_0_1,w0,profile_240,2152923.000000,256,21616.000000,1,COMPLETED_SUCCESSFULLY,2152923.001800,21615.000000,2174538.001800,0.001800,21615.001800,1.000000,1012-1267,-1.000000,""
241_0_1,w0,profile_241,2152929.000000,256,21675.000000,1,COMPLETED_SUCCESSFULLY,2152929.001800,21674.000000,2174603.001800,0.001800,21674.001800,1.000000,1268-1523,-1.000000,""
243_0_1,w0,profile_243,2170046.000000,512,32400.000000,1,COMPLETED_SUCCESSFULLY,2170046.001800,20473.000000,2190519.001800,0.001800,20473.001800,1.000000,500-755 2048-2303,-1.000000,""
244_0_1,w0,profile_244,2172924.000000,512,32483.000000,1,COMPLETED_SUCCESSFULLY,2172924.001800,32482.000000,2205406.001800,0.001800,32482.001800,1.000000,2304-2815,-1.000000,""
246_0_1,w0,profile_246,2182169.000000,512,23559.000000,1,COMPLETED_SUCCESSFULLY,2182169.001800,23558.000000,2205727.001800,0.001800,23558.001800,1.000000,3072-3583,-1.000000,""
247_0_1,w0,profile_247,2187209.000000,384,32529.000000,1,COMPLETED_SUCCESSFULLY,2187209.001800,32528.000000,2219737.001800,0.001800,32528.001800,1.000000,3584-3967,-1.000000,""
242_0_1,w0,profile_242,2163473.000000,1024,86400.000000,1,COMPLETED_SUCCESSFULLY,2163473.001800,65601.000000,2229074.001800,0.001800,65601.001800,1.000000,0-499 1524-2047,-1.000000,""
249_0_1,w0,profile_249,2197441.000000,524,32554.000000,1,COMPLETED_SUCCESSFULLY,2197441.001800,32553.000000,2229994.001800,0.001800,32553.001800,1.000000,2055-2303 3968-4242,-1.000000,""
245_0_1,w0,profile_245,2179045.000000,1024,57705.000000,1,COMPLETED_SUCCESSFULLY,2179045.001800,57704.000000,2236749.001800,0.001800,57704.001800,1.000000,756-1523 2816-3071,-1.000000,""
250_0_1,w0,profile_250,2200263.000000,1000,86505.000000,1,COMPLETED_SUCCESSFULLY,2205730.003450,86504.000000,2292234.003450,5467.003450,91971.003450,1.063199,2304-2815 3072-3559,-1.000000,""
254_0_1,w0,profile_254,2271941.000000,312,21715.000000,1,COMPLETED_SUCCESSFULLY,2292237.005700,21714.000000,2313951.005700,20296.005700,42010.005700,1.934697,3072-3383,-1.000000,""
252_0_1,w0,profile_252,2266264.000000,512,28943.000000,1,COMPLETED_SUCCESSFULLY,2292237.005100,28942.000000,2321179.005100,25973.005100,54915.005100,1.897416,2304-2815,-1.000000,""
258_0_1,w0,profile_258,2314611.000000,256,21691.000000,1,COMPLETED_SUCCESSFULLY,2314611.001800,21690.000000,2336301.001800,0.001800,21690.001800,1.000000,3072-3327,-1.000000,""
251_0_1,w0,profile_251,2258686.000000,3072,86537.000000,1,COMPLETED_SUCCESSFULLY,2258686.001800,86536.000000,2345222.001800,0.001800,86536.001800,1.000000,0-499 756-2047 2055-2303 2816-3071 3560-4334,-1.000000,""
257_0_1,w0,profile_257,2304328.000000,1024,86400.000000,1,COMPLETED_SUCCESSFULLY,2345225.005250,23265.000000,2368490.005250,40897.005250,64162.005250,2.757877,2939-3962,-1.000000,""
256_0_1,w0,profile_256,2304313.000000,1024,86400.000000,1,COMPLETED_SUCCESSFULLY,2345225.004650,24405.000000,2369630.004650,40912.004650,65317.004650,2.676378,1908-2047 2055-2938,-1.000000,""
255_0_1,w0,profile_255,2285708.000000,500,32516.000000,1,COMPLETED_SUCCESSFULLY,2345225.004050,32515.000000,2377740.004050,59517.004050,92032.004050,2.830448,1408-1907,-1.000000,""
261_0_1,w0,profile_261,2355394.000000,384,32538.000000,1,COMPLETED_SUCCESSFULLY,2355394.001800,32537.000000,2387931.001800,0.001800,32537.001800,1.000000,3963-4346,-1.000000,""
260_0_1,w0,profile_260,2352011.000000,512,32549.000000,1,COMPLETED_SUCCESSFULLY,2369633.006300,32548.000000,2402181.006300,17622.006300,50170.006300,1.541416,1908-2047 2055-2426,-1.000000,""
263_0_1,w0,profile_263,2373334.000000,384,21600.000000,1,COMPLETED_SUCCESSFULLY,2387934.003450,20667.000000,2408601.003450,14600.003450,35267.003450,1.706440,2679-2938 3963-4086,-1.000000,""
262_0_1,w0,profile_262,2359633.000000,752,43331.000000,1,COMPLETED_SUCCESSFULLY,2377743.005700,43330.000000,2421073.005700,18110.005700,61440.005700,1.417955,1408-1907 2427-2678,-1.000000,""
253_0_1,w0,profile_253,2268727.000000,1152,86400.000000,1,COMPLETED_SUCCESSFULLY,2345225.003450,86241.000000,2431466.003450,76498.003450,162739.003450,1.887026,0-499 756-1407,-1.000000,""
264_0_1,w0,profile_264,2432073.000000,1110,21773.000000,1,COMPLETED_SUCCESSFULLY,2432073.001800,21772.000000,2453845.001800,0.001800,21772.001800,1.000000,0-499 756-1365,-1.000000,""
259_0_1,w0,profile_259,2351110.000000,1024,86542.000000,1,COMPLETED_SUCCESSFULLY,2368493.006900,86541.000000,2455034.006900,17383.006900,103924.006900,1.200864,2939-3962,-1.000000,""
248_0_1,w0,profile_248,2193694.000000,263,324111.000000,1,COMPLETED_SUCCESSFULLY,2193694.001800,324110.000000,2517804.001800,0.001800,324110.001800,1.000000,500-755 2048-2054,-1.000000,""
266_0_1,w0,profile_266,2488311.000000,1024,72000.000000,1,COMPLETED_SUCCESSFULLY,2488311.001800,47650.000000,2535961.001800,0.001800,47650.001800,1.000000,1280-2047 2055-2310,-1.000000,""
265_0_1,w0,profile_265,2488308.000000,1024,72000.000000,1,COMPLETED_SUCCESSFULLY,2488308.001800,47985.000000,2536293.001800,0.001800,47985.001800,1.000000,0-499 756-1279,-1.000000,""
267_0_1,w0,profile_267,2488326.000000,1024,72000.000000,1,COMPLETED_SUCCESSFULLY,2488326.001800,49931.000000,2538257.001800,0.001800,49931.001800,1.000000,2311-3334,-1.000000,""
268_0_1,w0,profile_268,2488329.000000,1024,72000.000000,1,COMPLETED_SUCCESSFULLY,2488329.001800,50776.000000,2539105.001800,0.001800,50776.001800,1.000000,3335-4358,-1.000000,""
270_0_1,w0,profile_270,2489104.000000,1024,36000.000000,1,COMPLETED_SUCCESSFULLY,2536296.003450,21006.000000,2557302.003450,47192.003450,68198.003450,3.246596,0-499 756-1279,-1.000000,""
272_0_1,w0,profile_272,2494369.000000,384,32560.000000,1,COMPLETED_SUCCESSFULLY,2539108.003450,32559.000000,2571667.003450,44739.003450,77298.003450,2.374090,3072-3455,-1.000000,""
271_0_1,w0,profile_271,2489124.000000,1024,72000.000000,1,COMPLETED_SUCCESSFULLY,2538260.003450,47591.000000,2585851.003450,49136.003450,96727.003450,2.032464,2048-3071,-1.000000,""
269_0_1,w0,profile_269,2488333.000000,1024,72000.000000,1,COMPLETED_SUCCESSFULLY,2535964.003450,50496.000000,2586460.003450,47631.003450,98127.003450,1.943263,500-755 1280-2047,-1.000000,""
274_0_1,w0,profile_274,2530313.000000,1024,86400.000000,1,COMPLETED_SUCCESSFULLY,2571670.005100,42664.000000,2614334.005100,41357.005100,84021.005100,1.969365,3072-4095,-1.000000,""
276_0_1,w0,profile_276,2601889.000000,384,32516.000000,1,COMPLETED_SUCCESSFULLY,2601889.001800,32515.000000,2634404.001800,0.001800,32515.001800,1.000000,2134-2517,-1.000000,""
275_0_1,w0,profile_275,2601636.000000,1110,43200.000000,1,COMPLETED_SUCCESSFULLY,2601636.001800,39306.000000,2640942.001800,0.001800,39306.001800,1.000000,500-755 1280-2133,-1.000000,""
273_0_1,w0,profile_273,2530294.000000,1024,86400.000000,1,COMPLETED_SUCCESSFULLY,2557305.005100,85756.000000,2643061.005100,27011.005100,112767.005100,1.314975,0-499 756-1279,-1.000000,""
279_0_1,w0,profile_279,2653499.000000,256,21714.000000,1,COMPLETED_SUCCESSFULLY,2653499.001800,21713.000000,2675212.001800,0.001800,21713.001800,1.000000,2048-2303,-1.000000,""
278_0_1,w0,profile_278,2652884.000000,1024,86400.000000,1,COMPLETED_SUCCESSFULLY,2652884.001800,46715.000000,2699599.001800,0.001800,46715.001800,1.000000,1024-2047,-1.000000,""
280_0_1,w0,profile_280,2690610.000000,256,21603.000000,1,COMPLETED_SUCCESSFULLY,2690610.001800,21602.000000,2712212.001800,0.001800,21602.001800,1.000000,2048-2303,-1.000000,""
281_0_1,w0,profile_281,2690621.000000,256,21601.000000,1,COMPLETED_SUCCESSFULLY,2690621.001800,21600.000000,2712221.001800,0.001800,21600.001800,1.000000,2304-2559,-1.000000,""
282_0_1,w0,profile_282,2693813.000000,512,32525.000000,1,COMPLETED_SUCCESSFULLY,2693813.001800,32524.000000,2726337.001800,0.001800,32524.001800,1.000000,2560-3071,-1.000000,""
285_0_1,w0,profile_285,2700505.000000,512,28936.000000,1,COMPLETED_SUCCESSFULLY,2700505.001800,28935.000000,2729440.001800,0.001800,28935.001800,1.000000,1024-1535,-1.000000,""
283_0_1,w0,profile_283,2697017.000000,524,32526.000000,1,COMPLETED_SUCCESSFULLY,2697017.001800,32525.000000,2729542.001800,0.001800,32525.001800,1.000000,3072-3595,-1.000000,""
284_0_1,w0,profile_284,2698979.000000,384,32549.000000,1,COMPLETED_SUCCESSFULLY,2698979.001800,32548.000000,2731527.001800,0.001800,32548.001800,1.000000,3596-3979,-1.000000,""
277_0_1,w0,profile_277,2652780.000000,1024,86400.000000,1,COMPLETED_SUCCESSFULLY,2652780.001800,84854.000000,2737634.001800,0.001800,84854.001800,1.000000,0-1023,-1.000000,""
287_0_1,w0,profile_287,2719145.000000,692,43298.000000,1,COMPLETED_SUCCESSFULLY,2726340.003450,43297.000000,2769637.003450,7195.003450,50492.003450,1.166178,2338-3029,-1.000000,""
286_0_1,w0,profile_286,2712261.000000,802,57875.000000,1,COMPLETED_SUCCESSFULLY,2712261.001800,57874.000000,2770135.001800,0.001800,57874.001800,1.000000,1536-2337,-1.000000,""
290_0_1,w0,profile_290,2775875.000000,384,32511.000000,1,COMPLETED_SUCCESSFULLY,2775875.001800,32510.000000,2808385.001800,0.001800,32510.001800,1.000000,640-1023,-1.000000,""
289_0_1,w0,profile_289,2771505.000000,640,43290.000000,1,COMPLETED_SUCCESSFULLY,2771505.001800,43289.000000,2814794.001800,0.001800,43289.001800,1.000000,0-639,-1.000000,""
288_0_1,w0,profile_288,2726920.000000,1152,86531.000000,1,COMPLETED_SUCCESSFULLY,2729545.003450,86530.000000,2816075.003450,2625.003450,89155.003450,1.030336,1024-1535 3030-3595 3980-4053,-1.000000,""
292_0_1,w0,profile_292,2793467.000000,384,32511.000000,1,COMPLETED_SUCCESSFULLY,2793467.001800,32510.000000,2825977.001800,0.001800,32510.001800,1.000000,1537-1920,-1.000000,""
293_0_1,w0,profile_293,2805085.000000,256,21750.000000,1,COMPLETED_SUCCESSFULLY,2805085.001800,21749.000000,2826834.001800,0.001800,21749.001800,1.000000,1921-2176,-1.000000,""
291_0_1,w0,profile_291,2788720.000000,1,73321.000000,1,COMPLETED_SUCCESSFULLY,2788720.001800,73320.000000,2862040.001800,0.001800,73320.001800,1.000000,1536,-1.000000,""
294_0_1,w0,profile_294,2861921.000000,384,32515.000000,1,COMPLETED_SUCCESSFULLY,2861921.001800,32514.000000,2894435.001800,0.001800,32514.001800,1.000000,0-383,-1.000000,""
295_0_1,w0,profile_295,2867314.000000,1024,57600.000000,1,COMPLETED_SUCCESSFULLY,2867314.001800,29066.000000,2896380.001800,0.001800,29066.001800,1.000000,384-1407,-1.000000,""
297_0_1,w0,profile_297,2874472.000000,384,32536.000000,1,COMPLETED_SUCCESSFULLY,2874472.001800,32535.000000,2907007.001800,0.001800,32535.001800,1.000000,1409-1792,-1.000000,""
300_0_1,w0,profile_300,2888447.000000,512,28931.000000,1,COMPLETED_SUCCESSFULLY,2888447.001800,28930.000000,2917377.001800,0.001800,28930.001800,1.000000,2817-3328,-1.000000,""
301_0_1,w0,profile_301,2896499.000000,256,21740.000000,1,COMPLETED_SUCCESSFULLY,2896499.001800,21739.000000,2918238.001800,0.001800,21739.001800,1.000000,0-255,-1.000000,""
296_0_1,w0,profile_296,2869028.000000,1,72177.000000,1,COMPLETED_SUCCESSFULLY,2869028.001800,72176.000000,2941204.001800,0.001800,72176.001800,1.000000,1408,-1.000000,""
298_0_1,w0,profile_298,2887725.000000,1024,96260.000000,1,COMPLETED_SUCCESSFULLY,2887725.001800,96259.000000,2983984.001800,0.001800,96259.001800,1.000000,1793-2816,-1.000000,""
299_0_1,w0,profile_299,2887848.000000,3072,86400.000000,1,COMPLETED_SUCCESSFULLY,2917380.003450,76671.000000,2994051.003450,29532.003450,106203.003450,1.385178,256-1407 1409-1792 2817-4352,-1.000000,""
302_0_1,w0,profile_302,2927417.000000,384,32547.000000,1,COMPLETED_SUCCESSFULLY,2983987.003450,32546.000000,3016533.003450,56570.003450,89116.003450,2.738155,0-255 1408 1793-1919,-1.000000,""
305_0_1,w0,profile_305,2954056.000000,1000,86400.000000,1,COMPLETED_SUCCESSFULLY,2994054.006300,53385.000000,3047439.006300,39998.006300,93383.006300,1.749237,1281-1407 1409-1792 1920-2408,-1.000000,""
303_0_1,w0,profile_303,2947647.000000,1024,57715.000000,1,COMPLETED_SUCCESSFULLY,2994054.005100,57714.000000,3051768.005100,46407.005100,104121.005100,1.804086,256-1279,-1.000000,""
304_0_1,w0,profile_304,2952896.000000,1,72132.000000,1,COMPLETED_SUCCESSFULLY,2994054.005700,72131.000000,3066185.005700,41158.005700,113289.005700,1.570601,1280,-1.000000,""
