time,nb_sleeping,nb_switching_on,nb_switching_off,nb_idle,nb_computing
0.00240003,0,0,0,4136,256
0.00300004,0,0,0,3880,512
0.00360005,0,0,0,3752,640
0.00420006,0,0,0,3728,664
0.00480006,0,0,0,3472,920
0.00540007,0,0,0,3344,1048
0.00600008,0,0,0,3280,1112
0.00660009,0,0,0,3216,1176
0.0072001,0,0,0,3152,1240
0.0078001,0,0,0,3088,1304
0.00840011,0,0,0,3024,1368
0.00900012,0,0,0,2768,1624
0.00960013,0,0,0,2704,1688
0.0102001,0,0,0,2640,1752
0.0108001,0,0,0,2576,1816
0.0114002,0,0,0,2512,1880
0.0120002,0,0,0,2448,1944
0.0126002,0,0,0,2384,2008
0.0132002,0,0,0,2320,2072
0.0138002,0,0,0,2064,2328
0.0144002,0,0,0,1808,2584
0.0150002,0,0,0,1552,2840
0.0156002,0,0,0,1296,3096
0.0162002,0,0,0,1040,3352
0.0168002,0,0,0,912,3480
0.0174002,0,0,0,784,3608
0.0180002,0,0,0,656,3736
0.0186002,0,0,0,528,3864
0.0192003,0,0,0,400,3992
0.0198003,0,0,0,272,4120
0.0204003,0,0,0,144,4248
0.0210003,0,0,0,16,4376
10232,0,0,0,80,4312
10433,0,0,0,336,4056
10436,0,0,0,208,4184
10436,0,0,0,127,4265
10750,0,0,0,255,4137
10753,0,0,0,127,4265
10939,0,0,0,255,4137
10942,0,0,0,127,4265
11167,0,0,0,255,4137
11170,0,0,0,127,4265
11184,0,0,0,255,4137
11187,0,0,0,127,4265
11312,0,0,0,191,4201
11315,0,0,0,63,4329
11488,0,0,0,191,4201
11491,0,0,0,63,4329
11541,0,0,0,191,4201
11544,0,0,0,63,4329
11683,0,0,0,127,4265
11787,0,0,0,383,4009
11790,0,0,0,255,4137
11790,0,0,0,127,4265
11802,0,0,0,383,4009
11805,0,0,0,255,4137
11805,0,0,0,174,4218
11805,0,0,0,46,4346
11837,0,0,0,174,4218
11841,0,0,0,238,4154
11991,0,0,0,494,3898
11994,0,0,0,110,4282
12210,0,0,0,366,4026
12213,0,0,0,110,4282
12213,0,0,0,86,4306
12329,0,0,0,342,4050
12332,0,0,0,86,4306
12406,0,0,0,150,4242
12585,0,0,0,406,3986
12884,0,0,0,534,3858
13053,0,0,0,598,3794
13246,0,0,0,854,3538
13391,0,0,0,878,3514
13699,0,0,0,1134,3258
13702,0,0,0,110,4282
13702,0,0,0,78,4314
13706,0,0,0,142,4250
14385,0,0,0,206,4186
14487,0,0,0,270,4122
14488,0,0,0,334,4058
14501,0,0,0,398,3994
14507,0,0,0,462,3930
14510,0,0,0,62,4330
21675,0,0,0,190,4202
21678,0,0,0,62,4330
21686,0,0,0,190,4202
21689,0,0,0,62,4330
22292,0,0,0,190,4202
22310,0,0,0,271,4121
22313,0,0,0,15,4377
22974,0,0,0,143,4249
22975,0,0,0,271,4121
22980,0,0,0,15,4377
23682,0,0,0,96,4296
24599,0,0,0,352,4040
24602,0,0,0,96,4296
24602,0,0,0,32,4360
24776,0,0,0,288,4104
24779,0,0,0,224,4168
24779,0,0,0,160,4232
25604,0,0,0,184,4208
26177,0,0,0,312,4080
26180,0,0,0,56,4336
26180,0,0,0,32,4360
26572,0,0,0,160,4232
26575,0,0,0,96,4296
27159,0,0,0,224,4168
27162,0,0,0,96,4296
27517,0,0,0,224,4168
27558,0,0,0,352,4040
27561,0,0,0,96,4296
27727,0,0,0,224,4168
28040,0,0,0,352,4040
28043,0,0,0,96,4296
28043,0,0,0,32,4360
28043,0,0,0,16,4376
28917,0,0,0,144,4248
29113,0,0,0,176,4216
29277,0,0,0,304,4088
29280,0,0,0,48,4344
29952,0,0,0,448,3944
29955,0,0,0,384,4008
29955,0,0,0,128,4264
29955,0,0,0,0,4392
35115,0,0,0,256,4136
35118,0,0,0,0,4392
35354,0,0,0,64,4328
35357,0,0,0,40,4352
35427,0,0,0,296,4096
35430,0,0,0,232,4160
35430,0,0,0,104,4288
36812,0,0,0,360,4032
38322,0,0,0,424,3968
38325,0,0,0,24,4368
39087,0,0,0,88,4304
39090,0,0,0,24,4368
39282,0,0,0,88,4304
39285,0,0,0,24,4368
40206,0,0,0,280,4112
40209,0,0,0,216,4176
40209,0,0,0,152,4240
40209,0,0,0,88,4304
40218,0,0,0,344,4048
40221,0,0,0,216,4176
40497,0,0,0,240,4152
40766,0,0,0,496,3896
40769,0,0,0,240,4152
40769,0,0,0,176,4216
40769,0,0,0,112,4280
40769,0,0,0,48,4344
41899,0,0,0,112,4280
42043,0,0,0,176,4216
42341,0,0,0,432,3960
42344,0,0,0,176,4216
42344,0,0,0,112,4280
42344,0,0,0,48,4344
42517,0,0,0,64,4328
43371,0,0,0,192,4200
43374,0,0,0,64,4328
43374,0,0,0,0,4392
43434,0,0,0,256,4136
43437,0,0,0,128,4264
44486,0,0,0,256,4136
47199,0,0,0,512,3880
47202,0,0,0,112,4280
47202,0,0,0,88,4304
48739,0,0,0,112,4280
49804,0,0,0,240,4152
49911,0,0,0,304,4088
49911,0,0,0,432,3960
49917,0,0,0,176,4216
49917,0,0,0,48,4344
51653,0,0,0,176,4216
51656,0,0,0,48,4344
52794,0,0,0,448,3944
52797,0,0,0,384,4008
52797,0,0,0,256,4136
52797,0,0,0,128,4264
52797,0,0,0,104,4288
53739,0,0,0,360,4032
53742,0,0,0,104,4288
53742,0,0,0,40,4352
55299,0,0,0,424,3968
55302,0,0,0,168,4224
55627,0,0,0,232,4160
55636,0,0,0,360,4032
57917,0,0,0,488,3904
57920,0,0,0,104,4288
60561,0,0,0,128,4264
60564,0,0,0,0,4392
60967,0,0,0,64,4328
61683,0,0,0,464,3928
61686,0,0,0,336,4056
61686,0,0,0,272,4120
61686,0,0,0,208,4184
61686,0,0,0,144,4248
61686,0,0,0,80,4312
61686,0,0,0,16,4376
61879,0,0,0,80,4312
61881,0,0,0,144,4248
61885,0,0,0,80,4312
61885,0,0,0,16,4376
61900,0,0,0,80,4312
61900,0,0,0,144,4248
61906,0,0,0,80,4312
61906,0,0,0,16,4376
62474,0,0,0,80,4312
62475,0,0,0,144,4248
62480,0,0,0,80,4312
62480,0,0,0,16,4376
62842,0,0,0,272,4120
62845,0,0,0,208,4184
62845,0,0,0,144,4248
62845,0,0,0,80,4312
62845,0,0,0,16,4376
63201,0,0,0,80,4312
63204,0,0,0,16,4376
63367,0,0,0,80,4312
63370,0,0,0,16,4376
63487,0,0,0,80,4312
63490,0,0,0,16,4376
65064,0,0,0,144,4248
65067,0,0,0,80,4312
65067,0,0,0,16,4376
65067,0,0,0,0,4392
65382,0,0,0,64,4328
65385,0,0,0,40,4352
66139,0,0,0,168,4224
66215,0,0,0,192,4200
66434,0,0,0,256,4136
66437,0,0,0,0,4392
67273,0,0,0,128,4264
67714,0,0,0,384,4008
67717,0,0,0,128,4264
67717,0,0,0,64,4328
68546,0,0,0,320,4072
68549,0,0,0,192,4200
71596,0,0,0,448,3944
71599,0,0,0,64,4328
71607,0,0,0,192,4200
72046,0,0,0,320,4072
74474,0,0,0,448,3944
74477,0,0,0,48,4344
78800,0,0,0,72,4320
79538,0,0,0,88,4304
80703,0,0,0,344,4048
80706,0,0,0,216,4176
80706,0,0,0,152,4240
80706,0,0,0,88,4304
80706,0,0,0,24,4368
80706,0,0,0,8,4384
80799,0,0,0,72,4320
80802,0,0,0,8,4384
81344,0,0,0,264,4128
81347,0,0,0,200,4192
81347,0,0,0,136,4256
81347,0,0,0,72,4320
83370,0,0,0,136,4256
83371,0,0,0,200,4192
83379,0,0,0,328,4064
83382,0,0,0,72,4320
83382,0,0,0,8,4384
83390,0,0,0,72,4320
83393,0,0,0,48,4344
83583,0,0,0,112,4280
83586,0,0,0,48,4344
84159,0,0,0,112,4280
84162,0,0,0,48,4344
84321,0,0,0,112,4280
84477,0,0,0,176,4216
84480,0,0,0,48,4344
84501,0,0,0,112,4280
84537,0,0,0,176,4216
84540,0,0,0,48,4344
84704,0,0,0,112,4280
84707,0,0,0,48,4344
84734,0,0,0,112,4280
84737,0,0,0,48,4344
85287,0,0,0,112,4280
85290,0,0,0,48,4344
85437,0,0,0,112,4280
85440,0,0,0,48,4344
85467,0,0,0,112,4280
85468,0,0,0,176,4216
85473,0,0,0,112,4280
85473,0,0,0,48,4344
85967,0,0,0,112,4280
85970,0,0,0,48,4344
85983,0,0,0,112,4280
85986,0,0,0,48,4344
86218,0,0,0,112,4280
86221,0,0,0,48,4344
86739,0,0,0,112,4280
86742,0,0,0,12,4380
86782,0,0,0,76,4316
88963,0,0,0,476,3916
88966,0,0,0,376,4016
88966,0,0,0,276,4116
88966,0,0,0,176,4216
88966,0,0,0,76,4316
90231,0,0,0,204,4188
90234,0,0,0,104,4288
90234,0,0,0,4,4388
93730,0,0,0,68,4324
95194,0,0,0,84,4308
95200,0,0,0,212,4180
95203,0,0,0,112,4280
95203,0,0,0,80,4312
95893,0,0,0,336,4056
95896,0,0,0,236,4156
95896,0,0,0,108,4284
96765,0,0,0,132,4260
96768,0,0,0,4,4388
96985,0,0,0,68,4324
96988,0,0,0,4,4388
97678,0,0,0,68,4324
98317,0,0,0,132,4260
98320,0,0,0,4,4388
99027,0,0,0,132,4260
99030,0,0,0,108,4284
99209,0,0,0,172,4220
99212,0,0,0,44,4348
100457,0,0,0,108,4284
101004,0,0,0,492,3900
101119,0,0,0,1516,2876
101122,0,0,0,1004,3388
101122,0,0,0,940,3452
101122,0,0,0,812,3580
101122,0,0,0,748,3644
101122,0,0,0,684,3708
101122,0,0,0,620,3772
101393,0,0,0,684,3708
102026,0,0,0,620,3772
102164,0,0,0,720,3672
102500,0,0,0,784,3608
102630,0,0,0,720,3672
103032,0,0,0,784,3608
103035,0,0,0,848,3544
103324,0,0,0,912,3480
103441,0,0,0,1012,3380
103460,0,0,0,1112,3280
103482,0,0,0,1176,3216
103733,0,0,0,776,3616
103965,0,0,0,840,3552
104374,0,0,0,940,3452
104422,0,0,0,916,3476
104431,0,0,0,852,3540
104567,0,0,0,952,3440
105089,0,0,0,1016,3376
105097,0,0,0,632,3760
105261,0,0,0,696,3696
105666,0,0,0,796,3596
105687,0,0,0,896,3496
105853,0,0,0,960,3432
107091,0,0,0,1088,3304
107149,0,0,0,1152,3240
107151,0,0,0,1216,3176
107325,0,0,0,1088,3304
107503,0,0,0,688,3704
107894,0,0,0,752,3640
108469,0,0,0,816,3576
108552,0,0,0,560,3832
108633,0,0,0,496,3896
110390,0,0,0,596,3796
110614,0,0,0,628,3764
110761,0,0,0,728,3664
111265,0,0,0,856,3536
112338,0,0,0,880,3512
112835,0,0,0,816,3576
113467,0,0,0,752,3640
113696,0,0,0,880,3512
114876,0,0,0,1264,3128
116784,0,0,0,1008,3384
116804,0,0,0,752,3640
117473,0,0,0,652,3740
117598,0,0,0,780,3612
117670,0,0,0,680,3712
117741,0,0,0,704,3688
117981,0,0,0,604,3788
118098,0,0,0,504,3888
118529,0,0,0,404,3988
118786,0,0,0,304,4088
118885,0,0,0,204,4188
119037,0,0,0,104,4288
120020,0,0,0,232,4160
120097,0,0,0,208,4184
121982,0,0,0,608,3784
122829,0,0,0,736,3656
123711,0,0,0,800,3592
123728,0,0,0,864,3528
123730,0,0,0,928,3464
123859,0,0,0,992,3400
123911,0,0,0,1056,3336
124330,0,0,0,1120,3272
126131,0,0,0,1184,3208
127739,0,0,0,1440,2952
129034,0,0,0,1568,2824
129063,0,0,0,1440,2952
130111,0,0,0,1696,2696
130201,0,0,0,1952,2440
130279,0,0,0,1888,2504
130888,0,0,0,1824,2568
131245,0,0,0,800,3592
131273,0,0,0,864,3528
131490,0,0,0,800,3592
132162,0,0,0,900,3492
132509,0,0,0,1000,3392
132623,0,0,0,1100,3292
132879,0,0,0,1200,3192
133052,0,0,0,1300,3092
133313,0,0,0,1400,2992
133410,0,0,0,1500,2892
133491,0,0,0,1524,2868
133558,0,0,0,1624,2768
133932,0,0,0,1524,2868
134526,0,0,0,1588,2804
135178,0,0,0,1652,2740
135700,0,0,0,1588,2804
142305,0,0,0,1524,2868
142584,0,0,0,1500,2892
142911,0,0,0,1436,2956
143518,0,0,0,1372,3020
143654,0,0,0,1884,2508
144854,0,0,0,1984,2408
145944,0,0,0,1856,2536
146121,0,0,0,1728,2664
147031,0,0,0,2128,2264
149337,0,0,0,2512,1880
150772,0,0,0,2640,1752
151965,0,0,0,2704,1688
152600,0,0,0,2768,1624
153197,0,0,0,2832,1560
154329,0,0,0,2768,1624
154937,0,0,0,2704,1688
155016,0,0,0,2304,2088
155975,0,0,0,2328,2064
157410,0,0,0,2392,2000
160436,0,0,0,2520,1872
160601,0,0,0,2648,1744
162179,0,0,0,2264,2128
162362,0,0,0,2136,2256
163224,0,0,0,2008,2384
163994,0,0,0,2072,2320
164583,0,0,0,2136,2256
165200,0,0,0,2200,2192
165921,0,0,0,2600,1792
171432,0,0,0,2576,1816
171750,0,0,0,2512,1880
172358,0,0,0,2448,1944
172967,0,0,0,2384,2008
173572,0,0,0,2320,2072
174179,0,0,0,2256,2136
174787,0,0,0,2192,2200
175346,0,0,0,1792,2600
175394,0,0,0,1728,2664
176000,0,0,0,1664,2728
176016,0,0,0,1728,2664
176621,0,0,0,1792,2600
183789,0,0,0,1392,3000
184049,0,0,0,1520,2872
184093,0,0,0,1392,3000
184402,0,0,0,1328,3064
185011,0,0,0,1264,3128
185653,0,0,0,1288,3104
185854,0,0,0,1416,2976
186345,0,0,0,1288,3104
189835,0,0,0,1688,2704
192552,0,0,0,1304,3088
193414,0,0,0,1240,3152
193436,0,0,0,1304,3088
194017,0,0,0,1240,3152
194032,0,0,0,1304,3088
194350,0,0,0,1240,3152
194352,0,0,0,1176,3216
194354,0,0,0,1112,3280
194355,0,0,0,1048,3344
194359,0,0,0,984,3408
194370,0,0,0,920,3472
194372,0,0,0,856,3536
194374,0,0,0,792,3600
194378,0,0,0,728,3664
194411,0,0,0,664,3728
194415,0,0,0,600,3792
194418,0,0,0,536,3856
194430,0,0,0,472,3920
194449,0,0,0,408,3984
194628,0,0,0,344,4048
194647,0,0,0,408,3984
194694,0,0,0,808,3584
195230,0,0,0,744,3648
195781,0,0,0,728,3664
195840,0,0,0,664,3728
196201,0,0,0,728,3664
196448,0,0,0,664,3728
196478,0,0,0,728,3664
197023,0,0,0,792,3600
197058,0,0,0,728,3664
197662,0,0,0,664,3728
198057,0,0,0,728,3664
198802,0,0,0,792,3600
203766,0,0,0,408,3984
205463,0,0,0,792,3600
205774,0,0,0,920,3472
205826,0,0,0,792,3600
206072,0,0,0,728,3664
206084,0,0,0,792,3600
206673,0,0,0,728,3664
207835,0,0,0,792,3600
208051,0,0,0,920,3472
208827,0,0,0,984,3408
208843,0,0,0,1048,3344
208867,0,0,0,1112,3280
208875,0,0,0,1176,3216
208894,0,0,0,1240,3152
209757,0,0,0,1304,3088
209777,0,0,0,1368,3024
209822,0,0,0,1432,2960
209952,0,0,0,1496,2896
210266,0,0,0,1512,2880
212463,0,0,0,1384,3008
213338,0,0,0,1256,3136
215114,0,0,0,1320,3072
215679,0,0,0,1256,3136
215716,0,0,0,1320,3072
216013,0,0,0,1192,3200
216096,0,0,0,1256,3136
216117,0,0,0,1320,3072
216118,0,0,0,1384,3008
216142,0,0,0,1448,2944
216282,0,0,0,1384,3008
216327,0,0,0,1448,2944
216887,0,0,0,1384,3008
216930,0,0,0,1448,2944
217007,0,0,0,1512,2880
217716,0,0,0,2536,1856
217889,0,0,0,2472,1920
217891,0,0,0,2408,1984
217893,0,0,0,2344,2048
217909,0,0,0,2280,2112
218442,0,0,0,2344,2048
219228,0,0,0,2408,1984
219853,0,0,0,2472,1920
220223,0,0,0,2072,2320
220474,0,0,0,2136,2256
220805,0,0,0,1736,2656
220832,0,0,0,1336,3056
220841,0,0,0,936,3456
221672,0,0,0,536,3856
221686,0,0,0,136,4256
221710,0,0,0,72,4320
222274,0,0,0,48,4344
227508,0,0,0,176,4216
227511,0,0,0,112,4280
227511,0,0,0,48,4344
228360,0,0,0,112,4280
228363,0,0,0,48,4344
228673,0,0,0,112,4280
232401,0,0,0,176,4216
234157,0,0,0,304,4088
235745,0,0,0,368,4024
235748,0,0,0,496,3896
235751,0,0,0,96,4296
235751,0,0,0,32,4360
235830,0,0,0,416,3976
235833,0,0,0,288,4104
235833,0,0,0,32,4360
236577,0,0,0,56,4336
237379,0,0,0,120,4272
237702,0,0,0,248,4144
237705,0,0,0,120,4272
237978,0,0,0,184,4208
238486,0,0,0,248,4144
238584,0,0,0,312,4080
239139,0,0,0,376,4016
240699,0,0,0,776,3616
240702,0,0,0,392,4000
240807,0,0,0,776,3616
241909,0,0,0,1176,3216
242495,0,0,0,1576,2816
242512,0,0,0,1976,2416
242540,0,0,0,2376,2016
242641,0,0,0,2248,2144
243356,0,0,0,2648,1744
243431,0,0,0,2712,1680
244384,0,0,0,2584,1808
245408,0,0,0,2520,1872
246126,0,0,0,2392,2000
249191,0,0,0,2456,1936
249195,0,0,0,2520,1872
249624,0,0,0,2456,1936
250053,0,0,0,2520,1872
250331,0,0,0,2648,1744
251239,0,0,0,2904,1488
255464,0,0,0,2504,1888
257181,0,0,0,2376,2016
257427,0,0,0,2776,1616
257440,0,0,0,2840,1552
257758,0,0,0,2776,1616
258365,0,0,0,2712,1680
258973,0,0,0,2648,1744
259582,0,0,0,2584,1808
260178,0,0,0,2456,1936
260184,0,0,0,2392,2000
260475,0,0,0,2520,1872
260785,0,0,0,2456,1936
260863,0,0,0,2520,1872
261390,0,0,0,2456,1936
261997,0,0,0,2392,2000
262600,0,0,0,2328,2064
263202,0,0,0,2264,2128
263962,0,0,0,2392,2000
264106,0,0,0,2368,2024
264114,0,0,0,2432,1960
265684,0,0,0,2560,1832
268664,0,0,0,2688,1704
269953,0,0,0,3088,1304
272530,0,0,0,3216,1176
276213,0,0,0,3152,1240
276215,0,0,0,3088,1304
276217,0,0,0,3024,1368
276220,0,0,0,2960,1432
276222,0,0,0,2896,1496
276231,0,0,0,2832,1560
276255,0,0,0,2768,1624
276258,0,0,0,2704,1688
276261,0,0,0,2640,1752
276273,0,0,0,2576,1816
276276,0,0,0,2512,1880
276291,0,0,0,2448,1944
276295,0,0,0,2384,2008
276297,0,0,0,2320,2072
276299,0,0,0,2256,2136
276333,0,0,0,2192,2200
276337,0,0,0,2128,2264
276338,0,0,0,2064,2328
276342,0,0,0,2000,2392
276357,0,0,0,1936,2456
277427,0,0,0,1960,2432
278875,0,0,0,2088,2304
279405,0,0,0,1960,2432
279447,0,0,0,2024,2368
280065,0,0,0,2088,2304
280650,0,0,0,2152,2240
281264,0,0,0,2216,2176
281807,0,0,0,2152,2240
281860,0,0,0,2216,2176
282493,0,0,0,2280,2112
283065,0,0,0,2344,2048
283687,0,0,0,2408,1984
284000,0,0,0,2792,1600
284302,0,0,0,2856,1536
284904,0,0,0,2920,1472
284940,0,0,0,2520,1872
284985,0,0,0,2120,2272
285002,0,0,0,1720,2672
285038,0,0,0,1320,3072
285222,0,0,0,920,3472
285242,0,0,0,520,3872
286615,0,0,0,456,3936
287216,0,0,0,392,4000
287686,0,0,0,264,4128
287823,0,0,0,200,4192
288429,0,0,0,136,4256
289039,0,0,0,72,4320
289646,0,0,0,8,4384
290695,0,0,0,72,4320
290698,0,0,0,8,4384
290707,0,0,0,72,4320
290710,0,0,0,136,4256
290718,0,0,0,200,4192
290736,0,0,0,264,4128
290766,0,0,0,328,4064
290771,0,0,0,392,4000
290773,0,0,0,456,3936
290777,0,0,0,56,4336
290780,0,0,0,120,4272
290785,0,0,0,184,4208
290817,0,0,0,248,4144
290855,0,0,0,184,4208
291457,0,0,0,120,4272
292439,0,0,0,56,4336
297983,0,0,0,120,4272
297986,0,0,0,56,4336
297987,0,0,0,120,4272
297990,0,0,0,56,4336
297992,0,0,0,120,4272
297995,0,0,0,56,4336
298010,0,0,0,120,4272
298013,0,0,0,56,4336
298028,0,0,0,120,4272
298035,0,0,0,184,4208
298041,0,0,0,248,4144
298050,0,0,0,312,4080
298060,0,0,0,376,4016
301117,0,0,0,504,3888
301120,0,0,0,120,4272
303518,0,0,0,184,4208
304393,0,0,0,312,4080
305250,0,0,0,712,3680
305253,0,0,0,328,4064
305253,0,0,0,128,4264
305253,0,0,0,0,4392
306620,0,0,0,400,3992
306623,0,0,0,16,4376
306675,0,0,0,416,3976
306686,0,0,0,816,3576
306729,0,0,0,1216,3176
306910,0,0,0,1616,2776
306922,0,0,0,2016,2376
308263,0,0,0,1952,2440
308299,0,0,0,2016,2376
308865,0,0,0,1952,2440
308901,0,0,0,2016,2376
309509,0,0,0,2080,2312
309974,0,0,0,1680,2712
310083,0,0,0,1280,3112
310131,0,0,0,1344,3048
310137,0,0,0,944,3448
310744,0,0,0,1008,3384
311374,0,0,0,1072,3320
312375,0,0,0,1136,3256
312553,0,0,0,1200,3192
313166,0,0,0,1264,3128
313175,0,0,0,1328,3064
314395,0,0,0,1392,3000
316139,0,0,0,1592,2800
317748,0,0,0,1656,2736
319271,0,0,0,1720,2672
319456,0,0,0,1784,2608
319688,0,0,0,1848,2544
319699,0,0,0,1912,2480
322928,0,0,0,1784,2608
325688,0,0,0,1684,2708
326946,0,0,0,1812,2580
330634,0,0,0,1412,2980
331254,0,0,0,1796,2596
331655,0,0,0,2196,2196
331775,0,0,0,2596,1796
331824,0,0,0,2996,1396
339787,0,0,0,2612,1780
341124,0,0,0,2712,1680
344619,0,0,0,2840,1552
344781,0,0,0,2712,1680
345124,0,0,0,3112,1280
347901,0,0,0,3496,896
349914,0,0,0,3880,512
354335,0,0,0,3496,896
355891,0,0,0,3464,928
366471,0,0,0,3592,800
366575,0,0,0,3464,928
366770,0,0,0,3496,896
368421,0,0,0,3432,960
368423,0,0,0,3368,1024
368427,0,0,0,3304,1088
368429,0,0,0,3240,1152
368439,0,0,0,3176,1216
368443,0,0,0,3112,1280
368458,0,0,0,3048,1344
368461,0,0,0,2984,1408
368463,0,0,0,2920,1472
368465,0,0,0,2856,1536
368468,0,0,0,2792,1600
368479,0,0,0,2728,1664
368498,0,0,0,2664,1728
368502,0,0,0,2600,1792
368555,0,0,0,2536,1856
368560,0,0,0,2472,1920
368564,0,0,0,2408,1984
368575,0,0,0,2344,2048
368598,0,0,0,2280,2112
368615,0,0,0,2216,2176
373980,0,0,0,2016,2376
377204,0,0,0,2000,2392
381699,0,0,0,2064,2328
382082,0,0,0,2128,2264
382904,0,0,0,2192,2200
382906,0,0,0,2256,2136
382908,0,0,0,2320,2072
382944,0,0,0,2384,2008
382946,0,0,0,2448,1944
382948,0,0,0,2512,1880
382969,0,0,0,2576,1816
382977,0,0,0,2640,1752
382988,0,0,0,2704,1688
383000,0,0,0,2768,1624
383002,0,0,0,2832,1560
383040,0,0,0,2896,1496
383053,0,0,0,2960,1432
383063,0,0,0,3024,1368
383083,0,0,0,3408,984
383865,0,0,0,3472,920
384163,0,0,0,2960,1432
388075,0,0,0,2976,1416
388247,0,0,0,3104,1288
388312,0,0,0,2976,1416
389161,0,0,0,2954,1438
389376,0,0,0,2890,1502
389381,0,0,0,2826,1566
389395,0,0,0,2762,1630
390084,0,0,0,2740,1652
390192,0,0,0,2804,1588
390209,0,0,0,2868,1524
390209,0,0,0,2932,1460
395658,0,0,0,3132,1260
397613,0,0,0,3516,876
403195,0,0,0,3452,940
403198,0,0,0,3388,1004
403209,0,0,0,3324,1068
403215,0,0,0,3260,1132
403218,0,0,0,3196,1196
403227,0,0,0,3132,1260
403229,0,0,0,3068,1324
403269,0,0,0,3004,1388
403271,0,0,0,2940,1452
403275,0,0,0,2876,1516
403288,0,0,0,2812,1580
403633,0,0,0,2834,1558
404212,0,0,0,2434,1958
404566,0,0,0,2456,1936
407033,0,0,0,2968,1424
407959,0,0,0,2584,1808
408120,0,0,0,2200,2192
408543,0,0,0,2184,2208
410018,0,0,0,2312,2080
410066,0,0,0,2184,2208
411056,0,0,0,2248,2144
411079,0,0,0,2312,2080
411104,0,0,0,2376,2016
417700,0,0,0,2440,1952
417701,0,0,0,2504,1888
417703,0,0,0,2568,1824
417718,0,0,0,2632,1760
417743,0,0,0,2696,1696
417752,0,0,0,2760,1632
417771,0,0,0,2824,1568
417779,0,0,0,2888,1504
418682,0,0,0,3288,1104
419421,0,0,0,3304,1088
423851,0,0,0,2920,1472
424876,0,0,0,2984,1408
424896,0,0,0,3048,1344
424900,0,0,0,3112,1280
425634,0,0,0,2984,1408
425639,0,0,0,2856,1536
425640,0,0,0,2728,1664
425641,0,0,0,2600,1792
425642,0,0,0,2472,1920
425671,0,0,0,2344,2048
425672,0,0,0,2216,2176
425673,0,0,0,2088,2304
425674,0,0,0,1960,2432
425675,0,0,0,1832,2560
425676,0,0,0,1704,2688
425677,0,0,0,1576,2816
425678,0,0,0,1448,2944
425679,0,0,0,1320,3072
425681,0,0,0,1192,3200
429839,0,0,0,1064,3328
431756,0,0,0,1192,3200
431840,0,0,0,1064,3328
436101,0,0,0,1192,3200
436583,0,0,0,1320,3072
436614,0,0,0,1448,2944
438191,0,0,0,1576,2816
439525,0,0,0,1704,2688
440068,0,0,0,1832,2560
440168,0,0,0,1960,2432
440539,0,0,0,2088,2304
440892,0,0,0,2216,2176
441514,0,0,0,2344,2048
441583,0,0,0,2472,1920
442053,0,0,0,2600,1792
442271,0,0,0,2728,1664
442322,0,0,0,3112,1280
442942,0,0,0,3240,1152
443708,0,0,0,3368,1024
444312,0,0,0,3496,896
444952,0,0,0,3880,512
451405,0,0,0,4264,128
453521,0,0,0,4392,0
537182,0,0,0,4008,384
537311,0,0,0,3880,512
539252,0,0,0,2728,1664
539572,0,0,0,1576,2816
544639,0,0,0,1552,2840
544727,0,0,0,1528,2864
547687,0,0,0,1016,3376
550976,0,0,0,2168,2224
553047,0,0,0,2144,2248
553199,0,0,0,2120,2272
553864,0,0,0,3272,1120
555497,0,0,0,3296,1096
558976,0,0,0,3424,968
559202,0,0,0,3448,944
559217,0,0,0,3048,1344
559284,0,0,0,3024,1368
561145,0,0,0,2960,1432
561148,0,0,0,2896,1496
561159,0,0,0,2832,1560
561161,0,0,0,2768,1624
561199,0,0,0,2704,1688
561201,0,0,0,2640,1752
561205,0,0,0,2576,1816
561208,0,0,0,2512,1880
561216,0,0,0,2448,1944
561238,0,0,0,2384,2008
563244,0,0,0,2408,1984
564094,0,0,0,2432,1960
571042,0,0,0,2944,1448
572712,0,0,0,2968,1424
573683,0,0,0,3368,1024
575625,0,0,0,3432,960
575635,0,0,0,3496,896
575641,0,0,0,3560,832
575696,0,0,0,3624,768
575705,0,0,0,3688,704
575733,0,0,0,3752,640
575734,0,0,0,3816,576
575743,0,0,0,3880,512
575752,0,0,0,3944,448
576748,0,0,0,4008,384
579506,0,0,0,3984,408
579583,0,0,0,3960,432
580464,0,0,0,4344,48
583180,0,0,0,3960,432
583313,0,0,0,3576,816
588376,0,0,0,3176,1216
591317,0,0,0,3152,1240
591318,0,0,0,3128,1264
591319,0,0,0,3104,1288
591327,0,0,0,3080,1312
591328,0,0,0,3056,1336
591329,0,0,0,3032,1360
591331,0,0,0,3008,1384
591332,0,0,0,2984,1408
591333,0,0,0,2960,1432
591335,0,0,0,2936,1456
592489,0,0,0,2912,1480
592491,0,0,0,2888,1504
592492,0,0,0,2864,1528
592493,0,0,0,2840,1552
592494,0,0,0,2816,1576
592501,0,0,0,2792,1600
592502,0,0,0,2768,1624
592503,0,0,0,2744,1648
593989,0,0,0,2768,1624
594083,0,0,0,2792,1600
597427,0,0,0,2408,1984
601660,0,0,0,2384,2008
602577,0,0,0,2408,1984
602644,0,0,0,2432,1960
602685,0,0,0,2456,1936
602752,0,0,0,2480,1912
602774,0,0,0,2504,1888
602775,0,0,0,2528,1864
602847,0,0,0,2928,1464
602953,0,0,0,2952,1440
603074,0,0,0,2976,1416
603497,0,0,0,3000,1392
603850,0,0,0,3024,1368
603883,0,0,0,3048,1344
603916,0,0,0,3072,1320
603935,0,0,0,3096,1296
603945,0,0,0,3120,1272
603946,0,0,0,3144,1248
603980,0,0,0,3168,1224
604007,0,0,0,3192,1200
604176,0,0,0,3216,1176
604250,0,0,0,3192,1200
605028,0,0,0,3576,816
611242,0,0,0,3176,1216
614178,0,0,0,3560,832
614992,0,0,0,3584,808
618729,0,0,0,3608,784
625156,0,0,0,3584,808
625744,0,0,0,3984,408
625974,0,0,0,3960,432
627775,0,0,0,3896,496
627812,0,0,0,3832,560
627816,0,0,0,3768,624
627841,0,0,0,3704,688
627853,0,0,0,3640,752
627888,0,0,0,3576,816
627909,0,0,0,3512,880
627933,0,0,0,3448,944
627948,0,0,0,3384,1008
627950,0,0,0,3320,1072
627966,0,0,0,3256,1136
627968,0,0,0,3192,1200
627972,0,0,0,3128,1264
631004,0,0,0,2728,1664
633956,0,0,0,2720,1672
634737,0,0,0,2320,2072
636249,0,0,0,2312,2080
638491,0,0,0,2248,2144
638524,0,0,0,2272,2120
638749,0,0,0,2248,2144
638861,0,0,0,1864,2528
639322,0,0,0,1888,2504
639494,0,0,0,1952,2440
639923,0,0,0,1888,2504
640719,0,0,0,2272,2120
641304,0,0,0,1888,2504
641894,0,0,0,1864,2528
642377,0,0,0,1928,2464
642392,0,0,0,1992,2400
642412,0,0,0,2056,2336
642439,0,0,0,2120,2272
642446,0,0,0,2184,2208
642469,0,0,0,2248,2144
642900,0,0,0,2184,2208
644843,0,0,0,2056,2336
649349,0,0,0,2064,2328
649499,0,0,0,2128,2264
649501,0,0,0,2192,2200
649645,0,0,0,2256,2136
650453,0,0,0,2320,2072
650554,0,0,0,2384,2008
650607,0,0,0,2448,1944
651019,0,0,0,2848,1544
651639,0,0,0,2856,1536
652087,0,0,0,2880,1512
652282,0,0,0,2944,1448
653534,0,0,0,3344,1048
653654,0,0,0,3408,984
654205,0,0,0,3400,992
654242,0,0,0,3392,1000
654304,0,0,0,3384,1008
654336,0,0,0,3376,1016
654427,0,0,0,3368,1024
654447,0,0,0,3360,1032
654473,0,0,0,3352,1040
654492,0,0,0,3344,1048
654615,0,0,0,3336,1056
654658,0,0,0,3328,1064
655340,0,0,0,3352,1040
655890,0,0,0,2952,1440
656589,0,0,0,3016,1376
657787,0,0,0,2191,2201
659321,0,0,0,2319,2073
664790,0,0,0,2303,2089
667886,0,0,0,3128,1264
668696,0,0,0,3136,1256
668731,0,0,0,3144,1248
668792,0,0,0,3152,1240
668929,0,0,0,3160,1232
668970,0,0,0,3168,1224
668990,0,0,0,3176,1216
669129,0,0,0,3184,1208
669174,0,0,0,3192,1200
669722,0,0,0,3200,1192
670002,0,0,0,3208,1184
671747,0,0,0,3144,1248
671750,0,0,0,3080,1312
671754,0,0,0,3016,1376
675691,0,0,0,3032,1360
676031,0,0,0,3024,1368
676066,0,0,0,3016,1376
676084,0,0,0,3008,1384
676093,0,0,0,3000,1392
676119,0,0,0,2992,1400
676138,0,0,0,2984,1408
676155,0,0,0,2976,1416
676162,0,0,0,2968,1424
676344,0,0,0,2960,1432
676358,0,0,0,2952,1440
676380,0,0,0,2944,1448
676392,0,0,0,2936,1456
676448,0,0,0,2928,1464
676466,0,0,0,2920,1472
676485,0,0,0,2912,1480
676502,0,0,0,2904,1488
677569,0,0,0,3304,1088
680950,0,0,0,3288,1104
681331,0,0,0,2904,1488
682144,0,0,0,3288,1104
684575,0,0,0,3672,720
685458,0,0,0,3736,656
685493,0,0,0,3800,592
685543,0,0,0,3864,528
686145,0,0,0,3840,552
686216,0,0,0,3816,576
690500,0,0,0,3824,568
690554,0,0,0,3832,560
690561,0,0,0,3840,552
690562,0,0,0,3848,544
690590,0,0,0,3856,536
690629,0,0,0,3864,528
690632,0,0,0,3872,520
690646,0,0,0,3880,512
690834,0,0,0,3888,504
690848,0,0,0,3896,496
690861,0,0,0,3904,488
690863,0,0,0,3912,480
690931,0,0,0,3920,472
690945,0,0,0,3928,464
690954,0,0,0,3936,456
690970,0,0,0,3944,448
691821,0,0,0,3960,432
699549,0,0,0,3984,408
699565,0,0,0,4008,384
700291,0,0,0,3992,400
702156,0,0,0,3968,424
702259,0,0,0,3944,448
707870,0,0,0,3880,512
709625,0,0,0,3496,896
709753,0,0,0,3112,1280
710031,0,0,0,3080,1312
710094,0,0,0,3048,1344
710347,0,0,0,3016,1376
710641,0,0,0,2952,1440
710644,0,0,0,2888,1504
710649,0,0,0,2824,1568
710666,0,0,0,2792,1600
711165,0,0,0,2808,1584
712524,0,0,0,2680,1712
712807,0,0,0,2664,1728
713580,0,0,0,2536,1856
714391,0,0,0,2408,1984
714651,0,0,0,2280,2112
714754,0,0,0,2152,2240
715322,0,0,0,2088,2304
715408,0,0,0,1960,2432
715625,0,0,0,1984,2408
715636,0,0,0,2008,2384
716754,0,0,0,1984,2408
716812,0,0,0,1960,2432
717214,0,0,0,1560,2832
717668,0,0,0,1432,2960
722339,0,0,0,1496,2896
723710,0,0,0,1512,2880
724023,0,0,0,1544,2848
724318,0,0,0,1608,2784
724363,0,0,0,1672,2720
724402,0,0,0,1736,2656
724562,0,0,0,1768,2624
724616,0,0,0,2152,2240
724759,0,0,0,2088,2304
724819,0,0,0,2120,2272
725170,0,0,0,2152,2240
728658,0,0,0,1768,2624
728930,0,0,0,1640,2752
729406,0,0,0,1768,2624
729808,0,0,0,1832,2560
730143,0,0,0,1856,2536
730176,0,0,0,1880,2512
730214,0,0,0,2008,2384
730434,0,0,0,2136,2256
730854,0,0,0,2264,2128
732144,0,0,0,2392,2000
732661,0,0,0,2520,1872
734203,0,0,0,2648,1744
734304,0,0,0,2624,1768
734371,0,0,0,2600,1792
734449,0,0,0,2536,1856
735769,0,0,0,2600,1792
739845,0,0,0,3000,1392
741469,0,0,0,2976,1416
742305,0,0,0,2968,1424
742382,0,0,0,2952,1440
745281,0,0,0,2824,1568
747644,0,0,0,2848,1544
747748,0,0,0,2872,1520
748920,0,0,0,2936,1456
750214,0,0,0,2720,1672
750544,0,0,0,2704,1688
750811,0,0,0,3088,1304
751523,0,0,0,3216,1176
752158,0,0,0,3240,1152
752314,0,0,0,2840,1552
752749,0,0,0,2848,1544
752899,0,0,0,3232,1160
754160,0,0,0,3248,1144
754549,0,0,0,2864,1528
756808,0,0,0,2816,1576
759766,0,0,0,2944,1448
761425,0,0,0,2960,1432
771894,0,0,0,3176,1216
771905,0,0,0,3560,832
773545,0,0,0,3536,856
773634,0,0,0,3512,880
773987,0,0,0,3912,480
778482,0,0,0,3960,432
779488,0,0,0,3576,816
787017,0,0,0,3600,792
787034,0,0,0,3624,768
787200,0,0,0,3600,792
787273,0,0,0,3576,816
795359,0,0,0,3448,944
796881,0,0,0,3352,1040
797818,0,0,0,3736,656
800561,0,0,0,3760,632
800671,0,0,0,3784,608
801327,0,0,0,3400,992
804115,0,0,0,3376,1016
804171,0,0,0,3352,1040
807575,0,0,0,3152,1240
807828,0,0,0,2480,1912
808619,0,0,0,2416,1976
808622,0,0,0,2352,2040
810151,0,0,0,2448,1944
812546,0,0,0,2352,2040
813051,0,0,0,2224,2168
817055,0,0,0,2352,2040
817468,0,0,0,2376,2016
817504,0,0,0,2400,1992
818733,0,0,0,2464,1928
819658,0,0,0,2528,1864
820691,0,0,0,2728,1664
821298,0,0,0,2664,1728
822531,0,0,0,2536,1856
822762,0,0,0,2920,1472
823133,0,0,0,2720,1672
828231,0,0,0,2816,1576
828535,0,0,0,2688,1704
832725,0,0,0,2816,1576
833720,0,0,0,2800,1592
834795,0,0,0,2864,1528
835390,0,0,0,2614,1778
835984,0,0,0,2814,1578
837021,0,0,0,2750,1642
837598,0,0,0,2734,1658
839052,0,0,0,2710,1682
839143,0,0,0,2686,1706
839837,0,0,0,2662,1730
839981,0,0,0,2638,1754
844213,0,0,0,2766,1626
844601,0,0,0,3150,1242
847314,0,0,0,3166,1226
847897,0,0,0,3182,1210
850204,0,0,0,3310,1082
850289,0,0,0,2926,1466
852363,0,0,0,2798,1594
852374,0,0,0,2822,1570
852557,0,0,0,2846,1546
854321,0,0,0,2870,1522
854450,0,0,0,2894,1498
855287,0,0,0,3144,1248
856320,0,0,0,3208,1184
861062,0,0,0,3080,1312
861064,0,0,0,2952,1440
861065,0,0,0,2824,1568
861067,0,0,0,2696,1696
861068,0,0,0,2568,1824
861077,0,0,0,2440,1952
861078,0,0,0,2312,2080
861079,0,0,0,2184,2208
861113,0,0,0,2056,2336
861115,0,0,0,1928,2464
861116,0,0,0,1800,2592
861117,0,0,0,1672,2720
861118,0,0,0,1544,2848
861119,0,0,0,1416,2976
861120,0,0,0,1288,3104
861121,0,0,0,1160,3232
861122,0,0,0,1032,3360
861123,0,0,0,904,3488
870001,0,0,0,888,3504
871388,0,0,0,1016,3376
871389,0,0,0,1144,3248
871419,0,0,0,1272,3120
871430,0,0,0,1400,2992
871569,0,0,0,1528,2864
871730,0,0,0,1656,2736
871854,0,0,0,1784,2608
872073,0,0,0,1912,2480
872327,0,0,0,1888,2504
872386,0,0,0,1864,2528
874037,0,0,0,1992,2400
874096,0,0,0,1864,2528
875969,0,0,0,1992,2400
876255,0,0,0,2120,2272
876403,0,0,0,2248,2144
876496,0,0,0,2376,2016
876600,0,0,0,2504,1888
876609,0,0,0,2632,1760
876761,0,0,0,2760,1632
876805,0,0,0,2888,1504
876873,0,0,0,3016,1376
876894,0,0,0,3144,1248
877279,0,0,0,3128,1264
878861,0,0,0,3064,1328
878869,0,0,0,3000,1392
878879,0,0,0,2936,1456
878897,0,0,0,2872,1520
878905,0,0,0,2808,1584
878916,0,0,0,2744,1648
882327,0,0,0,2344,2048
882416,0,0,0,1960,2432
882906,0,0,0,1560,2832
883172,0,0,0,1576,2816
883672,0,0,0,1560,2832
885606,0,0,0,1048,3344
885652,0,0,0,1072,3320
885677,0,0,0,944,3448
885802,0,0,0,968,3424
888214,0,0,0,944,3448
888236,0,0,0,920,3472
889761,0,0,0,936,3456
892025,0,0,0,1000,3392
892153,0,0,0,1064,3328
892198,0,0,0,1128,3264
892224,0,0,0,1192,3200
892273,0,0,0,1256,3136
892370,0,0,0,1320,3072
893535,0,0,0,1304,3088
893555,0,0,0,1688,2704
894242,0,0,0,1704,2688
894314,0,0,0,2376,2016
895763,0,0,0,2504,1888
895822,0,0,0,2376,2016
898157,0,0,0,2360,2032
899114,0,0,0,2232,2160
899362,0,0,0,2216,2176
901576,0,0,0,2240,2152
901598,0,0,0,2264,2128
904007,0,0,0,2664,1728
904010,0,0,0,2536,1856
904575,0,0,0,2936,1456
907282,0,0,0,3448,944
907349,0,0,0,3576,816
907599,0,0,0,3592,800
907678,0,0,0,3576,816
909187,0,0,0,3560,832
909284,0,0,0,2888,1504
911174,0,0,0,2864,1528
911243,0,0,0,2840,1552
911763,0,0,0,2856,1536
913846,0,0,0,2872,1520
914950,0,0,0,2744,1648
917491,0,0,0,2872,1520
917550,0,0,0,2744,1648
919405,0,0,0,2872,1520
920802,0,0,0,3000,1392
922082,0,0,0,3016,1376
923450,0,0,0,3032,1360
924088,0,0,0,2904,1488
924520,0,0,0,2928,1464
924625,0,0,0,2952,1440
925686,0,0,0,3336,1056
927740,0,0,0,3464,928
927779,0,0,0,3336,1056
929714,0,0,0,3272,1120
929953,0,0,0,3144,1248
936228,0,0,0,3128,1264
936622,0,0,0,3256,1136
943638,0,0,0,3232,1160
943713,0,0,0,3208,1184
944601,0,0,0,3336,1056
945757,0,0,0,3464,928
947520,0,0,0,3080,1312
948981,0,0,0,3144,1248
949097,0,0,0,2760,1632
949520,0,0,0,2776,1616
951629,0,0,0,2904,1488
952813,0,0,0,2776,1616
957009,0,0,0,2800,1592
957106,0,0,0,2824,1568
960259,0,0,0,3208,1184
962669,0,0,0,3080,1312
962960,0,0,0,2952,1440
964743,0,0,0,2936,1456
964848,0,0,0,2920,1472
967170,0,0,0,2856,1536
967243,0,0,0,2792,1600
967252,0,0,0,2728,1664
967261,0,0,0,2664,1728
967270,0,0,0,2600,1792
967296,0,0,0,2728,1664
968269,0,0,0,2704,1688
968393,0,0,0,2680,1712
969143,0,0,0,2648,1744
970010,0,0,0,2584,1808
971407,0,0,0,2552,1840
972419,0,0,0,2424,1968
974096,0,0,0,1912,2480
974895,0,0,0,1784,2608
979226,0,0,0,1800,2592
979314,0,0,0,1816,2576
980099,0,0,0,1880,2512
980311,0,0,0,1944,2448
980438,0,0,0,2008,2384
980546,0,0,0,1908,2484
980722,0,0,0,1972,2420
980790,0,0,0,2036,2356
981679,0,0,0,2060,2332
981824,0,0,0,2084,2308
982479,0,0,0,2060,2332
982536,0,0,0,2036,2356
982813,0,0,0,2020,2372
982875,0,0,0,2004,2388
982938,0,0,0,1988,2404
983558,0,0,0,2020,2372
983580,0,0,0,2052,2340
984243,0,0,0,1952,2440
984344,0,0,0,2080,2312
984482,0,0,0,2144,2248
984637,0,0,0,2272,2120
986033,0,0,0,2240,2152
986662,0,0,0,2232,2160
987007,0,0,0,2200,2192
989374,0,0,0,2328,2064
990806,0,0,0,2712,1680
991109,0,0,0,2840,1552
992330,0,0,0,2456,1936
995751,0,0,0,3128,1264
995877,0,0,0,3152,1240
995895,0,0,0,3176,1216
996128,0,0,0,3152,1240
996178,0,0,0,3128,1264
997050,0,0,0,3144,1248
997150,0,0,0,3160,1232
997406,0,0,0,3176,1216
997681,0,0,0,3688,704
1.00114e+06,0,0,0,3696,696
1.00143e+06,0,0,0,3680,712
1.00222e+06,0,0,0,3780,612
1.00594e+06,0,0,0,3880,512
1.00761e+06,0,0,0,3864,528
1.00771e+06,0,0,0,3896,496
1.00773e+06,0,0,0,3880,512
1.00868e+06,0,0,0,3912,480
1.00954e+06,0,0,0,3936,456
1.00959e+06,0,0,0,3960,432
1.01016e+06,0,0,0,3936,456
1.01024e+06,0,0,0,3912,480
1.01316e+06,0,0,0,4296,96
1.01591e+06,0,0,0,4312,80
1.01622e+06,0,0,0,4280,112
1.01911e+06,0,0,0,4296,96
1.02083e+06,0,0,0,4312,80
1.0214e+06,0,0,0,3912,480
1.02168e+06,0,0,0,3512,880
1.02223e+06,0,0,0,3112,1280
1.02353e+06,0,0,0,3136,1256
1.02365e+06,0,0,0,3160,1232
1.0245e+06,0,0,0,3136,1256
1.02593e+06,0,0,0,2736,1656
1.0261e+06,0,0,0,2720,1672
1.0307e+06,0,0,0,2752,1640
1.03107e+06,0,0,0,2624,1768
1.03107e+06,0,0,0,2496,1896
1.03107e+06,0,0,0,2368,2024
1.03107e+06,0,0,0,2240,2152
1.03107e+06,0,0,0,2112,2280
1.03107e+06,0,0,0,1984,2408
1.03107e+06,0,0,0,1856,2536
1.03108e+06,0,0,0,1728,2664
1.03111e+06,0,0,0,1600,2792
1.03111e+06,0,0,0,1472,2920
1.03111e+06,0,0,0,1344,3048
1.03111e+06,0,0,0,1216,3176
1.03111e+06,0,0,0,1088,3304
1.03111e+06,0,0,0,960,3432
1.03111e+06,0,0,0,832,3560
1.03111e+06,0,0,0,704,3688
1.03112e+06,0,0,0,576,3816
1.03112e+06,0,0,0,448,3944
1.03112e+06,0,0,0,320,4072
1.03113e+06,0,0,0,192,4200
1.03782e+06,0,0,0,216,4176
1.03809e+06,0,0,0,232,4160
1.04142e+06,0,0,0,360,4032
1.04157e+06,0,0,0,488,3904
1.04174e+06,0,0,0,464,3928
1.04181e+06,0,0,0,592,3800
1.04197e+06,0,0,0,720,3672
1.04253e+06,0,0,0,848,3544
1.04254e+06,0,0,0,976,3416
1.04307e+06,0,0,0,1376,3016
1.04336e+06,0,0,0,1776,2616
1.04391e+06,0,0,0,2176,2216
1.04419e+06,0,0,0,2304,2088
1.04625e+06,0,0,0,2432,1960
1.04656e+06,0,0,0,2560,1832
1.04661e+06,0,0,0,2688,1704
1.04675e+06,0,0,0,2672,1720
1.04693e+06,0,0,0,2656,1736
1.04705e+06,0,0,0,2640,1752
1.04714e+06,0,0,0,2624,1768
1.0472e+06,0,0,0,2608,1784
1.04727e+06,0,0,0,2592,1800
1.04747e+06,0,0,0,2576,1816
1.04749e+06,0,0,0,2704,1688
1.04756e+06,0,0,0,2832,1560
1.04758e+06,0,0,0,2960,1432
1.04761e+06,0,0,0,3360,1032
1.04817e+06,0,0,0,3488,904
1.04855e+06,0,0,0,3616,776
1.04862e+06,0,0,0,3744,648
1.04909e+06,0,0,0,3872,520
1.04939e+06,0,0,0,4000,392
1.04945e+06,0,0,0,4128,264
1.05007e+06,0,0,0,4256,136
1.05457e+06,0,0,0,4232,160
1.05524e+06,0,0,0,4256,136
1.05593e+06,0,0,0,4128,264
1.05594e+06,0,0,0,4000,392
1.05595e+06,0,0,0,3872,520
1.05595e+06,0,0,0,3744,648
1.05596e+06,0,0,0,3616,776
1.05597e+06,0,0,0,3488,904
1.05618e+06,0,0,0,3088,1304
1.05631e+06,0,0,0,2688,1704
1.05685e+06,0,0,0,2288,2104
1.05764e+06,0,0,0,2304,2088
1.05796e+06,0,0,0,2288,2104
1.05865e+06,0,0,0,1888,2504
1.059e+06,0,0,0,1824,2568
1.05905e+06,0,0,0,1696,2696
1.0595e+06,0,0,0,1712,2680
1.05952e+06,0,0,0,1728,2664
1.05956e+06,0,0,0,1744,2648
1.0597e+06,0,0,0,1760,2632
1.05974e+06,0,0,0,1776,2616
1.05975e+06,0,0,0,1792,2600
1.06026e+06,0,0,0,1776,2616
1.06105e+06,0,0,0,1712,2680
1.06165e+06,0,0,0,1696,2696
1.06257e+06,0,0,0,1600,2792
1.06279e+06,0,0,0,1500,2892
1.06331e+06,0,0,0,1372,3020
1.06416e+06,0,0,0,1340,3052
1.06488e+06,0,0,0,1324,3068
1.06793e+06,0,0,0,1348,3044
1.07019e+06,0,0,0,1220,3172
1.07057e+06,0,0,0,1188,3204
1.07091e+06,0,0,0,1156,3236
1.07131e+06,0,0,0,1092,3300
1.07148e+06,0,0,0,1076,3316
1.07197e+06,0,0,0,1092,3300
1.07205e+06,0,0,0,1062,3330
1.0726e+06,0,0,0,662,3730
1.07267e+06,0,0,0,262,4130
1.07293e+06,0,0,0,278,4114
1.07348e+06,0,0,0,342,4050
1.07372e+06,0,0,0,310,4082
1.07471e+06,0,0,0,182,4210
1.07486e+06,0,0,0,198,4194
1.07529e+06,0,0,0,230,4162
1.0755e+06,0,0,0,246,4146
1.07552e+06,0,0,0,310,4082
1.07574e+06,0,0,0,278,4114
1.07759e+06,0,0,0,406,3986
1.07762e+06,0,0,0,534,3858
1.07763e+06,0,0,0,662,3730
1.07764e+06,0,0,0,790,3602
1.07766e+06,0,0,0,918,3474
1.07767e+06,0,0,0,1046,3346
1.07767e+06,0,0,0,662,3730
1.07785e+06,0,0,0,1062,3330
1.078e+06,0,0,0,1462,2930
1.07837e+06,0,0,0,1430,2962
1.08074e+06,0,0,0,1558,2834
1.08082e+06,0,0,0,1590,2802
1.08179e+06,0,0,0,1654,2738
1.08343e+06,0,0,0,1526,2866
1.08426e+06,0,0,0,1622,2770
1.08446e+06,0,0,0,1722,2670
1.08473e+06,0,0,0,1738,2654
1.08499e+06,0,0,0,1722,2670
1.08499e+06,0,0,0,1850,2542
1.0853e+06,0,0,0,1978,2414
1.08538e+06,0,0,0,2010,2382
1.08602e+06,0,0,0,1338,3054
1.08653e+06,0,0,0,1368,3024
1.08665e+06,0,0,0,1338,3054
1.08823e+06,0,0,0,1370,3022
1.08932e+06,0,0,0,1402,2990
1.09021e+06,0,0,0,1434,2958
1.09186e+06,0,0,0,1562,2830
1.09316e+06,0,0,0,1962,2430
1.09334e+06,0,0,0,1562,2830
1.09432e+06,0,0,0,1962,2430
1.09436e+06,0,0,0,2362,2030
1.09437e+06,0,0,0,2490,1902
1.09572e+06,0,0,0,2890,1502
1.09586e+06,0,0,0,2858,1534
1.09618e+06,0,0,0,2826,1566
1.09625e+06,0,0,0,2794,1598
1.09725e+06,0,0,0,2666,1726
1.09737e+06,0,0,0,2634,1758
1.09946e+06,0,0,0,2650,1742
1.10039e+06,0,0,0,2680,1712
1.10388e+06,0,0,0,2648,1744
1.10657e+06,0,0,0,2520,1872
1.10729e+06,0,0,0,2456,1936
1.10735e+06,0,0,0,2424,1968
1.10738e+06,0,0,0,2392,2000
1.10752e+06,0,0,0,1992,2400
1.10755e+06,0,0,0,1928,2464
1.10768e+06,0,0,0,1896,2496
1.10773e+06,0,0,0,1864,2528
1.10777e+06,0,0,0,1832,2560
1.10836e+06,0,0,0,1864,2528
1.10854e+06,0,0,0,1848,2544
1.11073e+06,0,0,0,1880,2512
1.11154e+06,0,0,0,1848,2544
1.11384e+06,0,0,0,1448,2944
1.11474e+06,0,0,0,1480,2912
1.11569e+06,0,0,0,1448,2944
1.11753e+06,0,0,0,1480,2912
1.11806e+06,0,0,0,1544,2848
1.11874e+06,0,0,0,1576,2816
1.11894e+06,0,0,0,1704,2688
1.11963e+06,0,0,0,1680,2712
1.12037e+06,0,0,0,1696,2696
1.12097e+06,0,0,0,2080,2312
1.12105e+06,0,0,0,2208,2184
1.12118e+06,0,0,0,2240,2152
1.12187e+06,0,0,0,2272,2120
1.12218e+06,0,0,0,2304,2088
1.12225e+06,0,0,0,2336,2056
1.12298e+06,0,0,0,2400,1992
1.1232e+06,0,0,0,2432,1960
1.12546e+06,0,0,0,2304,2088
1.12546e+06,0,0,0,2176,2216
1.12546e+06,0,0,0,2048,2344
1.12546e+06,0,0,0,1920,2472
1.12547e+06,0,0,0,1792,2600
1.12548e+06,0,0,0,1664,2728
1.12548e+06,0,0,0,1536,2856
1.12591e+06,0,0,0,1936,2456
1.12604e+06,0,0,0,1968,2424
1.12606e+06,0,0,0,1936,2456
1.12677e+06,0,0,0,1536,2856
1.13013e+06,0,0,0,1506,2886
1.13016e+06,0,0,0,1906,2486
1.13016e+06,0,0,0,1938,2454
1.1302e+06,0,0,0,1906,2486
1.13021e+06,0,0,0,1876,2516
1.13031e+06,0,0,0,1846,2546
1.13042e+06,0,0,0,1816,2576
1.13059e+06,0,0,0,1786,2606
1.13067e+06,0,0,0,1756,2636
1.13075e+06,0,0,0,1726,2666
1.13082e+06,0,0,0,1696,2696
1.131e+06,0,0,0,1666,2726
1.13123e+06,0,0,0,1636,2756
1.1313e+06,0,0,0,1606,2786
1.13138e+06,0,0,0,1576,2816
1.13145e+06,0,0,0,1546,2846
1.13152e+06,0,0,0,1516,2876
1.13293e+06,0,0,0,1540,2852
1.13356e+06,0,0,0,1516,2876
1.1344e+06,0,0,0,1486,2906
1.13555e+06,0,0,0,1886,2506
1.1368e+06,0,0,0,1374,3018
1.13689e+06,0,0,0,1502,2890
1.13689e+06,0,0,0,1406,2986
1.13707e+06,0,0,0,1534,2858
1.13712e+06,0,0,0,1662,2730
1.13714e+06,0,0,0,1790,2602
1.13754e+06,0,0,0,1918,2474
1.13768e+06,0,0,0,2046,2346
1.13829e+06,0,0,0,2174,2218
1.13838e+06,0,0,0,2144,2248
1.13978e+06,0,0,0,2016,2376
1.13979e+06,0,0,0,1888,2504
1.13982e+06,0,0,0,1760,2632
1.14054e+06,0,0,0,1792,2600
1.14058e+06,0,0,0,1760,2632
1.14101e+06,0,0,0,1696,2696
1.14105e+06,0,0,0,1632,2760
1.14107e+06,0,0,0,1568,2824
1.14217e+06,0,0,0,1536,2856
1.14418e+06,0,0,0,1566,2826
1.14419e+06,0,0,0,1166,3226
1.14422e+06,0,0,0,1134,3258
1.14424e+06,0,0,0,1164,3228
1.14456e+06,0,0,0,1194,3198
1.14468e+06,0,0,0,1226,3166
1.14474e+06,0,0,0,1194,3198
1.1448e+06,0,0,0,1224,3168
1.14488e+06,0,0,0,1254,3138
1.14506e+06,0,0,0,1284,3108
1.14526e+06,0,0,0,1314,3078
1.14532e+06,0,0,0,1344,3048
1.14549e+06,0,0,0,1374,3018
1.14574e+06,0,0,0,1404,2988
1.14583e+06,0,0,0,1434,2958
1.14586e+06,0,0,0,1464,2928
1.14595e+06,0,0,0,1494,2898
1.14605e+06,0,0,0,1524,2868
1.14698e+06,0,0,0,1548,2844
1.14804e+06,0,0,0,1524,2868
1.14891e+06,0,0,0,1554,2838
1.14985e+06,0,0,0,1650,2742
1.15021e+06,0,0,0,1522,2870
1.15021e+06,0,0,0,1394,2998
1.15021e+06,0,0,0,1266,3126
1.15022e+06,0,0,0,1138,3254
1.15022e+06,0,0,0,1010,3382
1.15022e+06,0,0,0,882,3510
1.15022e+06,0,0,0,754,3638
1.15022e+06,0,0,0,626,3766
1.15022e+06,0,0,0,498,3894
1.15022e+06,0,0,0,370,4022
1.15024e+06,0,0,0,242,4150
1.15024e+06,0,0,0,114,4278
1.15257e+06,0,0,0,144,4248
1.15258e+06,0,0,0,16,4376
1.15348e+06,0,0,0,80,4312
1.15398e+06,0,0,0,144,4248
1.15398e+06,0,0,0,16,4376
1.15409e+06,0,0,0,80,4312
1.15506e+06,0,0,0,112,4280
1.15541e+06,0,0,0,512,3880
1.15541e+06,0,0,0,384,4008
1.15541e+06,0,0,0,256,4136
1.15541e+06,0,0,0,128,4264
1.15541e+06,0,0,0,0,4392
1.15735e+06,0,0,0,400,3992
1.15735e+06,0,0,0,272,4120
1.15735e+06,0,0,0,144,4248
1.15735e+06,0,0,0,112,4280
1.15735e+06,0,0,0,36,4356
1.15926e+06,0,0,0,68,4324
1.16138e+06,0,0,0,196,4196
1.1614e+06,0,0,0,220,4172
1.16141e+06,0,0,0,348,4044
1.16142e+06,0,0,0,92,4300
1.16147e+06,0,0,0,220,4172
1.16147e+06,0,0,0,348,4044
1.16148e+06,0,0,0,92,4300
1.16152e+06,0,0,0,220,4172
1.1616e+06,0,0,0,348,4044
1.1616e+06,0,0,0,476,3916
1.1616e+06,0,0,0,220,4172
1.16187e+06,0,0,0,348,4044
1.16188e+06,0,0,0,92,4300
1.1621e+06,0,0,0,220,4172
1.16257e+06,0,0,0,348,4044
1.16257e+06,0,0,0,92,4300
1.16258e+06,0,0,0,220,4172
1.16271e+06,0,0,0,348,4044
1.16271e+06,0,0,0,92,4300
1.16299e+06,0,0,0,220,4172
1.16312e+06,0,0,0,348,4044
1.16313e+06,0,0,0,92,4300
1.16313e+06,0,0,0,60,4332
1.16371e+06,0,0,0,188,4204
1.16376e+06,0,0,0,316,4076
1.16376e+06,0,0,0,60,4332
1.16385e+06,0,0,0,92,4300
1.16516e+06,0,0,0,220,4172
1.16594e+06,0,0,0,252,4140
1.16656e+06,0,0,0,380,4012
1.16657e+06,0,0,0,124,4268
1.16657e+06,0,0,0,116,4276
1.16657e+06,0,0,0,100,4292
1.16662e+06,0,0,0,228,4164
1.16662e+06,0,0,0,100,4292
1.16672e+06,0,0,0,228,4164
1.16672e+06,0,0,0,100,4292
1.16672e+06,0,0,0,92,4300
1.16687e+06,0,0,0,220,4172
1.168e+06,0,0,0,296,4096
1.168e+06,0,0,0,40,4352
1.16858e+06,0,0,0,168,4224
1.16858e+06,0,0,0,40,4352
1.16858e+06,0,0,0,8,4384
1.16883e+06,0,0,0,136,4256
1.16883e+06,0,0,0,8,4384
1.17185e+06,0,0,0,40,4352
1.17252e+06,0,0,0,712,3680
1.17253e+06,0,0,0,584,3808
1.17253e+06,0,0,0,456,3936
1.17253e+06,0,0,0,360,4032
1.17253e+06,0,0,0,232,4160
1.17253e+06,0,0,0,104,4288
1.17485e+06,0,0,0,360,4032
1.17485e+06,0,0,0,232,4160
1.17485e+06,0,0,0,104,4288
1.17539e+06,0,0,0,360,4032
1.17539e+06,0,0,0,232,4160
1.17539e+06,0,0,0,104,4288
1.1758e+06,0,0,0,360,4032
1.17601e+06,0,0,0,616,3776
1.17601e+06,0,0,0,38,4354
1.17659e+06,0,0,0,294,4098
1.17702e+06,0,0,0,550,3842
1.17703e+06,0,0,0,150,4242
1.17703e+06,0,0,0,74,4318
1.17703e+06,0,0,0,42,4350
1.17703e+06,0,0,0,18,4374
1.17742e+06,0,0,0,274,4118
1.17742e+06,0,0,0,242,4150
1.17762e+06,0,0,0,274,4118
1.17807e+06,0,0,0,530,3862
1.17869e+06,0,0,0,498,3894
1.17884e+06,0,0,0,48,4344
1.1797e+06,0,0,0,56,4336
1.18008e+06,0,0,0,568,3824
1.18018e+06,0,0,0,576,3816
1.18047e+06,0,0,0,704,3688
1.18093e+06,0,0,0,960,3432
1.18096e+06,0,0,0,976,3416
1.18242e+06,0,0,0,1232,3160
1.18242e+06,0,0,0,208,4184
1.18307e+06,0,0,0,240,4152
1.18404e+06,0,0,0,368,4024
1.18416e+06,0,0,0,496,3896
1.18657e+06,0,0,0,592,3800
1.1881e+06,0,0,0,720,3672
1.18826e+06,0,0,0,848,3544
1.18833e+06,0,0,0,976,3416
1.1884e+06,0,0,0,1104,3288
1.18841e+06,0,0,0,80,4312
1.18841e+06,0,0,0,72,4320
1.18868e+06,0,0,0,148,4244
1.18871e+06,0,0,0,276,4116
1.19037e+06,0,0,0,300,4092
1.19063e+06,0,0,0,428,3964
1.19074e+06,0,0,0,556,3836
1.19075e+06,0,0,0,44,4348
1.19075e+06,0,0,0,20,4372
1.19152e+06,0,0,0,52,4340
1.19176e+06,0,0,0,180,4212
1.19177e+06,0,0,0,104,4288
1.19177e+06,0,0,0,96,4296
1.19177e+06,0,0,0,64,4328
1.19214e+06,0,0,0,192,4200
1.19214e+06,0,0,0,96,4296
1.19214e+06,0,0,0,64,4328
1.19282e+06,0,0,0,96,4296
1.19319e+06,0,0,0,128,4264
1.19323e+06,0,0,0,96,4296
1.19472e+06,0,0,0,546,3846
1.19473e+06,0,0,0,418,3974
1.19473e+06,0,0,0,290,4102
1.19473e+06,0,0,0,162,4230
1.19473e+06,0,0,0,34,4358
1.19771e+06,0,0,0,612,3780
1.19772e+06,0,0,0,580,3812
1.20039e+06,0,0,0,1604,2788
1.20064e+06,0,0,0,1596,2796
1.20083e+06,0,0,0,1588,2804
1.20215e+06,0,0,0,2100,2292
1.20239e+06,0,0,0,2124,2268
1.2026e+06,0,0,0,2156,2236
1.20284e+06,0,0,0,2028,2364
1.20284e+06,0,0,0,1900,2492
1.20284e+06,0,0,0,1772,2620
1.20284e+06,0,0,0,1644,2748
1.20286e+06,0,0,0,1516,2876
1.2038e+06,0,0,0,1524,2868
1.20469e+06,0,0,0,1396,2996
1.20469e+06,0,0,0,1268,3124
1.20469e+06,0,0,0,1140,3252
1.20577e+06,0,0,0,1116,3276
1.20594e+06,0,0,0,1244,3148
1.20615e+06,0,0,0,1372,3020
1.20619e+06,0,0,0,1500,2892
1.2062e+06,0,0,0,1628,2764
1.20624e+06,0,0,0,1704,2688
1.20624e+06,0,0,0,1712,2680
1.20665e+06,0,0,0,1744,2648
1.20772e+06,0,0,0,1776,2616
1.20778e+06,0,0,0,1744,2648
1.20974e+06,0,0,0,1840,2552
1.21222e+06,0,0,0,1872,2520
1.21229e+06,0,0,0,1840,2552
1.21249e+06,0,0,0,2240,2152
1.21286e+06,0,0,0,2368,2024
1.21342e+06,0,0,0,2496,1896
1.2141e+06,0,0,0,2624,1768
1.21422e+06,0,0,0,2752,1640
1.21511e+06,0,0,0,2880,1512
1.21511e+06,0,0,0,2888,1504
1.2153e+06,0,0,0,2896,1496
1.21584e+06,0,0,0,3024,1368
1.21593e+06,0,0,0,3152,1240
1.21666e+06,0,0,0,3280,1112
1.21802e+06,0,0,0,4304,88
1.21911e+06,0,0,0,4328,64
1.21915e+06,0,0,0,4304,88
1.21938e+06,0,0,0,3280,1112
1.21985e+06,0,0,0,2256,2136
1.22034e+06,0,0,0,2180,2212
1.22227e+06,0,0,0,2212,2180
1.22232e+06,0,0,0,2180,2212
1.22676e+06,0,0,0,2212,2180
1.2268e+06,0,0,0,2180,2212
1.22724e+06,0,0,0,2116,2276
1.22725e+06,0,0,0,2052,2340
1.23054e+06,0,0,0,1796,2596
1.23074e+06,0,0,0,1872,2520
1.23264e+06,0,0,0,1896,2496
1.23399e+06,0,0,0,1384,3008
1.23424e+06,0,0,0,984,3408
1.23681e+06,0,0,0,1016,3376
1.23791e+06,0,0,0,920,3472
1.23825e+06,0,0,0,856,3536
1.23922e+06,0,0,0,780,3612
1.23985e+06,0,0,0,844,3548
1.24009e+06,0,0,0,908,3484
1.24029e+06,0,0,0,508,3884
1.24129e+06,0,0,0,540,3852
1.24206e+06,0,0,0,508,3884
1.24994e+06,0,0,0,584,3808
1.25223e+06,0,0,0,840,3552
1.25223e+06,0,0,0,240,4152
1.25272e+06,0,0,0,304,4088
1.25384e+06,0,0,0,228,4164
1.25654e+06,0,0,0,260,4132
1.25909e+06,0,0,0,132,4260
1.25909e+06,0,0,0,4,4388
1.25963e+06,0,0,0,100,4292
1.25964e+06,0,0,0,92,4300
1.26014e+06,0,0,0,84,4308
1.26319e+06,0,0,0,684,3708
1.26394e+06,0,0,0,588,3804
1.2654e+06,0,0,0,556,3836
1.26579e+06,0,0,0,632,3760
1.26623e+06,0,0,0,504,3888
1.26996e+06,0,0,0,428,3964
1.27009e+06,0,0,0,556,3836
1.27034e+06,0,0,0,684,3708
1.27306e+06,0,0,0,1708,2684
1.27336e+06,0,0,0,2108,2284
1.27712e+06,0,0,0,2236,2156
1.27729e+06,0,0,0,2748,1644
1.27737e+06,0,0,0,2780,1612
1.27751e+06,0,0,0,3180,1212
1.2778e+06,0,0,0,3276,1116
1.28215e+06,0,0,0,3352,1040
1.28226e+06,0,0,0,3360,1032
1.28273e+06,0,0,0,3368,1024
1.28519e+06,0,0,0,3155,1237
1.28537e+06,0,0,0,2919,1473
1.28632e+06,0,0,0,2407,1985
1.28662e+06,0,0,0,1895,2497
1.2882e+06,0,0,0,1767,2625
1.2882e+06,0,0,0,1639,2753
1.28821e+06,0,0,0,1511,2881
1.28821e+06,0,0,0,1255,3137
1.29687e+06,0,0,0,1491,2901
1.2972e+06,0,0,0,2003,2389
1.29786e+06,0,0,0,1603,2789
1.29799e+06,0,0,0,1816,2576
1.29919e+06,0,0,0,1944,2448
1.29966e+06,0,0,0,2072,2320
1.30018e+06,0,0,0,2200,2192
1.30089e+06,0,0,0,2456,1936
1.30571e+06,0,0,0,3480,912
1.30663e+06,0,0,0,3416,976
1.30665e+06,0,0,0,3352,1040
1.30705e+06,0,0,0,3256,1136
1.31283e+06,0,0,0,3000,1392
1.31301e+06,0,0,0,3400,992
1.31377e+06,0,0,0,3392,1000
1.31458e+06,0,0,0,3316,1076
1.31551e+06,0,0,0,3828,564
1.31941e+06,0,0,0,3892,500
1.32087e+06,0,0,0,3988,404
1.32115e+06,0,0,0,4052,340
1.32515e+06,0,0,0,4128,264
1.32731e+06,0,0,0,4384,8
1.33406e+06,0,0,0,4392,0
