job_id,workload_name,profile,submission_time,requested_number_of_resources,requested_time,success,final_state,starting_time,execution_time,finish_time,waiting_time,turnaround_time,stretch,allocated_resources,consumed_energy,metadata
11_0_1,w0,profile_11,0.000000,256,21600.000000,1,COMPLETED_SUCCESSFULLY,0.003600,20391.000000,20391.003600,0.003600,20391.003600,1.000000,3072-3327,-1.000000,""
27_0_1,w0,profile_27,0.000000,256,21600.000000,1,COMPLETED_SUCCESSFULLY,0.005400,21591.000000,21591.005400,0.005400,21591.005400,1.000000,3840-4095,-1.000000,""
13_0_1,w0,profile_13,0.000000,256,21622.000000,1,COMPLETED_SUCCESSFULLY,0.004800,21621.000000,21621.004800,0.004800,21621.004800,1.000000,3584-3839,-1.000000,""
12_0_1,w0,profile_12,0.000000,256,21763.000000,1,COMPLETED_SUCCESSFULLY,0.004200,21762.000000,21762.004200,0.004200,21762.004200,1.000000,3328-3583,-1.000000,""
0_0_1,w0,profile_0,0.000000,2048,86400.000000,1,COMPLETED_SUCCESSFULLY,0.002400,46014.000000,46014.002400,0.002400,46014.002400,1.000000,0-2047,-1.000000,""
10_0_1,w0,profile_10,0.000000,1024,46800.000000,1,COMPLETED_SUCCESSFULLY,0.003000,46799.000000,46799.003000,0.003000,46799.003000,1.000000,2048-3071,-1.000000,""
17_0_1,w0,profile_17,0.000000,400,28823.000000,1,COMPLETED_SUCCESSFULLY,46017.005250,28822.000000,74839.005250,46017.005250,74839.005250,2.596593,1267-1666,-1.000000,""
1_0_1,w0,profile_1,0.000000,251,72000.000000,1,COMPLETED_SUCCESSFULLY,46802.005850,51314.000000,98116.005850,46802.005850,98116.005850,1.912071,3028-3071 3328-3534,-1.000000,""
19_0_1,w0,profile_19,0.000000,249,72000.000000,1,COMPLETED_SUCCESSFULLY,46802.005250,53292.000000,100094.005250,46802.005250,100094.005250,1.878218,2779-3027,-1.000000,""
14_0_1,w0,profile_14,0.000000,1016,86517.000000,1,COMPLETED_SUCCESSFULLY,21624.006450,86516.000000,108140.006450,21624.006450,108140.006450,1.249942,3072-3327 3584-4343,-1.000000,""
18_0_1,w0,profile_18,0.000000,1112,86400.000000,1,COMPLETED_SUCCESSFULLY,46802.004650,84837.000000,131639.004650,46802.004650,131639.004650,1.551670,1667-2778,-1.000000,""
15_0_1,w0,profile_15,0.000000,1016,86509.000000,1,COMPLETED_SUCCESSFULLY,46017.004050,86508.000000,132525.004050,46017.004050,132525.004050,1.531939,0-1015,-1.000000,""
21_0_1,w0,profile_21,0.000000,513,32539.000000,1,COMPLETED_SUCCESSFULLY,108143.008700,32538.000000,140681.008700,108143.008700,140681.008700,4.323591,3379-3891,-1.000000,""
23_0_1,w0,profile_23,0.000000,249,57600.000000,1,COMPLETED_SUCCESSFULLY,131642.006900,22249.000000,153891.006900,131642.006900,153891.006900,6.916761,2179-2427,-1.000000,""
28_0_1,w0,profile_28,0.000000,249,43200.000000,1,COMPLETED_SUCCESSFULLY,132528.007500,22619.000000,155147.007500,132528.007500,155147.007500,6.859145,4047-4295,-1.000000,""
16_0_1,w0,profile_16,0.000000,251,129600.000000,1,COMPLETED_SUCCESSFULLY,46017.004650,113019.000000,159036.004650,46017.004650,159036.004650,1.407162,1016-1266,-1.000000,""
22_0_1,w0,profile_22,0.000000,512,33817.000000,1,COMPLETED_SUCCESSFULLY,131642.006300,33816.000000,165458.006300,131642.006300,165458.006300,4.892891,1667-2178,-1.000000,""
25_0_1,w0,profile_25,0.000000,249,43200.000000,1,COMPLETED_SUCCESSFULLY,132528.006300,34409.000000,166937.006300,132528.006300,166937.006300,4.851551,2436-2684,-1.000000,""
26_0_1,w0,profile_26,0.000000,249,43200.000000,1,COMPLETED_SUCCESSFULLY,132528.006900,34486.000000,167014.006900,132528.006900,167014.006900,4.842951,2685-2778 3892-4046,-1.000000,""
2_0_1,w0,profile_2,0.000000,249,50400.000000,1,COMPLETED_SUCCESSFULLY,140684.010950,46222.000000,186906.010950,140684.010950,186906.010950,4.043659,3628-3876,-1.000000,""
20_0_1,w0,profile_20,0.000000,1000,86400.000000,1,COMPLETED_SUCCESSFULLY,108143.008100,85772.000000,193915.008100,108143.008100,193915.008100,2.260819,1267-1666 2779-3378,-1.000000,""
29_0_1,w0,profile_29,0.000000,249,72000.000000,1,COMPLETED_SUCCESSFULLY,140684.010350,53761.000000,194445.010350,140684.010350,194445.010350,3.616841,3379-3627,-1.000000,""
31_0_1,w0,profile_31,0.000000,249,72000.000000,1,COMPLETED_SUCCESSFULLY,155150.009150,47522.000000,202672.009150,155150.009150,202672.009150,4.264804,3877-3891 4047-4280,-1.000000,""
30_0_1,w0,profile_30,0.000000,249,72000.000000,1,COMPLETED_SUCCESSFULLY,153894.008550,54630.000000,208524.008550,153894.008550,208524.008550,3.817024,2179-2427,-1.000000,""
32_0_1,w0,profile_32,0.000000,896,43275.000000,1,COMPLETED_SUCCESSFULLY,166940.007950,43274.000000,210214.007950,166940.007950,210214.007950,4.857744,1016-1266 1667-2178 2436-2568,-1.000000,""
24_0_1,w0,profile_24,0.000000,1024,86478.000000,1,COMPLETED_SUCCESSFULLY,132528.005700,86477.000000,219005.005700,132528.005700,219005.005700,2.532523,0-1015 2428-2435,-1.000000,""
34_0_1,w0,profile_34,0.000000,896,43200.000000,1,COMPLETED_SUCCESSFULLY,194448.012000,30573.000000,225021.012000,194448.012000,225021.012000,7.360122,3065-3876 3892-3975,-1.000000,""
33_0_1,w0,profile_33,0.000000,896,43200.000000,1,COMPLETED_SUCCESSFULLY,193918.009750,31309.000000,225227.009750,193918.009750,225227.009750,7.193683,1267-1666 2569-3064,-1.000000,""
35_0_1,w0,profile_35,0.000000,896,43200.000000,1,COMPLETED_SUCCESSFULLY,210217.009600,30275.000000,240492.009600,210217.009600,240492.009600,7.943584,1016-1266 1667-2311,-1.000000,""
36_0_1,w0,profile_36,0.000000,896,43200.000000,1,COMPLETED_SUCCESSFULLY,219008.007350,30157.000000,249165.007350,219008.007350,249165.007350,8.262261,0-895,-1.000000,""
5_0_1,w0,profile_5,0.000000,249,144000.000000,1,COMPLETED_SUCCESSFULLY,225024.014850,44537.000000,269561.014850,225024.014850,269561.014850,6.052518,4049-4297,-1.000000,""
3_0_1,w0,profile_3,0.000000,1112,86482.000000,1,COMPLETED_SUCCESSFULLY,225024.013650,86481.000000,311505.013650,225024.013650,311505.013650,3.602005,896-1015 2312-2568 3065-3799,-1.000000,""
6_0_1,w0,profile_6,0.000000,802,86579.000000,1,COMPLETED_SUCCESSFULLY,225230.011400,86578.000000,311808.011400,225230.011400,311808.011400,3.601469,1267-1666 2569-2970,-1.000000,""
4_0_1,w0,profile_4,0.000000,249,144000.000000,1,COMPLETED_SUCCESSFULLY,225024.014250,99807.000000,324831.014250,225024.014250,324831.014250,3.254592,3800-4048,-1.000000,""
7_0_1,w0,profile_7,0.000000,1200,86485.000000,1,COMPLETED_SUCCESSFULLY,249168.009000,86484.000000,335652.009000,249168.009000,335652.009000,3.881088,0-895 1016-1266 1667-1719,-1.000000,""
37_0_1,w0,profile_37,12.000000,896,43200.000000,1,COMPLETED_SUCCESSFULLY,324834.015900,30438.000000,355272.015900,324822.015900,355260.015900,11.671595,1267-1666 2569-2970 3712-3805,-1.000000,""
69_0_1,w0,profile_69,300768.000000,400,24125.000000,1,COMPLETED_SUCCESSFULLY,335655.011250,24124.000000,359779.011250,34887.011250,59011.011250,2.446154,1016-1266 1667-1719 3806-3901,-1.000000,""
38_0_1,w0,profile_38,15.000000,896,43200.000000,1,COMPLETED_SUCCESSFULLY,335655.010650,31152.000000,366807.010650,335640.010650,366792.010650,11.774268,0-895,-1.000000,""
8_0_1,w0,profile_8,0.000000,1024,104125.000000,1,COMPLETED_SUCCESSFULLY,269564.016500,104124.000000,373688.016500,269564.016500,373688.016500,3.588875,1720-2311 2971-3064 4049-4386,-1.000000,""
39_0_1,w0,profile_39,18.000000,896,43200.000000,1,COMPLETED_SUCCESSFULLY,355275.017550,30306.000000,385581.017550,355257.017550,385563.017550,12.722333,1267-1666 2569-2970 3712-3805,-1.000000,""
70_0_1,w0,profile_70,300795.000000,400,28864.000000,1,COMPLETED_SUCCESSFULLY,366810.012900,28863.000000,395673.012900,66015.012900,94878.012900,3.287185,1120-1266 1667-1719 3806-4005,-1.000000,""
9_0_1,w0,profile_9,0.000000,1024,104670.000000,1,COMPLETED_SUCCESSFULLY,311508.015300,104669.000000,416177.015300,311508.015300,416177.015300,3.976125,896-1015 2312-2568 3065-3711,-1.000000,""
41_0_1,w0,profile_41,148558.000000,2048,57600.000000,1,COMPLETED_SUCCESSFULLY,395676.014550,43919.000000,439595.014550,247118.014550,291037.014550,6.626677,1120-2311 2569-3064 3712-4071,-1.000000,""
40_0_1,w0,profile_40,12025.000000,1000,86400.000000,1,COMPLETED_SUCCESSFULLY,366810.012300,85787.000000,452597.012300,354785.012300,440572.012300,5.135650,0-895 1016-1119,-1.000000,""
43_0_1,w0,profile_43,151085.000000,2304,39600.000000,1,COMPLETED_SUCCESSFULLY,439598.016200,27742.000000,467340.016200,288513.016200,316255.016200,11.399864,1120-2311 2569-3064 3712-4327,-1.000000,""
81_0_1,w0,profile_81,432729.000000,256,21629.000000,1,COMPLETED_SUCCESSFULLY,452600.015150,21628.000000,474228.015150,19871.015150,41499.015150,1.918763,512-767,-1.000000,""
80_0_1,w0,profile_80,432063.000000,256,21643.000000,1,COMPLETED_SUCCESSFULLY,452600.014550,21642.000000,474242.014550,20537.014550,42179.014550,1.948943,256-511,-1.000000,""
79_0_1,w0,profile_79,431768.000000,256,21701.000000,1,COMPLETED_SUCCESSFULLY,452600.013950,21700.000000,474300.013950,20832.013950,42532.013950,1.960001,0-255,-1.000000,""
44_0_1,w0,profile_44,151200.000000,2304,40500.000000,1,COMPLETED_SUCCESSFULLY,467343.017850,27372.000000,494715.017850,316143.017850,343515.017850,12.549869,768-895 1016-2311 2569-3064 3712-4095,-1.000000,""
42_0_1,w0,profile_42,148574.000000,1024,86400.000000,1,COMPLETED_SUCCESSFULLY,416180.016950,81489.000000,497669.016950,267606.016950,349095.016950,4.283953,896-1015 2312-2568 3065-3711,-1.000000,""
46_0_1,w0,profile_46,157471.000000,1024,86400.000000,1,COMPLETED_SUCCESSFULLY,494718.019500,34157.000000,528875.019500,337247.019500,371404.019500,10.873438,0-895 1016-1143,-1.000000,""
68_0_1,w0,profile_68,300737.000000,400,32531.000000,1,COMPLETED_SUCCESSFULLY,497672.019200,32530.000000,530202.019200,196935.019200,229465.019200,7.053951,3563-3711 3798-4048,-1.000000,""
48_0_1,w0,profile_48,160653.000000,875,86400.000000,1,COMPLETED_SUCCESSFULLY,494718.020700,50210.000000,544928.020700,334065.020700,384275.020700,7.653356,2019-2311 2569-3064 3712-3797,-1.000000,""
63_0_1,w0,profile_63,292153.000000,500,32464.000000,1,COMPLETED_SUCCESSFULLY,530205.020850,32463.000000,562668.020850,238052.020850,270515.020850,8.333026,875-895 1016-1143 3563-3711 3798-3999,-1.000000,""
47_0_1,w0,profile_47,160617.000000,875,86400.000000,1,COMPLETED_SUCCESSFULLY,494718.020100,79659.000000,574377.020100,334101.020100,413760.020100,5.194140,1144-2018,-1.000000,""
49_0_1,w0,profile_49,160682.000000,875,86400.000000,1,COMPLETED_SUCCESSFULLY,497672.018600,81211.000000,578883.018600,336990.018600,418201.018600,5.149561,896-1015 2312-2568 3065-3562,-1.000000,""
45_0_1,w0,profile_45,151697.000000,251,129740.000000,1,COMPLETED_SUCCESSFULLY,467343.018450,129739.000000,597082.018450,315646.018450,445385.018450,3.432931,4096-4346,-1.000000,""
50_0_1,w0,profile_50,160692.000000,875,86400.000000,1,COMPLETED_SUCCESSFULLY,528878.021150,79799.000000,608677.021150,368186.021150,447985.021150,5.613918,0-874,-1.000000,""
51_0_1,w0,profile_51,160694.000000,875,86400.000000,1,COMPLETED_SUCCESSFULLY,544931.022350,81704.000000,626635.022350,384237.022350,465941.022350,5.702793,2019-2311 2569-3064 3712-3797,-1.000000,""
52_0_1,w0,profile_52,160696.000000,875,86400.000000,1,COMPLETED_SUCCESSFULLY,574380.021750,81556.000000,655936.021750,413684.021750,495240.021750,6.072392,875-895 1016-1869,-1.000000,""
53_0_1,w0,profile_53,160698.000000,875,86400.000000,1,COMPLETED_SUCCESSFULLY,578886.020250,80190.000000,659076.020250,418188.020250,498378.020250,6.214965,896-1015 1870-2018 2312-2568 3065-3413,-1.000000,""
56_0_1,w0,profile_56,183362.000000,802,36116.000000,1,COMPLETED_SUCCESSFULLY,626638.024000,36115.000000,662753.024000,443276.024000,479391.024000,13.274014,2019-2311 2569-3064 3712-3724,-1.000000,""
54_0_1,w0,profile_54,160700.000000,875,86400.000000,1,COMPLETED_SUCCESSFULLY,597085.020100,79318.000000,676403.020100,436385.020100,515703.020100,6.501715,3414-3711 3798-4374,-1.000000,""
55_0_1,w0,profile_55,160701.000000,875,86400.000000,1,COMPLETED_SUCCESSFULLY,608680.022800,77612.000000,686292.022800,447979.022800,525591.022800,6.772033,0-874,-1.000000,""
57_0_1,w0,profile_57,183539.000000,802,36000.000000,1,COMPLETED_SUCCESSFULLY,655939.023400,33373.000000,689312.023400,472400.023400,505773.023400,15.155156,875-895 1016-1796,-1.000000,""
58_0_1,w0,profile_58,183663.000000,802,36026.000000,1,COMPLETED_SUCCESSFULLY,659079.021900,36025.000000,695104.021900,475416.021900,511441.021900,14.196836,896-1015 1797-2018 2312-2568 3065-3267,-1.000000,""
59_0_1,w0,profile_59,183759.000000,802,36088.000000,1,COMPLETED_SUCCESSFULLY,662756.025650,36087.000000,698843.025650,478997.025650,515084.025650,14.273396,2019-2311 2569-3064 3268-3280,-1.000000,""
60_0_1,w0,profile_60,183852.000000,802,36000.000000,1,COMPLETED_SUCCESSFULLY,676406.021750,34864.000000,711270.021750,492554.021750,527418.021750,15.127869,3281-4082,-1.000000,""
85_0_1,w0,profile_85,511229.000000,256,21650.000000,1,COMPLETED_SUCCESSFULLY,695107.024150,21649.000000,716756.024150,183878.024150,205527.024150,9.493604,2470-2568 3065-3221,-1.000000,""
64_0_1,w0,profile_64,298499.000000,500,32454.000000,1,COMPLETED_SUCCESSFULLY,686295.025050,32453.000000,718748.025050,387796.025050,420249.025050,12.949466,251-750,-1.000000,""
66_0_1,w0,profile_66,299127.000000,500,32429.000000,1,COMPLETED_SUCCESSFULLY,689315.025650,32428.000000,721743.025650,390188.025650,422616.025650,13.032442,1371-1796 4283-4356,-1.000000,""
65_0_1,w0,profile_65,298706.000000,500,32470.000000,1,COMPLETED_SUCCESSFULLY,689315.025050,32469.000000,721784.025050,390609.025050,423078.025050,13.030214,751-895 1016-1370,-1.000000,""
67_0_1,w0,profile_67,300691.000000,500,32676.000000,1,COMPLETED_SUCCESSFULLY,695107.023550,32675.000000,727782.023550,394416.023550,427091.023550,13.070881,896-1015 1797-2018 2312-2469,-1.000000,""
61_0_1,w0,profile_61,234603.000000,200,86400.000000,1,COMPLETED_SUCCESSFULLY,676406.022350,68538.000000,744944.022350,441803.022350,510341.022350,7.446103,4083-4282,-1.000000,""
72_0_1,w0,profile_72,408648.000000,512,32480.000000,1,COMPLETED_SUCCESSFULLY,721746.027300,32479.000000,754225.027300,313098.027300,345577.027300,10.640014,1371-1796 3725-3810,-1.000000,""
73_0_1,w0,profile_73,416920.000000,512,32506.000000,1,COMPLETED_SUCCESSFULLY,721787.026700,32505.000000,754292.026700,304867.026700,337372.026700,10.379081,751-895 1016-1370 3811-3822,-1.000000,""
86_0_1,w0,profile_86,515348.000000,256,21723.000000,1,COMPLETED_SUCCESSFULLY,744947.024000,21722.000000,766669.024000,229599.024000,251321.024000,11.569884,4083-4282 4325-4380,-1.000000,""
99_0_1,w0,profile_99,666670.000000,512,32400.000000,1,COMPLETED_SUCCESSFULLY,754295.028350,20967.000000,775262.028350,87625.028350,108592.028350,5.179188,751-895 1016-1370 3811-3822,-1.000000,""
92_0_1,w0,profile_92,600722.000000,256,21709.000000,1,COMPLETED_SUCCESSFULLY,754228.029550,21708.000000,775936.029550,153506.029550,175214.029550,8.071404,1627-1796 3725-3810,-1.000000,""
91_0_1,w0,profile_91,585352.000000,256,21750.000000,1,COMPLETED_SUCCESSFULLY,754228.028950,21749.000000,775977.028950,168876.028950,190625.028950,8.764772,1371-1626,-1.000000,""
100_0_1,w0,profile_100,668752.000000,256,21692.000000,1,COMPLETED_SUCCESSFULLY,766672.025650,21691.000000,788363.025650,97920.025650,119611.025650,5.514316,4083-4282 4325-4380,-1.000000,""
71_0_1,w0,profile_71,404302.000000,2048,86400.000000,1,COMPLETED_SUCCESSFULLY,718751.026700,69646.000000,788397.026700,314449.026700,384095.026700,5.514962,251-750 2019-2311 2470-3724,-1.000000,""
101_0_1,w0,profile_101,668757.000000,256,21709.000000,1,COMPLETED_SUCCESSFULLY,775265.030000,21708.000000,796973.030000,106508.030000,128216.030000,5.906395,751-895 1016-1126,-1.000000,""
114_0_1,w0,profile_114,776088.000000,256,21676.000000,1,COMPLETED_SUCCESSFULLY,776088.001800,21675.000000,797763.001800,0.001800,21675.001800,1.000000,1371-1626,-1.000000,""
104_0_1,w0,profile_104,697312.000000,400,28843.000000,1,COMPLETED_SUCCESSFULLY,775939.031200,28842.000000,804781.031200,78627.031200,107469.031200,3.726130,1127-1370 1627-1782,-1.000000,""
74_0_1,w0,profile_74,424217.000000,802,86559.000000,1,COMPLETED_SUCCESSFULLY,727785.025200,86558.000000,814343.025200,303568.025200,390126.025200,4.507105,896-1015 1797-2018 2312-2469 3823-4082 4283-4324,-1.000000,""
62_0_1,w0,profile_62,247922.000000,251,129687.000000,1,COMPLETED_SUCCESSFULLY,686295.024450,129686.000000,815981.024450,438373.024450,568059.024450,4.380265,0-250,-1.000000,""
82_0_1,w0,profile_82,497117.000000,802,32512.000000,1,COMPLETED_SUCCESSFULLY,814346.026850,32511.000000,846857.026850,317229.026850,349740.026850,10.757591,896-1015 1797-2018 2312-2469 3823-4082 4283-4324,-1.000000,""
75_0_1,w0,profile_75,426577.000000,3072,86400.000000,1,COMPLETED_SUCCESSFULLY,804784.032850,53231.000000,858015.032850,378207.032850,431438.032850,8.105015,251-895 1016-1796 2019-2311 2470-3822,-1.000000,""
87_0_1,w0,profile_87,518407.000000,249,72000.000000,1,COMPLETED_SUCCESSFULLY,804784.033450,58610.000000,863394.033450,286377.033450,344987.033450,5.886146,4083-4282 4325-4373,-1.000000,""
88_0_1,w0,profile_88,521404.000000,249,72000.000000,1,COMPLETED_SUCCESSFULLY,815984.026100,51115.000000,867099.026100,294580.026100,345695.026100,6.763084,0-248,-1.000000,""
84_0_1,w0,profile_84,500780.000000,652,21739.000000,1,COMPLETED_SUCCESSFULLY,846860.028500,21738.000000,868598.028500,346080.028500,367818.028500,16.920509,249-250 896-1015 1797-2018 2312-2469 3823-3972,-1.000000,""
76_0_1,w0,profile_76,427356.000000,3072,86400.000000,1,COMPLETED_SUCCESSFULLY,858018.034500,58026.000000,916044.034500,430662.034500,488688.034500,8.421880,251-895 1016-1796 2019-2311 2470-3822,-1.000000,""
98_0_1,w0,profile_98,666232.000000,249,72000.000000,1,COMPLETED_SUCCESSFULLY,868601.030750,67669.000000,936270.030750,202369.030750,270038.030750,3.990572,3947-4195,-1.000000,""
115_0_1,w0,profile_115,777110.000000,256,21659.000000,1,COMPLETED_SUCCESSFULLY,916047.037950,21658.000000,937705.037950,138937.037950,160595.037950,7.415045,3230-3485,-1.000000,""
107_0_1,w0,profile_107,757657.000000,802,21696.000000,1,COMPLETED_SUCCESSFULLY,916047.036750,21695.000000,937742.036750,158390.036750,180085.036750,8.300762,1246-1796 2019-2269,-1.000000,""
77_0_1,w0,profile_77,429909.000000,875,86400.000000,1,COMPLETED_SUCCESSFULLY,868601.030150,77742.000000,946343.030150,438692.030150,516434.030150,6.642922,0-250 896-1015 1797-2018 2312-2469 3823-3946,-1.000000,""
108_0_1,w0,profile_108,767433.000000,802,32473.000000,1,COMPLETED_SUCCESSFULLY,916047.037350,32472.000000,948519.037350,148614.037350,181086.037350,5.576683,2270-2311 2470-3229,-1.000000,""
103_0_1,w0,profile_103,687560.000000,249,72000.000000,1,COMPLETED_SUCCESSFULLY,948522.039600,37664.000000,986186.039600,260962.039600,298626.039600,7.928686,3947-4195,-1.000000,""
78_0_1,w0,profile_78,429920.000000,875,86400.000000,1,COMPLETED_SUCCESSFULLY,916047.036150,78491.000000,994538.036150,486127.036150,564618.036150,7.193411,251-895 1016-1245,-1.000000,""
125_0_1,w0,profile_125,959879.000000,256,21600.000000,1,COMPLETED_SUCCESSFULLY,986189.041250,21534.000000,1007723.041250,26310.041250,47844.041250,2.221791,3947-4202,-1.000000,""
83_0_1,w0,profile_83,497944.000000,3072,86400.000000,1,COMPLETED_SUCCESSFULLY,948522.039000,60742.000000,1009264.039000,450578.039000,511320.039000,8.417899,0-250 896-1015 1246-3946,-1.000000,""
109_0_1,w0,profile_109,767468.000000,802,32460.000000,1,COMPLETED_SUCCESSFULLY,994541.037800,32459.000000,1027000.037800,227073.037800,259532.037800,7.995688,251-895 1016-1172,-1.000000,""
116_0_1,w0,profile_116,783375.000000,249,72000.000000,1,COMPLETED_SUCCESSFULLY,1027003.040050,65767.000000,1092770.040050,243628.040050,309395.040050,4.704412,4096-4344,-1.000000,""
89_0_1,w0,profile_89,538554.000000,2048,86400.000000,1,COMPLETED_SUCCESSFULLY,1009267.040650,85045.000000,1094312.040650,470713.040650,555758.040650,6.534870,0-250 896-1015 1173-2849,-1.000000,""
90_0_1,w0,profile_90,538570.000000,2048,86400.000000,1,COMPLETED_SUCCESSFULLY,1027003.039450,85057.000000,1112060.039450,488433.039450,573490.039450,6.742420,251-895 1016-1172 2850-4095,-1.000000,""
93_0_1,w0,profile_93,617930.000000,4209,36000.000000,1,COMPLETED_SUCCESSFULLY,1112063.041100,26216.000000,1138279.041100,494133.041100,520349.041100,19.848529,0-4208,-1.000000,""
95_0_1,w0,profile_95,663524.000000,2048,86400.000000,1,COMPLETED_SUCCESSFULLY,1138282.043350,37631.000000,1175913.043350,474758.043350,512389.043350,13.616142,2048-4095,-1.000000,""
120_0_1,w0,profile_120,844247.000000,249,72000.000000,1,COMPLETED_SUCCESSFULLY,1138282.043950,70711.000000,1208993.043950,294035.043950,364746.043950,5.158265,4096-4344,-1.000000,""
94_0_1,w0,profile_94,663418.000000,2048,86517.000000,1,COMPLETED_SUCCESSFULLY,1138282.042750,86516.000000,1224798.042750,474864.042750,561380.042750,6.488742,0-2047,-1.000000,""
132_0_1,w0,profile_132,1119218.000000,256,21600.000000,1,COMPLETED_SUCCESSFULLY,1224801.045000,21552.000000,1246353.045000,105583.045000,127135.045000,5.898991,4096-4351,-1.000000,""
96_0_1,w0,profile_96,663621.000000,2048,86559.000000,1,COMPLETED_SUCCESSFULLY,1175916.045000,86558.000000,1262474.045000,512295.045000,598853.045000,6.918518,2048-4095,-1.000000,""
97_0_1,w0,profile_97,663679.000000,2048,86400.000000,1,COMPLETED_SUCCESSFULLY,1224801.044400,43539.000000,1268340.044400,561122.044400,604661.044400,13.887803,0-2047,-1.000000,""
133_0_1,w0,profile_133,1119221.000000,256,21600.000000,1,COMPLETED_SUCCESSFULLY,1262477.047850,21591.000000,1284068.047850,143256.047850,164847.047850,7.634989,4088-4343,-1.000000,""
134_0_1,w0,profile_134,1119233.000000,256,21600.000000,1,COMPLETED_SUCCESSFULLY,1268343.047250,21537.000000,1289880.047250,149110.047250,170647.047250,7.923436,1826-2047 4344-4377,-1.000000,""
110_0_1,w0,profile_110,767508.000000,802,32446.000000,1,COMPLETED_SUCCESSFULLY,1268343.046650,32445.000000,1300788.046650,500835.046650,533280.046650,16.436432,1024-1825,-1.000000,""
105_0_1,w0,profile_105,733550.000000,1024,57793.000000,1,COMPLETED_SUCCESSFULLY,1262477.047250,57792.000000,1320269.047250,528927.047250,586719.047250,10.152254,3064-4087,-1.000000,""
111_0_1,w0,profile_111,767530.000000,802,32538.000000,1,COMPLETED_SUCCESSFULLY,1300791.048300,32537.000000,1333328.048300,533261.048300,565798.048300,17.389374,1024-1825,-1.000000,""
106_0_1,w0,profile_106,743114.000000,1024,72117.000000,1,COMPLETED_SUCCESSFULLY,1268343.046050,72116.000000,1340459.046050,525229.046050,597345.046050,8.283114,0-1023,-1.000000,""
135_0_1,w0,profile_135,1119237.000000,256,21608.000000,1,COMPLETED_SUCCESSFULLY,1320272.049500,21607.000000,1341879.049500,201035.049500,222642.049500,10.304163,3644-3899,-1.000000,""
136_0_1,w0,profile_136,1119240.000000,256,21636.000000,1,COMPLETED_SUCCESSFULLY,1320272.050100,21635.000000,1341907.050100,201032.050100,222667.050100,10.291983,3900-4155,-1.000000,""
102_0_1,w0,profile_102,670305.000000,1016,86546.000000,1,COMPLETED_SUCCESSFULLY,1262477.046650,86545.000000,1349022.046650,592172.046650,678717.046650,7.842360,2048-3063,-1.000000,""
112_0_1,w0,profile_112,767600.000000,802,32449.000000,1,COMPLETED_SUCCESSFULLY,1320272.048900,32448.000000,1352720.048900,552672.048900,585120.048900,18.032546,1826-2047 3064-3643,-1.000000,""
137_0_1,w0,profile_137,1146424.000000,256,21666.000000,1,COMPLETED_SUCCESSFULLY,1352723.051750,21665.000000,1374388.051750,206299.051750,227964.051750,10.522227,4075-4330,-1.000000,""
122_0_1,w0,profile_122,939575.000000,201,68400.000000,1,COMPLETED_SUCCESSFULLY,1352723.051150,40712.000000,1393435.051150,413148.051150,453860.051150,11.148066,3874-4074,-1.000000,""
140_0_1,w0,profile_140,1187409.000000,256,21626.000000,1,COMPLETED_SUCCESSFULLY,1374391.053400,21625.000000,1396016.053400,186982.053400,208607.053400,9.646569,4075-4330,-1.000000,""
144_0_1,w0,profile_144,1283631.000000,256,21711.000000,1,COMPLETED_SUCCESSFULLY,1393438.052800,21710.000000,1415148.052800,109807.052800,131517.052800,6.057902,3874-4074 4331-4385,-1.000000,""
113_0_1,w0,profile_113,768687.000000,3072,86400.000000,1,COMPLETED_SUCCESSFULLY,1349025.048300,67998.000000,1417023.048300,580338.048300,648336.048300,9.534634,0-1825 2048-3063 3644-3873,-1.000000,""
145_0_1,w0,profile_145,1283632.000000,256,21662.000000,1,COMPLETED_SUCCESSFULLY,1396019.055050,21661.000000,1417680.055050,112387.055050,134048.055050,6.188452,4075-4330,-1.000000,""
118_0_1,w0,profile_118,793614.000000,802,21629.000000,1,COMPLETED_SUCCESSFULLY,1417026.049950,21628.000000,1438654.049950,623412.049950,645040.049950,29.824304,0-801,-1.000000,""
158_0_1,w0,profile_158,1373686.000000,256,21139.000000,1,COMPLETED_SUCCESSFULLY,1417683.056700,21138.000000,1438821.056700,43997.056700,65135.056700,3.081420,3916-4171,-1.000000,""
117_0_1,w0,profile_117,783948.000000,802,86523.000000,1,COMPLETED_SUCCESSFULLY,1352723.050550,86522.000000,1439245.050550,568775.050550,655297.050550,7.573762,1826-2047 3064-3643,-1.000000,""
119_0_1,w0,profile_119,823714.000000,1200,86400.000000,1,COMPLETED_SUCCESSFULLY,1417026.050550,85748.000000,1502774.050550,593312.050550,679060.050550,7.919252,802-1825 2048-2223,-1.000000,""
121_0_1,w0,profile_121,889807.000000,1112,86543.000000,1,COMPLETED_SUCCESSFULLY,1417026.051150,86542.000000,1503568.051150,527219.051150,613761.051150,7.092060,2224-3063 3644-3915,-1.000000,""
123_0_1,w0,profile_123,947045.000000,2048,86400.000000,1,COMPLETED_SUCCESSFULLY,1439248.052200,85049.000000,1524297.052200,492203.052200,577252.052200,6.787288,0-801 1826-2047 3064-3643 3916-4359,-1.000000,""
146_0_1,w0,profile_146,1283634.000000,256,21671.000000,1,COMPLETED_SUCCESSFULLY,1503571.053400,21670.000000,1525241.053400,219937.053400,241607.053400,11.149379,3652-3907,-1.000000,""
127_0_1,w0,profile_127,967236.000000,802,21647.000000,1,COMPLETED_SUCCESSFULLY,1524300.054450,21646.000000,1545946.054450,557064.054450,578710.054450,26.735196,512-801 1826-2047 3064-3353,-1.000000,""
147_0_1,w0,profile_147,1283635.000000,256,21674.000000,1,COMPLETED_SUCCESSFULLY,1525244.055050,21673.000000,1546917.055050,241609.055050,263282.055050,12.147929,3652-3907,-1.000000,""
126_0_1,w0,profile_126,961207.000000,512,32451.000000,1,COMPLETED_SUCCESSFULLY,1524300.053850,32450.000000,1556750.053850,563093.053850,595543.053850,18.352636,0-511,-1.000000,""
130_0_1,w0,profile_130,1069042.000000,512,32573.000000,1,COMPLETED_SUCCESSFULLY,1524300.055650,32572.000000,1556872.055650,455258.055650,487830.055650,14.976976,3605-3643 3908-4380,-1.000000,""
148_0_1,w0,profile_148,1283646.000000,256,21680.000000,1,COMPLETED_SUCCESSFULLY,1545949.056700,21679.000000,1567628.056700,262303.056700,283982.056700,13.099408,3064-3319,-1.000000,""
149_0_1,w0,profile_149,1283649.000000,256,21764.000000,1,COMPLETED_SUCCESSFULLY,1546920.056700,21763.000000,1568683.056700,263271.056700,285034.056700,13.097186,3320-3353 3652-3873,-1.000000,""
138_0_1,w0,profile_138,1158678.000000,512,32539.000000,1,COMPLETED_SUCCESSFULLY,1545949.056100,32538.000000,1578487.056100,387271.056100,419809.056100,12.902116,512-801 1826-2047,-1.000000,""
151_0_1,w0,profile_151,1283654.000000,256,21642.000000,1,COMPLETED_SUCCESSFULLY,1556875.057900,21641.000000,1578516.057900,273221.057900,294862.057900,13.625159,4091-4346,-1.000000,""
150_0_1,w0,profile_150,1283651.000000,256,21690.000000,1,COMPLETED_SUCCESSFULLY,1556875.057300,21689.000000,1578564.057300,273224.057300,294913.057300,13.597356,3605-3643 3874-4090,-1.000000,""
124_0_1,w0,profile_124,947055.000000,2048,86400.000000,1,COMPLETED_SUCCESSFULLY,1503571.052800,85057.000000,1588628.052800,556516.052800,641573.052800,7.542860,802-1825 2048-3063 3644-3651,-1.000000,""
142_0_1,w0,profile_142,1249494.000000,512,32521.000000,1,COMPLETED_SUCCESSFULLY,1556753.055500,32520.000000,1589273.055500,307259.055500,339779.055500,10.448310,0-511,-1.000000,""
152_0_1,w0,profile_152,1283656.000000,256,21792.000000,1,COMPLETED_SUCCESSFULLY,1567631.058350,21791.000000,1589422.058350,283975.058350,305766.058350,14.031759,3064-3319,-1.000000,""
167_0_1,w0,profile_167,1503630.000000,256,21132.000000,1,COMPLETED_SUCCESSFULLY,1568686.058350,21131.000000,1589817.058350,65056.058350,86187.058350,4.078702,3320-3353 3652-3873,-1.000000,""
160_0_1,w0,profile_160,1383014.000000,275,21600.000000,1,COMPLETED_SUCCESSFULLY,1589820.060000,21027.000000,1610847.060000,206806.060000,227833.060000,10.835262,3313-3353 3652-3873 4347-4358,-1.000000,""
153_0_1,w0,profile_153,1283668.000000,256,21756.000000,1,COMPLETED_SUCCESSFULLY,1589276.057750,21755.000000,1611031.057750,305608.057750,327363.057750,15.047716,249-504,-1.000000,""
156_0_1,w0,profile_156,1320005.000000,256,21680.000000,1,COMPLETED_SUCCESSFULLY,1589425.060000,21679.000000,1611104.060000,269420.060000,291099.060000,13.427698,505-511 3064-3312,-1.000000,""
141_0_1,w0,profile_141,1209989.000000,249,68400.000000,1,COMPLETED_SUCCESSFULLY,1589276.057150,34193.000000,1623469.057150,379287.057150,413480.057150,12.092535,0-248,-1.000000,""
169_0_1,w0,profile_169,1547233.000000,256,36000.000000,1,COMPLETED_SUCCESSFULLY,1610850.061650,21317.000000,1632167.061650,63617.061650,84934.061650,3.984335,3313-3353 3652-3866,-1.000000,""
164_0_1,w0,profile_164,1462457.000000,400,32554.000000,1,COMPLETED_SUCCESSFULLY,1611107.061650,32553.000000,1643660.061650,148650.061650,181203.061650,5.566401,249-511 3064-3200,-1.000000,""
165_0_1,w0,profile_165,1462640.000000,400,24050.000000,1,COMPLETED_SUCCESSFULLY,1623472.058800,24049.000000,1647521.058800,160832.058800,184881.058800,7.687682,0-248 3201-3312 3867-3873 4347-4378,-1.000000,""
128_0_1,w0,profile_128,1006217.000000,251,129709.000000,1,COMPLETED_SUCCESSFULLY,1524300.055050,129708.000000,1654008.055050,518083.055050,647791.055050,4.994226,3354-3604,-1.000000,""
129_0_1,w0,profile_129,1008832.000000,3072,72000.000000,1,COMPLETED_SUCCESSFULLY,1588631.054450,70415.000000,1659046.054450,579799.054450,650214.054450,9.234028,512-3063 3605-3651 3874-4346,-1.000000,""
157_0_1,w0,profile_157,1371858.000000,1280,34200.000000,1,COMPLETED_SUCCESSFULLY,1659049.056700,27063.000000,1686112.056700,287191.056700,314254.056700,11.611945,3072-4351,-1.000000,""
131_0_1,w0,profile_131,1116357.000000,3072,79200.000000,1,COMPLETED_SUCCESSFULLY,1659049.056100,65876.000000,1724925.056100,542692.056100,608568.056100,9.238085,0-3071,-1.000000,""
180_0_1,w0,profile_180,1705737.000000,5,21647.000000,1,COMPLETED_SUCCESSFULLY,1705737.001800,21646.000000,1727383.001800,0.001800,21646.001800,1.000000,4096-4100,-1.000000,""
182_0_1,w0,profile_182,1709403.000000,5,21656.000000,1,COMPLETED_SUCCESSFULLY,1709403.001800,21655.000000,1731058.001800,0.001800,21655.001800,1.000000,4101-4105,-1.000000,""
183_0_1,w0,profile_183,1709502.000000,5,21652.000000,1,COMPLETED_SUCCESSFULLY,1709502.001800,21651.000000,1731153.001800,0.001800,21651.001800,1.000000,4106-4110,-1.000000,""
175_0_1,w0,profile_175,1623359.000000,1024,50400.000000,1,COMPLETED_SUCCESSFULLY,1686115.058350,46850.000000,1732965.058350,62756.058350,109606.058350,2.339510,3072-4095,-1.000000,""
187_0_1,w0,profile_187,1733833.000000,5,21600.000000,1,COMPLETED_SUCCESSFULLY,1733833.001800,20886.000000,1754719.001800,0.001800,20886.001800,1.000000,4302-4306,-1.000000,""
186_0_1,w0,profile_186,1732540.000000,5,21754.000000,1,COMPLETED_SUCCESSFULLY,1732968.061200,21753.000000,1754721.061200,428.061200,22181.061200,1.019678,4297-4301,-1.000000,""
155_0_1,w0,profile_155,1293861.000000,201,86400.000000,1,COMPLETED_SUCCESSFULLY,1732968.060600,53569.000000,1786537.060600,439107.060600,492676.060600,9.197037,4096-4296,-1.000000,""
139_0_1,w0,profile_139,1187333.000000,4096,86400.000000,1,COMPLETED_SUCCESSFULLY,1732968.060000,59418.000000,1792386.060000,545635.060000,605053.060000,10.182993,0-4095,-1.000000,""
184_0_1,w0,profile_184,1716757.000000,256,21649.000000,1,COMPLETED_SUCCESSFULLY,1786540.062250,21648.000000,1808188.062250,69783.062250,91431.062250,4.223534,4096-4351,-1.000000,""
154_0_1,w0,profile_154,1286465.000000,201,108000.000000,1,COMPLETED_SUCCESSFULLY,1792389.062250,21097.000000,1813486.062250,505924.062250,527021.062250,24.980853,1024-1224,-1.000000,""
188_0_1,w0,profile_188,1738611.000000,248,32400.000000,1,COMPLETED_SUCCESSFULLY,1792389.065250,26731.000000,1819120.065250,53778.065250,80509.065250,3.011824,3876-4095 4352-4379,-1.000000,""
159_0_1,w0,profile_159,1374167.000000,2048,36000.000000,1,COMPLETED_SUCCESSFULLY,1792389.062850,32774.000000,1825163.062850,418222.062850,450996.062850,13.760788,1225-3272,-1.000000,""
162_0_1,w0,profile_162,1390866.000000,201,72000.000000,1,COMPLETED_SUCCESSFULLY,1792389.064050,41637.000000,1834026.064050,401523.064050,443160.064050,10.643420,3474-3674,-1.000000,""
163_0_1,w0,profile_163,1456518.000000,201,57600.000000,1,COMPLETED_SUCCESSFULLY,1792389.064650,46023.000000,1838412.064650,335871.064650,381894.064650,8.297896,3675-3875,-1.000000,""
161_0_1,w0,profile_161,1390847.000000,201,86400.000000,1,COMPLETED_SUCCESSFULLY,1792389.063450,52783.000000,1845172.063450,401542.063450,454325.063450,8.607413,3273-3473,-1.000000,""
193_0_1,w0,profile_193,1822575.000000,512,32400.000000,1,COMPLETED_SUCCESSFULLY,1838415.066300,30673.000000,1869088.066300,15840.066300,46513.066300,1.516417,3474-3875 4190-4299,-1.000000,""
143_0_1,w0,profile_143,1269010.000000,1024,86400.000000,1,COMPLETED_SUCCESSFULLY,1792389.061650,84221.000000,1876610.061650,523379.061650,607600.061650,7.214353,0-1023,-1.000000,""
195_0_1,w0,profile_195,1882079.000000,1024,25357.000000,1,COMPLETED_SUCCESSFULLY,1882079.001800,25356.000000,1907435.001800,0.001800,25356.001800,1.000000,0-1023,-1.000000,""
166_0_1,w0,profile_166,1478755.000000,1200,86400.000000,1,COMPLETED_SUCCESSFULLY,1825166.064500,85750.000000,1910916.064500,346411.064500,432161.064500,5.039779,1024-2223,-1.000000,""
168_0_1,w0,profile_168,1536878.000000,1112,86477.000000,1,COMPLETED_SUCCESSFULLY,1825166.065100,86476.000000,1911642.065100,288288.065100,374764.065100,4.333735,2224-3272 3876-3938,-1.000000,""
171_0_1,w0,profile_171,1616535.000000,2048,25332.000000,1,COMPLETED_SUCCESSFULLY,1910919.066150,25331.000000,1936250.066150,294384.066150,319715.066150,12.621494,0-2047,-1.000000,""
172_0_1,w0,profile_172,1617228.000000,249,129600.000000,1,COMPLETED_SUCCESSFULLY,1910919.066750,26628.000000,1937547.066750,293691.066750,320319.066750,12.029408,2048-2223 3273-3345,-1.000000,""
170_0_1,w0,profile_170,1569923.000000,251,129600.000000,1,COMPLETED_SUCCESSFULLY,1825166.065700,128041.000000,1953207.065700,255243.065700,383284.065700,2.993448,3939-4189,-1.000000,""
198_0_1,w0,profile_198,1899677.000000,201,57600.000000,1,COMPLETED_SUCCESSFULLY,1936253.069600,21060.000000,1957313.069600,36576.069600,57636.069600,2.736755,3522-3722,-1.000000,""
194_0_1,w0,profile_194,1881999.000000,1024,36056.000000,1,COMPLETED_SUCCESSFULLY,1936253.068400,36055.000000,1972308.068400,54254.068400,90309.068400,2.504759,1024-2047,-1.000000,""
173_0_1,w0,profile_173,1622498.000000,1024,86400.000000,1,COMPLETED_SUCCESSFULLY,1911645.066750,63531.000000,1975176.066750,289147.066750,352678.066750,5.551275,2224-3247,-1.000000,""
197_0_1,w0,profile_197,1897897.000000,201,43270.000000,1,COMPLETED_SUCCESSFULLY,1936253.069000,43269.000000,1979522.069000,38356.069000,81625.069000,1.886456,3248-3272 3346-3521,-1.000000,""
174_0_1,w0,profile_174,1623282.000000,1024,79200.000000,1,COMPLETED_SUCCESSFULLY,1936253.067800,62258.000000,1998511.067800,312971.067800,375229.067800,6.027002,0-1023,-1.000000,""
204_0_1,w0,profile_204,1994653.000000,512,21650.000000,1,COMPLETED_SUCCESSFULLY,1998514.069450,21649.000000,2020163.069450,3861.069450,25510.069450,1.178349,0-511,-1.000000,""
201_0_1,w0,profile_201,1967361.000000,201,43337.000000,1,COMPLETED_SUCCESSFULLY,1979525.070650,43336.000000,2022861.070650,12164.070650,55500.070650,1.280692,3248-3272 3346-3521,-1.000000,""
176_0_1,w0,profile_176,1624150.000000,3072,75734.000000,1,COMPLETED_SUCCESSFULLY,1975179.068400,75733.000000,2050912.068400,351029.068400,426762.068400,5.635087,1024-3247 3273-3345 3522-4296,-1.000000,""
179_0_1,w0,profile_179,1641433.000000,875,86400.000000,1,COMPLETED_SUCCESSFULLY,2050915.071250,22879.000000,2073794.071250,409482.071250,432361.071250,18.897726,3072-3946,-1.000000,""
177_0_1,w0,profile_177,1629743.000000,2048,54000.000000,1,COMPLETED_SUCCESSFULLY,2050915.070050,43272.000000,2094187.070050,421172.070050,464444.070050,10.733132,0-2047,-1.000000,""
178_0_1,w0,profile_178,1629931.000000,1024,72000.000000,1,COMPLETED_SUCCESSFULLY,2050915.070650,68298.000000,2119213.070650,420984.070650,489282.070650,7.163930,2048-3071,-1.000000,""
181_0_1,w0,profile_181,1708273.000000,1024,86400.000000,1,COMPLETED_SUCCESSFULLY,2073797.072900,48635.000000,2122432.072900,365524.072900,414159.072900,8.515659,3072-4095,-1.000000,""
185_0_1,w0,profile_185,1718957.000000,2048,66000.000000,1,COMPLETED_SUCCESSFULLY,2094190.071700,50887.000000,2145077.071700,375233.071700,426120.071700,8.373849,0-2047,-1.000000,""
206_0_1,w0,profile_206,2102491.000000,512,32425.000000,1,COMPLETED_SUCCESSFULLY,2119216.072300,32424.000000,2151640.072300,16725.072300,49149.072300,1.515824,2048-2559,-1.000000,""
207_0_1,w0,profile_207,2102493.000000,512,32465.000000,1,COMPLETED_SUCCESSFULLY,2119216.072900,32464.000000,2151680.072900,16723.072900,49187.072900,1.515127,2560-3071,-1.000000,""
202_0_1,w0,profile_202,1986286.000000,201,57600.000000,1,COMPLETED_SUCCESSFULLY,2151643.074550,40331.000000,2191974.074550,165357.074550,205688.074550,5.099999,3760-3960,-1.000000,""
203_0_1,w0,profile_203,1986306.000000,201,57600.000000,1,COMPLETED_SUCCESSFULLY,2151683.074550,42912.000000,2194595.074550,165377.074550,208289.074550,4.853865,2560-2760,-1.000000,""
205_0_1,w0,profile_205,2056914.000000,201,57600.000000,1,COMPLETED_SUCCESSFULLY,2151683.075150,46351.000000,2198034.075150,94769.075150,141120.075150,3.044596,2761-2961,-1.000000,""
210_0_1,w0,profile_210,2182923.000000,256,21688.000000,1,COMPLETED_SUCCESSFULLY,2182923.001800,21687.000000,2204610.001800,0.001800,21687.001800,1.000000,2962-3071 3961-4095 4345-4355,-1.000000,""
211_0_1,w0,profile_211,2190889.000000,256,21630.000000,1,COMPLETED_SUCCESSFULLY,2194598.076200,21629.000000,2216227.076200,3709.076200,25338.076200,1.171486,2560-2760 3760-3814,-1.000000,""
189_0_1,w0,profile_189,1739110.000000,249,129709.000000,1,COMPLETED_SUCCESSFULLY,2094190.072300,129708.000000,2223898.072300,355080.072300,484788.072300,3.737534,4096-4344,-1.000000,""
190_0_1,w0,profile_190,1805836.000000,1200,86400.000000,1,COMPLETED_SUCCESSFULLY,2145080.073350,85616.000000,2230696.073350,339244.073350,424860.073350,4.962391,0-1199,-1.000000,""
191_0_1,w0,profile_191,1820884.000000,2048,86400.000000,1,COMPLETED_SUCCESSFULLY,2151643.073950,85067.000000,2236710.073950,330759.073950,415826.073950,4.888218,1200-2559 3072-3759,-1.000000,""
209_0_1,w0,profile_209,2177778.000000,802,21699.000000,1,COMPLETED_SUCCESSFULLY,2236713.075600,21698.000000,2258411.075600,58935.075600,80633.075600,3.716152,1200-2001,-1.000000,""
212_0_1,w0,profile_212,2210084.000000,1024,21764.000000,1,COMPLETED_SUCCESSFULLY,2236713.076200,21763.000000,2258476.076200,26629.076200,48392.076200,2.223594,2002-2559 3072-3537,-1.000000,""
215_0_1,w0,profile_215,2264338.000000,802,32450.000000,1,COMPLETED_SUCCESSFULLY,2264338.001800,32449.000000,2296787.001800,0.001800,32449.001800,1.000000,1200-2001,-1.000000,""
216_0_1,w0,profile_216,2264418.000000,802,32469.000000,1,COMPLETED_SUCCESSFULLY,2264418.001800,32468.000000,2296886.001800,0.001800,32468.001800,1.000000,2002-2559 3072-3315,-1.000000,""
192_0_1,w0,profile_192,1820901.000000,2048,86400.000000,1,COMPLETED_SUCCESSFULLY,2230699.075000,85227.000000,2315926.075000,409798.075000,495025.075000,5.808313,0-1199 2560-3071 3760-4095,-1.000000,""
196_0_1,w0,profile_196,1883348.000000,4000,86400.000000,1,COMPLETED_SUCCESSFULLY,2315929.076650,56275.000000,2372204.076650,432581.076650,488856.076650,8.686914,0-3999,-1.000000,""
200_0_1,w0,profile_200,1955570.000000,2048,86400.000000,1,COMPLETED_SUCCESSFULLY,2372207.078900,29852.000000,2402059.078900,416637.078900,446489.078900,14.956756,2048-4095,-1.000000,""
199_0_1,w0,profile_199,1955530.000000,2048,86400.000000,1,COMPLETED_SUCCESSFULLY,2372207.078300,51342.000000,2423549.078300,416677.078300,468019.078300,9.115716,0-2047,-1.000000,""
225_0_1,w0,profile_225,2406918.000000,256,21655.000000,1,COMPLETED_SUCCESSFULLY,2423552.081150,21654.000000,2445206.081150,16634.081150,38288.081150,1.768176,1604-1859,-1.000000,""
218_0_1,w0,profile_218,2264556.000000,802,32450.000000,1,COMPLETED_SUCCESSFULLY,2423552.080550,32449.000000,2456001.080550,158996.080550,191445.080550,5.899876,802-1603,-1.000000,""
217_0_1,w0,profile_217,2264497.000000,802,32536.000000,1,COMPLETED_SUCCESSFULLY,2423552.079950,32535.000000,2456087.079950,159055.079950,191590.079950,5.888738,0-801,-1.000000,""
208_0_1,w0,profile_208,2125646.000000,1024,86400.000000,1,COMPLETED_SUCCESSFULLY,2402062.080550,73979.000000,2476041.080550,276416.080550,350395.080550,4.736413,2048-3071,-1.000000,""
213_0_1,w0,profile_213,2210097.000000,1024,84000.000000,1,COMPLETED_SUCCESSFULLY,2402062.081150,79679.000000,2481741.081150,191965.081150,271644.081150,3.409231,3072-4095,-1.000000,""
219_0_1,w0,profile_219,2269216.000000,802,32433.000000,1,COMPLETED_SUCCESSFULLY,2456004.082200,32432.000000,2488436.082200,186788.082200,219220.082200,6.759376,802-1603,-1.000000,""
224_0_1,w0,profile_224,2404691.000000,802,32457.000000,1,COMPLETED_SUCCESSFULLY,2488439.083850,32456.000000,2520895.083850,83748.083850,116204.083850,3.580358,802-1603,-1.000000,""
214_0_1,w0,profile_214,2262761.000000,249,129785.000000,1,COMPLETED_SUCCESSFULLY,2402062.081750,129784.000000,2531846.081750,139301.081750,269085.081750,2.073330,4096-4344,-1.000000,""
229_0_1,w0,profile_229,2473038.000000,256,21657.000000,1,COMPLETED_SUCCESSFULLY,2520898.085500,21656.000000,2542554.085500,47860.085500,69516.085500,3.210015,802-1057,-1.000000,""
230_0_1,w0,profile_230,2507302.000000,275,21677.000000,1,COMPLETED_SUCCESSFULLY,2520898.086100,21676.000000,2542574.086100,13596.086100,35272.086100,1.627241,1058-1332,-1.000000,""
220_0_1,w0,profile_220,2306640.000000,1112,86510.000000,1,COMPLETED_SUCCESSFULLY,2456090.081600,86509.000000,2542599.081600,149450.081600,235959.081600,2.727567,0-801 1604-1913,-1.000000,""
221_0_1,w0,profile_221,2328786.000000,1024,72077.000000,1,COMPLETED_SUCCESSFULLY,2476044.082200,72076.000000,2548120.082200,147258.082200,219334.082200,3.043095,1914-2937,-1.000000,""
231_0_1,w0,profile_231,2522765.000000,320,21681.000000,1,COMPLETED_SUCCESSFULLY,2542602.085650,21680.000000,2564282.085650,19837.085650,41517.085650,1.914995,1803-1913 4050-4258,-1.000000,""
222_0_1,w0,profile_222,2341325.000000,1112,86523.000000,1,COMPLETED_SUCCESSFULLY,2481744.082800,86522.000000,2568266.082800,140419.082800,226941.082800,2.622929,2938-4049,-1.000000,""
227_0_1,w0,profile_227,2414670.000000,201,57600.000000,1,COMPLETED_SUCCESSFULLY,2542602.084450,41861.000000,2584463.084450,127932.084450,169793.084450,4.056116,1401-1601,-1.000000,""
232_0_1,w0,profile_232,2565561.000000,260,21604.000000,1,COMPLETED_SUCCESSFULLY,2565561.001800,21603.000000,2587164.001800,0.001800,21603.001800,1.000000,1803-2062,-1.000000,""
228_0_1,w0,profile_228,2472146.000000,201,57600.000000,1,COMPLETED_SUCCESSFULLY,2542602.085050,46407.000000,2589009.085050,70456.085050,116863.085050,2.518221,1602-1802,-1.000000,""
226_0_1,w0,profile_226,2414594.000000,201,57600.000000,1,COMPLETED_SUCCESSFULLY,2542602.083850,50242.000000,2592844.083850,128008.083850,178250.083850,3.547830,1200-1400,-1.000000,""
233_0_1,w0,profile_233,2574883.000000,201,129600.000000,1,COMPLETED_SUCCESSFULLY,2574883.001800,20529.000000,2595412.001800,0.001800,20529.001800,1.000000,2063-2263,-1.000000,""
223_0_1,w0,profile_223,2403683.000000,1200,86400.000000,1,COMPLETED_SUCCESSFULLY,2542602.083250,85601.000000,2628203.083250,138919.083250,224520.083250,2.622868,0-1199,-1.000000,""
237_0_1,w0,profile_237,2604355.000000,201,57600.000000,1,COMPLETED_SUCCESSFULLY,2604355.001800,42119.000000,2646474.001800,0.001800,42119.001800,1.000000,1602-1802,-1.000000,""
236_0_1,w0,profile_236,2604257.000000,201,57600.000000,1,COMPLETED_SUCCESSFULLY,2604257.001800,48165.000000,2652422.001800,0.001800,48165.001800,1.000000,1200-1400,-1.000000,""
234_0_1,w0,profile_234,2578087.000000,1112,86628.000000,1,COMPLETED_SUCCESSFULLY,2578087.001800,86627.000000,2664714.001800,0.001800,86627.001800,1.000000,2264-3375,-1.000000,""
235_0_1,w0,profile_235,2578147.000000,1112,86628.000000,1,COMPLETED_SUCCESSFULLY,2584466.086100,86627.000000,2671093.086100,6319.086100,92946.086100,1.072946,1401-1601 3376-4286,-1.000000,""
238_0_1,w0,profile_238,2656539.000000,201,129600.000000,1,COMPLETED_SUCCESSFULLY,2656539.001800,20590.000000,2677129.001800,0.001800,20590.001800,1.000000,0-200,-1.000000,""
239_0_1,w0,profile_239,2674057.000000,256,21686.000000,1,COMPLETED_SUCCESSFULLY,2674057.001800,21685.000000,2695742.001800,0.001800,21685.001800,1.000000,201-456,-1.000000,""
241_0_1,w0,profile_241,2732791.000000,201,129600.000000,1,COMPLETED_SUCCESSFULLY,2732791.001800,20567.000000,2753358.001800,0.001800,20567.001800,1.000000,4000-4200,-1.000000,""
240_0_1,w0,profile_240,2726472.000000,4000,86400.000000,1,COMPLETED_SUCCESSFULLY,2726472.001800,53125.000000,2779597.001800,0.001800,53125.001800,1.000000,0-3999,-1.000000,""
242_0_1,w0,profile_242,2732891.000000,201,57600.000000,1,COMPLETED_SUCCESSFULLY,2753361.003450,46637.000000,2799998.003450,20470.003450,67107.003450,1.438922,4000-4200,-1.000000,""
243_0_1,w0,profile_243,2755966.000000,201,57600.000000,1,COMPLETED_SUCCESSFULLY,2779600.003450,25073.000000,2804673.003450,23634.003450,48707.003450,1.942608,0-200,-1.000000,""
244_0_1,w0,profile_244,2802809.000000,256,21644.000000,1,COMPLETED_SUCCESSFULLY,2802809.001800,21643.000000,2824452.001800,0.001800,21643.001800,1.000000,201-456,-1.000000,""
245_0_1,w0,profile_245,2824904.000000,640,43200.000000,1,COMPLETED_SUCCESSFULLY,2824904.001800,27343.000000,2852247.001800,0.001800,27343.001800,1.000000,0-639,-1.000000,""
249_0_1,w0,profile_249,2841846.000000,512,32400.000000,1,COMPLETED_SUCCESSFULLY,2841846.001800,30698.000000,2872544.001800,0.001800,30698.001800,1.000000,1091-1602,-1.000000,""
248_0_1,w0,profile_248,2841827.000000,249,72000.000000,1,COMPLETED_SUCCESSFULLY,2841827.001800,31027.000000,2872854.001800,0.001800,31027.001800,1.000000,842-1090,-1.000000,""
252_0_1,w0,profile_252,2851678.000000,256,21710.000000,1,COMPLETED_SUCCESSFULLY,2851678.001800,21709.000000,2873387.001800,0.001800,21709.001800,1.000000,3227-3482,-1.000000,""
250_0_1,w0,profile_250,2842663.000000,512,32400.000000,1,COMPLETED_SUCCESSFULLY,2842663.001800,30729.000000,2873392.001800,0.001800,30729.001800,1.000000,1603-2114,-1.000000,""
246_0_1,w0,profile_246,2831349.000000,201,57600.000000,1,COMPLETED_SUCCESSFULLY,2831349.001800,42592.000000,2873941.001800,0.001800,42592.001800,1.000000,640-840,-1.000000,""
247_0_1,w0,profile_247,2831404.000000,1,43324.000000,1,COMPLETED_SUCCESSFULLY,2831404.001800,43323.000000,2874727.001800,0.001800,43323.001800,1.000000,841,-1.000000,""
251_0_1,w0,profile_251,2846366.000000,1112,86532.000000,1,COMPLETED_SUCCESSFULLY,2846366.001800,86531.000000,2932897.001800,0.001800,86531.001800,1.000000,2115-3226,-1.000000,""
254_0_1,w0,profile_254,2916946.000000,1024,21704.000000,1,COMPLETED_SUCCESSFULLY,2916946.001800,21703.000000,2938649.001800,0.001800,21703.001800,1.000000,201-1224,-1.000000,""
253_0_1,w0,profile_253,2906221.000000,201,57600.000000,1,COMPLETED_SUCCESSFULLY,2906221.001800,47934.000000,2954155.001800,0.001800,47934.001800,1.000000,0-200,-1.000000,""
255_0_1,w0,profile_255,2937015.000000,249,36000.000000,1,COMPLETED_SUCCESSFULLY,2937015.001800,31667.000000,2968682.001800,0.001800,31667.001800,1.000000,1225-1473,-1.000000,""
257_0_1,w0,profile_257,2962421.000000,256,21660.000000,1,COMPLETED_SUCCESSFULLY,2962421.001800,21659.000000,2984080.001800,0.001800,21659.001800,1.000000,0-255,-1.000000,""
256_0_1,w0,profile_256,2937451.000000,201,57600.000000,1,COMPLETED_SUCCESSFULLY,2937451.001800,48532.000000,2985983.001800,0.001800,48532.001800,1.000000,1474-1674,-1.000000,""
258_0_1,w0,profile_258,2994924.000000,364,21727.000000,1,COMPLETED_SUCCESSFULLY,2994924.001800,21726.000000,3016650.001800,0.001800,21726.001800,1.000000,0-363,-1.000000,""
259_0_1,w0,profile_259,2995102.000000,364,21698.000000,1,COMPLETED_SUCCESSFULLY,2995102.001800,21697.000000,3016799.001800,0.001800,21697.001800,1.000000,364-727,-1.000000,""
260_0_1,w0,profile_260,2995772.000000,364,21729.000000,1,COMPLETED_SUCCESSFULLY,2995772.001800,21728.000000,3017500.001800,0.001800,21728.001800,1.000000,728-1091,-1.000000,""
261_0_1,w0,profile_261,3012319.000000,804,57810.000000,1,COMPLETED_SUCCESSFULLY,3012319.001800,57809.000000,3070128.001800,0.001800,57809.001800,1.000000,1092-1895,-1.000000,""
272_0_1,w0,profile_272,3112941.000000,256,21718.000000,1,COMPLETED_SUCCESSFULLY,3112941.001800,21717.000000,3134658.001800,0.001800,21717.001800,1.000000,3514-3769,-1.000000,""
273_0_1,w0,profile_273,3133387.000000,256,21600.000000,1,COMPLETED_SUCCESSFULLY,3133387.001800,21524.000000,3154911.001800,0.001800,21524.001800,1.000000,3770-4025,-1.000000,""
269_0_1,w0,profile_269,3100916.000000,1024,57699.000000,1,COMPLETED_SUCCESSFULLY,3100916.001800,57698.000000,3158614.001800,0.001800,57698.001800,1.000000,2490-3513,-1.000000,""
263_0_1,w0,profile_263,3041779.000000,233,158400.000000,1,COMPLETED_SUCCESSFULLY,3041779.001800,124233.000000,3166012.001800,0.001800,124233.001800,1.000000,233-465,-1.000000,""
262_0_1,w0,profile_262,3041344.000000,233,158400.000000,1,COMPLETED_SUCCESSFULLY,3041344.001800,125036.000000,3166380.001800,0.001800,125036.001800,1.000000,0-232,-1.000000,""
278_0_1,w0,profile_278,3151781.000000,400,24042.000000,1,COMPLETED_SUCCESSFULLY,3151781.001800,24041.000000,3175822.001800,0.001800,24041.001800,1.000000,3514-3769 4026-4169,-1.000000,""
264_0_1,w0,profile_264,3093321.000000,1024,86400.000000,1,COMPLETED_SUCCESSFULLY,3093321.001800,84364.000000,3177685.001800,0.001800,84364.001800,1.000000,466-1489,-1.000000,""
279_0_1,w0,profile_279,3151807.000000,400,24150.000000,1,COMPLETED_SUCCESSFULLY,3154914.003450,24149.000000,3179063.003450,3107.003450,27256.003450,1.128660,3770-4025 4170-4313,-1.000000,""
265_0_1,w0,profile_265,3094233.000000,1000,86400.000000,1,COMPLETED_SUCCESSFULLY,3094233.001800,85607.000000,3179840.001800,0.001800,85607.001800,1.000000,1490-2489,-1.000000,""
282_0_1,w0,profile_282,3182068.000000,256,21717.000000,1,COMPLETED_SUCCESSFULLY,3182068.001800,21716.000000,3203784.001800,0.001800,21716.001800,1.000000,4072-4327,-1.000000,""
275_0_1,w0,profile_275,3151349.000000,500,32442.000000,1,COMPLETED_SUCCESSFULLY,3179843.004050,32441.000000,3212284.004050,28494.004050,60935.004050,1.878333,1990-2489,-1.000000,""
274_0_1,w0,profile_274,3151289.000000,500,32517.000000,1,COMPLETED_SUCCESSFULLY,3179843.003450,32516.000000,3212359.003450,28554.003450,61070.003450,1.878152,1490-1989,-1.000000,""
283_0_1,w0,profile_283,3183864.000000,256,21715.000000,1,COMPLETED_SUCCESSFULLY,3203787.003450,21714.000000,3225501.003450,19923.003450,41637.003450,1.917519,4072-4327,-1.000000,""
266_0_1,w0,profile_266,3094733.000000,2048,84000.000000,1,COMPLETED_SUCCESSFULLY,3177688.003450,52753.000000,3230441.003450,82955.003450,135708.003450,2.572517,0-1489 2490-3047,-1.000000,""
267_0_1,w0,profile_267,3096878.000000,1024,86400.000000,1,COMPLETED_SUCCESSFULLY,3179066.005100,61206.000000,3240272.005100,82188.005100,143394.005100,2.342810,3048-4071,-1.000000,""
276_0_1,w0,profile_276,3151530.000000,500,32468.000000,1,COMPLETED_SUCCESSFULLY,3212287.005700,32467.000000,3244754.005700,60757.005700,93224.005700,2.871346,1990-2489,-1.000000,""
277_0_1,w0,profile_277,3151568.000000,400,32592.000000,1,COMPLETED_SUCCESSFULLY,3212362.005100,32591.000000,3244953.005100,60794.005100,93385.005100,2.865362,1490-1889,-1.000000,""
284_0_1,w0,profile_284,3183865.000000,256,21652.000000,1,COMPLETED_SUCCESSFULLY,3225504.005100,21651.000000,3247155.005100,41639.005100,63290.005100,2.923191,1890-1989 4072-4227,-1.000000,""
286_0_1,w0,profile_286,3183868.000000,256,21704.000000,1,COMPLETED_SUCCESSFULLY,3244757.007950,21703.000000,3266460.007950,60889.007950,82592.007950,3.805557,2246-2489 4228-4239,-1.000000,""
285_0_1,w0,profile_285,3183867.000000,256,21717.000000,1,COMPLETED_SUCCESSFULLY,3244757.007350,21716.000000,3266473.007350,60890.007350,82606.007350,3.803924,1990-2245,-1.000000,""
287_0_1,w0,profile_287,3183869.000000,256,21722.000000,1,COMPLETED_SUCCESSFULLY,3244956.006750,21721.000000,3266677.006750,61087.006750,82808.006750,3.812348,1490-1745,-1.000000,""
288_0_1,w0,profile_288,3183871.000000,256,21892.000000,1,COMPLETED_SUCCESSFULLY,3244956.007350,21891.000000,3266847.007350,61085.007350,82976.007350,3.790416,1746-1889 4240-4351,-1.000000,""
289_0_1,w0,profile_289,3183872.000000,256,21735.000000,1,COMPLETED_SUCCESSFULLY,3247158.006750,21734.000000,3268892.006750,63286.006750,85020.006750,3.911844,1890-1989 4072-4227,-1.000000,""
291_0_1,w0,profile_291,3183874.000000,256,21727.000000,1,COMPLETED_SUCCESSFULLY,3266476.009000,21726.000000,3288202.009000,82602.009000,104328.009000,4.801989,1990-2245,-1.000000,""
290_0_1,w0,profile_290,3183873.000000,256,21755.000000,1,COMPLETED_SUCCESSFULLY,3266463.009600,21754.000000,3288217.009600,82590.009600,104344.009600,4.796544,2246-2489 4228-4239,-1.000000,""
292_0_1,w0,profile_292,3183885.000000,256,21711.000000,1,COMPLETED_SUCCESSFULLY,3266680.008400,21710.000000,3288390.008400,82795.008400,104505.008400,4.813681,1490-1745,-1.000000,""
293_0_1,w0,profile_293,3188121.000000,256,21652.000000,1,COMPLETED_SUCCESSFULLY,3266850.009000,21651.000000,3288501.009000,78729.009000,100380.009000,4.636276,1746-1889 4240-4351,-1.000000,""
298_0_1,w0,profile_298,3255113.000000,256,21655.000000,1,COMPLETED_SUCCESSFULLY,3268895.008400,21654.000000,3290549.008400,13782.008400,35436.008400,1.636465,1890-1989 4072-4227,-1.000000,""
268_0_1,w0,profile_268,3097235.000000,2048,84000.000000,1,COMPLETED_SUCCESSFULLY,3230444.005100,68436.000000,3298880.005100,133209.005100,201645.005100,2.946476,0-1489 2490-3047,-1.000000,""
297_0_1,w0,profile_297,3210567.000000,468,21709.000000,1,COMPLETED_SUCCESSFULLY,3288220.011250,21708.000000,3309928.011250,77653.011250,99361.011250,4.577161,1990-2457,-1.000000,""
270_0_1,w0,profile_270,3101019.000000,1024,86400.000000,1,COMPLETED_SUCCESSFULLY,3240275.006750,81343.000000,3321618.006750,139256.006750,220599.006750,2.711961,3048-4071,-1.000000,""
271_0_1,w0,profile_271,3101544.000000,2048,86400.000000,1,COMPLETED_SUCCESSFULLY,3298883.006750,69160.000000,3368043.006750,197339.006750,266499.006750,3.853369,0-1989 2458-2515,-1.000000,""
280_0_1,w0,profile_280,3170733.000000,2048,86400.000000,1,COMPLETED_SUCCESSFULLY,3321621.008400,81910.000000,3403531.008400,150888.008400,232798.008400,2.842120,1990-2457 2516-4095,-1.000000,""
294_0_1,w0,profile_294,3190066.000000,384,32400.000000,1,COMPLETED_SUCCESSFULLY,3403534.010050,30492.000000,3434026.010050,213468.010050,243960.010050,8.000787,1990-2373,-1.000000,""
295_0_1,w0,profile_295,3195673.000000,512,32400.000000,1,COMPLETED_SUCCESSFULLY,3403534.010650,30728.000000,3434262.010650,207861.010650,238589.010650,7.764547,2374-2457 2516-2943,-1.000000,""
296_0_1,w0,profile_296,3195715.000000,512,32400.000000,1,COMPLETED_SUCCESSFULLY,3403534.011250,30800.000000,3434334.011250,207819.011250,238619.011250,7.747370,2944-3455,-1.000000,""
281_0_1,w0,profile_281,3172918.000000,2048,86400.000000,1,COMPLETED_SUCCESSFULLY,3368046.008400,66462.000000,3434508.008400,195128.008400,261590.008400,3.935933,0-1989 2458-2515,-1.000000,""
299_0_1,w0,profile_299,3561361.000000,802,32543.000000,1,COMPLETED_SUCCESSFULLY,3561361.001800,32542.000000,3593903.001800,0.001800,32542.001800,1.000000,0-801,-1.000000,""
300_0_1,w0,profile_300,3561441.000000,802,32575.000000,1,COMPLETED_SUCCESSFULLY,3561441.001800,32574.000000,3594015.001800,0.001800,32574.001800,1.000000,802-1603,-1.000000,""
302_0_1,w0,profile_302,3564928.000000,802,36000.000000,1,COMPLETED_SUCCESSFULLY,3564928.001800,32732.000000,3597660.001800,0.001800,32732.001800,1.000000,2406-3207,-1.000000,""
303_0_1,w0,profile_303,3565008.000000,802,36000.000000,1,COMPLETED_SUCCESSFULLY,3565008.001800,33965.000000,3598973.001800,0.001800,33965.001800,1.000000,3208-4009,-1.000000,""
301_0_1,w0,profile_301,3564802.000000,802,36142.000000,1,COMPLETED_SUCCESSFULLY,3564802.001800,36141.000000,3600943.001800,0.001800,36141.001800,1.000000,1604-2405,-1.000000,""
304_0_1,w0,profile_304,3565064.000000,802,36120.000000,1,COMPLETED_SUCCESSFULLY,3593906.003450,36119.000000,3630025.003450,28842.003450,64961.003450,1.798527,0-801,-1.000000,""
305_0_1,w0,profile_305,3565163.000000,802,36130.000000,1,COMPLETED_SUCCESSFULLY,3594018.003450,36129.000000,3630147.003450,28855.003450,64984.003450,1.798666,802-1603,-1.000000,""
307_0_1,w0,profile_307,3608942.000000,802,86400.000000,1,COMPLETED_SUCCESSFULLY,3608942.001800,27415.000000,3636357.001800,0.001800,27415.001800,1.000000,1604-2405,-1.000000,""
306_0_1,w0,profile_306,3566395.000000,1024,129000.000000,1,COMPLETED_SUCCESSFULLY,3597663.003450,40164.000000,3637827.003450,31268.003450,71432.003450,1.778508,2406-3207 4010-4231,-1.000000,""
308_0_1,w0,profile_308,3625532.000000,256,21600.000000,1,COMPLETED_SUCCESSFULLY,3625532.001800,20713.000000,3646245.001800,0.001800,20713.001800,1.000000,3208-3463,-1.000000,""
310_0_1,w0,profile_310,3625554.000000,256,21633.000000,1,COMPLETED_SUCCESSFULLY,3625554.001800,21632.000000,3647186.001800,0.001800,21632.001800,1.000000,3720-3975,-1.000000,""
309_0_1,w0,profile_309,3625553.000000,256,21683.000000,1,COMPLETED_SUCCESSFULLY,3625553.001800,21682.000000,3647235.001800,0.001800,21682.001800,1.000000,3464-3719,-1.000000,""
311_0_1,w0,profile_311,3625556.000000,256,21622.000000,1,COMPLETED_SUCCESSFULLY,3630028.005100,21621.000000,3651649.005100,4472.005100,26093.005100,1.206836,0-255,-1.000000,""
313_0_1,w0,profile_313,3625558.000000,256,21628.000000,1,COMPLETED_SUCCESSFULLY,3630028.006300,21627.000000,3651655.006300,4470.006300,26097.006300,1.206686,512-767,-1.000000,""
312_0_1,w0,profile_312,3625557.000000,256,21641.000000,1,COMPLETED_SUCCESSFULLY,3630028.005700,21640.000000,3651668.005700,4471.005700,26111.005700,1.206608,256-511,-1.000000,""
314_0_1,w0,profile_314,3625559.000000,256,21625.000000,1,COMPLETED_SUCCESSFULLY,3630150.005100,21624.000000,3651774.005100,4591.005100,26215.005100,1.212311,768-1023,-1.000000,""
315_0_1,w0,profile_315,3625561.000000,256,21657.000000,1,COMPLETED_SUCCESSFULLY,3630150.005700,21656.000000,3651806.005700,4589.005700,26245.005700,1.211905,1024-1279,-1.000000,""
316_0_1,w0,profile_316,3625562.000000,256,21660.000000,1,COMPLETED_SUCCESSFULLY,3630150.006300,21659.000000,3651809.006300,4588.006300,26247.006300,1.211829,1280-1535,-1.000000,""
317_0_1,w0,profile_317,3625572.000000,256,21661.000000,1,COMPLETED_SUCCESSFULLY,3630150.006900,21660.000000,3651810.006900,4578.006900,26238.006900,1.211358,1536-1603 3976-4009 4232-4385,-1.000000,""
318_0_1,w0,profile_318,3626467.000000,249,72000.000000,1,COMPLETED_SUCCESSFULLY,3636360.003450,39402.000000,3675762.003450,9893.003450,49295.003450,1.251079,1604-1852,-1.000000,""
320_0_1,w0,profile_320,3648022.000000,1024,72000.000000,1,COMPLETED_SUCCESSFULLY,3648022.001800,53671.000000,3701693.001800,0.001800,53671.001800,1.000000,2102-3125,-1.000000,""
321_0_1,w0,profile_321,3683111.000000,249,36000.000000,1,COMPLETED_SUCCESSFULLY,3683111.001800,23023.000000,3706134.001800,0.001800,23023.001800,1.000000,0-248,-1.000000,""
319_0_1,w0,profile_319,3626552.000000,249,129600.000000,1,COMPLETED_SUCCESSFULLY,3636360.004050,75781.000000,3712141.004050,9808.004050,85589.004050,1.129426,1853-2101,-1.000000,""
322_0_1,w0,profile_322,3693553.000000,256,21676.000000,1,COMPLETED_SUCCESSFULLY,3693553.001800,21675.000000,3715228.001800,0.001800,21675.001800,1.000000,249-504,-1.000000,""
325_0_1,w0,profile_325,3702400.000000,1152,27192.000000,1,COMPLETED_SUCCESSFULLY,3702400.001800,27191.000000,3729591.001800,0.001800,27191.001800,1.000000,2986-4137,-1.000000,""
323_0_1,w0,profile_323,3702397.000000,880,36081.000000,1,COMPLETED_SUCCESSFULLY,3702397.001800,36080.000000,3738477.001800,0.001800,36080.001800,1.000000,505-1384,-1.000000,""
324_0_1,w0,profile_324,3702399.000000,1352,48076.000000,1,COMPLETED_SUCCESSFULLY,3702399.001800,48075.000000,3750474.001800,0.001800,48075.001800,1.000000,1385-1852 2102-2985,-1.000000,""
326_0_1,w0,profile_326,3702401.000000,1388,48000.000000,1,COMPLETED_SUCCESSFULLY,3729594.003450,26715.000000,3756309.003450,27193.003450,53908.003450,2.017893,0-504 1853-2101 2986-3619,-1.000000,""
327_0_1,w0,profile_327,3708467.000000,1024,64823.000000,1,COMPLETED_SUCCESSFULLY,3738480.003450,64822.000000,3803302.003450,30013.003450,94835.003450,1.463006,505-1384 3620-3763,-1.000000,""
329_0_1,w0,profile_329,3718287.000000,1024,72000.000000,1,COMPLETED_SUCCESSFULLY,3750477.003450,55510.000000,3805987.003450,32190.003450,87700.003450,1.579896,1385-1852 2102-2657,-1.000000,""
331_0_1,w0,profile_331,3789329.000000,512,32510.000000,1,COMPLETED_SUCCESSFULLY,3789329.001800,32509.000000,3821838.001800,0.001800,32509.001800,1.000000,2779-3290,-1.000000,""
330_0_1,w0,profile_330,3724615.000000,875,86400.000000,1,COMPLETED_SUCCESSFULLY,3756312.005100,80039.000000,3836351.005100,31697.005100,111736.005100,1.396020,0-504 1853-2101 2658-2778,-1.000000,""
332_0_1,w0,profile_332,3808749.000000,512,32400.000000,1,COMPLETED_SUCCESSFULLY,3808749.001800,30812.000000,3839561.001800,0.001800,30812.001800,1.000000,505-1016,-1.000000,""
333_0_1,w0,profile_333,3808996.000000,512,32400.000000,1,COMPLETED_SUCCESSFULLY,3808996.001800,30702.000000,3839698.001800,0.001800,30702.001800,1.000000,1017-1528,-1.000000,""
334_0_1,w0,profile_334,3838172.000000,256,21600.000000,1,COMPLETED_SUCCESSFULLY,3838172.001800,21579.000000,3859751.001800,0.001800,21579.001800,1.000000,0-255,-1.000000,""
328_0_1,w0,profile_328,3716415.000000,249,129701.000000,1,COMPLETED_SUCCESSFULLY,3738480.004050,129700.000000,3868180.004050,22065.004050,151765.004050,1.170123,3764-4012,-1.000000,""
335_0_1,w0,profile_335,3858410.000000,249,72000.000000,1,COMPLETED_SUCCESSFULLY,3858410.001800,24718.000000,3883128.001800,0.001800,24718.001800,1.000000,256-504,-1.000000,""
336_0_1,w0,profile_336,3879575.000000,256,21748.000000,1,COMPLETED_SUCCESSFULLY,3879575.001800,21747.000000,3901322.001800,0.001800,21747.001800,1.000000,0-255,-1.000000,""
337_0_1,w0,profile_337,3899448.000000,468,21600.000000,1,COMPLETED_SUCCESSFULLY,3899448.001800,20084.000000,3919532.001800,0.001800,20084.001800,1.000000,256-723,-1.000000,""
343_0_1,w0,profile_343,3975237.000000,512,25241.000000,1,COMPLETED_SUCCESSFULLY,3975237.001800,25240.000000,4000477.001800,0.001800,25240.001800,1.000000,2634-3145,-1.000000,""
341_0_1,w0,profile_341,3975195.000000,512,25311.000000,1,COMPLETED_SUCCESSFULLY,3975195.001800,25310.000000,4000505.001800,0.001800,25310.001800,1.000000,1610-2121,-1.000000,""
344_0_1,w0,profile_344,3975269.000000,512,25283.000000,1,COMPLETED_SUCCESSFULLY,3975269.001800,25282.000000,4000551.001800,0.001800,25282.001800,1.000000,3146-3657,-1.000000,""
342_0_1,w0,profile_342,3975216.000000,512,25340.000000,1,COMPLETED_SUCCESSFULLY,3975216.001800,25339.000000,4000555.001800,0.001800,25339.001800,1.000000,2122-2633,-1.000000,""
345_0_1,w0,profile_345,3975329.000000,512,25267.000000,1,COMPLETED_SUCCESSFULLY,3975329.001800,25266.000000,4000595.001800,0.001800,25266.001800,1.000000,3658-4169,-1.000000,""
338_0_1,w0,profile_338,3959368.000000,249,72000.000000,1,COMPLETED_SUCCESSFULLY,3959368.001800,67821.000000,4027189.001800,0.001800,67821.001800,1.000000,0-248,-1.000000,""
339_0_1,w0,profile_339,3959693.000000,249,129600.000000,1,COMPLETED_SUCCESSFULLY,3959693.001800,75699.000000,4035392.001800,0.001800,75699.001800,1.000000,249-497,-1.000000,""
346_0_1,w0,profile_346,3988615.000000,1024,36056.000000,1,COMPLETED_SUCCESSFULLY,4000508.003450,36055.000000,4036563.003450,11893.003450,47948.003450,1.329857,1610-2121 2634-3145,-1.000000,""
347_0_1,w0,profile_347,3999687.000000,1024,39263.000000,1,COMPLETED_SUCCESSFULLY,4000558.003450,39262.000000,4039820.003450,871.003450,40133.003450,1.022184,2122-2633 3146-3657,-1.000000,""
340_0_1,w0,profile_340,3971790.000000,1112,86524.000000,1,COMPLETED_SUCCESSFULLY,3971790.001800,86523.000000,4058313.001800,0.001800,86523.001800,1.000000,498-1609,-1.000000,""
351_0_1,w0,profile_351,4039153.000000,5,79200.000000,1,COMPLETED_SUCCESSFULLY,4039823.005700,22822.000000,4062645.005700,670.005700,23492.005700,1.029358,3146-3150,-1.000000,""
352_0_1,w0,profile_352,4041975.000000,256,21663.000000,1,COMPLETED_SUCCESSFULLY,4041975.001800,21662.000000,4063637.001800,0.001800,21662.001800,1.000000,3151-3406,-1.000000,""
350_0_1,w0,profile_350,4038216.000000,512,32400.000000,1,COMPLETED_SUCCESSFULLY,4039823.005100,31332.000000,4071155.005100,1607.005100,32939.005100,1.051290,2122-2633,-1.000000,""
353_0_1,w0,profile_353,4046181.000000,512,28841.000000,1,COMPLETED_SUCCESSFULLY,4058316.003450,28840.000000,4087156.003450,12135.003450,40975.003450,1.420770,498-1009,-1.000000,""
354_0_1,w0,profile_354,4069987.000000,512,32400.000000,1,COMPLETED_SUCCESSFULLY,4069987.001800,30774.000000,4100761.001800,0.001800,30774.001800,1.000000,1010-1521,-1.000000,""
355_0_1,w0,profile_355,4073684.000000,468,32470.000000,1,COMPLETED_SUCCESSFULLY,4073684.001800,32469.000000,4106153.001800,0.001800,32469.001800,1.000000,1522-1609 2122-2501,-1.000000,""
356_0_1,w0,profile_356,4084538.000000,1024,20023.000000,1,COMPLETED_SUCCESSFULLY,4087159.005100,20022.000000,4107181.005100,2621.005100,22643.005100,1.130906,498-1009 2502-2633 3146-3525,-1.000000,""
348_0_1,w0,profile_348,4034198.000000,1112,86493.000000,1,COMPLETED_SUCCESSFULLY,4035395.003450,86492.000000,4121887.003450,1197.003450,87689.003450,1.013839,0-497 3658-4271,-1.000000,""
349_0_1,w0,profile_349,4034297.000000,1112,86535.000000,1,COMPLETED_SUCCESSFULLY,4036566.005100,86534.000000,4123100.005100,2269.005100,88803.005100,1.026221,1610-2121 2634-3145 4272-4359,-1.000000,""
357_0_1,w0,profile_357,4117985.000000,249,79200.000000,1,COMPLETED_SUCCESSFULLY,4117985.001800,25975.000000,4143960.001800,0.001800,25975.001800,1.000000,498-746,-1.000000,""
358_0_1,w0,profile_358,4122200.000000,1112,86400.000000,1,COMPLETED_SUCCESSFULLY,4122200.001800,36390.000000,4158590.001800,0.001800,36390.001800,1.000000,0-497 747-1360,-1.000000,""
359_0_1,w0,profile_359,4156441.000000,249,75600.000000,1,COMPLETED_SUCCESSFULLY,4156441.001800,54588.000000,4211029.001800,0.001800,54588.001800,1.000000,498-746,-1.000000,""
360_0_1,w0,profile_360,4157170.000000,875,86400.000000,1,COMPLETED_SUCCESSFULLY,4157170.001800,78536.000000,4235706.001800,0.001800,78536.001800,1.000000,1361-2235,-1.000000,""
361_0_1,w0,profile_361,4212236.000000,249,57600.000000,1,COMPLETED_SUCCESSFULLY,4212236.002400,31595.000000,4243831.002400,0.002400,31595.002400,1.000000,0-248,-1.000000,""
