time,nb_sleeping,nb_switching_on,nb_switching_off,nb_idle,nb_computing
0.00240003,0,0,0,3880,512
0.00300004,0,0,0,3752,640
0.00360005,0,0,0,3368,1024
0.00420006,0,0,0,3112,1280
0.00480006,0,0,0,2856,1536
0.00540007,0,0,0,2728,1664
0.00600008,0,0,0,2472,1920
0.00660009,0,0,0,2216,2176
0.0072001,0,0,0,1704,2688
0.0078001,0,0,0,1192,3200
0.00840011,0,0,0,680,3712
0.00900012,0,0,0,296,4096
0.00960013,0,0,0,40,4352
10944,0,0,0,168,4224
10955,0,0,0,296,4096
10958,0,0,0,40,4352
11967,0,0,0,296,4096
11970,0,0,0,146,4246
15781,0,0,0,402,3990
15784,0,0,0,146,4246
16533,0,0,0,402,3990
16536,0,0,0,146,4246
21764,0,0,0,402,3990
21767,0,0,0,146,4246
21808,0,0,0,402,3990
21893,0,0,0,658,3734
21896,0,0,0,158,4234
22907,0,0,0,308,4084
27460,0,0,0,564,3828
27463,0,0,0,180,4212
30414,0,0,0,692,3700
30417,0,0,0,52,4340
30435,0,0,0,564,3828
30438,0,0,0,308,4084
31176,0,0,0,820,3572
31377,0,0,0,1332,3060
31380,0,0,0,308,4084
31380,0,0,0,52,4340
31776,0,0,0,436,3956
32686,0,0,0,692,3700
32779,0,0,0,1076,3316
32782,0,0,0,52,4340
37499,0,0,0,308,4084
37502,0,0,0,52,4340
48305,0,0,0,552,3840
48308,0,0,0,296,4096
48308,0,0,0,146,4246
48974,0,0,0,402,3990
48977,0,0,0,18,4374
53084,0,0,0,1042,3350
53087,0,0,0,786,3606
53152,0,0,0,1042,3350
53155,0,0,0,18,4374
53232,0,0,0,402,3990
53235,0,0,0,146,4246
55055,0,0,0,402,3990
55464,0,0,0,1426,2966
55467,0,0,0,926,3466
55467,0,0,0,414,3978
55467,0,0,0,158,4234
55467,0,0,0,30,4362
59388,0,0,0,180,4212
61824,0,0,0,820,3572
61827,0,0,0,180,4212
65028,0,0,0,436,3956
65031,0,0,0,180,4212
66484,0,0,0,308,4084
66487,0,0,0,52,4340
69754,0,0,0,308,4084
69757,0,0,0,52,4340
70017,0,0,0,308,4084
74890,0,0,0,1332,3060
74893,0,0,0,948,3444
74893,0,0,0,436,3956
75961,0,0,0,692,3700
75964,0,0,0,180,4212
77385,0,0,0,436,3956
77388,0,0,0,180,4212
80888,0,0,0,564,3828
80891,0,0,0,64,4328
81025,0,0,0,320,4072
81028,0,0,0,64,4328
83300,0,0,0,564,3828
83303,0,0,0,180,4212
86575,0,0,0,692,3700
86578,0,0,0,308,4084
89849,0,0,0,948,3444
89852,0,0,0,564,3828
89852,0,0,0,180,4212
90416,0,0,0,436,3956
90419,0,0,0,52,4340
92960,0,0,0,308,4084
92963,0,0,0,180,4212
92963,0,0,0,52,4340
99167,0,0,0,308,4084
99696,0,0,0,692,3700
101801,0,0,0,1076,3316
101804,0,0,0,52,4340
103878,0,0,0,180,4212
103910,0,0,0,308,4084
103913,0,0,0,52,4340
105812,0,0,0,564,3828
105815,0,0,0,308,4084
105815,0,0,0,52,4340
105892,0,0,0,436,3956
105895,0,0,0,180,4212
106377,0,0,0,692,3700
106380,0,0,0,436,3956
106380,0,0,0,180,4212
106437,0,0,0,564,3828
106657,0,0,0,948,3444
106660,0,0,0,308,4084
106660,0,0,0,52,4340
108636,0,0,0,552,3840
108639,0,0,0,296,4096
108639,0,0,0,40,4352
117324,0,0,0,296,4096
118610,0,0,0,552,3840
122201,0,0,0,936,3456
123347,0,0,0,1192,3200
123350,0,0,0,168,4224
123578,0,0,0,1192,3200
123581,0,0,0,936,3456
123581,0,0,0,680,3712
123581,0,0,0,296,4096
123581,0,0,0,40,4352
125614,0,0,0,296,4096
125617,0,0,0,40,4352
127565,0,0,0,296,4096
127568,0,0,0,552,3840
127571,0,0,0,40,4352
127624,0,0,0,296,4096
127627,0,0,0,40,4352
128059,0,0,0,680,3712
128062,0,0,0,424,3968
128062,0,0,0,40,4352
128388,0,0,0,296,4096
130319,0,0,0,552,3840
130322,0,0,0,52,4340
134209,0,0,0,308,4084
139220,0,0,0,564,3828
139451,0,0,0,820,3572
141626,0,0,0,1076,3316
141629,0,0,0,52,4340
144950,0,0,0,308,4084
145087,0,0,0,1332,3060
145090,0,0,0,820,3572
145090,0,0,0,692,3700
145090,0,0,0,436,3956
145090,0,0,0,180,4212
145319,0,0,0,436,3956
145322,0,0,0,180,4212
152588,0,0,0,1204,3188
152591,0,0,0,948,3444
152591,0,0,0,692,3700
152591,0,0,0,308,4084
152591,0,0,0,52,4340
155344,0,0,0,436,3956
155347,0,0,0,180,4212
157072,0,0,0,308,4084
157075,0,0,0,52,4340
157954,0,0,0,564,3828
157957,0,0,0,308,4084
157957,0,0,0,52,4340
158994,0,0,0,308,4084
159843,0,0,0,692,3700
159846,0,0,0,180,4212
160674,0,0,0,436,3956
162639,0,0,0,936,3456
166300,0,0,0,1192,3200
166303,0,0,0,168,4224
166303,0,0,0,40,4352
166615,0,0,0,296,4096
166618,0,0,0,40,4352
167871,0,0,0,296,4096
167874,0,0,0,40,4352
169875,0,0,0,296,4096
170765,0,0,0,552,3840
173049,0,0,0,808,3584
175063,0,0,0,1064,3328
175066,0,0,0,40,4352
176348,0,0,0,552,3840
176351,0,0,0,40,4352
177295,0,0,0,168,4224
179483,0,0,0,424,3968
179486,0,0,0,40,4352
179704,0,0,0,296,4096
179707,0,0,0,168,4224
180537,0,0,0,424,3968
180540,0,0,0,168,4224
181563,0,0,0,680,3712
181566,0,0,0,168,4224
184383,0,0,0,552,3840
184386,0,0,0,296,4096
184386,0,0,0,40,4352
187286,0,0,0,552,3840
187289,0,0,0,296,4096
190638,0,0,0,424,3968
191482,0,0,0,680,3712
191485,0,0,0,168,4224
193558,0,0,0,680,3712
193561,0,0,0,296,4096
193561,0,0,0,168,4224
193561,0,0,0,40,4352
195114,0,0,0,296,4096
195117,0,0,0,168,4224
195117,0,0,0,40,4352
197841,0,0,0,296,4096
198162,0,0,0,1320,3072
198165,0,0,0,296,4096
204444,0,0,0,424,3968
204447,0,0,0,40,4352
204451,0,0,0,168,4224
206021,0,0,0,296,4096
206056,0,0,0,424,3968
206105,0,0,0,680,3712
206364,0,0,0,1704,2688
206367,0,0,0,680,3712
206367,0,0,0,424,3968
206367,0,0,0,168,4224
211270,0,0,0,552,3840
211273,0,0,0,296,4096
211273,0,0,0,40,4352
213263,0,0,0,552,3840
213266,0,0,0,296,4096
213266,0,0,0,40,4352
219788,0,0,0,1064,3328
219791,0,0,0,808,3584
219791,0,0,0,552,3840
219791,0,0,0,296,4096
219791,0,0,0,40,4352
225428,0,0,0,424,3968
225431,0,0,0,168,4224
226068,0,0,0,424,3968
226071,0,0,0,168,4224
226241,0,0,0,424,3968
226244,0,0,0,168,4224
231473,0,0,0,424,3968
231476,0,0,0,168,4224
232344,0,0,0,424,3968
232347,0,0,0,168,4224
233278,0,0,0,424,3968
233281,0,0,0,168,4224
233456,0,0,0,424,3968
233459,0,0,0,168,4224
235313,0,0,0,424,3968
235316,0,0,0,168,4224
236627,0,0,0,424,3968
236630,0,0,0,168,4224
236708,0,0,0,552,3840
236711,0,0,0,168,4224
237558,0,0,0,1192,3200
237561,0,0,0,936,3456
238811,0,0,0,1192,3200
238814,0,0,0,168,4224
239080,0,0,0,424,3968
239083,0,0,0,168,4224
239542,0,0,0,424,3968
239545,0,0,0,168,4224
239799,0,0,0,424,3968
239802,0,0,0,168,4224
241480,0,0,0,424,3968
241483,0,0,0,168,4224
244352,0,0,0,424,3968
244355,0,0,0,168,4224
247189,0,0,0,424,3968
247192,0,0,0,168,4224
248163,0,0,0,424,3968
248166,0,0,0,168,4224
248415,0,0,0,424,3968
248418,0,0,0,168,4224
250118,0,0,0,424,3968
250121,0,0,0,168,4224
250451,0,0,0,424,3968
250454,0,0,0,40,4352
250970,0,0,0,296,4096
253128,0,0,0,552,3840
253131,0,0,0,168,4224
258542,0,0,0,424,3968
258545,0,0,0,168,4224
261221,0,0,0,424,3968
261224,0,0,0,168,4224
261556,0,0,0,424,3968
263205,0,0,0,680,3712
263208,0,0,0,168,4224
263598,0,0,0,424,3968
266116,0,0,0,680,3712
268608,0,0,0,1064,3328
268611,0,0,0,40,4352
269715,0,0,0,1064,3328
269718,0,0,0,40,4352
270110,0,0,0,296,4096
270113,0,0,0,168,4224
270113,0,0,0,40,4352
270872,0,0,0,296,4096
270875,0,0,0,168,4224
274462,0,0,0,680,3712
274465,0,0,0,296,4096
274908,0,0,0,552,3840
274911,0,0,0,40,4352
276537,0,0,0,424,3968
276540,0,0,0,168,4224
279615,0,0,0,424,3968
279618,0,0,0,168,4224
281041,0,0,0,296,4096
281044,0,0,0,40,4352
281061,0,0,0,168,4224
281785,0,0,0,296,4096
281788,0,0,0,40,4352
285009,0,0,0,424,3968
285012,0,0,0,168,4224
285012,0,0,0,40,4352
286580,0,0,0,552,3840
286583,0,0,0,296,4096
295903,0,0,0,552,3840
295906,0,0,0,680,3712
295909,0,0,0,296,4096
298280,0,0,0,552,3840
298283,0,0,0,40,4352
298877,0,0,0,296,4096
298880,0,0,0,40,4352
299517,0,0,0,424,3968
299520,0,0,0,168,4224
299520,0,0,0,40,4352
300010,0,0,0,1064,3328
300013,0,0,0,680,3712
300013,0,0,0,424,3968
300013,0,0,0,168,4224
300406,0,0,0,424,3968
300409,0,0,0,168,4224
300897,0,0,0,1192,3200
300900,0,0,0,680,3712
300900,0,0,0,552,3840
300900,0,0,0,424,3968
300900,0,0,0,296,4096
300900,0,0,0,168,4224
300900,0,0,0,40,4352
301745,0,0,0,296,4096
301748,0,0,0,40,4352
303521,0,0,0,296,4096
303524,0,0,0,40,4352
310041,0,0,0,296,4096
310044,0,0,0,40,4352
310246,0,0,0,552,3840
310249,0,0,0,296,4096
310249,0,0,0,168,4224
310249,0,0,0,40,4352
310469,0,0,0,168,4224
310472,0,0,0,40,4352
311190,0,0,0,168,4224
311193,0,0,0,40,4352
311196,0,0,0,168,4224
312106,0,0,0,296,4096
312278,0,0,0,424,3968
312848,0,0,0,552,3840
312851,0,0,0,40,4352
313823,0,0,0,296,4096
313826,0,0,0,40,4352
313921,0,0,0,296,4096
313924,0,0,0,40,4352
316705,0,0,0,296,4096
316708,0,0,0,40,4352
317682,0,0,0,296,4096
317685,0,0,0,168,4224
319973,0,0,0,424,3968
319976,0,0,0,168,4224
320983,0,0,0,680,3712
321165,0,0,0,808,3584
321243,0,0,0,936,3456
321439,0,0,0,1064,3328
321442,0,0,0,40,4352
322119,0,0,0,168,4224
325097,0,0,0,680,3712
325100,0,0,0,424,3968
325100,0,0,0,40,4352
325227,0,0,0,296,4096
327699,0,0,0,680,3712
327702,0,0,0,168,4224
327727,0,0,0,424,3968
327730,0,0,0,168,4224
329635,0,0,0,296,4096
329638,0,0,0,40,4352
331763,0,0,0,296,4096
331766,0,0,0,40,4352
331906,0,0,0,296,4096
331909,0,0,0,40,4352
332008,0,0,0,296,4096
332011,0,0,0,168,4224
332243,0,0,0,552,3840
332246,0,0,0,296,4096
332246,0,0,0,168,4224
332246,0,0,0,40,4352
335589,0,0,0,296,4096
335592,0,0,0,168,4224
336179,0,0,0,424,3968
336182,0,0,0,168,4224
336314,0,0,0,1192,3200
336317,0,0,0,936,3456
336317,0,0,0,680,3712
336317,0,0,0,422,3970
336317,0,0,0,166,4226
336317,0,0,0,38,4354
338448,0,0,0,294,4098
338451,0,0,0,38,4354
341755,0,0,0,294,4098
341758,0,0,0,38,4354
342899,0,0,0,166,4226
343146,0,0,0,294,4098
343149,0,0,0,38,4354
343182,0,0,0,166,4226
343711,0,0,0,422,3970
343714,0,0,0,166,4226
347148,0,0,0,678,3714
347151,0,0,0,45,4347
347257,0,0,0,173,4219
347564,0,0,0,301,4091
349008,0,0,0,559,3833
351330,0,0,0,815,3577
353605,0,0,0,1071,3321
353858,0,0,0,1327,3065
353958,0,0,0,1583,2809
355188,0,0,0,1839,2553
355394,0,0,0,2095,2297
355397,0,0,0,47,4345
356893,0,0,0,431,3961
356896,0,0,0,175,4217
357933,0,0,0,431,3961
358057,0,0,0,687,3705
358060,0,0,0,175,4217
358060,0,0,0,47,4345
358065,0,0,0,303,4089
358068,0,0,0,175,4217
358088,0,0,0,431,3961
358107,0,0,0,1064,3328
358110,0,0,0,552,3840
358110,0,0,0,296,4096
358110,0,0,0,40,4352
362040,0,0,0,296,4096
362043,0,0,0,40,4352
368810,0,0,0,168,4224
369003,0,0,0,296,4096
369006,0,0,0,40,4352
369044,0,0,0,296,4096
369047,0,0,0,40,4352
370235,0,0,0,552,3840
372986,0,0,0,808,3584
374415,0,0,0,680,3712
378655,0,0,0,936,3456
378961,0,0,0,1448,2944
382925,0,0,0,1704,2688
383773,0,0,0,1960,2432
385348,0,0,0,2088,2304
386383,0,0,0,1832,2560
390719,0,0,0,2088,2304
403463,0,0,0,4136,256
403932,0,0,0,3996,396
404820,0,0,0,3740,652
404938,0,0,0,3484,908
405040,0,0,0,3100,1292
405137,0,0,0,2716,1676
405239,0,0,0,2332,2060
405302,0,0,0,2076,2316
405382,0,0,0,1820,2572
408128,0,0,0,2076,2316
410273,0,0,0,1820,2572
413375,0,0,0,1692,2700
413417,0,0,0,1436,2956
414847,0,0,0,1576,2816
415203,0,0,0,1064,3328
415757,0,0,0,808,3584
418297,0,0,0,552,3840
418614,0,0,0,296,4096
422331,0,0,0,40,4352
424321,0,0,0,168,4224
425512,0,0,0,424,3968
426565,0,0,0,680,3712
426568,0,0,0,168,4224
426661,0,0,0,424,3968
426677,0,0,0,680,3712
426978,0,0,0,936,3456
427114,0,0,0,1192,3200
428842,0,0,0,808,3584
430341,0,0,0,1192,3200
430444,0,0,0,1576,2816
430602,0,0,0,1960,2432
430625,0,0,0,2216,2176
430869,0,0,0,1192,3200
432598,0,0,0,1448,2944
434069,0,0,0,1704,2688
436896,0,0,0,2216,2176
437507,0,0,0,2728,1664
437938,0,0,0,2984,1408
449562,0,0,0,2728,1664
456314,0,0,0,2216,2176
456387,0,0,0,1960,2432
457845,0,0,0,1832,2560
462427,0,0,0,2216,2176
464627,0,0,0,1960,2432
467162,0,0,0,1312,3080
468752,0,0,0,1440,2952
469526,0,0,0,928,3464
471269,0,0,0,1184,3208
473404,0,0,0,2208,2184
476132,0,0,0,2464,1928
476614,0,0,0,1952,2440
478020,0,0,0,2464,1928
478099,0,0,0,2720,1672
478864,0,0,0,1696,2696
480428,0,0,0,2208,2184
484355,0,0,0,2856,1536
485019,0,0,0,2728,1664
489120,0,0,0,2472,1920
490500,0,0,0,1960,2432
491147,0,0,0,2472,1920
492007,0,0,0,1960,2432
496485,0,0,0,1576,2816
496618,0,0,0,1320,3072
496619,0,0,0,1064,3328
496687,0,0,0,808,3584
497057,0,0,0,936,3456
497060,0,0,0,36,4356
502342,0,0,0,548,3844
502345,0,0,0,164,4228
502345,0,0,0,36,4356
508516,0,0,0,292,4100
509634,0,0,0,548,3844
510481,0,0,0,1060,3332
512855,0,0,0,1316,3076
513308,0,0,0,1444,2948
514091,0,0,0,1828,2564
519431,0,0,0,2084,2308
519434,0,0,0,36,4356
520393,0,0,0,1060,3332
520396,0,0,0,804,3588
520396,0,0,0,292,4100
520396,0,0,0,36,4356
531173,0,0,0,548,3844
531176,0,0,0,164,4228
531399,0,0,0,2212,2180
531402,0,0,0,1956,2436
531402,0,0,0,1700,2692
531402,0,0,0,898,3494
531402,0,0,0,386,4006
531402,0,0,0,2,4390
533141,0,0,0,902,3490
533144,0,0,0,390,4002
534825,0,0,0,774,3618
538756,0,0,0,1030,3362
542114,0,0,0,1286,3106
542386,0,0,0,1542,2850
544720,0,0,0,518,3874
547790,0,0,0,774,3618
550628,0,0,0,646,3746
550843,0,0,0,1448,2944
553122,0,0,0,1832,2560
554143,0,0,0,2344,2048
561554,0,0,0,2472,1920
563740,0,0,0,2856,1536
566755,0,0,0,3368,1024
568658,0,0,0,3240,1152
579954,0,0,0,3368,1024
593894,0,0,0,3240,1152
594887,0,0,0,2984,1408
594896,0,0,0,2728,1664
594926,0,0,0,2472,1920
595826,0,0,0,1960,2432
596502,0,0,0,1448,2944
596531,0,0,0,936,3456
601096,0,0,0,808,3584
601279,0,0,0,424,3968
605412,0,0,0,552,3840
608512,0,0,0,808,3584
608644,0,0,0,1064,3328
609302,0,0,0,1320,3072
611457,0,0,0,1448,2944
615517,0,0,0,1320,3072
615696,0,0,0,1704,2688
617318,0,0,0,1192,3200
617456,0,0,0,936,3456
621136,0,0,0,680,3712
621146,0,0,0,424,3968
621391,0,0,0,168,4224
626887,0,0,0,296,4096
626890,0,0,0,40,4352
627019,0,0,0,552,3840
627022,0,0,0,296,4096
627022,0,0,0,40,4352
627277,0,0,0,552,3840
627387,0,0,0,1064,3328
631208,0,0,0,2088,2304
633266,0,0,0,1832,2560
635640,0,0,0,2088,2304
639133,0,0,0,2344,2048
642860,0,0,0,2600,1792
643149,0,0,0,2856,1536
643279,0,0,0,3112,1280
643747,0,0,0,3368,1024
647005,0,0,0,3624,768
647988,0,0,0,3368,1024
648753,0,0,0,3624,768
649838,0,0,0,4136,256
668723,0,0,0,3624,768
669445,0,0,0,3496,896
669445,0,0,0,3240,1152
669732,0,0,0,3496,896
671055,0,0,0,3240,1152
671416,0,0,0,2984,1408
676195,0,0,0,2728,1664
676234,0,0,0,2472,1920
676311,0,0,0,2216,2176
679889,0,0,0,2088,2304
680389,0,0,0,2216,2176
690483,0,0,0,2728,1664
690810,0,0,0,2856,1536
691207,0,0,0,3112,1280
692776,0,0,0,3368,1024
693199,0,0,0,3624,768
695406,0,0,0,3880,512
695447,0,0,0,3368,1024
697938,0,0,0,3624,768
698019,0,0,0,3880,512
699438,0,0,0,3368,1024
700229,0,0,0,3112,1280
702802,0,0,0,2856,1536
702895,0,0,0,2600,1792
703349,0,0,0,2344,2048
705429,0,0,0,2216,2176
705570,0,0,0,2728,1664
705609,0,0,0,2472,1920
705667,0,0,0,1960,2432
707425,0,0,0,1704,2688
709237,0,0,0,1448,2944
711355,0,0,0,1192,3200
713715,0,0,0,1704,2688
714520,0,0,0,1960,2432
715118,0,0,0,2216,2176
715473,0,0,0,2472,1920
715733,0,0,0,2728,1664
716395,0,0,0,2856,1536
717726,0,0,0,2728,1664
719218,0,0,0,2472,1920
720167,0,0,0,1960,2432
720197,0,0,0,2472,1920
723723,0,0,0,2728,1664
726309,0,0,0,2984,1408
728615,0,0,0,3112,1280
730938,0,0,0,3368,1024
730944,0,0,0,3624,768
734022,0,0,0,3880,512
735936,0,0,0,3368,1024
736014,0,0,0,2856,1536
737043,0,0,0,3368,1024
737523,0,0,0,3112,1280
749128,0,0,0,2600,1792
750441,0,0,0,3112,1280
750524,0,0,0,3624,768
753218,0,0,0,3368,1024
753462,0,0,0,3112,1280
753515,0,0,0,2856,1536
755303,0,0,0,2600,1792
755405,0,0,0,2344,2048
755911,0,0,0,2216,2176
759252,0,0,0,2472,1920
759437,0,0,0,2216,2176
759644,0,0,0,1960,2432
760052,0,0,0,1704,2688
766878,0,0,0,1832,2560
767039,0,0,0,2088,2304
769971,0,0,0,2344,2048
771824,0,0,0,2600,1792
774019,0,0,0,3112,1280
774573,0,0,0,3368,1024
777089,0,0,0,3624,768
777150,0,0,0,3880,512
781157,0,0,0,4136,256
781329,0,0,0,4392,0
781332,0,0,0,32,4360
803074,0,0,0,4392,0
803077,0,0,0,2344,2048
803077,0,0,0,1960,2432
803077,0,0,0,1704,2688
803077,0,0,0,1192,3200
803077,0,0,0,936,3456
803077,0,0,0,680,3712
803077,0,0,0,424,3968
803077,0,0,0,40,4352
815718,0,0,0,424,3968
815721,0,0,0,40,4352
815904,0,0,0,296,4096
815907,0,0,0,40,4352
816326,0,0,0,296,4096
817466,0,0,0,552,3840
817469,0,0,0,40,4352
819266,0,0,0,2088,2304
819269,0,0,0,1832,2560
819269,0,0,0,1576,2816
819269,0,0,0,1320,3072
819269,0,0,0,1064,3328
819269,0,0,0,936,3456
819269,0,0,0,808,3584
819269,0,0,0,552,3840
819269,0,0,0,40,4352
824826,0,0,0,296,4096
824850,0,0,0,808,3584
824853,0,0,0,296,4096
826707,0,0,0,552,3840
829316,0,0,0,808,3584
829491,0,0,0,1064,3328
829494,0,0,0,40,4352
830132,0,0,0,168,4224
830181,0,0,0,296,4096
830232,0,0,0,808,3584
830813,0,0,0,1064,3328
830816,0,0,0,40,4352
833191,0,0,0,296,4096
835300,0,0,0,808,3584
835598,0,0,0,1192,3200
838415,0,0,0,1576,2816
838943,0,0,0,2088,2304
838946,0,0,0,40,4352
840387,0,0,0,1064,3328
840976,0,0,0,1320,3072
841739,0,0,0,2344,2048
841742,0,0,0,296,4096
849877,0,0,0,2344,2048
852641,0,0,0,4392,0
852644,0,0,0,296,4096
864591,0,0,0,4392,0
864594,0,0,0,296,4096
864594,0,0,0,40,4352
875506,0,0,0,4136,256
875509,0,0,0,3880,512
875509,0,0,0,3624,768
875509,0,0,0,3368,1024
875509,0,0,0,3112,1280
875509,0,0,0,2856,1536
875509,0,0,0,2344,2048
875509,0,0,0,2088,2304
875509,0,0,0,1576,2816
875509,0,0,0,1320,3072
875509,0,0,0,936,3456
875509,0,0,0,680,3712
875509,0,0,0,424,3968
875509,0,0,0,168,4224
875509,0,0,0,40,4352
880083,0,0,0,296,4096
880086,0,0,0,168,4224
885660,0,0,0,424,3968
886779,0,0,0,552,3840
886969,0,0,0,808,3584
889792,0,0,0,1064,3328
890986,0,0,0,1192,3200
891934,0,0,0,1448,2944
892993,0,0,0,1704,2688
893335,0,0,0,1960,2432
897217,0,0,0,2216,2176
897220,0,0,0,168,4224
897230,0,0,0,424,3968
897233,0,0,0,168,4224
897234,0,0,0,424,3968
897237,0,0,0,168,4224
897248,0,0,0,424,3968
897251,0,0,0,168,4224
897259,0,0,0,680,3712
897262,0,0,0,424,3968
903985,0,0,0,936,3456
903988,0,0,0,424,3968
908029,0,0,0,808,3584
908032,0,0,0,168,4224
911410,0,0,0,424,3968
911587,0,0,0,680,3712
911590,0,0,0,40,4352
917340,0,0,0,296,4096
918979,0,0,0,552,3840
925748,0,0,0,1064,3328
925751,0,0,0,424,3968
925751,0,0,0,40,4352
933315,0,0,0,680,3712
933318,0,0,0,168,4224
933318,0,0,0,40,4352
941772,0,0,0,2088,2304
941775,0,0,0,1576,2816
941775,0,0,0,1064,3328
941775,0,0,0,808,3584
941775,0,0,0,552,3840
941775,0,0,0,296,4096
941775,0,0,0,168,4224
941775,0,0,0,40,4352
945088,0,0,0,168,4224
945091,0,0,0,40,4352
951381,0,0,0,680,3712
951384,0,0,0,552,3840
951384,0,0,0,40,4352
952717,0,0,0,168,4224
952720,0,0,0,40,4352
953045,0,0,0,168,4224
955205,0,0,0,424,3968
956278,0,0,0,936,3456
956281,0,0,0,424,3968
956281,0,0,0,168,4224
956281,0,0,0,40,4352
956299,0,0,0,552,3840
956302,0,0,0,296,4096
956302,0,0,0,40,4352
957000,0,0,0,168,4224
957508,0,0,0,552,3840
962037,0,0,0,808,3584
962266,0,0,0,936,3456
963517,0,0,0,1192,3200
964033,0,0,0,1320,3072
965601,0,0,0,1832,2560
965604,0,0,0,40,4352
965892,0,0,0,552,3840
967157,0,0,0,680,3712
969108,0,0,0,1320,3072
970731,0,0,0,1832,2560
970734,0,0,0,40,4352
971454,0,0,0,296,4096
971457,0,0,0,168,4224
971457,0,0,0,40,4352
972197,0,0,0,296,4096
972200,0,0,0,168,4224
972200,0,0,0,40,4352
978042,0,0,0,296,4096
978045,0,0,0,168,4224
978045,0,0,0,40,4352
982356,0,0,0,168,4224
982383,0,0,0,296,4096
983051,0,0,0,424,3968
983083,0,0,0,552,3840
987337,0,0,0,2344,2048
988149,0,0,0,2472,1920
988236,0,0,0,2600,1792
992480,0,0,0,4392,0
992483,0,0,0,1704,2688
992483,0,0,0,1192,3200
992483,0,0,0,680,3712
992483,0,0,0,168,4224
1.00437e+06,0,0,0,680,3712
1.00507e+06,0,0,0,1192,3200
1.00531e+06,0,0,0,1704,2688
1.00586e+06,0,0,0,4392,0
1.00587e+06,0,0,0,1704,2688
1.00587e+06,0,0,0,168,4224
1.01676e+06,0,0,0,1704,2688
1.01942e+06,0,0,0,4392,0
1.01942e+06,0,0,0,1704,2688
1.01942e+06,0,0,0,168,4224
1.01942e+06,0,0,0,40,4352
1.03026e+06,0,0,0,168,4224
1.03034e+06,0,0,0,1704,2688
1.03392e+06,0,0,0,4392,0
1.03392e+06,0,0,0,1704,2688
1.03392e+06,0,0,0,1192,3200
1.03392e+06,0,0,0,936,3456
1.03392e+06,0,0,0,680,3712
1.03392e+06,0,0,0,168,4224
1.03392e+06,0,0,0,40,4352
1.04481e+06,0,0,0,168,4224
1.04844e+06,0,0,0,2856,1536
1.04844e+06,0,0,0,2600,1792
1.04844e+06,0,0,0,2344,2048
1.04844e+06,0,0,0,552,3840
1.04844e+06,0,0,0,168,4224
1.05099e+06,0,0,0,680,3712
1.051e+06,0,0,0,424,3968
1.05477e+06,0,0,0,680,3712
1.05477e+06,0,0,0,168,4224
1.05565e+06,0,0,0,424,3968
1.05565e+06,0,0,0,168,4224
1.05862e+06,0,0,0,424,3968
1.05938e+06,0,0,0,2216,2176
1.05938e+06,0,0,0,168,4224
1.06616e+06,0,0,0,680,3712
1.06887e+06,0,0,0,936,3456
1.06887e+06,0,0,0,136,4256
1.06887e+06,0,0,0,8,4384
1.06932e+06,0,0,0,520,3872
1.06932e+06,0,0,0,392,4000
1.07029e+06,0,0,0,648,3744
1.07322e+06,0,0,0,2696,1696
1.07322e+06,0,0,0,1288,3104
1.07322e+06,0,0,0,1032,3360
1.07577e+06,0,0,0,1288,3104
1.07977e+06,0,0,0,1416,2976
1.08021e+06,0,0,0,1544,2848
1.08096e+06,0,0,0,1928,2464
1.0841e+06,0,0,0,3336,1056
1.08411e+06,0,0,0,1288,3104
1.08411e+06,0,0,0,1032,3360
1.08411e+06,0,0,0,648,3744
1.08411e+06,0,0,0,392,4000
1.08411e+06,0,0,0,136,4256
1.08411e+06,0,0,0,8,4384
1.08983e+06,0,0,0,264,4128
1.08983e+06,0,0,0,8,4384
1.09499e+06,0,0,0,136,4256
1.095e+06,0,0,0,8,4384
1.09761e+06,0,0,0,2056,2336
1.09761e+06,0,0,0,8,4384
1.10278e+06,0,0,0,264,4128
1.10278e+06,0,0,0,8,4384
1.10514e+06,0,0,0,136,4256
1.10569e+06,0,0,0,392,4000
1.1057e+06,0,0,0,8,4384
1.1058e+06,0,0,0,264,4128
1.1058e+06,0,0,0,8,4384
1.11157e+06,0,0,0,264,4128
1.11157e+06,0,0,0,8,4384
1.11625e+06,0,0,0,264,4128
1.11625e+06,0,0,0,8,4384
1.11665e+06,0,0,0,392,4000
1.11665e+06,0,0,0,8,4384
1.12536e+06,0,0,0,264,4128
1.12537e+06,0,0,0,8,4384
1.13007e+06,0,0,0,392,4000
1.13007e+06,0,0,0,136,4256
1.13329e+06,0,0,0,392,4000
1.13329e+06,0,0,0,136,4256
1.13455e+06,0,0,0,392,4000
1.13455e+06,0,0,0,136,4256
1.14261e+06,0,0,0,392,4000
1.1471e+06,0,0,0,648,3744
1.14905e+06,0,0,0,904,3488
1.14919e+06,0,0,0,1288,3104
1.15315e+06,0,0,0,1544,2848
1.15537e+06,0,0,0,2344,2048
1.15537e+06,0,0,0,296,4096
1.15537e+06,0,0,0,40,4352
1.17707e+06,0,0,0,296,4096
1.18412e+06,0,0,0,2344,2048
1.18412e+06,0,0,0,1264,3128
1.18412e+06,0,0,0,752,3640
1.18412e+06,0,0,0,240,4152
1.18412e+06,0,0,0,112,4280
1.19473e+06,0,0,0,240,4152
1.19749e+06,0,0,0,752,3640
1.19862e+06,0,0,0,1264,3128
1.20093e+06,0,0,0,2344,2048
1.20093e+06,0,0,0,680,3712
1.20093e+06,0,0,0,168,4224
1.21189e+06,0,0,0,1832,2560
1.21189e+06,0,0,0,1320,3072
1.21189e+06,0,0,0,1064,3328
1.21189e+06,0,0,0,808,3584
1.21189e+06,0,0,0,552,3840
1.21189e+06,0,0,0,40,4352
1.22598e+06,0,0,0,296,4096
1.22638e+06,0,0,0,808,3584
1.22638e+06,0,0,0,1320,3072
1.22638e+06,0,0,0,680,3712
1.22638e+06,0,0,0,296,4096
1.22969e+06,0,0,0,808,3584
1.22969e+06,0,0,0,168,4224
1.22969e+06,0,0,0,40,4352
1.23357e+06,0,0,0,296,4096
1.23463e+06,0,0,0,552,3840
1.24061e+06,0,0,0,680,3712
1.2419e+06,0,0,0,2728,1664
1.2419e+06,0,0,0,1726,2666
1.2419e+06,0,0,0,1470,2922
1.24423e+06,0,0,0,2110,2282
1.24423e+06,0,0,0,186,4206
1.24808e+06,0,0,0,826,3566
1.24808e+06,0,0,0,570,3822
1.24808e+06,0,0,0,314,4078
1.24808e+06,0,0,0,58,4334
1.2481e+06,0,0,0,442,3950
1.26107e+06,0,0,0,1444,2948
1.26107e+06,0,0,0,420,3972
1.2616e+06,0,0,0,676,3716
1.26174e+06,0,0,0,932,3460
1.26287e+06,0,0,0,1188,3204
1.26287e+06,0,0,0,164,4228
1.26467e+06,0,0,0,420,3972
1.27196e+06,0,0,0,1444,2948
1.2738e+06,0,0,0,2468,1924
1.27381e+06,0,0,0,420,3972
1.27381e+06,0,0,0,36,4356
1.28634e+06,0,0,0,420,3972
1.2935e+06,0,0,0,2468,1924
1.2935e+06,0,0,0,420,3972
1.2935e+06,0,0,0,164,4228
1.31054e+06,0,0,0,2212,2180
1.3152e+06,0,0,0,2468,1924
1.33078e+06,0,0,0,4392,0
1.33078e+06,0,0,0,296,4096
1.33078e+06,0,0,0,40,4352
1.35248e+06,0,0,0,296,4096
1.35345e+06,0,0,0,4392,0
1.35345e+06,0,0,0,296,4096
1.36947e+06,0,0,0,4392,0
1.36947e+06,0,0,0,4008,384
1.36947e+06,0,0,0,3624,768
1.36947e+06,0,0,0,2822,1570
1.36947e+06,0,0,0,2310,2082
1.36947e+06,0,0,0,1798,2594
1.36947e+06,0,0,0,1414,2978
1.36947e+06,0,0,0,1030,3362
1.38029e+06,0,0,0,1542,2850
1.38136e+06,0,0,0,2054,2338
1.39118e+06,0,0,0,2438,1954
1.39121e+06,0,0,0,2822,1570
1.39121e+06,0,0,0,3206,1186
1.39122e+06,0,0,0,3590,802
1.39379e+06,0,0,0,4392,0
1.41989e+06,0,0,0,4264,128
1.42022e+06,0,0,0,4136,256
1.42027e+06,0,0,0,4008,384
1.43074e+06,0,0,0,4136,256
1.43117e+06,0,0,0,4264,128
1.43119e+06,0,0,0,4392,0
1.43795e+06,0,0,0,296,4096
1.43974e+06,0,0,0,168,4224
1.44785e+06,0,0,0,40,4352
1.45039e+06,0,0,0,168,4224
1.45409e+06,0,0,0,40,4352
1.45976e+06,0,0,0,168,4224
1.45977e+06,0,0,0,40,4352
1.46493e+06,0,0,0,4136,256
1.46494e+06,0,0,0,3752,640
1.46494e+06,0,0,0,3368,1024
1.46494e+06,0,0,0,2984,1408
1.46494e+06,0,0,0,2344,2048
1.46494e+06,0,0,0,2216,2176
1.46494e+06,0,0,0,1576,2816
1.46494e+06,0,0,0,936,3456
1.46494e+06,0,0,0,552,3840
1.46494e+06,0,0,0,424,3968
1.46494e+06,0,0,0,296,4096
1.46494e+06,0,0,0,168,4224
1.46506e+06,0,0,0,296,4096
1.46587e+06,0,0,0,40,4352
1.47073e+06,0,0,0,168,4224
1.47547e+06,0,0,0,296,4096
1.47586e+06,0,0,0,424,3968
1.47586e+06,0,0,0,40,4352
1.47588e+06,0,0,0,168,4224
1.47588e+06,0,0,0,40,4352
1.47594e+06,0,0,0,168,4224
1.47594e+06,0,0,0,40,4352
1.47945e+06,0,0,0,680,3712
1.47946e+06,0,0,0,552,3840
1.47946e+06,0,0,0,424,3968
1.47946e+06,0,0,0,296,4096
1.47946e+06,0,0,0,40,4352
1.48596e+06,0,0,0,168,4224
1.48667e+06,0,0,0,552,3840
1.48668e+06,0,0,0,1192,3200
1.48685e+06,0,0,0,1320,3072
1.48759e+06,0,0,0,1576,2816
1.48768e+06,0,0,0,1960,2432
1.49038e+06,0,0,0,2088,2304
1.49042e+06,0,0,0,2216,2176
1.49043e+06,0,0,0,2344,2048
1.49383e+06,0,0,0,2728,1664
1.49751e+06,0,0,0,3112,1280
1.49864e+06,0,0,0,3496,896
1.50124e+06,0,0,0,3752,640
1.50427e+06,0,0,0,3496,896
1.50483e+06,0,0,0,3240,1152
1.50826e+06,0,0,0,3880,512
1.5209e+06,0,0,0,4136,256
1.52592e+06,0,0,0,4392,0
1.53069e+06,0,0,0,4264,128
1.53069e+06,0,0,0,4136,256
1.53136e+06,0,0,0,4008,384
1.53758e+06,0,0,0,3880,512
1.5392e+06,0,0,0,3624,768
1.53925e+06,0,0,0,3496,896
1.53929e+06,0,0,0,3368,1024
1.54024e+06,0,0,0,3240,1152
1.54163e+06,0,0,0,3368,1024
1.54164e+06,0,0,0,3496,896
1.54201e+06,0,0,0,3624,768
1.54854e+06,0,0,0,3752,640
1.54923e+06,0,0,0,2750,1642
1.55024e+06,0,0,0,2878,1514
1.55026e+06,0,0,0,3006,1386
1.55221e+06,0,0,0,3134,1258
1.55322e+06,0,0,0,3006,1386
1.55926e+06,0,0,0,3262,1130
1.56015e+06,0,0,0,2622,1770
1.5644e+06,0,0,0,2750,1642
1.56752e+06,0,0,0,2494,1898
1.56971e+06,0,0,0,3496,896
1.57041e+06,0,0,0,3368,1024
1.57174e+06,0,0,0,3240,1152
1.57177e+06,0,0,0,3112,1280
1.57401e+06,0,0,0,2984,1408
1.57479e+06,0,0,0,2856,1536
1.57603e+06,0,0,0,2728,1664
1.57709e+06,0,0,0,2600,1792
1.57821e+06,0,0,0,2312,2080
1.5805e+06,0,0,0,1800,2592
1.58072e+06,0,0,0,1544,2848
1.58134e+06,0,0,0,1672,2720
1.58187e+06,0,0,0,2312,2080
1.58268e+06,0,0,0,2440,1952
1.5827e+06,0,0,0,2568,1824
1.58367e+06,0,0,0,2312,2080
1.58572e+06,0,0,0,2440,1952
1.58671e+06,0,0,0,2568,1824
1.58696e+06,0,0,0,2696,1696
1.5874e+06,0,0,0,1894,2498
1.58801e+06,0,0,0,2022,2370
1.5893e+06,0,0,0,2278,2114
1.59823e+06,0,0,0,3080,1312
1.59994e+06,0,0,0,3368,1024
1.60249e+06,0,0,0,3624,768
1.60295e+06,0,0,0,3432,960
1.60539e+06,0,0,0,3688,704
1.60784e+06,0,0,0,3432,960
1.609e+06,0,0,0,3944,448
1.60981e+06,0,0,0,3688,704
1.60982e+06,0,0,0,3432,960
1.61023e+06,0,0,0,1896,2496
1.61056e+06,0,0,0,360,4032
1.61389e+06,0,0,0,552,3840
1.61514e+06,0,0,0,40,4352
1.62075e+06,0,0,0,296,4096
1.62077e+06,0,0,0,552,3840
1.62077e+06,0,0,0,40,4352
1.62511e+06,0,0,0,1576,2816
1.62512e+06,0,0,0,1448,2944
1.62512e+06,0,0,0,1320,3072
1.62512e+06,0,0,0,1192,3200
1.62512e+06,0,0,0,1064,3328
1.62512e+06,0,0,0,936,3456
1.62512e+06,0,0,0,808,3584
1.62623e+06,0,0,0,6,4386
1.62954e+06,0,0,0,262,4130
1.63197e+06,0,0,0,1798,2594
1.63198e+06,0,0,0,1414,2978
1.63198e+06,0,0,0,646,3746
1.63198e+06,0,0,0,134,4258
1.63326e+06,0,0,0,646,3746
1.63326e+06,0,0,0,134,4258
1.63512e+06,0,0,0,262,4130
1.63523e+06,0,0,0,390,4002
1.63604e+06,0,0,0,518,3874
1.63606e+06,0,0,0,646,3746
1.63606e+06,0,0,0,774,3618
1.63606e+06,0,0,0,902,3490
1.6389e+06,0,0,0,1414,2978
1.63891e+06,0,0,0,262,4130
1.64292e+06,0,0,0,774,3618
1.64414e+06,0,0,0,1286,3106
1.64414e+06,0,0,0,134,4258
1.64651e+06,0,0,0,902,3490
1.64651e+06,0,0,0,134,4258
1.64979e+06,0,0,0,1286,3106
1.6498e+06,0,0,0,262,4130
1.65508e+06,0,0,0,1414,2978
1.65508e+06,0,0,0,390,4002
1.65508e+06,0,0,0,134,4258
1.65616e+06,0,0,0,936,3456
1.65745e+06,0,0,0,1704,2688
1.66079e+06,0,0,0,2728,1664
1.66249e+06,0,0,0,2344,2048
1.66259e+06,0,0,0,1960,2432
1.66451e+06,0,0,0,2344,2048
1.66601e+06,0,0,0,3368,1024
1.66691e+06,0,0,0,3624,768
1.67127e+06,0,0,0,3496,896
1.67152e+06,0,0,0,3368,1024
1.68209e+06,0,0,0,3240,1152
1.68231e+06,0,0,0,3368,1024
1.68246e+06,0,0,0,3496,896
1.68317e+06,0,0,0,3368,1024
1.6842e+06,0,0,0,3752,640
1.68435e+06,0,0,0,4136,256
1.69263e+06,0,0,0,4264,128
1.69411e+06,0,0,0,4392,0
1.70416e+06,0,0,0,3880,512
1.70631e+06,0,0,0,3752,640
1.7126e+06,0,0,0,3496,896
1.71317e+06,0,0,0,2728,1664
1.71366e+06,0,0,0,2344,2048
1.7165e+06,0,0,0,2216,2176
1.7173e+06,0,0,0,2344,2048
1.71745e+06,0,0,0,1192,3200
1.72387e+06,0,0,0,1704,2688
1.72474e+06,0,0,0,1960,2432
1.72743e+06,0,0,0,2088,2304
1.72819e+06,0,0,0,2472,1920
1.72867e+06,0,0,0,3240,1152
1.73202e+06,0,0,0,4392,0
1.73203e+06,0,0,0,296,4096
1.73203e+06,0,0,0,40,4352
1.75167e+06,0,0,0,296,4096
1.75167e+06,0,0,0,15,4377
1.76374e+06,0,0,0,296,4096
1.76374e+06,0,0,0,168,4224
1.76374e+06,0,0,0,40,4352
1.77467e+06,0,0,0,168,4224
1.77525e+06,0,0,0,296,4096
1.77532e+06,0,0,0,40,4352
1.79705e+06,0,0,0,296,4096
1.79706e+06,0,0,0,15,4377
1.79924e+06,0,0,0,4111,281
1.79924e+06,0,0,0,3471,921
1.79924e+06,0,0,0,2669,1723
1.79924e+06,0,0,0,2157,2235
1.79924e+06,0,0,0,1355,3037
1.80799e+06,0,0,0,1636,2756
1.81167e+06,0,0,0,1380,3012
1.81184e+06,0,0,0,1124,3268
1.81741e+06,0,0,0,1926,2466
1.82256e+06,0,0,0,1798,2594
1.82621e+06,0,0,0,996,3396
1.82816e+06,0,0,0,1798,2594
1.82816e+06,0,0,0,2310,2082
1.83041e+06,0,0,0,2566,1826
1.8331e+06,0,0,0,2694,1698
1.83359e+06,0,0,0,2950,1442
1.84257e+06,0,0,0,3590,802
1.84639e+06,0,0,0,3334,1058
1.855e+06,0,0,0,3078,1314
1.85601e+06,0,0,0,2822,1570
1.85615e+06,0,0,0,3624,768
1.86287e+06,0,0,0,3880,512
1.86577e+06,0,0,0,3752,640
1.8696e+06,0,0,0,4008,384
1.86988e+06,0,0,0,4264,128
1.87298e+06,0,0,0,4136,256
1.87659e+06,0,0,0,4008,384
1.87676e+06,0,0,0,4136,256
1.88021e+06,0,0,0,4008,384
1.88347e+06,0,0,0,3752,640
1.88381e+06,0,0,0,3624,768
1.88412e+06,0,0,0,3752,640
1.88785e+06,0,0,0,3880,512
1.88833e+06,0,0,0,1832,2560
1.89078e+06,0,0,0,1960,2432
1.89447e+06,0,0,0,2088,2304
1.90096e+06,0,0,0,2344,2048
1.90589e+06,0,0,0,2088,2304
1.91827e+06,0,0,0,1286,3106
1.92763e+06,0,0,0,1542,2850
1.9364e+06,0,0,0,2344,2048
1.95405e+06,0,0,0,4392,0
1.96246e+06,0,0,0,2344,2048
1.96643e+06,0,0,0,1673,2719
1.96836e+06,0,0,0,521,3871
1.97064e+06,0,0,0,265,4127
1.97315e+06,0,0,0,9,4383
1.98157e+06,0,0,0,265,4127
1.98721e+06,0,0,0,936,3456
1.98721e+06,0,0,0,655,3737
1.99265e+06,0,0,0,911,3481
1.99815e+06,0,0,0,1192,3200
1.99816e+06,0,0,0,40,4352
1.99955e+06,0,0,0,1192,3200
1.99956e+06,0,0,0,40,4352
2.01401e+06,0,0,0,1192,3200
2.01402e+06,0,0,0,40,4352
2.02315e+06,0,0,0,2088,2304
2.02315e+06,0,0,0,936,3456
2.02315e+06,0,0,0,168,4224
2.02315e+06,0,0,0,40,4352
2.02403e+06,0,0,0,1192,3200
2.02403e+06,0,0,0,808,3584
2.02403e+06,0,0,0,296,4096
2.02403e+06,0,0,0,168,4224
2.03409e+06,0,0,0,296,4096
2.03409e+06,0,0,0,40,4352
2.03495e+06,0,0,0,168,4224
2.03764e+06,0,0,0,936,3456
2.03764e+06,0,0,0,680,3712
2.03852e+06,0,0,0,1064,3328
2.03852e+06,0,0,0,40,4352
2.04803e+06,0,0,0,1192,3200
2.04804e+06,0,0,0,296,4096
2.04804e+06,0,0,0,168,4224
2.05194e+06,0,0,0,1320,3072
2.05194e+06,0,0,0,649,3743
2.05305e+06,0,0,0,137,4255
2.05583e+06,0,0,0,393,3999
2.05652e+06,0,0,0,905,3487
2.05696e+06,0,0,0,1161,3231
2.05703e+06,0,0,0,777,3615
2.05998e+06,0,0,0,905,3487
2.06099e+06,0,0,0,649,3743
2.06416e+06,0,0,0,393,3999
2.06513e+06,0,0,0,1064,3328
2.06755e+06,0,0,0,1576,2816
2.07313e+06,0,0,0,904,3488
2.07328e+06,0,0,0,520,3872
2.07873e+06,0,0,0,776,3616
2.08084e+06,0,0,0,1032,3360
2.08111e+06,0,0,0,750,3642
2.09062e+06,0,0,0,1134,3258
2.09062e+06,0,0,0,332,4060
2.09208e+06,0,0,0,614,3778
2.10578e+06,0,0,0,998,3394
2.10643e+06,0,0,0,1800,2592
2.11648e+06,0,0,0,2472,1920
2.11727e+06,0,0,0,3496,896
2.11727e+06,0,0,0,760,3632
2.12869e+06,0,0,0,1656,2736
2.13727e+06,0,0,0,985,3407
2.14111e+06,0,0,0,857,3535
2.15208e+06,0,0,0,985,3407
2.15275e+06,0,0,0,3721,671
2.15275e+06,0,0,0,2441,1951
2.15275e+06,0,0,0,2176,2216
2.15275e+06,0,0,0,1920,2472
2.15275e+06,0,0,0,1536,2856
2.15275e+06,0,0,0,1280,3112
2.15317e+06,0,0,0,896,3496
2.16309e+06,0,0,0,1567,2825
2.16309e+06,0,0,0,543,3849
2.16309e+06,0,0,0,143,4249
2.16369e+06,0,0,0,408,3984
2.16369e+06,0,0,0,8,4384
2.16369e+06,0,0,0,264,4128
2.16417e+06,0,0,0,520,3872
2.16417e+06,0,0,0,120,4272
2.16729e+06,0,0,0,1400,2992
2.17545e+06,0,0,0,1800,2592
2.1759e+06,0,0,0,2200,2192
2.17677e+06,0,0,0,2600,1792
2.17727e+06,0,0,0,3624,768
2.17789e+06,0,0,0,3496,896
2.18524e+06,0,0,0,3880,512
2.18568e+06,0,0,0,4264,128
2.18883e+06,0,0,0,4392,0
2.23268e+06,0,0,0,4264,128
2.23533e+06,0,0,0,4008,384
2.23584e+06,0,0,0,3206,1186
2.24345e+06,0,0,0,3334,1058
2.24361e+06,0,0,0,3078,1314
2.24374e+06,0,0,0,2743,1649
2.24453e+06,0,0,0,7,4385
2.25575e+06,0,0,0,342,4050
2.25575e+06,0,0,0,198,4194
2.25812e+06,0,0,0,454,3938
2.25812e+06,0,0,0,198,4194
2.26427e+06,0,0,0,454,3938
2.26457e+06,0,0,0,326,4066
2.26628e+06,0,0,0,470,3922
2.27055e+06,0,0,0,726,3666
2.27545e+06,0,0,0,854,3538
2.28067e+06,0,0,0,3590,802
2.28068e+06,0,0,0,2310,2082
2.28068e+06,0,0,0,1926,2466
2.28068e+06,0,0,0,1414,2978
2.28068e+06,0,0,0,902,3490
2.28068e+06,0,0,0,518,3874
2.28068e+06,0,0,0,262,4130
2.29036e+06,0,0,0,6,4386
2.30134e+06,0,0,0,262,4130
2.30236e+06,0,0,0,518,3874
2.3132e+06,0,0,0,1030,3362
2.31321e+06,0,0,0,1414,2978
2.31321e+06,0,0,0,134,4258
2.31324e+06,0,0,0,646,3746
2.31324e+06,0,0,0,6,4386
2.31362e+06,0,0,0,390,4002
2.31653e+06,0,0,0,1192,3200
2.31653e+06,0,0,0,552,3840
2.31653e+06,0,0,0,424,3968
2.31653e+06,0,0,0,296,4096
2.31653e+06,0,0,0,168,4224
2.31653e+06,0,0,0,40,4352
2.32401e+06,0,0,0,1320,3072
2.32402e+06,0,0,0,1192,3200
2.32402e+06,0,0,0,1064,3328
2.32402e+06,0,0,0,744,3648
2.32402e+06,0,0,0,96,4296
2.32724e+06,0,0,0,224,4168
2.32746e+06,0,0,0,352,4040
2.32756e+06,0,0,0,480,3912
2.32805e+06,0,0,0,608,3784
2.32805e+06,0,0,0,96,4296
2.33527e+06,0,0,0,224,4168
2.33605e+06,0,0,0,352,4040
2.33605e+06,0,0,0,96,4296
2.33886e+06,0,0,0,416,3976
2.33887e+06,0,0,0,288,4104
2.33887e+06,0,0,0,144,4248
2.33927e+06,0,0,0,16,4376
2.34977e+06,0,0,0,144,4248
2.34983e+06,0,0,0,288,4104
2.35022e+06,0,0,0,416,3976
2.35562e+06,0,0,0,672,3720
2.35563e+06,0,0,0,160,4232
2.35656e+06,0,0,0,800,3592
2.35657e+06,0,0,0,2080,2312
2.35657e+06,0,0,0,1056,3336
2.35657e+06,0,0,0,385,4007
2.35987e+06,0,0,0,1025,3367
2.35987e+06,0,0,0,354,4038
2.35987e+06,0,0,0,98,4294
2.36014e+06,0,0,0,746,3646
2.36014e+06,0,0,0,291,4101
2.36164e+06,0,0,0,803,3589
2.36165e+06,0,0,0,3,4389
2.36656e+06,0,0,0,515,3877
2.36656e+06,0,0,0,259,4133
2.36957e+06,0,0,0,930,3462
2.3711e+06,0,0,0,1954,2438
2.37111e+06,0,0,0,802,3590
2.37111e+06,0,0,0,162,4230
2.37786e+06,0,0,0,617,3775
2.37787e+06,0,0,0,361,4031
2.37984e+06,0,0,0,617,3775
2.37985e+06,0,0,0,105,4287
2.38163e+06,0,0,0,361,4031
2.38351e+06,0,0,0,1001,3391
2.38351e+06,0,0,0,199,4193
2.38565e+06,0,0,0,1351,3041
2.38566e+06,0,0,0,2022,2370
2.3968e+06,0,0,0,1878,2514
2.39958e+06,0,0,0,2134,2258
2.4027e+06,0,0,0,2936,1456
2.4065e+06,0,0,0,1912,2480
2.40694e+06,0,0,0,1112,3280
2.40772e+06,0,0,0,1256,3136
2.41296e+06,0,0,0,1000,3392
2.41346e+06,0,0,0,1512,2880
2.41754e+06,0,0,0,1256,3136
2.42824e+06,0,0,0,2280,2112
2.42951e+06,0,0,0,2536,1856
2.43468e+06,0,0,0,2792,1600
2.43823e+06,0,0,0,2536,1856
2.43836e+06,0,0,0,2280,2112
2.44167e+06,0,0,0,3080,1312
2.45121e+06,0,0,0,3336,1056
2.45653e+06,0,0,0,3592,800
2.46104e+06,0,0,0,3336,1056
2.47107e+06,0,0,0,3592,800
2.4753e+06,0,0,0,3080,1312
2.48981e+06,0,0,0,3592,800
2.49214e+06,0,0,0,4392,0
2.49218e+06,0,0,0,3592,800
2.50385e+06,0,0,0,3336,1056
2.50391e+06,0,0,0,3080,1312
2.50392e+06,0,0,0,2824,1568
2.50395e+06,0,0,0,2568,1824
2.504e+06,0,0,0,2312,2080
2.50894e+06,0,0,0,1928,2464
2.51586e+06,0,0,0,2184,2208
2.51647e+06,0,0,0,2440,1952
2.51821e+06,0,0,0,2696,1696
2.51943e+06,0,0,0,2952,1440
2.52096e+06,0,0,0,3208,1184
2.53062e+06,0,0,0,3592,800
2.53918e+06,0,0,0,3464,928
2.54535e+06,0,0,0,3208,1184
2.54984e+06,0,0,0,3336,1056
2.5517e+06,0,0,0,2534,1858
2.55682e+06,0,0,0,2790,1602
2.55866e+06,0,0,0,3590,802
2.56244e+06,0,0,0,2790,1602
2.56981e+06,0,0,0,3592,800
2.61962e+06,0,0,0,4392,0
2.62114e+06,0,0,0,4136,256
2.62238e+06,0,0,0,3880,512
2.63953e+06,0,0,0,4136,256
2.64415e+06,0,0,0,4392,0
2.66201e+06,0,0,0,4136,256
2.66634e+06,0,0,0,3880,512
2.66646e+06,0,0,0,3624,768
2.66656e+06,0,0,0,3368,1024
2.66661e+06,0,0,0,3112,1280
2.6667e+06,0,0,0,2856,1536
2.66831e+06,0,0,0,2728,1664
2.66856e+06,0,0,0,2344,2048
2.66867e+06,0,0,0,2088,2304
2.67921e+06,0,0,0,2216,2176
2.6805e+06,0,0,0,2472,1920
2.68811e+06,0,0,0,2728,1664
2.68816e+06,0,0,0,2984,1408
2.68839e+06,0,0,0,3240,1152
2.68847e+06,0,0,0,3496,896
2.68941e+06,0,0,0,3752,640
2.68987e+06,0,0,0,3496,896
2.69032e+06,0,0,0,3880,512
2.69035e+06,0,0,0,3624,768
2.6904e+06,0,0,0,3880,512
2.70633e+06,0,0,0,3112,1280
2.70663e+06,0,0,0,3368,1024
2.70713e+06,0,0,0,3624,768
2.71029e+06,0,0,0,3496,896
2.71328e+06,0,0,0,3240,1152
2.71385e+06,0,0,0,2984,1408
2.71389e+06,0,0,0,2728,1664
2.7139e+06,0,0,0,2472,1920
2.71481e+06,0,0,0,2216,2176
2.71492e+06,0,0,0,1960,2432
2.71493e+06,0,0,0,1704,2688
2.71494e+06,0,0,0,1448,2944
2.71724e+06,0,0,0,2216,2176
2.72061e+06,0,0,0,1448,2944
2.72121e+06,0,0,0,1576,2816
2.72468e+06,0,0,0,1320,3072
2.72664e+06,0,0,0,1064,3328
2.73154e+06,0,0,0,1832,2560
2.73156e+06,0,0,0,2088,2304
2.73293e+06,0,0,0,2344,2048
2.733e+06,0,0,0,2600,1792
2.73499e+06,0,0,0,2856,1536
2.7351e+06,0,0,0,3112,1280
2.73527e+06,0,0,0,3368,1024
2.73575e+06,0,0,0,3624,768
2.73668e+06,0,0,0,3880,512
2.73933e+06,0,0,0,3080,1312
2.74537e+06,0,0,0,3336,1056
2.74549e+06,0,0,0,3208,1184
2.74553e+06,0,0,0,3080,1312
2.74596e+06,0,0,0,2952,1440
2.74642e+06,0,0,0,3208,1184
2.74965e+06,0,0,0,2824,1568
2.74979e+06,0,0,0,2440,1952
2.7499e+06,0,0,0,1800,2592
2.75159e+06,0,0,0,1416,2976
2.75169e+06,0,0,0,1160,3232
2.75282e+06,0,0,0,776,3616
2.75643e+06,0,0,0,904,3488
2.75645e+06,0,0,0,1032,3360
2.75687e+06,0,0,0,1160,3232
2.76253e+06,0,0,0,1544,2848
2.76257e+06,0,0,0,1800,2592
2.76576e+06,0,0,0,1608,2784
2.76593e+06,0,0,0,1352,3040
2.76755e+06,0,0,0,968,3424
2.7767e+06,0,0,0,1160,3232
2.77685e+06,0,0,0,1416,2976
2.77843e+06,0,0,0,1800,2592
2.78159e+06,0,0,0,2184,2208
2.7823e+06,0,0,0,2568,1824
2.78483e+06,0,0,0,2312,2080
2.78483e+06,0,0,0,1800,2592
2.78535e+06,0,0,0,2184,2208
2.78587e+06,0,0,0,1800,2592
2.78594e+06,0,0,0,1416,2976
2.79102e+06,0,0,0,1134,3258
2.79231e+06,0,0,0,494,3898
2.79322e+06,0,0,0,110,4282
2.79323e+06,0,0,0,750,3642
2.79333e+06,0,0,0,366,4026
2.79576e+06,0,0,0,878,3514
2.79577e+06,0,0,0,494,3898
2.79577e+06,0,0,0,750,3642
2.79577e+06,0,0,0,94,4298
2.80567e+06,0,0,0,894,3498
2.80567e+06,0,0,0,510,3882
2.80931e+06,0,0,0,894,3498
2.80931e+06,0,0,0,254,4138
2.81273e+06,0,0,0,536,3856
2.81274e+06,0,0,0,280,4112
2.81463e+06,0,0,0,664,3728
2.81466e+06,0,0,0,1048,3344
2.81466e+06,0,0,0,248,4144
2.81579e+06,0,0,0,632,3760
2.82437e+06,0,0,0,248,4144
2.82829e+06,0,0,0,632,3760
2.83449e+06,0,0,0,888,3504
2.83557e+06,0,0,0,1272,3120
2.83557e+06,0,0,0,248,4144
2.83557e+06,0,0,0,120,4272
2.83566e+06,0,0,0,760,3632
2.83566e+06,0,0,0,632,3760
2.83566e+06,0,0,0,376,4016
2.83566e+06,0,0,0,120,4272
2.8382e+06,0,0,0,504,3888
2.84645e+06,0,0,0,632,3760
2.84646e+06,0,0,0,120,4272
2.84649e+06,0,0,0,1144,3248
2.84649e+06,0,0,0,120,4272
2.84655e+06,0,0,0,248,4144
2.84661e+06,0,0,0,504,3888
2.84661e+06,0,0,0,760,3632
2.85268e+06,0,0,0,1400,2992
2.85268e+06,0,0,0,376,4016
2.85734e+06,0,0,0,888,3504
2.85734e+06,0,0,0,248,4144
2.85747e+06,0,0,0,1272,3120
2.86363e+06,0,0,0,2296,2096
2.86363e+06,0,0,0,248,4144
2.86363e+06,0,0,0,120,4272
2.8719e+06,0,0,0,760,3632
2.8719e+06,0,0,0,632,3760
2.87325e+06,0,0,0,504,3888
2.87457e+06,0,0,0,632,3760
2.87822e+06,0,0,0,1432,2960
2.87822e+06,0,0,0,632,3760
2.87822e+06,0,0,0,350,4042
2.87822e+06,0,0,0,94,4298
2.8811e+06,0,0,0,750,3642
2.8811e+06,0,0,0,238,4154
2.88285e+06,0,0,0,366,4026
2.88418e+06,0,0,0,494,3898
2.88645e+06,0,0,0,2542,1850
2.88646e+06,0,0,0,1518,2874
2.88646e+06,0,0,0,494,3898
2.88914e+06,0,0,0,750,3642
2.89203e+06,0,0,0,1262,3130
2.89203e+06,0,0,0,238,4154
2.89737e+06,0,0,0,1262,3130
2.89738e+06,0,0,0,622,3770
2.89741e+06,0,0,0,1646,2746
2.89771e+06,0,0,0,1928,2464
2.90293e+06,0,0,0,2952,1440
2.91209e+06,0,0,0,2760,1632
2.9121e+06,0,0,0,2104,2288
2.91755e+06,0,0,0,56,4336
2.9191e+06,0,0,0,696,3696
2.9206e+06,0,0,0,561,3831
2.92304e+06,0,0,0,753,3639
2.92568e+06,0,0,0,471,3921
2.92721e+06,0,0,0,111,4281
2.93134e+06,0,0,0,246,4146
2.9368e+06,0,0,0,118,4274
2.94337e+06,0,0,0,918,3474
2.94337e+06,0,0,0,662,3730
2.94337e+06,0,0,0,406,3986
2.94337e+06,0,0,0,278,4114
2.94488e+06,0,0,0,2326,2066
2.94489e+06,0,0,0,1302,3090
2.94536e+06,0,0,0,1584,2808
2.94732e+06,0,0,0,1712,2680
2.94893e+06,0,0,0,2072,2320
2.94932e+06,0,0,0,1790,2602
2.95396e+06,0,0,0,2046,2346
2.95428e+06,0,0,0,2174,2218
2.9558e+06,0,0,0,3198,1194
2.9558e+06,0,0,0,462,3930
2.96513e+06,0,0,0,718,3674
2.96811e+06,0,0,0,1000,3392
2.96811e+06,0,0,0,200,4192
2.96924e+06,0,0,0,72,4320
2.98015e+06,0,0,0,200,4192
2.98015e+06,0,0,0,72,4320
2.98906e+06,0,0,0,2808,1584
2.98906e+06,0,0,0,2008,2384
2.98906e+06,0,0,0,1880,2512
2.98906e+06,0,0,0,1624,2768
2.98906e+06,0,0,0,1342,3050
2.98906e+06,0,0,0,1214,3178
2.98906e+06,0,0,0,958,3434
2.99069e+06,0,0,0,1086,3306
2.99711e+06,0,0,0,1886,2506
2.99857e+06,0,0,0,2542,1850
2.99949e+06,0,0,0,2670,1722
3.00049e+06,0,0,0,2798,1594
3.00177e+06,0,0,0,3054,1338
3.00249e+06,0,0,0,3310,1082
3.00425e+06,0,0,0,3028,1364
3.00841e+06,0,0,0,3310,1082
3.00946e+06,0,0,0,3182,1210
3.0212e+06,0,0,0,3310,1082
3.02229e+06,0,0,0,3118,1274
3.02366e+06,0,0,0,3400,992
3.02691e+06,0,0,0,3144,1248
3.02909e+06,0,0,0,3016,1376
3.03037e+06,0,0,0,968,3424
3.03346e+06,0,0,0,1160,3232
3.03717e+06,0,0,0,360,4032
3.03882e+06,0,0,0,616,3776
3.04001e+06,0,0,0,744,3648
3.04236e+06,0,0,0,616,3776
3.04804e+06,0,0,0,2664,1728
3.04804e+06,0,0,0,1384,3008
3.05334e+06,0,0,0,1512,2880
3.05467e+06,0,0,0,1230,3162
3.05625e+06,0,0,0,2030,2362
3.06382e+06,0,0,0,1774,2618
3.06441e+06,0,0,0,1582,2810
3.06494e+06,0,0,0,2862,1530
3.06532e+06,0,0,0,2734,1658
3.07252e+06,0,0,0,3016,1376
3.07457e+06,0,0,0,3208,1184
3.07576e+06,0,0,0,3336,1056
3.07651e+06,0,0,0,3592,800
3.08436e+06,0,0,0,3310,1082
3.09343e+06,0,0,0,3118,1274
3.09835e+06,0,0,0,2990,1402
3.09835e+06,0,0,0,2862,1530
3.09835e+06,0,0,0,2734,1658
3.09837e+06,0,0,0,2606,1786
3.10017e+06,0,0,0,2478,1914
3.10198e+06,0,0,0,2350,2042
3.10201e+06,0,0,0,2222,2170
3.10201e+06,0,0,0,2094,2298
3.10326e+06,0,0,0,1812,2580
3.10327e+06,0,0,0,2094,2298
3.10393e+06,0,0,0,2286,2106
3.10434e+06,0,0,0,3086,1306
3.10438e+06,0,0,0,2286,2106
3.10563e+06,0,0,0,2158,2234
3.10563e+06,0,0,0,2030,2362
3.10924e+06,0,0,0,2158,2234
3.10929e+06,0,0,0,2286,2106
3.1093e+06,0,0,0,2414,1978
3.10932e+06,0,0,0,2542,1850
3.11182e+06,0,0,0,2670,1722
3.11258e+06,0,0,0,2414,1978
3.11285e+06,0,0,0,2542,1850
3.11287e+06,0,0,0,2414,1978
3.11292e+06,0,0,0,2542,1850
3.11317e+06,0,0,0,2414,1978
3.11329e+06,0,0,0,2222,2170
3.11403e+06,0,0,0,2350,2042
3.1143e+06,0,0,0,1838,2554
3.11654e+06,0,0,0,1966,2426
3.11661e+06,0,0,0,2094,2298
3.12296e+06,0,0,0,2376,2016
3.12387e+06,0,0,0,2504,1888
3.12445e+06,0,0,0,2632,1760
3.12466e+06,0,0,0,3144,1248
3.12503e+06,0,0,0,3336,1056
3.12568e+06,0,0,0,3592,800
3.17133e+06,0,0,0,4392,0
