time,nb_sleeping,nb_switching_on,nb_switching_off,nb_idle,nb_computing
0.00240003,0,0,0,3368,1024
0.00300004,0,0,0,2868,1524
0.00360005,0,0,0,2612,1780
0.00420006,0,0,0,2356,2036
0.00480006,0,0,0,2100,2292
0.00540007,0,0,0,1844,2548
0.00600008,0,0,0,820,3572
0.00660009,0,0,0,564,3828
0.0072001,0,0,0,308,4084
0.0078001,0,0,0,52,4340
21605,0,0,0,308,4084
21616,0,0,0,564,3828
21627,0,0,0,820,3572
21628,0,0,0,1076,3316
21633,0,0,0,52,4340
21740,0,0,0,308,4084
21740,0,0,0,564,3828
21746,0,0,0,52,4340
22953,0,0,0,308,4084
22956,0,0,0,44,4348
33697,0,0,0,544,3848
33700,0,0,0,288,4104
44531,0,0,0,1312,3080
44534,0,0,0,928,3464
44534,0,0,0,672,3720
44534,0,0,0,416,3976
44534,0,0,0,160,4232
44809,0,0,0,672,3720
44812,0,0,0,416,3976
44812,0,0,0,160,4232
45867,0,0,0,424,3968
45870,0,0,0,168,4224
55245,0,0,0,1192,3200
55248,0,0,0,168,4224
55455,0,0,0,424,3968
66155,0,0,0,680,3712
66232,0,0,0,936,3456
66261,0,0,0,1192,3200
66408,0,0,0,1448,2944
66513,0,0,0,1704,2688
67479,0,0,0,1960,2432
68415,0,0,0,2344,2048
68418,0,0,0,296,4096
76924,0,0,0,1320,3072
86520,0,0,0,2344,2048
86523,0,0,0,296,4096
90062,0,0,0,2344,2048
90065,0,0,0,1320,3072
90065,0,0,0,1192,3200
90065,0,0,0,1064,3328
90065,0,0,0,1056,3336
90065,0,0,0,1048,3344
90065,0,0,0,408,3984
90065,0,0,0,24,4368
90065,0,0,0,16,4376
108186,0,0,0,2064,2328
108189,0,0,0,1680,2712
108189,0,0,0,656,3736
117890,0,0,0,1680,2712
117893,0,0,0,656,3736
117893,0,0,0,16,4376
122475,0,0,0,400,3992
122478,0,0,0,144,4248
129872,0,0,0,1168,3224
129875,0,0,0,912,3480
129875,0,0,0,656,3736
129875,0,0,0,272,4120
133354,0,0,0,912,3480
135866,0,0,0,1296,3096
135869,0,0,0,272,4120
135869,0,0,0,16,4376
139628,0,0,0,1040,3352
139631,0,0,0,784,3608
139631,0,0,0,528,3864
139631,0,0,0,4,4388
144251,0,0,0,260,4132
149258,0,0,0,268,4124
151251,0,0,0,524,3868
151565,0,0,0,780,3612
157507,0,0,0,1036,3356
157510,0,0,0,228,4164
161239,0,0,0,484,3908
161242,0,0,0,88,4304
161258,0,0,0,344,4048
162437,0,0,0,984,3408
162438,0,0,0,1368,3024
162443,0,0,0,344,4048
162443,0,0,0,88,4304
173456,0,0,0,612,3780
173459,0,0,0,356,4036
173459,0,0,0,100,4292
182962,0,0,0,496,3896
182965,0,0,0,240,4152
184142,0,0,0,496,3896
184145,0,0,0,240,4152
185898,0,0,0,368,4024
185901,0,0,0,112,4280
186019,0,0,0,120,4272
186304,0,0,0,128,4264
186412,0,0,0,936,3456
186415,0,0,0,134,4258
189071,0,0,0,262,4130
189074,0,0,0,6,4386
195220,0,0,0,262,4130
195223,0,0,0,6,4386
196375,0,0,0,262,4130
204628,0,0,0,518,3874
204631,0,0,0,6,4386
205772,0,0,0,262,4130
206264,0,0,0,1286,3106
206267,0,0,0,262,4130
207517,0,0,0,518,3874
207520,0,0,0,6,4386
210720,0,0,0,262,4130
211065,0,0,0,1064,3328
211068,0,0,0,535,3857
211068,0,0,0,151,4241
216867,0,0,0,407,3985
226271,0,0,0,919,3473
227874,0,0,0,1943,2449
228491,0,0,0,2967,1425
229294,0,0,0,3479,913
231784,0,0,0,4008,384
243483,0,0,0,4392,0
243486,0,0,0,296,4096
243724,0,0,0,40,4352
265340,0,0,0,296,4096
265343,0,0,0,40,4352
288260,0,0,0,296,4096
303099,0,0,0,40,4352
316410,0,0,0,4136,256
316413,0,0,0,2088,2304
316413,0,0,0,1064,3328
316413,0,0,0,40,4352
326015,0,0,0,296,4096
338043,0,0,0,2344,2048
338046,0,0,0,1320,3072
338046,0,0,0,296,4096
338046,0,0,0,40,4352
344282,0,0,0,1064,3328
344285,0,0,0,40,4352
359715,0,0,0,296,4096
359718,0,0,0,40,4352
367975,0,0,0,1064,3328
367978,0,0,0,40,4352
368553,0,0,0,1064,3328
368556,0,0,0,40,4352
374229,0,0,0,1064,3328
374232,0,0,0,40,4352
381417,0,0,0,296,4096
393228,0,0,0,1320,3072
393231,0,0,0,296,4096
393231,0,0,0,40,4352
395873,0,0,0,1064,3328
395876,0,0,0,680,3712
395876,0,0,0,296,4096
395876,0,0,0,40,4352
397791,0,0,0,1064,3328
397794,0,0,0,40,4352
401610,0,0,0,1064,3328
401613,0,0,0,552,3840
401613,0,0,0,28,4364
414992,0,0,0,284,4108
414995,0,0,0,28,4364
417537,0,0,0,284,4108
417540,0,0,0,28,4364
419408,0,0,0,1052,3340
419411,0,0,0,540,3852
419411,0,0,0,284,4108
419411,0,0,0,28,4364
422242,0,0,0,1052,3340
422245,0,0,0,796,3596
422245,0,0,0,412,3980
422245,0,0,0,156,4236
423232,0,0,0,668,3724
423235,0,0,0,156,4236
428371,0,0,0,540,3852
428374,0,0,0,284,4108
428374,0,0,0,28,4364
429453,0,0,0,412,3980
429456,0,0,0,28,4364
434162,0,0,0,552,3840
434165,0,0,0,40,4352
436627,0,0,0,296,4096
436630,0,0,0,40,4352
439139,0,0,0,296,4096
441013,0,0,0,552,3840
441016,0,0,0,40,4352
441066,0,0,0,296,4096
441097,0,0,0,808,3584
441100,0,0,0,424,3968
442669,0,0,0,680,3712
442672,0,0,0,168,4224
443835,0,0,0,424,3968
444823,0,0,0,936,3456
446737,0,0,0,552,3840
446742,0,0,0,168,4224
450100,0,0,0,424,3968
450121,0,0,0,680,3712
450939,0,0,0,1064,3328
450942,0,0,0,40,4352
454645,0,0,0,424,3968
454648,0,0,0,168,4224
458228,0,0,0,424,3968
462821,0,0,0,808,3584
463110,0,0,0,1320,3072
469944,0,0,0,1832,2560
471715,0,0,0,2344,2048
472534,0,0,0,3368,1024
476397,0,0,0,3624,768
479177,0,0,0,4008,384
479179,0,0,0,4392,0
479183,0,0,0,296,4096
479183,0,0,0,40,4352
500907,0,0,0,296,4096
500910,0,0,0,40,4352
522660,0,0,0,296,4096
522663,0,0,0,40,4352
539595,0,0,0,4136,256
539598,0,0,0,2088,2304
539598,0,0,0,1064,3328
539598,0,0,0,40,4352
544291,0,0,0,296,4096
562416,0,0,0,2344,2048
562419,0,0,0,1432,2960
562419,0,0,0,232,4160
585358,0,0,0,1432,2960
585361,0,0,0,1048,3344
585361,0,0,0,664,3728
585361,0,0,0,408,3984
585361,0,0,0,152,4240
592118,0,0,0,1176,3216
592121,0,0,0,920,3472
592121,0,0,0,664,3728
606902,0,0,0,1688,2704
606997,0,0,0,1944,2448
607064,0,0,0,2200,2192
607067,0,0,0,200,4192
607139,0,0,0,584,3808
613766,0,0,0,840,3552
613844,0,0,0,1096,3296
617934,0,0,0,1480,2912
630714,0,0,0,2392,2000
630717,0,0,0,792,3600
637075,0,0,0,2792,1600
637078,0,0,0,792,3600
652357,0,0,0,2392,2000
652360,0,0,0,1568,2824
652360,0,0,0,552,3840
658676,0,0,0,2552,1840
658679,0,0,0,1528,2864
658679,0,0,0,504,3888
715505,0,0,0,1520,2872
717466,0,0,0,718,3674
725462,0,0,0,1742,2650
736476,0,0,0,1486,2906
736689,0,0,0,1230,3162
738195,0,0,0,974,3418
738208,0,0,0,718,3674
738874,0,0,0,1542,2850
739122,0,0,0,2566,1826
758121,0,0,0,2822,1570
758286,0,0,0,3078,1314
759827,0,0,0,3334,1058
761106,0,0,0,3590,802
763735,0,0,0,1474,2918
773914,0,0,0,818,3574
783861,0,0,0,2934,1458
783864,0,0,0,1910,2482
788807,0,0,0,886,3506
805104,0,0,0,1688,2704
805107,0,0,0,664,3728
822753,0,0,0,1688,2704
838848,0,0,0,1304,3088
859680,0,0,0,1048,3344
859696,0,0,0,792,3600
859901,0,0,0,536,3856
859914,0,0,0,280,4112
860473,0,0,0,936,3456
864041,0,0,0,412,3980
870382,0,0,0,1436,2956
871159,0,0,0,1820,2572
881339,0,0,0,2076,2316
881349,0,0,0,2332,2060
882713,0,0,0,216,4176
882744,0,0,0,472,3920
882753,0,0,0,728,3664
893037,0,0,0,472,3920
893324,0,0,0,1496,2896
896589,0,0,0,2020,2372
902853,0,0,0,4136,256
905752,0,0,0,3880,512
914730,0,0,0,4136,256
928677,0,0,0,4392,0
936318,0,0,0,3368,1024
936356,0,0,0,2344,2048
936396,0,0,0,1320,3072
936437,0,0,0,296,4096
958118,0,0,0,40,4352
964891,0,0,0,1064,3328
964894,0,0,0,40,4352
965455,0,0,0,1064,3328
965458,0,0,0,40,4352
965855,0,0,0,1064,3328
965858,0,0,0,40,4352
966918,0,0,0,1064,3328
966921,0,0,0,808,3584
969477,0,0,0,545,3847
979910,0,0,0,801,3591
984283,0,0,0,290,4102
988623,0,0,0,546,3846
989839,0,0,0,290,4102
993610,0,0,0,1314,3078
993910,0,0,0,2338,2054
994240,0,0,0,3362,1030
1.00293e+06,0,0,0,2978,1414
1.01277e+06,0,0,0,3234,1158
1.01674e+06,0,0,0,3745,647
1.02451e+06,0,0,0,3233,1159
1.02974e+06,0,0,0,2977,1415
1.03521e+06,0,0,0,3361,1031
1.0468e+06,0,0,0,3105,1287
1.05266e+06,0,0,0,3361,1031
1.05524e+06,0,0,0,1313,3079
1.05555e+06,0,0,0,289,4103
1.05562e+06,0,0,0,801,3591
1.06688e+06,0,0,0,1057,3335
1.07689e+06,0,0,0,3105,1287
1.07689e+06,0,0,0,1057,3335
1.08534e+06,0,0,0,673,3719
1.09513e+06,0,0,0,289,4103
1.10012e+06,0,0,0,1313,3079
1.10607e+06,0,0,0,1697,2695
1.11296e+06,0,0,0,3745,647
1.1208e+06,0,0,0,4008,384
1.12742e+06,0,0,0,4392,0
1.13015e+06,0,0,0,4136,256
1.13015e+06,0,0,0,3880,512
1.13043e+06,0,0,0,3368,1024
1.13045e+06,0,0,0,2856,1536
1.15193e+06,0,0,0,3112,1280
1.15306e+06,0,0,0,3368,1024
1.15646e+06,0,0,0,2344,2048
1.16293e+06,0,0,0,2856,1536
1.16298e+06,0,0,0,3368,1024
1.16957e+06,0,0,0,3112,1280
1.17813e+06,0,0,0,4136,256
1.19238e+06,0,0,0,4392,0
1.20084e+06,0,0,0,4136,256
1.20792e+06,0,0,0,3872,520
1.21006e+06,0,0,0,3609,783
1.21029e+06,0,0,0,3346,1046
1.21045e+06,0,0,0,3083,1309
1.22176e+06,0,0,0,2554,1838
1.22259e+06,0,0,0,2810,1582
1.22469e+06,0,0,0,2286,2106
1.22679e+06,0,0,0,1270,3122
1.22968e+06,0,0,0,1534,2858
1.24592e+06,0,0,0,2063,2329
1.25376e+06,0,0,0,2326,2066
1.25725e+06,0,0,0,2850,1542
1.27874e+06,0,0,0,2594,1798
1.27915e+06,0,0,0,2338,2054
1.27953e+06,0,0,0,1826,2566
1.27969e+06,0,0,0,1314,3078
1.29656e+06,0,0,0,1577,2815
1.30044e+06,0,0,0,1833,2559
1.30091e+06,0,0,0,2089,2303
1.30774e+06,0,0,0,2601,1791
1.31219e+06,0,0,0,3113,1279
1.31336e+06,0,0,0,4129,263
1.3377e+06,0,0,0,3745,647
1.34606e+06,0,0,0,3489,903
1.34784e+06,0,0,0,3233,1159
1.36782e+06,0,0,0,3489,903
1.36955e+06,0,0,0,3745,647
1.37005e+06,0,0,0,4129,263
1.39125e+06,0,0,0,3873,519
1.3928e+06,0,0,0,3049,1343
1.39285e+06,0,0,0,2537,1855
1.39683e+06,0,0,0,1513,2879
1.39835e+06,0,0,0,1257,3135
1.39904e+06,0,0,0,873,3519
1.41129e+06,0,0,0,1129,3263
1.41319e+06,0,0,0,873,3519
1.41321e+06,0,0,0,617,3775
1.41327e+06,0,0,0,361,4031
1.41327e+06,0,0,0,105,4287
1.41459e+06,0,0,0,617,3775
1.42005e+06,0,0,0,873,3519
1.42074e+06,0,0,0,1257,3135
1.43484e+06,0,0,0,1513,2879
1.43485e+06,0,0,0,1769,2623
1.43487e+06,0,0,0,2025,2367
1.43487e+06,0,0,0,2281,2111
1.43643e+06,0,0,0,3305,1087
1.45327e+06,0,0,0,3049,1343
1.45331e+06,0,0,0,2793,1599
1.45333e+06,0,0,0,2537,1855
1.45482e+06,0,0,0,1513,2879
1.45484e+06,0,0,0,489,3903
1.47011e+06,0,0,0,752,3640
1.47497e+06,0,0,0,1008,3384
1.47503e+06,0,0,0,1264,3128
1.47503e+06,0,0,0,240,4152
1.47504e+06,0,0,0,496,3896
1.47931e+06,0,0,0,1320,3072
1.47932e+06,0,0,0,296,4096
1.47932e+06,0,0,0,40,4352
1.501e+06,0,0,0,296,4096
1.50101e+06,0,0,0,40,4352
1.5226e+06,0,0,0,1064,3328
1.5226e+06,0,0,0,552,3840
1.5226e+06,0,0,0,296,4096
1.5226e+06,0,0,0,40,4352
1.52271e+06,0,0,0,296,4096
1.54136e+06,0,0,0,1320,3072
1.54137e+06,0,0,0,518,3874
1.5414e+06,0,0,0,1542,2850
1.5414e+06,0,0,0,518,3874
1.54433e+06,0,0,0,774,3618
1.54438e+06,0,0,0,1030,3362
1.54438e+06,0,0,0,6,4386
1.5513e+06,0,0,0,518,3874
1.5513e+06,0,0,0,6,4386
1.5616e+06,0,0,0,1030,3362
1.5616e+06,0,0,0,518,3874
1.5616e+06,0,0,0,6,4386
1.5802e+06,0,0,0,518,3874
1.5802e+06,0,0,0,6,4386
1.58456e+06,0,0,0,808,3584
1.58456e+06,0,0,0,552,3840
1.58456e+06,0,0,0,40,4352
1.58892e+06,0,0,0,1064,3328
1.58892e+06,0,0,0,680,3712
1.58892e+06,0,0,0,168,4224
1.59049e+06,0,0,0,680,3712
1.59052e+06,0,0,0,1192,3200
1.60626e+06,0,0,0,1448,2944
1.60627e+06,0,0,0,1960,2432
1.60912e+06,0,0,0,2472,1920
1.61785e+06,0,0,0,2984,1408
1.62124e+06,0,0,0,3368,1024
1.62481e+06,0,0,0,4392,0
1.63519e+06,0,0,0,4008,384
1.6552e+06,0,0,0,4392,0
1.66728e+06,0,0,0,4136,256
1.67438e+06,0,0,0,3880,512
1.67443e+06,0,0,0,3368,1024
1.67451e+06,0,0,0,2856,1536
1.67627e+06,0,0,0,2344,2048
1.67638e+06,0,0,0,1832,2560
1.6776e+06,0,0,0,1320,3072
1.689e+06,0,0,0,1576,2816
1.69608e+06,0,0,0,1832,2560
1.70336e+06,0,0,0,2344,2048
1.70342e+06,0,0,0,2856,1536
1.70524e+06,0,0,0,3368,1024
1.70526e+06,0,0,0,3880,512
1.70652e+06,0,0,0,4392,0
1.71283e+06,0,0,0,4136,256
1.71298e+06,0,0,0,3880,512
1.71322e+06,0,0,0,3624,768
1.71893e+06,0,0,0,3112,1280
1.73454e+06,0,0,0,3368,1024
1.73472e+06,0,0,0,3624,768
1.73494e+06,0,0,0,3880,512
1.74787e+06,0,0,0,4392,0
1.74969e+06,0,0,0,4008,384
1.75015e+06,0,0,0,2984,1408
1.7515e+06,0,0,0,1960,2432
1.76137e+06,0,0,0,1704,2688
1.77012e+06,0,0,0,2088,2304
1.78308e+06,0,0,0,2344,2048
1.79848e+06,0,0,0,3368,1024
1.83192e+06,0,0,0,4392,0
1.83611e+06,0,0,0,4129,263
1.83626e+06,0,0,0,3873,519
1.83637e+06,0,0,0,3617,775
1.8394e+06,0,0,0,3361,1031
1.84129e+06,0,0,0,2337,2055
1.84486e+06,0,0,0,2081,2311
1.84882e+06,0,0,0,1057,3335
1.85796e+06,0,0,0,1313,3079
1.85809e+06,0,0,0,1569,2823
1.86e+06,0,0,0,767,3625
1.86079e+06,0,0,0,383,4009
1.86112e+06,0,0,0,639,3753
1.86657e+06,0,0,0,895,3497
1.88197e+06,0,0,0,639,3753
1.88224e+06,0,0,0,383,4009
1.89319e+06,0,0,0,767,3625
1.89319e+06,0,0,0,238,4154
1.90318e+06,0,0,0,1040,3352
1.90318e+06,0,0,0,238,4154
1.9037e+06,0,0,0,494,3898
1.90397e+06,0,0,0,750,3642
1.91361e+06,0,0,0,1774,2618
1.9173e+06,0,0,0,2303,2089
1.92257e+06,0,0,0,3327,1065
1.93628e+06,0,0,0,2943,1449
1.93776e+06,0,0,0,1919,2473
1.93978e+06,0,0,0,1535,2857
1.96574e+06,0,0,0,2337,2055
1.96878e+06,0,0,0,2721,1671
1.97215e+06,0,0,0,3105,1287
1.97494e+06,0,0,0,2849,1543
1.97498e+06,0,0,0,2593,1799
1.97965e+06,0,0,0,1569,2823
1.9797e+06,0,0,0,545,3847
1.98225e+06,0,0,0,161,4231
1.99665e+06,0,0,0,417,3975
1.99665e+06,0,0,0,161,4231
1.99672e+06,0,0,0,417,3975
1.99673e+06,0,0,0,161,4231
2.00075e+06,0,0,0,1185,3207
2.00075e+06,0,0,0,929,3463
2.00075e+06,0,0,0,673,3719
2.01478e+06,0,0,0,1057,3335
2.01824e+06,0,0,0,1313,3079
2.01835e+06,0,0,0,1569,2823
2.02235e+06,0,0,0,1825,2567
2.02236e+06,0,0,0,2081,2311
2.03564e+06,0,0,0,3105,1287
2.05175e+06,0,0,0,2721,1671
2.05518e+06,0,0,0,2465,1927
2.06028e+06,0,0,0,3489,903
2.06334e+06,0,0,0,3233,1159
2.06687e+06,0,0,0,2977,1415
2.06838e+06,0,0,0,3240,1152
2.07352e+06,0,0,0,3624,768
2.07693e+06,0,0,0,3880,512
2.08043e+06,0,0,0,2856,1536
2.08503e+06,0,0,0,3112,1280
2.0886e+06,0,0,0,3368,1024
2.1389e+06,0,0,0,3112,1280
2.13904e+06,0,0,0,2856,1536
2.15233e+06,0,0,0,2600,1792
2.1606e+06,0,0,0,2856,1536
2.16075e+06,0,0,0,3112,1280
2.16696e+06,0,0,0,4136,256
2.17403e+06,0,0,0,4392,0
2.20134e+06,0,0,0,3590,802
2.2195e+06,0,0,0,3334,1058
2.21952e+06,0,0,0,3078,1314
2.23033e+06,0,0,0,3880,512
2.24124e+06,0,0,0,4136,256
2.24125e+06,0,0,0,4392,0
2.25425e+06,0,0,0,4136,256
2.26658e+06,0,0,0,3880,512
2.27145e+06,0,0,0,3078,1314
2.27249e+06,0,0,0,2822,1570
2.27606e+06,0,0,0,3078,1314
2.28829e+06,0,0,0,3334,1058
2.29245e+06,0,0,0,4136,256
2.2942e+06,0,0,0,4392,0
2.31482e+06,0,0,0,4136,256
2.33785e+06,0,0,0,4392,0
2.36573e+06,0,0,0,3590,802
2.36933e+06,0,0,0,3334,1058
2.39106e+06,0,0,0,3590,802
2.39467e+06,0,0,0,4392,0
2.40082e+06,0,0,0,4136,256
2.40783e+06,0,0,0,3880,512
2.41107e+06,0,0,0,2856,1536
2.4111e+06,0,0,0,2600,1792
2.41869e+06,0,0,0,2076,2316
2.41928e+06,0,0,0,1060,3332
2.4205e+06,0,0,0,236,4156
2.42254e+06,0,0,0,492,3900
2.42952e+06,0,0,0,748,3644
2.42952e+06,0,0,0,236,4156
2.43132e+06,0,0,0,492,3900
2.45132e+06,0,0,0,1016,3376
2.45133e+06,0,0,0,504,3888
2.4584e+06,0,0,0,1016,3376
2.45841e+06,0,0,0,504,3888
2.45841e+06,0,0,0,248,4144
2.47948e+06,0,0,0,504,3888
2.48023e+06,0,0,0,1016,3376
2.48023e+06,0,0,0,504,3888
2.48731e+06,0,0,0,1016,3376
2.48731e+06,0,0,0,504,3888
2.49156e+06,0,0,0,1528,2864
2.49157e+06,0,0,0,1016,3376
2.49157e+06,0,0,0,504,3888
2.50581e+06,0,0,0,1520,2872
2.50582e+06,0,0,0,1008,3384
2.50582e+06,0,0,0,496,3896
2.50702e+06,0,0,0,1320,3072
2.50702e+06,0,0,0,808,3584
2.50915e+06,0,0,0,1320,3072
2.50915e+06,0,0,0,296,4096
2.50915e+06,0,0,0,40,4352
2.5162e+06,0,0,0,552,3840
2.5162e+06,0,0,0,296,4096
2.52047e+06,0,0,0,808,3584
2.52047e+06,0,0,0,408,3984
2.52052e+06,0,0,0,920,3472
2.52662e+06,0,0,0,391,4001
2.53084e+06,0,0,0,647,3745
2.53473e+06,0,0,0,1159,3233
2.53475e+06,0,0,0,1671,2721
2.53591e+06,0,0,0,2183,2209
2.53796e+06,0,0,0,2439,1953
2.54092e+06,0,0,0,2183,2209
2.54218e+06,0,0,0,2583,1809
2.55194e+06,0,0,0,3112,1280
2.56263e+06,0,0,0,3368,1024
2.57325e+06,0,0,0,3112,1280
2.57387e+06,0,0,0,2600,1792
2.5748e+06,0,0,0,2344,2048
2.57929e+06,0,0,0,1320,3072
2.58098e+06,0,0,0,296,4096
2.58419e+06,0,0,0,40,4352
2.59465e+06,0,0,0,1064,3328
2.59497e+06,0,0,0,1320,3072
2.59558e+06,0,0,0,1832,2560
2.59653e+06,0,0,0,2088,2304
2.60592e+06,0,0,0,2344,2048
2.60625e+06,0,0,0,3368,1024
2.60625e+06,0,0,0,296,4096
2.60625e+06,0,0,0,40,4352
2.62661e+06,0,0,0,1064,3328
2.62662e+06,0,0,0,40,4352
2.62794e+06,0,0,0,296,4096
2.62794e+06,0,0,0,40,4352
2.6497e+06,0,0,0,296,4096
2.6497e+06,0,0,0,40,4352
2.65953e+06,0,0,0,3112,1280
2.65954e+06,0,0,0,2856,1536
2.65954e+06,0,0,0,2600,1792
2.65954e+06,0,0,0,2344,2048
2.65954e+06,0,0,0,2088,2304
2.65954e+06,0,0,0,1832,2560
2.65954e+06,0,0,0,1576,2816
2.65954e+06,0,0,0,1314,3078
2.65954e+06,0,0,0,490,3902
2.65954e+06,0,0,0,234,4158
2.67149e+06,0,0,0,490,3902
2.68e+06,0,0,0,746,3646
2.68e+06,0,0,0,234,4158
2.68125e+06,0,0,0,490,3902
2.68125e+06,0,0,0,746,3646
2.68126e+06,0,0,0,1002,3390
2.68126e+06,0,0,0,252,4140
2.68128e+06,0,0,0,508,3884
2.68129e+06,0,0,0,252,4140
2.68129e+06,0,0,0,508,3884
2.68129e+06,0,0,0,252,4140
2.6813e+06,0,0,0,508,3884
2.68131e+06,0,0,0,252,4140
2.70117e+06,0,0,0,764,3628
2.70118e+06,0,0,0,124,4268
2.703e+06,0,0,0,380,4012
2.70301e+06,0,0,0,636,3756
2.70302e+06,0,0,0,124,4268
2.70306e+06,0,0,0,380,4012
2.70686e+06,0,0,0,1404,2988
2.70686e+06,0,0,0,892,3500
2.70686e+06,0,0,0,380,4012
2.71368e+06,0,0,0,1130,3262
2.71368e+06,0,0,0,618,3774
2.71368e+06,0,0,0,106,4286
2.73194e+06,0,0,0,618,3774
2.73194e+06,0,0,0,106,4286
2.73577e+06,0,0,0,618,3774
2.73606e+06,0,0,0,1258,3134
2.737e+06,0,0,0,1770,2622
2.74259e+06,0,0,0,2282,2110
2.74261e+06,0,0,0,2794,1598
2.74261e+06,0,0,0,234,4158
2.74606e+06,0,0,0,1058,3334
2.74606e+06,0,0,0,802,3590
2.74606e+06,0,0,0,546,3846
2.74606e+06,0,0,0,34,4358
2.76086e+06,0,0,0,546,3846
2.76087e+06,0,0,0,34,4358
2.76434e+06,0,0,0,2594,1798
2.76434e+06,0,0,0,2082,2310
2.76434e+06,0,0,0,1570,2822
2.76434e+06,0,0,0,546,3846
2.76776e+06,0,0,0,802,3590
2.76777e+06,0,0,0,1058,3334
2.76778e+06,0,0,0,34,4358
2.77001e+06,0,0,0,546,3846
2.78958e+06,0,0,0,1570,2822
2.78959e+06,0,0,0,546,3846
2.7898e+06,0,0,0,1058,3334
2.79308e+06,0,0,0,2082,2310
2.79308e+06,0,0,0,34,4358
2.79324e+06,0,0,0,546,3846
2.79324e+06,0,0,0,1058,3334
2.79324e+06,0,0,0,34,4358
2.81474e+06,0,0,0,2082,2310
2.81474e+06,0,0,0,1826,2566
2.81474e+06,0,0,0,1570,2822
2.81474e+06,0,0,0,1058,3334
2.81474e+06,0,0,0,546,3846
2.81474e+06,0,0,0,290,4102
2.81486e+06,0,0,0,1314,3078
2.81487e+06,0,0,0,306,4086
2.83647e+06,0,0,0,562,3830
2.83648e+06,0,0,0,38,4354
2.83649e+06,0,0,0,294,4098
2.83649e+06,0,0,0,38,4354
2.83649e+06,0,0,0,294,4098
2.83649e+06,0,0,0,38,4354
2.83784e+06,0,0,0,550,3842
2.83785e+06,0,0,0,294,4098
2.83974e+06,0,0,0,806,3586
2.83974e+06,0,0,0,422,3970
2.85821e+06,0,0,0,678,3714
2.85822e+06,0,0,0,166,4226
2.85823e+06,0,0,0,422,3970
2.85958e+06,0,0,0,678,3714
2.85958e+06,0,0,0,166,4226
2.87018e+06,0,0,0,690,3702
2.87018e+06,0,0,0,434,3958
2.87226e+06,0,0,0,818,3574
2.87878e+06,0,0,0,1842,2550
2.88757e+06,0,0,0,2354,2038
2.88807e+06,0,0,0,2866,1526
2.89191e+06,0,0,0,3122,1270
2.90141e+06,0,0,0,4130,262
2.94346e+06,0,0,0,3106,1286
2.94348e+06,0,0,0,1058,3334
2.94527e+06,0,0,0,34,4358
2.96512e+06,0,0,0,2082,2310
2.96513e+06,0,0,0,1826,2566
2.96513e+06,0,0,0,802,3590
2.96693e+06,0,0,0,1826,2566
2.96694e+06,0,0,0,802,3590
2.96874e+06,0,0,0,1826,2566
2.96874e+06,0,0,0,802,3590
2.98369e+06,0,0,0,1064,3328
2.98369e+06,0,0,0,40,4352
2.98681e+06,0,0,0,296,4096
2.98681e+06,0,0,0,40,4352
3.00853e+06,0,0,0,296,4096
3.00853e+06,0,0,0,40,4352
3.02906e+06,0,0,0,296,4096
3.02907e+06,0,0,0,40,4352
3.04816e+06,0,0,0,1064,3328
3.04817e+06,0,0,0,40,4352
3.04999e+06,0,0,0,1064,3328
3.05e+06,0,0,0,40,4352
3.05078e+06,0,0,0,296,4096
3.05173e+06,0,0,0,1320,3072
3.05721e+06,0,0,0,1064,3328
3.06673e+06,0,0,0,2088,2304
3.07889e+06,0,0,0,2344,2048
3.09587e+06,0,0,0,1320,3072
3.09588e+06,0,0,0,296,4096
3.10429e+06,0,0,0,40,4352
3.12603e+06,0,0,0,296,4096
3.12897e+06,0,0,0,1320,3072
3.12897e+06,0,0,0,296,4096
3.13125e+06,0,0,0,1320,3072
3.13125e+06,0,0,0,296,4096
3.13307e+06,0,0,0,1320,3072
3.13307e+06,0,0,0,808,3584
3.13307e+06,0,0,0,296,4096
3.13307e+06,0,0,0,40,4352
3.1497e+06,0,0,0,1064,3328
3.1497e+06,0,0,0,552,3840
3.1497e+06,0,0,0,40,4352
3.15368e+06,0,0,0,296,4096
3.15368e+06,0,0,0,40,4352
3.15425e+06,0,0,0,1064,3328
3.15425e+06,0,0,0,808,3584
3.15425e+06,0,0,0,552,3840
3.15425e+06,0,0,0,296,4096
3.15425e+06,0,0,0,40,4352
3.16197e+06,0,0,0,552,3840
3.16197e+06,0,0,0,296,4096
3.16203e+06,0,0,0,808,3584
3.1748e+06,0,0,0,1064,3328
3.1748e+06,0,0,0,152,4240
3.1748e+06,0,0,0,408,3984
3.17489e+06,0,0,0,664,3728
3.17489e+06,0,0,0,24,4368
3.17539e+06,0,0,0,280,4112
3.1754e+06,0,0,0,24,4368
3.17598e+06,0,0,0,280,4112
3.17598e+06,0,0,0,24,4368
3.17862e+06,0,0,0,536,3856
3.17862e+06,0,0,0,152,4240
3.17862e+06,0,0,0,664,3728
3.18201e+06,0,0,0,920,3472
3.19714e+06,0,0,0,1176,3216
3.19776e+06,0,0,0,1432,2960
3.20041e+06,0,0,0,1816,2576
3.20289e+06,0,0,0,2840,1552
3.20886e+06,0,0,0,3480,912
3.24319e+06,0,0,0,4392,0
