time,nb_sleeping,nb_switching_on,nb_switching_off,nb_idle,nb_computing
0.00240003,0,0,0,4376,16
0.00300004,0,0,0,4360,32
0.00360005,0,0,0,4328,64
0.00420006,0,0,0,4296,96
0.00480006,0,0,0,4264,128
0.00540007,0,0,0,4136,256
0.00600008,0,0,0,4008,384
0.00660009,0,0,0,3880,512
0.0072001,0,0,0,3752,640
0.0078001,0,0,0,3496,896
0.00840011,0,0,0,3480,912
0.00900012,0,0,0,3464,928
0.00960013,0,0,0,3448,944
0.0102001,0,0,0,3432,960
0.0108001,0,0,0,3416,976
0.0114002,0,0,0,3384,1008
0.0120002,0,0,0,3352,1040
0.0126002,0,0,0,3096,1296
0.0132002,0,0,0,3080,1312
0.0138002,0,0,0,3048,1344
0.0144002,0,0,0,3032,1360
0.0150002,0,0,0,984,3408
0.0156002,0,0,0,968,3424
0.0162002,0,0,0,840,3552
0.0168002,0,0,0,808,3584
0.0174002,0,0,0,776,3616
0.0180002,0,0,0,760,3632
0.0186002,0,0,0,744,3648
0.0192003,0,0,0,728,3664
0.0198003,0,0,0,712,3680
0.0204003,0,0,0,696,3696
0.0210003,0,0,0,664,3728
0.0216003,0,0,0,632,3760
0.0222003,0,0,0,616,3776
0.0228003,0,0,0,584,3808
0.0234003,0,0,0,568,3824
0.0240003,0,0,0,552,3840
0.0246003,0,0,0,296,4096
0.0252003,0,0,0,168,4224
0.0258003,0,0,0,40,4352
0.0264004,0,0,0,8,4384
11719,0,0,0,264,4128
14513,0,0,0,296,4096
14517,0,0,0,312,4080
14518,0,0,0,344,4048
14524,0,0,0,376,4016
14528,0,0,0,392,4000
14546,0,0,0,408,3984
14557,0,0,0,440,3952
14560,0,0,0,472,3920
14570,0,0,0,488,3904
14572,0,0,0,520,3872
14584,0,0,0,536,3856
14585,0,0,0,568,3824
14585,0,0,0,584,3808
14589,0,0,0,616,3776
14592,0,0,0,632,3760
14593,0,0,0,648,3744
14593,0,0,0,680,3712
14594,0,0,0,712,3680
14595,0,0,0,728,3664
14595,0,0,0,744,3648
14604,0,0,0,760,3632
14615,0,0,0,792,3600
14617,0,0,0,808,3584
14617,0,0,0,824,3568
14645,0,0,0,840,3552
14646,0,0,0,872,3520
14652,0,0,0,888,3504
14683,0,0,0,904,3488
14703,0,0,0,920,3472
14708,0,0,0,936,3456
18741,0,0,0,1064,3328
21653,0,0,0,1320,3072
21688,0,0,0,1448,2944
21707,0,0,0,1576,2816
21747,0,0,0,1832,2560
21767,0,0,0,1960,2432
21776,0,0,0,2088,2304
21779,0,0,0,40,4352
21779,0,0,0,24,4368
21779,0,0,0,8,4384
21786,0,0,0,136,4256
21789,0,0,0,8,4384
21800,0,0,0,136,4256
21803,0,0,0,8,4384
36406,0,0,0,24,4368
36409,0,0,0,8,4384
36412,0,0,0,24,4368
36415,0,0,0,8,4384
43600,0,0,0,136,4256
43603,0,0,0,264,4128
43606,0,0,0,232,4160
43606,0,0,0,200,4192
43606,0,0,0,168,4224
43606,0,0,0,152,4240
43606,0,0,0,120,4272
43606,0,0,0,104,4288
43606,0,0,0,88,4304
43606,0,0,0,72,4320
43606,0,0,0,56,4336
43606,0,0,0,24,4368
43606,0,0,0,8,4384
51005,0,0,0,24,4368
51008,0,0,0,8,4384
51037,0,0,0,24,4368
51040,0,0,0,8,4384
57334,0,0,0,40,4352
57337,0,0,0,8,4384
58114,0,0,0,40,4352
58117,0,0,0,8,4384
58142,0,0,0,40,4352
58145,0,0,0,8,4384
58146,0,0,0,40,4352
58149,0,0,0,24,4368
58149,0,0,0,8,4384
58157,0,0,0,24,4368
58160,0,0,0,8,4384
58177,0,0,0,24,4368
58180,0,0,0,56,4336
58183,0,0,0,40,4352
58183,0,0,0,8,4384
58191,0,0,0,24,4368
58194,0,0,0,8,4384
58213,0,0,0,24,4368
58216,0,0,0,8,4384
58220,0,0,0,24,4368
58223,0,0,0,8,4384
58230,0,0,0,24,4368
58233,0,0,0,8,4384
65635,0,0,0,24,4368
65638,0,0,0,8,4384
65654,0,0,0,24,4368
65657,0,0,0,8,4384
69187,0,0,0,40,4352
69190,0,0,0,8,4384
71918,0,0,0,40,4352
71921,0,0,0,24,4368
71921,0,0,0,8,4384
72681,0,0,0,40,4352
72705,0,0,0,72,4320
72713,0,0,0,88,4304
72726,0,0,0,104,4288
72760,0,0,0,120,4272
72764,0,0,0,136,4256
72767,0,0,0,8,4384
72792,0,0,0,24,4368
72793,0,0,0,40,4352
72841,0,0,0,56,4336
72861,0,0,0,72,4320
80270,0,0,0,88,4304
80680,0,0,0,104,4288
83651,0,0,0,232,4160
83763,0,0,0,264,4128
86476,0,0,0,280,4112
86542,0,0,0,296,4096
86624,0,0,0,2344,2048
86627,0,0,0,296,4096
86627,0,0,0,235,4157
86627,0,0,0,174,4218
86627,0,0,0,113,4279
86627,0,0,0,52,4340
86627,0,0,0,20,4372
86627,0,0,0,4,4388
101145,0,0,0,65,4327
101145,0,0,0,126,4266
101152,0,0,0,158,4234
101156,0,0,0,174,4218
101172,0,0,0,235,4157
101241,0,0,0,296,4096
108274,0,0,0,2344,2048
108277,0,0,0,296,4096
108277,0,0,0,235,4157
108277,0,0,0,107,4285
108277,0,0,0,46,4346
108277,0,0,0,30,4362
108277,0,0,0,14,4378
122802,0,0,0,75,4317
122805,0,0,0,11,4381
122815,0,0,0,27,4365
122818,0,0,0,11,4381
122822,0,0,0,27,4365
122825,0,0,0,11,4381
122837,0,0,0,72,4320
122840,0,0,0,40,4352
122840,0,0,0,24,4368
122840,0,0,0,8,4384
130002,0,0,0,136,4256
130005,0,0,0,8,4384
135403,0,0,0,72,4320
135406,0,0,0,56,4336
135406,0,0,0,40,4352
135406,0,0,0,24,4368
135406,0,0,0,8,4384
137360,0,0,0,40,4352
137363,0,0,0,24,4368
137363,0,0,0,8,4384
137392,0,0,0,24,4368
137395,0,0,0,40,4352
137398,0,0,0,24,4368
137398,0,0,0,8,4384
137403,0,0,0,24,4368
137406,0,0,0,8,4384
137427,0,0,0,24,4368
137430,0,0,0,8,4384
141034,0,0,0,2056,2336
141037,0,0,0,1544,2848
141037,0,0,0,719,3673
141037,0,0,0,207,4185
141037,0,0,0,79,4313
149924,0,0,0,95,4297
149983,0,0,0,111,4281
149987,0,0,0,127,4265
150036,0,0,0,143,4249
151787,0,0,0,271,4121
151790,0,0,0,15,4377
151908,0,0,0,31,4361
151939,0,0,0,47,4345
151942,0,0,0,63,4329
151964,0,0,0,79,4313
152084,0,0,0,95,4297
152107,0,0,0,111,4281
162823,0,0,0,239,4153
162826,0,0,0,111,4281
163737,0,0,0,623,3769
163740,0,0,0,495,3897
163740,0,0,0,367,4025
163740,0,0,0,111,4281
163740,0,0,0,95,4297
163740,0,0,0,79,4313
163740,0,0,0,63,4329
163740,0,0,0,47,4345
163740,0,0,0,31,4361
163740,0,0,0,15,4377
165226,0,0,0,2063,2329
165229,0,0,0,527,3865
165229,0,0,0,399,3993
165229,0,0,0,271,4121
165229,0,0,0,143,4249
165229,0,0,0,15,4377
166380,0,0,0,527,3865
166383,0,0,0,399,3993
166383,0,0,0,271,4121
166383,0,0,0,143,4249
166383,0,0,0,15,4377
170649,0,0,0,271,4121
170652,0,0,0,143,4249
170652,0,0,0,15,4377
175686,0,0,0,143,4249
175689,0,0,0,15,4377
175984,0,0,0,143,4249
175987,0,0,0,15,4377
176525,0,0,0,143,4249
176729,0,0,0,271,4121
176732,0,0,0,15,4377
177116,0,0,0,143,4249
177284,0,0,0,271,4121
178270,0,0,0,287,4105
178299,0,0,0,303,4089
178302,0,0,0,319,4073
178335,0,0,0,335,4057
178341,0,0,0,351,4041
179343,0,0,0,367,4025
180980,0,0,0,623,3769
184651,0,0,0,751,3641
185389,0,0,0,879,3513
185392,0,0,0,79,4313
185392,0,0,0,63,4329
185392,0,0,0,47,4345
185392,0,0,0,15,4377
185486,0,0,0,143,4249
185489,0,0,0,111,4281
185489,0,0,0,79,4313
185489,0,0,0,63,4329
185489,0,0,0,47,4345
185489,0,0,0,31,4361
185489,0,0,0,15,4377
185500,0,0,0,143,4249
185502,0,0,0,271,4121
185506,0,0,0,239,4153
189130,0,0,0,367,4025
190013,0,0,0,495,3897
190016,0,0,0,103,4289
194374,0,0,0,231,4161
197726,0,0,0,359,4033
197729,0,0,0,103,4289
197729,0,0,0,71,4321
197729,0,0,0,39,4353
198502,0,0,0,295,4097
198505,0,0,0,39,4353
198505,0,0,0,7,4385
199934,0,0,0,39,4353
199952,0,0,0,55,4337
199954,0,0,0,71,4321
199990,0,0,0,87,4305
200016,0,0,0,119,4273
200019,0,0,0,151,4241
200022,0,0,0,23,4369
200022,0,0,0,7,4385
200056,0,0,0,23,4369
200059,0,0,0,7,4385
200068,0,0,0,23,4369
200071,0,0,0,7,4385
200078,0,0,0,39,4353
200081,0,0,0,7,4385
200101,0,0,0,23,4369
200104,0,0,0,7,4385
200322,0,0,0,399,3993
200325,0,0,0,367,4025
200325,0,0,0,335,4057
200325,0,0,0,319,4073
200325,0,0,0,287,4105
200325,0,0,0,271,4121
200325,0,0,0,255,4137
200325,0,0,0,223,4169
200325,0,0,0,191,4201
200325,0,0,0,175,4217
200325,0,0,0,159,4233
200325,0,0,0,143,4249
200325,0,0,0,127,4265
200325,0,0,0,111,4281
212121,0,0,0,1647,2745
212222,0,0,0,1679,2713
212245,0,0,0,1711,2681
214186,0,0,0,1743,2649
214593,0,0,0,1759,2633
214604,0,0,0,1775,2617
214613,0,0,0,1791,2601
214628,0,0,0,1807,2585
214658,0,0,0,1839,2553
214829,0,0,0,1871,2521
214833,0,0,0,1887,2505
214837,0,0,0,1903,2489
214839,0,0,0,1919,2473
214856,0,0,0,1935,2457
214888,0,0,0,1967,2425
214893,0,0,0,1999,2393
214895,0,0,0,2015,2377
214901,0,0,0,2031,2361
214905,0,0,0,2063,2329
214924,0,0,0,2079,2313
214927,0,0,0,2111,2281
214928,0,0,0,2127,2265
216457,0,0,0,2927,1465
216460,0,0,0,191,4201
216460,0,0,0,175,4217
216460,0,0,0,75,4317
216598,0,0,0,331,4061
216601,0,0,0,131,4261
216723,0,0,0,956,3436
216726,0,0,0,572,3820
216726,0,0,0,188,4204
219806,0,0,0,444,3948
222233,0,0,0,412,3980
222431,0,0,0,380,4012
222739,0,0,0,508,3884
228543,0,0,0,608,3784
231005,0,0,0,624,3768
231263,0,0,0,1008,3384
231524,0,0,0,992,3400
231702,0,0,0,976,3416
232325,0,0,0,960,3432
232326,0,0,0,944,3448
232511,0,0,0,928,3464
236256,0,0,0,896,3496
236400,0,0,0,864,3528
236452,0,0,0,832,3560
236726,0,0,0,864,3528
237015,0,0,0,896,3496
237452,0,0,0,512,3880
238041,0,0,0,712,3680
239623,0,0,0,648,3744
245639,0,0,0,1032,3360
246067,0,0,0,1048,3344
246268,0,0,0,1064,3328
246871,0,0,0,1080,3312
246885,0,0,0,1096,3296
247137,0,0,0,1112,3280
250534,0,0,0,1176,3216
250855,0,0,0,1208,3184
250964,0,0,0,1240,3152
250970,0,0,0,1272,3120
252033,0,0,0,1656,2736
252611,0,0,0,4392,0
252614,0,0,0,1656,2736
252614,0,0,0,856,3536
252614,0,0,0,472,3920
252614,0,0,0,376,4016
252614,0,0,0,360,4032
252614,0,0,0,344,4048
252614,0,0,0,328,4064
252614,0,0,0,312,4080
252614,0,0,0,296,4096
252614,0,0,0,264,4128
253761,0,0,0,248,4144
262869,0,0,0,632,3760
262872,0,0,0,132,4260
262872,0,0,0,100,4292
262872,0,0,0,84,4308
264591,0,0,0,100,4292
265142,0,0,0,84,4308
266205,0,0,0,68,4324
266206,0,0,0,52,4340
266435,0,0,0,36,4356
267141,0,0,0,132,4260
267144,0,0,0,4,4388
267154,0,0,0,20,4372
267161,0,0,0,36,4356
267165,0,0,0,52,4340
267183,0,0,0,68,4324
267191,0,0,0,52,4340
267193,0,0,0,68,4324
267249,0,0,0,100,4292
267252,0,0,0,0,4392
277396,0,0,0,32,4360
277399,0,0,0,16,4376
277406,0,0,0,32,4360
279731,0,0,0,48,4344
279731,0,0,0,148,4244
280746,0,0,0,164,4228
280785,0,0,0,180,4212
280955,0,0,0,196,4196
281308,0,0,0,696,3696
281311,0,0,0,196,4196
281689,0,0,0,324,4068
281719,0,0,0,340,4052
282698,0,0,0,3076,1316
282701,0,0,0,2576,1816
282701,0,0,0,2192,2200
282701,0,0,0,1808,2584
282701,0,0,0,1424,2968
282701,0,0,0,1040,3352
282701,0,0,0,656,3736
282701,0,0,0,456,3936
282701,0,0,0,256,4136
282701,0,0,0,56,4336
282701,0,0,0,24,4368
282701,0,0,0,8,4384
288340,0,0,0,24,4368
288343,0,0,0,8,4384
293121,0,0,0,392,4000
293124,0,0,0,192,4200
293124,0,0,0,131,4261
293124,0,0,0,70,4322
293124,0,0,0,9,4383
294168,0,0,0,393,3999
294171,0,0,0,137,4255
294171,0,0,0,121,4271
294171,0,0,0,105,4287
294171,0,0,0,89,4303
297209,0,0,0,121,4271
297212,0,0,0,21,4371
297253,0,0,0,37,4355
297346,0,0,0,421,3971
302928,0,0,0,437,3955
304107,0,0,0,421,3971
304439,0,0,0,621,3771
305370,0,0,0,877,3515
305391,0,0,0,1077,3315
305469,0,0,0,1277,3115
305486,0,0,0,1777,2615
306116,0,0,0,1761,2631
306117,0,0,0,1745,2647
307570,0,0,0,1729,2663
307660,0,0,0,1790,2602
307751,0,0,0,1851,2541
307755,0,0,0,1912,2480
307944,0,0,0,1896,2496
308307,0,0,0,2396,1996
308724,0,0,0,2412,1980
308748,0,0,0,2428,1964
308757,0,0,0,2444,1948
309314,0,0,0,2428,1964
309355,0,0,0,2412,1980
309383,0,0,0,2396,1996
310554,0,0,0,2496,1896
311625,0,0,0,2880,1512
311628,0,0,0,144,4248
311650,0,0,0,528,3864
311653,0,0,0,16,4376
314882,0,0,0,216,4176
314885,0,0,0,88,4304
316134,0,0,0,56,4336
316375,0,0,0,24,4368
318665,0,0,0,40,4352
320698,0,0,0,56,4336
320734,0,0,0,72,4320
321104,0,0,0,24,4368
321110,0,0,0,8,4384
322075,0,0,0,24,4368
322483,0,0,0,40,4352
323652,0,0,0,24,4368
323843,0,0,0,40,4352
323890,0,0,0,56,4336
323973,0,0,0,72,4320
325451,0,0,0,200,4192
328907,0,0,0,1000,3392
328910,0,0,0,175,4217
328910,0,0,0,47,4345
328910,0,0,0,31,4361
330670,0,0,0,63,4329
330860,0,0,0,95,4297
331169,0,0,0,63,4329
335678,0,0,0,111,4281
335724,0,0,0,127,4265
338240,0,0,0,143,4249
340340,0,0,0,271,4121
342570,0,0,0,3007,1385
342573,0,0,0,2207,2185
342573,0,0,0,2079,2313
342573,0,0,0,1951,2441
342573,0,0,0,1823,2569
342573,0,0,0,1695,2697
342573,0,0,0,1567,2825
342573,0,0,0,1439,2953
342573,0,0,0,1311,3081
342573,0,0,0,1183,3209
342573,0,0,0,1055,3337
342573,0,0,0,799,3593
342573,0,0,0,543,3849
342573,0,0,0,287,4105
342573,0,0,0,31,4361
342573,0,0,0,15,4377
343432,0,0,0,31,4361
343744,0,0,0,63,4329
352952,0,0,0,191,4201
352994,0,0,0,207,4185
353272,0,0,0,335,4057
353275,0,0,0,79,4313
353525,0,0,0,207,4185
353678,0,0,0,335,4057
353681,0,0,0,79,4313
354241,0,0,0,591,3801
354244,0,0,0,79,4313
354511,0,0,0,904,3488
356271,0,0,0,1160,3232
356743,0,0,0,1416,2976
357101,0,0,0,1672,2720
357140,0,0,0,1928,2464
358195,0,0,0,2056,2336
358198,0,0,0,8,4384
361270,0,0,0,136,4256
361273,0,0,0,120,4272
361355,0,0,0,248,4144
361358,0,0,0,120,4272
361874,0,0,0,248,4144
361877,0,0,0,120,4272
364952,0,0,0,376,4016
365433,0,0,0,504,3888
368238,0,0,0,760,3632
368241,0,0,0,248,4144
368241,0,0,0,216,4176
372302,0,0,0,728,3664
372305,0,0,0,428,3964
372305,0,0,0,396,3996
372305,0,0,0,364,4028
372305,0,0,0,332,4060
372305,0,0,0,316,4076
372305,0,0,0,252,4140
372305,0,0,0,188,4204
372305,0,0,0,124,4268
372305,0,0,0,60,4332
375808,0,0,0,76,4316
375811,0,0,0,12,4380
382592,0,0,0,76,4316
382595,0,0,0,12,4380
382806,0,0,0,44,4348
383018,0,0,0,76,4316
383021,0,0,0,12,4380
383109,0,0,0,140,4252
383174,0,0,0,172,4220
383324,0,0,0,204,4188
383586,0,0,0,332,4060
384567,0,0,0,396,3996
384570,0,0,0,12,4380
386603,0,0,0,76,4316
386839,0,0,0,140,4252
386848,0,0,0,156,4236
386869,0,0,0,220,4172
393846,0,0,0,284,4108
394015,0,0,0,584,3808
394018,0,0,0,72,4320
394018,0,0,0,40,4352
394018,0,0,0,24,4368
394018,0,0,0,8,4384
394727,0,0,0,392,4000
394730,0,0,0,376,4016
394730,0,0,0,360,4032
394730,0,0,0,260,4132
394730,0,0,0,244,4148
394730,0,0,0,144,4248
394730,0,0,0,128,4264
394730,0,0,0,64,4328
394730,0,0,0,32,4360
394730,0,0,0,16,4376
394730,0,0,0,0,4392
395185,0,0,0,64,4328
405464,0,0,0,164,4228
407201,0,0,0,180,4212
408548,0,0,0,212,4180
408613,0,0,0,228,4164
409241,0,0,0,260,4132
409254,0,0,0,276,4116
409255,0,0,0,292,4100
409260,0,0,0,356,4036
409261,0,0,0,372,4020
409279,0,0,0,472,3920
409282,0,0,0,88,4304
409317,0,0,0,104,4288
409402,0,0,0,120,4272
409461,0,0,0,136,4256
411592,0,0,0,648,3744
411595,0,0,0,264,4128
411595,0,0,0,200,4192
411595,0,0,0,184,4208
411595,0,0,0,120,4272
411595,0,0,0,56,4336
411595,0,0,0,40,4352
411595,0,0,0,24,4368
411595,0,0,0,8,4384
418568,0,0,0,808,3584
418571,0,0,0,424,3968
418571,0,0,0,168,4224
418571,0,0,0,152,4240
418571,0,0,0,136,4256
418571,0,0,0,120,4272
418571,0,0,0,88,4304
418571,0,0,0,56,4336
418571,0,0,0,40,4352
418571,0,0,0,24,4368
418571,0,0,0,8,4384
423985,0,0,0,72,4320
423988,0,0,0,40,4352
426096,0,0,0,56,4336
426129,0,0,0,72,4320
426141,0,0,0,136,4256
426144,0,0,0,8,4384
426145,0,0,0,24,4368
426148,0,0,0,40,4352
426158,0,0,0,104,4288
430434,0,0,0,120,4272
430697,0,0,0,376,4016
433119,0,0,0,392,4000
433120,0,0,0,408,3984
433133,0,0,0,424,3968
433140,0,0,0,440,3952
433140,0,0,0,472,3920
433152,0,0,0,504,3888
433152,0,0,0,520,3872
434958,0,0,0,552,3840
437013,0,0,0,680,3712
437348,0,0,0,1192,3200
437351,0,0,0,392,4000
438163,0,0,0,776,3616
440549,0,0,0,1160,3232
444773,0,0,0,3208,1184
444776,0,0,0,1928,2464
444776,0,0,0,1288,3104
447425,0,0,0,1672,2720
447428,0,0,0,136,4256
447428,0,0,0,72,4320
447428,0,0,0,56,4336
447428,0,0,0,40,4352
447428,0,0,0,24,4368
459263,0,0,0,664,3728
459266,0,0,0,632,3760
459266,0,0,0,600,3792
459266,0,0,0,568,3824
459266,0,0,0,68,4324
459266,0,0,0,36,4356
459300,0,0,0,1316,3076
459303,0,0,0,1216,3176
459303,0,0,0,1116,3276
459303,0,0,0,988,3404
459303,0,0,0,860,3532
459303,0,0,0,732,3660
459303,0,0,0,604,3788
459303,0,0,0,476,3916
459303,0,0,0,444,3948
459303,0,0,0,380,4012
459303,0,0,0,348,4044
459303,0,0,0,316,4076
459303,0,0,0,284,4108
459303,0,0,0,84,4308
459303,0,0,0,52,4340
459303,0,0,0,20,4372
459303,0,0,0,4,4388
461939,0,0,0,68,4324
461942,0,0,0,36,4356
461942,0,0,0,4,4388
461945,0,0,0,20,4372
462018,0,0,0,36,4356
462021,0,0,0,4,4388
462956,0,0,0,20,4372
470048,0,0,0,120,4272
470169,0,0,0,184,4208
470508,0,0,0,684,3708
471604,0,0,0,884,3508
471607,0,0,0,84,4308
473539,0,0,0,100,4292
473786,0,0,0,132,4260
473813,0,0,0,164,4228
473813,0,0,0,196,4196
473835,0,0,0,228,4164
473839,0,0,0,260,4132
473842,0,0,0,4,4388
473857,0,0,0,36,4356
473863,0,0,0,68,4324
473868,0,0,0,100,4292
473892,0,0,0,132,4260
473895,0,0,0,4,4388
474165,0,0,0,36,4356
474795,0,0,0,136,4256
474798,0,0,0,8,4384
476464,0,0,0,40,4352
476659,0,0,0,72,4320
476745,0,0,0,104,4288
477580,0,0,0,232,4160
477583,0,0,0,104,4288
477876,0,0,0,232,4160
477879,0,0,0,104,4288
478044,0,0,0,232,4160
478047,0,0,0,104,4288
478047,0,0,0,72,4320
479345,0,0,0,200,4192
479348,0,0,0,72,4320
479348,0,0,0,40,4352
482010,0,0,0,168,4224
482013,0,0,0,68,4324
484714,0,0,0,324,4068
484717,0,0,0,196,4196
484717,0,0,0,68,4324
484717,0,0,0,36,4356
484717,0,0,0,4,4388
484819,0,0,0,132,4260
484822,0,0,0,100,4292
485932,0,0,0,68,4324
486761,0,0,0,196,4196
488083,0,0,0,164,4228
490252,0,0,0,292,4100
490475,0,0,0,260,4132
490631,0,0,0,228,4164
490757,0,0,0,196,4196
491712,0,0,0,1732,2660
491834,0,0,0,1604,2788
492729,0,0,0,1636,2756
493980,0,0,0,1668,2724
495519,0,0,0,1796,2596
496000,0,0,0,1540,2852
496290,0,0,0,1668,2724
496546,0,0,0,1768,2624
498929,0,0,0,1640,2752
499275,0,0,0,1672,2720
499300,0,0,0,1544,2848
499305,0,0,0,1672,2720
499431,0,0,0,1544,2848
499464,0,0,0,1512,2880
499562,0,0,0,1544,2848
499575,0,0,0,1416,2976
499639,0,0,0,1544,2848
499838,0,0,0,1672,2720
500317,0,0,0,1704,2688
500652,0,0,0,1736,2656
502689,0,0,0,1768,2624
503156,0,0,0,1736,2656
503232,0,0,0,1480,2912
504546,0,0,0,1608,2784
505066,0,0,0,1640,2752
505249,0,0,0,1672,2720
505324,0,0,0,1704,2688
506913,0,0,0,1960,2432
514081,0,0,0,2088,2304
514084,0,0,0,40,4352
514084,0,0,0,8,4384
514206,0,0,0,264,4128
514209,0,0,0,136,4256
514209,0,0,0,8,4384
514218,0,0,0,40,4352
517766,0,0,0,72,4320
517769,0,0,0,8,4384
520526,0,0,0,808,3584
520529,0,0,0,744,3648
520529,0,0,0,712,3680
520529,0,0,0,680,3712
520529,0,0,0,664,3728
520529,0,0,0,600,3792
520529,0,0,0,536,3856
520644,0,0,0,664,3728
521016,0,0,0,408,3984
521067,0,0,0,536,3856
521149,0,0,0,664,3728
521644,0,0,0,600,3792
522941,0,0,0,536,3856
524537,0,0,0,280,4112
525774,0,0,0,130,4262
527228,0,0,0,66,4326
528702,0,0,0,98,4294
529216,0,0,0,898,3494
529219,0,0,0,770,3622
529335,0,0,0,898,3494
531362,0,0,0,962,3430
531904,0,0,0,1218,3174
532399,0,0,0,1282,3110
534945,0,0,0,1298,3094
535082,0,0,0,1330,3062
535098,0,0,0,1362,3030
535132,0,0,0,1426,2966
535256,0,0,0,1490,2902
535908,0,0,0,1618,2774
536354,0,0,0,1682,2710
536671,0,0,0,1832,2560
537717,0,0,0,1896,2496
539039,0,0,0,2152,2240
539042,0,0,0,104,4288
542039,0,0,0,168,4224
544312,0,0,0,296,4096
544315,0,0,0,96,4296
555576,0,0,0,296,4096
555579,0,0,0,168,4224
555579,0,0,0,40,4352
570698,0,0,0,168,4224
570701,0,0,0,104,4288
570701,0,0,0,40,4352
570729,0,0,0,168,4224
570732,0,0,0,104,4288
570732,0,0,0,40,4352
584931,0,0,0,2088,2304
584934,0,0,0,2024,2368
584934,0,0,0,1960,2432
584934,0,0,0,1944,2448
584934,0,0,0,1880,2512
585348,0,0,0,1944,2448
585401,0,0,0,2008,2384
585407,0,0,0,2072,2320
585441,0,0,0,2136,2256
593315,0,0,0,2120,2272
593436,0,0,0,1920,2472
593654,0,0,0,1856,2536
595612,0,0,0,1824,2568
597244,0,0,0,1696,2696
597945,0,0,0,1712,2680
598094,0,0,0,1648,2744
598697,0,0,0,1584,2808
599598,0,0,0,1328,3064
599636,0,0,0,1392,3000
599687,0,0,0,1456,2936
599722,0,0,0,1520,2872
600707,0,0,0,1392,3000
600790,0,0,0,1264,3128
600921,0,0,0,1136,3256
601535,0,0,0,1104,3288
601598,0,0,0,3152,1240
605897,0,0,0,3352,1040
606221,0,0,0,3320,1072
607596,0,0,0,3352,1040
607839,0,0,0,3368,1024
608766,0,0,0,3432,960
609928,0,0,0,3368,1024
610650,0,0,0,2868,1524
611477,0,0,0,2740,1652
611736,0,0,0,2708,1684
612100,0,0,0,2676,1716
612532,0,0,0,2644,1748
612781,0,0,0,2772,1620
613020,0,0,0,2836,1556
613479,0,0,0,2900,1492
615831,0,0,0,3028,1364
615935,0,0,0,3156,1236
616045,0,0,0,3284,1108
616233,0,0,0,3252,1140
617398,0,0,0,3284,1108
617472,0,0,0,3028,1364
620834,0,0,0,3060,1332
621326,0,0,0,3316,1076
624342,0,0,0,3284,1108
624467,0,0,0,3348,1044
625003,0,0,0,3316,1076
625517,0,0,0,3348,1044
625788,0,0,0,3380,1012
627209,0,0,0,3412,980
627522,0,0,0,3540,852
629981,0,0,0,4040,352
630898,0,0,0,4072,320
631936,0,0,0,3944,448
632026,0,0,0,4200,192
634639,0,0,0,3944,448
639112,0,0,0,3976,416
639126,0,0,0,4008,384
643895,0,0,0,3752,640
647085,0,0,0,3880,512
649155,0,0,0,4136,256
653204,0,0,0,4008,384
653205,0,0,0,3880,512
653206,0,0,0,3752,640
653304,0,0,0,3624,768
653305,0,0,0,3496,896
653306,0,0,0,3368,1024
656642,0,0,0,3336,1056
659178,0,0,0,3304,1088
659398,0,0,0,3272,1120
661851,0,0,0,3144,1248
664409,0,0,0,3272,1120
664677,0,0,0,3400,992
665075,0,0,0,3528,864
665660,0,0,0,3784,608
668970,0,0,0,3656,736
671186,0,0,0,3688,704
672144,0,0,0,3656,736
672548,0,0,0,3624,768
673599,0,0,0,3752,640
673735,0,0,0,3784,608
673929,0,0,0,3816,576
675184,0,0,0,3784,608
675267,0,0,0,3400,992
675388,0,0,0,3528,864
675531,0,0,0,3656,736
676123,0,0,0,3784,608
676755,0,0,0,3768,624
679071,0,0,0,2993,1399
680434,0,0,0,2977,1415
681993,0,0,0,2945,1447
682015,0,0,0,2913,1479
682896,0,0,0,2713,1679
684079,0,0,0,2841,1551
686069,0,0,0,2777,1615
686198,0,0,0,2713,1679
686835,0,0,0,2745,1647
687350,0,0,0,2777,1615
687445,0,0,0,2277,2115
689456,0,0,0,1777,2615
689496,0,0,0,1277,3115
689536,0,0,0,777,3615
689599,0,0,0,745,3647
689712,0,0,0,777,3615
690808,0,0,0,745,3647
691119,0,0,0,681,3711
691313,0,0,0,697,3695
693361,0,0,0,569,3823
694585,0,0,0,69,4323
695001,0,0,0,85,4307
695326,0,0,0,117,4275
695329,0,0,0,85,4307
695527,0,0,0,53,4339
695643,0,0,0,253,4139
695646,0,0,0,189,4203
696262,0,0,0,573,3819
697168,0,0,0,605,3787
697924,0,0,0,477,3915
699020,0,0,0,93,4299
700613,0,0,0,157,4235
700729,0,0,0,221,4171
701508,0,0,0,157,4235
701591,0,0,0,657,3735
702062,0,0,0,593,3799
702062,0,0,0,529,3863
702576,0,0,0,497,3895
702618,0,0,0,465,3927
704244,0,0,0,497,3895
705339,0,0,0,625,3767
705529,0,0,0,657,3735
705690,0,0,0,721,3671
707293,0,0,0,1221,3171
708864,0,0,0,1721,2671
709197,0,0,0,1785,2607
709865,0,0,0,1817,2575
710057,0,0,0,1849,2543
710518,0,0,0,2349,2043
710739,0,0,0,2285,2107
711167,0,0,0,2253,2139
711906,0,0,0,2221,2171
712312,0,0,0,2349,2043
712652,0,0,0,2317,2075
713781,0,0,0,2285,2107
713909,0,0,0,2253,2139
715741,0,0,0,2285,2107
715885,0,0,0,2785,1607
715997,0,0,0,2849,1543
716633,0,0,0,2913,1479
716772,0,0,0,2945,1447
717120,0,0,0,2913,1479
717742,0,0,0,2977,1415
720358,0,0,0,2945,1447
721173,0,0,0,3009,1383
725802,0,0,0,3041,1351
726131,0,0,0,3073,1319
726454,0,0,0,3105,1287
726680,0,0,0,3073,1319
727278,0,0,0,3105,1287
727375,0,0,0,2849,1543
728306,0,0,0,2881,1511
728516,0,0,0,2849,1543
730060,0,0,0,2817,1575
730383,0,0,0,2849,1543
731609,0,0,0,2881,1511
734569,0,0,0,2849,1543
736436,0,0,0,2721,1671
736470,0,0,0,2593,1799
736471,0,0,0,2465,1927
736471,0,0,0,2337,2055
736472,0,0,0,2209,2183
736616,0,0,0,2081,2311
736617,0,0,0,1953,2439
736618,0,0,0,1825,2567
736619,0,0,0,1697,2695
736620,0,0,0,1569,2823
736621,0,0,0,1441,2951
738299,0,0,0,1697,2695
741231,0,0,0,1729,2663
741446,0,0,0,1697,2695
743042,0,0,0,1665,2727
743122,0,0,0,1697,2695
743432,0,0,0,2081,2311
743775,0,0,0,2049,2343
744686,0,0,0,2081,2311
744826,0,0,0,2049,2343
746833,0,0,0,2177,2215
746949,0,0,0,2305,2087
747500,0,0,0,2433,1959
748363,0,0,0,2561,1831
748479,0,0,0,2689,1703
748803,0,0,0,2657,1735
748965,0,0,0,609,3783
749125,0,0,0,641,3751
749726,0,0,0,609,3783
750640,0,0,0,481,3911
754719,0,0,0,609,3783
754722,0,0,0,109,4283
754722,0,0,0,77,4315
755703,0,0,0,205,4187
755842,0,0,0,333,4059
756022,0,0,0,365,4027
756425,0,0,0,493,3899
756758,0,0,0,621,3771
756761,0,0,0,121,4271
757304,0,0,0,249,4143
757613,0,0,0,281,4111
758377,0,0,0,313,4079
759396,0,0,0,345,4047
763396,0,0,0,377,4015
763416,0,0,0,505,3887
763419,0,0,0,5,4387
765449,0,0,0,37,4355
765568,0,0,0,812,3580
765571,0,0,0,312,4080
765571,0,0,0,280,4112
765571,0,0,0,248,4144
765571,0,0,0,216,4176
765571,0,0,0,184,4208
765571,0,0,0,152,4240
765571,0,0,0,120,4272
765571,0,0,0,88,4304
765571,0,0,0,56,4336
765571,0,0,0,24,4368
769393,0,0,0,56,4336
776536,0,0,0,88,4304
777651,0,0,0,588,3804
777654,0,0,0,204,4188
777654,0,0,0,172,4220
777654,0,0,0,140,4252
777654,0,0,0,108,4284
777654,0,0,0,76,4316
778574,0,0,0,108,4284
779876,0,0,0,608,3784
779879,0,0,0,208,4184
779879,0,0,0,176,4216
780065,0,0,0,208,4184
780094,0,0,0,240,4152
780119,0,0,0,272,4120
780121,0,0,0,304,4088
780128,0,0,0,336,4056
780130,0,0,0,368,4024
780183,0,0,0,400,3992
788230,0,0,0,900,3492
788233,0,0,0,125,4267
790465,0,0,0,625,3767
790468,0,0,0,497,3895
790468,0,0,0,305,4087
790468,0,0,0,177,4215
790578,0,0,0,209,4183
792190,0,0,0,241,4151
792294,0,0,0,273,4119
792522,0,0,0,305,4087
794542,0,0,0,337,4055
801705,0,0,0,721,3671
801708,0,0,0,321,4071
801708,0,0,0,289,4103
801708,0,0,0,24,4368
802113,0,0,0,799,3593
802116,0,0,0,767,3625
802116,0,0,0,735,3657
805243,0,0,0,1135,3257
805246,0,0,0,335,4057
805246,0,0,0,311,4081
805246,0,0,0,247,4145
806371,0,0,0,215,4177
806526,0,0,0,183,4209
807386,0,0,0,375,4017
807921,0,0,0,343,4049
808286,0,0,0,311,4081
808928,0,0,0,183,4209
812182,0,0,0,311,4081
812183,0,0,0,439,3953
812636,0,0,0,471,3921
816485,0,0,0,215,4177
816725,0,0,0,247,4145
816775,0,0,0,279,4113
819735,0,0,0,343,4049
820405,0,0,0,471,3921
820738,0,0,0,495,3897
820984,0,0,0,527,3865
821133,0,0,0,559,3833
822484,0,0,0,591,3801
822896,0,0,0,623,3769
823445,0,0,0,888,3504
824712,0,0,0,1288,3104
826688,0,0,0,1544,2848
827388,0,0,0,1512,2880
827433,0,0,0,1480,2912
827512,0,0,0,1448,2944
827574,0,0,0,1416,2976
830067,0,0,0,1384,3008
830272,0,0,0,1352,3040
830879,0,0,0,1320,3072
831316,0,0,0,1288,3104
831539,0,0,0,988,3404
832264,0,0,0,588,3804
835443,0,0,0,2636,1756
838452,0,0,0,2668,1724
839390,0,0,0,2700,1692
841821,0,0,0,2668,1724
841886,0,0,0,2700,1692
842094,0,0,0,2732,1660
842151,0,0,0,2700,1692
842302,0,0,0,2668,1724
842342,0,0,0,2636,1756
842430,0,0,0,2936,1456
842914,0,0,0,2552,1840
844634,0,0,0,2584,1808
844925,0,0,0,2616,1776
845555,0,0,0,2648,1744
845939,0,0,0,2456,1936
845996,0,0,0,2488,1904
849751,0,0,0,2232,2160
849766,0,0,0,1976,2416
850753,0,0,0,1944,2448
850754,0,0,0,1912,2480
850949,0,0,0,1412,2980
852664,0,0,0,1380,3012
852756,0,0,0,1412,2980
853120,0,0,0,1444,2948
853341,0,0,0,1476,2916
853723,0,0,0,1220,3172
854737,0,0,0,1252,3140
854930,0,0,0,1652,2740
855330,0,0,0,1268,3124
856269,0,0,0,1240,3152
858097,0,0,0,216,4176
860050,0,0,0,152,4240
860069,0,0,0,88,4304
860076,0,0,0,24,4368
861852,0,0,0,280,4112
861855,0,0,0,216,4176
863781,0,0,0,472,3920
863784,0,0,0,88,4304
864066,0,0,0,120,4272
864425,0,0,0,312,4080
864587,0,0,0,568,3824
864590,0,0,0,184,4208
864670,0,0,0,216,4176
864765,0,0,0,248,4144
866974,0,0,0,632,3760
866977,0,0,0,248,4144
866977,0,0,0,120,4272
866977,0,0,0,104,4288
868474,0,0,0,72,4320
869874,0,0,0,456,3936
869877,0,0,0,72,4320
872574,0,0,0,100,4292
873756,0,0,0,600,3792
873759,0,0,0,216,4176
874530,0,0,0,280,4112
874550,0,0,0,344,4048
874579,0,0,0,408,3984
874582,0,0,0,24,4368
876427,0,0,0,88,4304
880970,0,0,0,888,3504
880973,0,0,0,760,3632
880973,0,0,0,376,4016
880973,0,0,0,248,4144
880973,0,0,0,120,4272
881495,0,0,0,136,4256
881498,0,0,0,8,4384
883013,0,0,0,40,4352
884285,0,0,0,168,4224
884288,0,0,0,40,4352
892306,0,0,0,168,4224
892309,0,0,0,18,4374
895474,0,0,0,402,3990
897935,0,0,0,786,3606
898827,0,0,0,1170,3222
902704,0,0,0,1554,2838
902717,0,0,0,1682,2710
902718,0,0,0,1810,2582
903552,0,0,0,2194,2198
904181,0,0,0,2322,2070
904288,0,0,0,2472,1920
906061,0,0,0,2600,1792
907922,0,0,0,2984,1408
910353,0,0,0,3368,1024
910356,0,0,0,372,4020
910356,0,0,0,116,4276
910356,0,0,0,100,4292
918446,0,0,0,84,4308
922537,0,0,0,100,4292
927963,0,0,0,356,4036
932968,0,0,0,372,4020
935009,0,0,0,3368,1024
935012,0,0,0,2568,1824
935012,0,0,0,2168,2224
935012,0,0,0,1912,2480
935012,0,0,0,1720,2672
944642,0,0,0,2744,1648
944645,0,0,0,696,3696
944645,0,0,0,664,3728
944645,0,0,0,632,3760
944645,0,0,0,600,3792
944645,0,0,0,472,3920
944645,0,0,0,216,4176
944645,0,0,0,88,4304
944645,0,0,0,24,4368
945977,0,0,0,280,4112
945980,0,0,0,152,4240
945980,0,0,0,88,4304
945980,0,0,0,24,4368
954704,0,0,0,152,4240
954707,0,0,0,2,4390
955642,0,0,0,66,4326
955645,0,0,0,34,4358
955645,0,0,0,2,4390
956660,0,0,0,2050,2342
956663,0,0,0,2,4390
956747,0,0,0,194,4198
956750,0,0,0,44,4348
956750,0,0,0,12,4380
956969,0,0,0,76,4316
956972,0,0,0,48,4344
956972,0,0,0,16,4376
958159,0,0,0,48,4344
958402,0,0,0,448,3944
958405,0,0,0,64,4328
959141,0,0,0,96,4296
959164,0,0,0,128,4264
959167,0,0,0,0,4392
959635,0,0,0,256,4136
959638,0,0,0,0,4392
960495,0,0,0,128,4264
960498,0,0,0,126,4266
960521,0,0,0,190,4202
960524,0,0,0,40,4352
965091,0,0,0,168,4224
965094,0,0,0,18,4374
965640,0,0,0,168,4224
965643,0,0,0,18,4374
966568,0,0,0,50,4342
967130,0,0,0,82,4310
967649,0,0,0,232,4160
967652,0,0,0,40,4352
968298,0,0,0,72,4320
968662,0,0,0,104,4288
969521,0,0,0,232,4160
969524,0,0,0,82,4310
969976,0,0,0,50,4342
971417,0,0,0,52,4340
971438,0,0,0,202,4190
971441,0,0,0,138,4254
971493,0,0,0,166,4226
976023,0,0,0,316,4076
976026,0,0,0,60,4332
976513,0,0,0,28,4364
976632,0,0,0,178,4214
977745,0,0,0,370,4022
977748,0,0,0,114,4278
977814,0,0,0,50,4342
978653,0,0,0,2098,2294
978656,0,0,0,50,4342
980478,0,0,0,200,4192
980481,0,0,0,136,4256
981363,0,0,0,392,4000
981366,0,0,0,136,4256
982185,0,0,0,200,4192
982188,0,0,0,50,4342
982447,0,0,0,434,3958
982450,0,0,0,178,4214
982450,0,0,0,28,4364
984539,0,0,0,60,4332
990573,0,0,0,316,4076
990576,0,0,0,60,4332
991008,0,0,0,92,4300
991224,0,0,0,156,4236
991227,0,0,0,6,4386
992379,0,0,0,70,4322
993097,0,0,0,220,4172
993100,0,0,0,70,4322
993397,0,0,0,220,4172
994109,0,0,0,476,3916
994112,0,0,0,92,4300
995963,0,0,0,348,4044
995966,0,0,0,92,4300
999210,0,0,0,2140,2252
999213,0,0,0,1756,2636
999213,0,0,0,1500,2892
999213,0,0,0,1244,3148
999213,0,0,0,860,3532
999213,0,0,0,604,3788
999213,0,0,0,348,4044
999213,0,0,0,92,4300
1.00196e+06,0,0,0,892,3500
1.00197e+06,0,0,0,508,3884
1.00197e+06,0,0,0,108,4284
1.00225e+06,0,0,0,258,4134
1.00225e+06,0,0,0,2,4390
1.003e+06,0,0,0,258,4134
1.00407e+06,0,0,0,408,3984
1.00629e+06,0,0,0,664,3728
1.01133e+06,0,0,0,920,3472
1.01168e+06,0,0,0,1176,3216
1.01225e+06,0,0,0,1560,2832
1.01398e+06,0,0,0,1944,2448
1.01459e+06,0,0,0,2200,2192
1.01495e+06,0,0,0,2584,1808
1.01497e+06,0,0,0,2840,1552
1.01551e+06,0,0,0,3096,1296
1.01552e+06,0,0,0,100,4292
1.0156e+06,0,0,0,356,4036
1.01734e+06,0,0,0,740,3652
1.01767e+06,0,0,0,544,3848
1.01865e+06,0,0,0,288,4104
1.01901e+06,0,0,0,544,3848
1.01971e+06,0,0,0,394,3998
1.01981e+06,0,0,0,244,4148
1.01989e+06,0,0,0,94,4298
1.02461e+06,0,0,0,494,3898
1.02461e+06,0,0,0,344,4048
1.02461e+06,0,0,0,216,4176
1.02542e+06,0,0,0,184,4208
1.03063e+06,0,0,0,334,4058
1.0307e+06,0,0,0,484,3908
1.03081e+06,0,0,0,634,3758
1.03314e+06,0,0,0,890,3502
1.03358e+06,0,0,0,3886,506
1.03482e+06,0,0,0,4014,378
1.03557e+06,0,0,0,4164,228
1.03557e+06,0,0,0,68,4324
1.03945e+06,0,0,0,264,4128
1.03995e+06,0,0,0,296,4096
1.04273e+06,0,0,0,146,4246
1.05366e+06,0,0,0,296,4096
1.05473e+06,0,0,0,4392,0
1.05473e+06,0,0,0,3880,512
1.05473e+06,0,0,0,3684,708
1.05473e+06,0,0,0,2884,1508
1.05473e+06,0,0,0,2628,1764
1.05473e+06,0,0,0,2372,2020
1.05473e+06,0,0,0,2222,2170
1.05473e+06,0,0,0,2072,2320
1.05473e+06,0,0,0,1922,2470
1.05473e+06,0,0,0,1666,2726
1.05473e+06,0,0,0,1516,2876
1.05473e+06,0,0,0,1484,2908
1.05473e+06,0,0,0,1334,3058
1.05473e+06,0,0,0,1184,3208
1.05473e+06,0,0,0,928,3464
1.06495e+06,0,0,0,1440,2952
1.06495e+06,0,0,0,416,3976
1.06559e+06,0,0,0,566,3826
1.06561e+06,0,0,0,716,3676
1.06564e+06,0,0,0,866,3526
1.06567e+06,0,0,0,1016,3376
1.06567e+06,0,0,0,1166,3226
1.06567e+06,0,0,0,142,4250
1.06571e+06,0,0,0,292,4100
1.06927e+06,0,0,0,324,4068
1.06928e+06,0,0,0,580,3812
1.06929e+06,0,0,0,180,4212
1.06929e+06,0,0,0,164,4228
1.06978e+06,0,0,0,360,4032
1.07642e+06,0,0,0,616,3776
1.07644e+06,0,0,0,872,3520
1.07647e+06,0,0,0,1128,3264
1.08241e+06,0,0,0,1144,3248
1.08892e+06,0,0,0,2168,2224
1.08941e+06,0,0,0,3192,1200
1.09142e+06,0,0,0,3592,800
1.10089e+06,0,0,0,3464,928
1.11035e+06,0,0,0,3064,1328
1.11064e+06,0,0,0,2914,1478
1.11078e+06,0,0,0,2764,1628
1.11111e+06,0,0,0,2508,1884
1.1115e+06,0,0,0,2252,2140
1.11668e+06,0,0,0,2380,2012
1.11911e+06,0,0,0,1840,2552
1.12121e+06,0,0,0,1990,2402
1.12558e+06,0,0,0,2246,2146
1.12867e+06,0,0,0,1574,2818
1.1325e+06,0,0,0,1724,2668
1.13253e+06,0,0,0,2124,2268
1.13322e+06,0,0,0,2380,2012
1.13539e+06,0,0,0,1356,3036
1.1364e+06,0,0,0,1228,3164
1.14135e+06,0,0,0,2028,2364
1.14914e+06,0,0,0,1772,2620
1.14932e+06,0,0,0,1900,2492
1.15704e+06,0,0,0,2440,1952
1.15766e+06,0,0,0,2290,2102
1.15864e+06,0,0,0,3314,1078
1.16146e+06,0,0,0,2514,1878
1.16366e+06,0,0,0,2770,1622
1.16856e+06,0,0,0,2920,1472
1.18861e+06,0,0,0,2792,1600
1.18884e+06,0,0,0,2642,1750
1.19568e+06,0,0,0,2514,1878
1.19766e+06,0,0,0,2482,1910
1.19821e+06,0,0,0,2332,2060
1.19982e+06,0,0,0,2482,1910
1.20026e+06,0,0,0,2282,2110
1.20153e+06,0,0,0,2410,1982
1.2023e+06,0,0,0,2154,2238
1.20343e+06,0,0,0,2004,2388
1.20362e+06,0,0,0,1854,2538
1.20459e+06,0,0,0,1598,2794
1.20508e+06,0,0,0,1448,2944
1.20912e+06,0,0,0,1598,2794
1.21e+06,0,0,0,1726,2666
1.21154e+06,0,0,0,1926,2466
1.21221e+06,0,0,0,1958,2434
1.21346e+06,0,0,0,1758,2634
1.2142e+06,0,0,0,1630,2762
1.21452e+06,0,0,0,1780,2612
1.21519e+06,0,0,0,2452,1940
1.21519e+06,0,0,0,404,3988
1.21526e+06,0,0,0,554,3838
1.21597e+06,0,0,0,704,3688
1.21683e+06,0,0,0,960,3432
1.2174e+06,0,0,0,928,3464
1.22449e+06,0,0,0,1184,3208
1.22485e+06,0,0,0,1384,3008
1.22902e+06,0,0,0,1512,2880
1.2319e+06,0,0,0,1544,2848
1.23546e+06,0,0,0,2344,2048
1.23546e+06,0,0,0,296,4096
1.23546e+06,0,0,0,40,4352
1.25724e+06,0,0,0,296,4096
1.25724e+06,0,0,0,40,4352
1.25802e+06,0,0,0,2088,2304
1.25802e+06,0,0,0,40,4352
1.27121e+06,0,0,0,296,4096
1.27122e+06,0,0,0,168,4224
1.27122e+06,0,0,0,40,4352
1.28325e+06,0,0,0,168,4224
1.28572e+06,0,0,0,296,4096
1.30173e+06,0,0,0,2344,2048
1.30174e+06,0,0,0,296,4096
1.30174e+06,0,0,0,168,4224
1.32198e+06,0,0,0,40,4352
1.32342e+06,0,0,0,168,4224
1.33285e+06,0,0,0,296,4096
1.34454e+06,0,0,0,2344,2048
1.34454e+06,0,0,0,1320,3072
1.34454e+06,0,0,0,520,3872
1.34454e+06,0,0,0,264,4128
1.35485e+06,0,0,0,8,4384
1.36441e+06,0,0,0,264,4128
1.36441e+06,0,0,0,8,4384
1.36988e+06,0,0,0,808,3584
1.36988e+06,0,0,0,658,3734
1.36988e+06,0,0,0,508,3884
1.36988e+06,0,0,0,358,4034
1.36988e+06,0,0,0,230,4162
1.36988e+06,0,0,0,102,4290
1.3701e+06,0,0,0,358,4034
1.37559e+06,0,0,0,208,4184
1.37584e+06,0,0,0,58,4334
1.38077e+06,0,0,0,208,4184
1.38078e+06,0,0,0,336,4056
1.38081e+06,0,0,0,486,3906
1.38091e+06,0,0,0,636,3756
1.38184e+06,0,0,0,764,3628
1.38441e+06,0,0,0,1020,3372
1.3865e+06,0,0,0,1170,3222
1.38679e+06,0,0,0,1320,3072
1.38948e+06,0,0,0,3368,1024
1.38949e+06,0,0,0,1320,3072
1.38949e+06,0,0,0,520,3872
1.38949e+06,0,0,0,264,4128
1.38949e+06,0,0,0,114,4278
1.40039e+06,0,0,0,264,4128
1.40039e+06,0,0,0,136,4256
1.40039e+06,0,0,0,8,4384
1.41002e+06,0,0,0,264,4128
1.41003e+06,0,0,0,136,4256
1.4113e+06,0,0,0,264,4128
1.41131e+06,0,0,0,392,4000
1.41131e+06,0,0,0,8,4384
1.41303e+06,0,0,0,1032,3360
1.41303e+06,0,0,0,582,3810
1.41343e+06,0,0,0,326,4066
1.41371e+06,0,0,0,26,4366
1.42113e+06,0,0,0,154,4238
1.42558e+06,0,0,0,454,3938
1.42758e+06,0,0,0,904,3488
1.4329e+06,0,0,0,1704,2688
1.43513e+06,0,0,0,1960,2432
1.44388e+06,0,0,0,2344,2048
1.44797e+06,0,0,0,1960,2432
1.44798e+06,0,0,0,1576,2816
1.4548e+06,0,0,0,3624,768
1.45541e+06,0,0,0,2216,2176
1.46187e+06,0,0,0,2066,2326
1.46199e+06,0,0,0,1916,2476
1.46222e+06,0,0,0,1766,2626
1.46642e+06,0,0,0,3174,1218
1.46967e+06,0,0,0,3558,834
1.46968e+06,0,0,0,3942,450
1.47277e+06,0,0,0,4092,300
1.47278e+06,0,0,0,4242,150
1.47278e+06,0,0,0,146,4246
1.4731e+06,0,0,0,296,4096
1.47311e+06,0,0,0,40,4352
1.49408e+06,0,0,0,296,4096
1.49409e+06,0,0,0,38,4354
1.5044e+06,0,0,0,296,4096
1.5044e+06,0,0,0,168,4224
1.51535e+06,0,0,0,296,4096
1.53017e+06,0,0,0,168,4224
1.53893e+06,0,0,0,4264,128
1.53894e+06,0,0,0,3764,628
1.53894e+06,0,0,0,3380,1012
1.53894e+06,0,0,0,2996,1396
1.53894e+06,0,0,0,2612,1780
1.53894e+06,0,0,0,2228,2164
1.53894e+06,0,0,0,1807,2585
1.54031e+06,0,0,0,1935,2457
1.55142e+06,0,0,0,1679,2713
1.55167e+06,0,0,0,1423,2969
1.55182e+06,0,0,0,1167,3225
1.55225e+06,0,0,0,911,3481
1.55267e+06,0,0,0,1332,3060
1.56172e+06,0,0,0,1716,2676
1.56194e+06,0,0,0,2100,2292
1.56208e+06,0,0,0,2484,1908
1.56209e+06,0,0,0,84,4308
1.5625e+06,0,0,0,468,3924
1.5625e+06,0,0,0,84,4308
1.5662e+06,0,0,0,340,4052
1.57021e+06,0,0,0,596,3796
1.57036e+06,0,0,0,852,3540
1.57091e+06,0,0,0,1108,3284
1.57146e+06,0,0,0,1608,2784
1.57521e+06,0,0,0,4008,384
1.57522e+06,0,0,0,1272,3120
1.57522e+06,0,0,0,1016,3376
1.57522e+06,0,0,0,760,3632
1.57522e+06,0,0,0,504,3888
1.57522e+06,0,0,0,248,4144
1.58022e+06,0,0,0,632,3760
1.58022e+06,0,0,0,376,4016
1.59325e+06,0,0,0,632,3760
1.59326e+06,0,0,0,248,4144
1.59465e+06,0,0,0,504,3888
1.59466e+06,0,0,0,120,4272
1.59527e+06,0,0,0,376,4016
1.59538e+06,0,0,0,632,3760
1.59538e+06,0,0,0,248,4144
1.59873e+06,0,0,0,504,3888
1.59874e+06,0,0,0,248,4144
1.59874e+06,0,0,0,120,4272
1.60522e+06,0,0,0,2856,1536
1.60523e+06,0,0,0,2088,2304
1.60875e+06,0,0,0,2216,2176
1.61149e+06,0,0,0,2600,1792
1.61294e+06,0,0,0,2856,1536
1.6144e+06,0,0,0,3240,1152
1.61876e+06,0,0,0,3624,768
1.62694e+06,0,0,0,4392,0
1.62786e+06,0,0,0,4136,256
1.62789e+06,0,0,0,3880,512
1.63266e+06,0,0,0,2728,1664
1.63804e+06,0,0,0,2472,1920
1.63808e+06,0,0,0,2728,1664
1.63949e+06,0,0,0,2344,2048
1.64944e+06,0,0,0,2600,1792
1.65239e+06,0,0,0,2856,1536
1.65433e+06,0,0,0,4008,384
1.67115e+06,0,0,0,4392,0
1.68266e+06,0,0,0,4264,128
1.68295e+06,0,0,0,4136,256
1.68302e+06,0,0,0,4008,384
1.68409e+06,0,0,0,3880,512
1.68738e+06,0,0,0,3624,768
1.6936e+06,0,0,0,3752,640
1.6939e+06,0,0,0,3880,512
1.69392e+06,0,0,0,4008,384
1.69502e+06,0,0,0,4136,256
1.69889e+06,0,0,0,4392,0
1.70646e+06,0,0,0,4264,128
1.71737e+06,0,0,0,4392,0
1.71762e+06,0,0,0,3492,900
1.71777e+06,0,0,0,3236,1156
1.71807e+06,0,0,0,3108,1284
1.71884e+06,0,0,0,2980,1412
1.71974e+06,0,0,0,2852,1540
1.72865e+06,0,0,0,3108,1284
1.72902e+06,0,0,0,3236,1156
1.72983e+06,0,0,0,3364,1028
1.7307e+06,0,0,0,3492,900
1.73939e+06,0,0,0,4392,0
1.74137e+06,0,0,0,3752,640
1.74686e+06,0,0,0,3624,768
1.74743e+06,0,0,0,3368,1024
1.74744e+06,0,0,0,3112,1280
1.75761e+06,0,0,0,2728,1664
1.75782e+06,0,0,0,2856,1536
1.75922e+06,0,0,0,2728,1664
1.75943e+06,0,0,0,2600,1792
1.75957e+06,0,0,0,2472,1920
1.7599e+06,0,0,0,2344,2048
1.7603e+06,0,0,0,2216,2176
1.76034e+06,0,0,0,2472,1920
1.76043e+06,0,0,0,2216,2176
1.76048e+06,0,0,0,1960,2432
1.76477e+06,0,0,0,936,3456
1.76569e+06,0,0,0,1576,2816
1.7657e+06,0,0,0,616,3776
1.76801e+06,0,0,0,872,3520
1.77013e+06,0,0,0,1000,3392
1.77036e+06,0,0,0,1128,3264
1.77051e+06,0,0,0,1256,3136
1.77085e+06,0,0,0,1384,3008
1.77119e+06,0,0,0,1512,2880
1.7732e+06,0,0,0,1256,3136
1.77325e+06,0,0,0,1000,3392
1.7733e+06,0,0,0,744,3648
1.78191e+06,0,0,0,1768,2624
1.7822e+06,0,0,0,2024,2368
1.78221e+06,0,0,0,2280,2112
1.78237e+06,0,0,0,1780,2612
1.78697e+06,0,0,0,2036,2356
1.78741e+06,0,0,0,2996,1396
1.78774e+06,0,0,0,2696,1696
1.78852e+06,0,0,0,2952,1440
1.7894e+06,0,0,0,3336,1056
1.79158e+06,0,0,0,2952,1440
1.79499e+06,0,0,0,3208,1184
1.79741e+06,0,0,0,2952,1440
1.79743e+06,0,0,0,2696,1696
1.79753e+06,0,0,0,3196,1196
1.80033e+06,0,0,0,3496,896
1.80045e+06,0,0,0,2984,1408
1.80113e+06,0,0,0,2856,1536
1.80159e+06,0,0,0,2600,1792
1.80398e+06,0,0,0,2344,2048
1.80537e+06,0,0,0,2088,2304
1.80621e+06,0,0,0,1832,2560
1.81049e+06,0,0,0,1576,2816
1.81053e+06,0,0,0,1320,3072
1.81207e+06,0,0,0,1448,2944
1.81251e+06,0,0,0,1704,2688
1.81307e+06,0,0,0,1448,2944
1.8149e+06,0,0,0,1704,2688
1.81623e+06,0,0,0,1960,2432
1.81711e+06,0,0,0,2216,2176
1.8181e+06,0,0,0,1916,2476
1.8186e+06,0,0,0,2428,1964
1.81914e+06,0,0,0,2684,1708
1.81915e+06,0,0,0,2940,1452
1.82051e+06,0,0,0,1916,2476
1.82166e+06,0,0,0,1660,2732
1.82216e+06,0,0,0,1404,2988
1.82245e+06,0,0,0,1148,3244
1.82326e+06,0,0,0,1532,2860
1.82371e+06,0,0,0,1276,3116
1.82401e+06,0,0,0,1532,2860
1.82488e+06,0,0,0,1788,2604
1.82563e+06,0,0,0,1532,2860
1.82575e+06,0,0,0,1276,3116
1.827e+06,0,0,0,1532,2860
1.82976e+06,0,0,0,1832,2560
1.83764e+06,0,0,0,2088,2304
1.8378e+06,0,0,0,1576,2816
1.83796e+06,0,0,0,1832,2560
1.83863e+06,0,0,0,1448,2944
1.83956e+06,0,0,0,1704,2688
1.83957e+06,0,0,0,1320,3072
1.84018e+06,0,0,0,1576,2816
1.84228e+06,0,0,0,2600,1792
1.84409e+06,0,0,0,2088,2304
1.84421e+06,0,0,0,2344,2048
1.84422e+06,0,0,0,1832,2560
1.8443e+06,0,0,0,1320,3072
1.84754e+06,0,0,0,1576,2816
1.85069e+06,0,0,0,1320,3072
1.85071e+06,0,0,0,1064,3328
1.85595e+06,0,0,0,1576,2816
1.86222e+06,0,0,0,2088,2304
1.86235e+06,0,0,0,2600,1792
1.86348e+06,0,0,0,3112,1280
1.86399e+06,0,0,0,3496,896
1.86424e+06,0,0,0,3240,1152
1.86426e+06,0,0,0,2984,1408
1.86522e+06,0,0,0,3240,1152
1.86888e+06,0,0,0,3496,896
1.87126e+06,0,0,0,3880,512
1.88027e+06,0,0,0,4136,256
1.88284e+06,0,0,0,3112,1280
1.88315e+06,0,0,0,3368,1024
1.88629e+06,0,0,0,3112,1280
1.8865e+06,0,0,0,2856,1536
1.88652e+06,0,0,0,2600,1792
1.88656e+06,0,0,0,2344,2048
1.88762e+06,0,0,0,1960,2432
1.88943e+06,0,0,0,1576,2816
1.89061e+06,0,0,0,1320,3072
1.89156e+06,0,0,0,680,3712
1.89663e+06,0,0,0,424,3968
1.89973e+06,0,0,0,1448,2944
1.89986e+06,0,0,0,1192,3200
1.8999e+06,0,0,0,936,3456
1.90229e+06,0,0,0,1192,3200
1.90248e+06,0,0,0,680,3712
1.9051e+06,0,0,0,936,3456
1.90648e+06,0,0,0,808,3584
1.90743e+06,0,0,0,408,3984
1.90755e+06,0,0,0,152,4240
1.90798e+06,0,0,0,408,3984
1.9082e+06,0,0,0,664,3728
1.90827e+06,0,0,0,920,3472
1.90888e+06,0,0,0,1304,3088
1.90889e+06,0,0,0,152,4240
1.90897e+06,0,0,0,24,4368
1.91535e+06,0,0,0,280,4112
1.91736e+06,0,0,0,408,3984
1.91835e+06,0,0,0,664,3728
1.91933e+06,0,0,0,1048,3344
1.91934e+06,0,0,0,152,4240
1.91985e+06,0,0,0,280,4112
1.92027e+06,0,0,0,536,3856
1.92044e+06,0,0,0,1176,3216
1.92299e+06,0,0,0,792,3600
1.9259e+06,0,0,0,664,3728
1.92882e+06,0,0,0,408,3984
1.92885e+06,0,0,0,152,4240
1.92925e+06,0,0,0,408,3984
1.93064e+06,0,0,0,1560,2832
1.93419e+06,0,0,0,1960,2432
1.9345e+06,0,0,0,2344,2048
1.93504e+06,0,0,0,2856,1536
1.93682e+06,0,0,0,2984,1408
1.94464e+06,0,0,0,3240,1152
1.94922e+06,0,0,0,3496,896
1.95693e+06,0,0,0,3112,1280
1.96234e+06,0,0,0,2612,1780
1.96521e+06,0,0,0,2100,2292
1.97041e+06,0,0,0,1716,2676
1.97211e+06,0,0,0,692,3700
1.97288e+06,0,0,0,436,3956
1.97291e+06,0,0,0,180,4212
1.97749e+06,0,0,0,692,3700
1.97749e+06,0,0,0,436,3956
1.98321e+06,0,0,0,1460,2932
1.9847e+06,0,0,0,1204,3188
1.98561e+06,0,0,0,692,3700
1.98837e+06,0,0,0,1588,2804
1.98867e+06,0,0,0,1972,2420
1.98878e+06,0,0,0,1588,2804
1.9888e+06,0,0,0,1844,2548
1.98899e+06,0,0,0,1716,2676
1.98982e+06,0,0,0,1460,2932
1.99024e+06,0,0,0,1960,2432
1.99156e+06,0,0,0,2216,2176
1.99418e+06,0,0,0,2472,1920
1.99523e+06,0,0,0,424,3968
1.9962e+06,0,0,0,808,3584
1.99801e+06,0,0,0,552,3840
1.99988e+06,0,0,0,680,3712
2.00276e+06,0,0,0,936,3456
2.00531e+06,0,0,0,1192,3200
2.00532e+06,0,0,0,168,4224
2.00646e+06,0,0,0,2216,2176
2.00652e+06,0,0,0,1704,2688
2.01683e+06,0,0,0,2216,2176
2.01972e+06,0,0,0,2472,1920
2.02047e+06,0,0,0,2856,1536
2.02703e+06,0,0,0,3880,512
2.03905e+06,0,0,0,4392,0
