job_id,workload_name,profile,submission_time,requested_number_of_resources,requested_time,success,final_state,starting_time,execution_time,finish_time,waiting_time,turnaround_time,stretch,allocated_resources,consumed_energy,metadata
0_0_1,w0,profile_0,0.000000,1024,21651.000000,1,COMPLETED_SUCCESSFULLY,0.002400,21650.000000,21650.002400,0.002400,21650.002400,1.000000,0-1023,-1.000000,""
12_0_1,w0,profile_12,0.000000,256,21678.000000,1,COMPLETED_SUCCESSFULLY,0.004200,21677.000000,21677.004200,0.004200,21677.004200,1.000000,2912-3167,-1.000000,""
10_0_1,w0,profile_10,0.000000,512,24053.000000,1,COMPLETED_SUCCESSFULLY,0.003000,24052.000000,24052.003000,0.003000,24052.003000,1.000000,1024-1535,-1.000000,""
15_0_1,w0,profile_15,0.000000,512,21619.000000,1,COMPLETED_SUCCESSFULLY,21653.004650,21618.000000,43271.004650,21653.004650,43271.004650,2.001619,640-1023 4224-4351,-1.000000,""
16_0_1,w0,profile_16,0.000000,256,21628.000000,1,COMPLETED_SUCCESSFULLY,21680.005850,21627.000000,43307.005850,21680.005850,43307.005850,2.002451,2912-3167,-1.000000,""
17_0_1,w0,profile_17,0.000000,256,21667.000000,1,COMPLETED_SUCCESSFULLY,24055.004650,21666.000000,45721.004650,24055.004650,45721.004650,2.110265,1024-1279,-1.000000,""
18_0_1,w0,profile_18,0.000000,256,21695.000000,1,COMPLETED_SUCCESSFULLY,24055.005250,21694.000000,45749.005250,24055.005250,45749.005250,2.108832,1280-1535,-1.000000,""
14_0_1,w0,profile_14,0.000000,640,43286.000000,1,COMPLETED_SUCCESSFULLY,21653.004050,43285.000000,64938.004050,21653.004050,64938.004050,1.500243,0-639,-1.000000,""
24_0_1,w0,profile_24,0.000000,256,21649.000000,1,COMPLETED_SUCCESSFULLY,45724.006300,21648.000000,67372.006300,45724.006300,67372.006300,3.112158,1024-1279,-1.000000,""
19_0_1,w0,profile_19,0.000000,384,27414.000000,1,COMPLETED_SUCCESSFULLY,43274.006300,27413.000000,70687.006300,43274.006300,70687.006300,2.578594,640-1023,-1.000000,""
31_0_1,w0,profile_31,0.000000,1,28841.000000,1,COMPLETED_SUCCESSFULLY,43274.006900,28840.000000,72114.006900,43274.006900,72114.006900,2.500486,4224,-1.000000,""
20_0_1,w0,profile_20,0.000000,417,28909.000000,1,COMPLETED_SUCCESSFULLY,43310.007500,28908.000000,72218.007500,43310.007500,72218.007500,2.498201,2912-3167 4225-4385,-1.000000,""
11_0_1,w0,profile_11,0.000000,1376,86487.000000,1,COMPLETED_SUCCESSFULLY,0.003600,86486.000000,86486.003600,0.003600,86486.003600,1.000000,1536-2911,-1.000000,""
13_0_1,w0,profile_13,0.000000,1056,86563.000000,1,COMPLETED_SUCCESSFULLY,0.004800,86562.000000,86562.004800,0.004800,86562.004800,1.000000,3168-4223,-1.000000,""
49_0_1,w0,profile_49,82350.000000,256,21703.000000,1,COMPLETED_SUCCESSFULLY,86565.007050,21702.000000,108267.007050,4215.007050,25917.007050,1.194222,3420-3675,-1.000000,""
22_0_1,w0,profile_22,0.000000,348,21741.000000,1,COMPLETED_SUCCESSFULLY,86565.006450,21740.000000,108305.006450,86565.006450,108305.006450,4.981831,3072-3419,-1.000000,""
23_0_1,w0,profile_23,0.000000,1024,21705.000000,1,COMPLETED_SUCCESSFULLY,108308.008100,21704.000000,130012.008100,108308.008100,130012.008100,5.990233,3072-4095,-1.000000,""
21_0_1,w0,profile_21,0.000000,1024,44691.000000,1,COMPLETED_SUCCESSFULLY,86489.005850,44690.000000,131179.005850,86489.005850,131179.005850,2.935310,2048-3071,-1.000000,""
47_0_1,w0,profile_47,76442.000000,256,21814.000000,1,COMPLETED_SUCCESSFULLY,131182.009300,21813.000000,152995.009300,54740.009300,76553.009300,3.509513,2816-3071,-1.000000,""
30_0_1,w0,profile_30,0.000000,384,22426.000000,1,COMPLETED_SUCCESSFULLY,131182.008100,22425.000000,153607.008100,131182.008100,153607.008100,6.849811,2176-2559,-1.000000,""
45_0_1,w0,profile_45,66100.000000,256,23047.000000,1,COMPLETED_SUCCESSFULLY,131182.008700,23046.000000,154228.008700,65082.008700,88128.008700,3.824005,2560-2815,-1.000000,""
26_0_1,w0,profile_26,0.000000,512,25006.000000,1,COMPLETED_SUCCESSFULLY,130015.010350,25005.000000,155020.010350,130015.010350,155020.010350,6.199561,3712-4223,-1.000000,""
25_0_1,w0,profile_25,0.000000,640,39935.000000,1,COMPLETED_SUCCESSFULLY,130015.009750,39934.000000,169949.009750,130015.009750,169949.009750,4.255747,3072-3711,-1.000000,""
1_0_1,w0,profile_1,0.000000,2048,85083.000000,1,COMPLETED_SUCCESSFULLY,86489.005250,85082.000000,171571.005250,86489.005250,171571.005250,2.016537,0-2047,-1.000000,""
29_0_1,w0,profile_29,0.000000,1024,27960.000000,1,COMPLETED_SUCCESSFULLY,155023.012000,27959.000000,182982.012000,155023.012000,182982.012000,6.544655,2176-3071 3712-3839,-1.000000,""
32_0_1,w0,profile_32,0.000000,1024,24363.000000,1,COMPLETED_SUCCESSFULLY,171574.007500,24362.000000,195936.007500,171574.007500,195936.007500,8.042690,3072-3711 3840-4223,-1.000000,""
33_0_1,w0,profile_33,0.000000,384,32448.000000,1,COMPLETED_SUCCESSFULLY,182985.013650,32447.000000,215432.013650,182985.013650,215432.013650,6.639505,2176-2559,-1.000000,""
28_0_1,w0,profile_28,0.000000,128,86566.000000,1,COMPLETED_SUCCESSFULLY,131182.007500,86565.000000,217747.007500,131182.007500,217747.007500,2.515416,2048-2175,-1.000000,""
27_0_1,w0,profile_27,0.000000,128,87803.000000,1,COMPLETED_SUCCESSFULLY,130015.010950,87802.000000,217817.010950,130015.010950,217817.010950,2.480775,4224-4351,-1.000000,""
34_0_1,w0,profile_34,0.000000,675,35757.000000,1,COMPLETED_SUCCESSFULLY,182985.014250,35756.000000,218741.014250,182985.014250,218741.014250,6.117603,2560-3071 3712-3839 4352-4386,-1.000000,""
35_0_1,w0,profile_35,0.000000,512,23936.000000,1,COMPLETED_SUCCESSFULLY,195939.009150,23935.000000,219874.009150,195939.009150,219874.009150,9.186297,3072-3583,-1.000000,""
41_0_1,w0,profile_41,0.000000,512,24878.000000,1,COMPLETED_SUCCESSFULLY,195939.009750,24877.000000,220816.009750,195939.009750,220816.009750,8.876312,3584-3711 3840-4223,-1.000000,""
61_0_1,w0,profile_61,154822.000000,256,21643.000000,1,COMPLETED_SUCCESSFULLY,217820.012600,21642.000000,239462.012600,62998.012600,84640.012600,3.910915,2048-2175 4224-4351,-1.000000,""
55_0_1,w0,profile_55,102805.000000,640,20240.000000,1,COMPLETED_SUCCESSFULLY,219877.010800,20239.000000,240116.010800,117072.010800,137311.010800,6.784476,3072-3583 3740-3839 4352-4379,-1.000000,""
60_0_1,w0,profile_60,141061.000000,512,23936.000000,1,COMPLETED_SUCCESSFULLY,220819.011400,23935.000000,244754.011400,79758.011400,103693.011400,4.332275,3584-3711 3840-4223,-1.000000,""
48_0_1,w0,profile_48,81658.000000,540,28842.000000,1,COMPLETED_SUCCESSFULLY,218744.015900,28841.000000,247585.015900,137086.015900,165927.015900,5.753164,2560-3071 3712-3739,-1.000000,""
4_0_1,w0,profile_4,0.000000,384,32375.000000,1,COMPLETED_SUCCESSFULLY,215435.015300,32374.000000,247809.015300,215435.015300,247809.015300,7.654569,2176-2559,-1.000000,""
2_0_1,w0,profile_2,0.000000,2048,85042.000000,1,COMPLETED_SUCCESSFULLY,171574.006900,85041.000000,256615.006900,171574.006900,256615.006900,3.017545,0-2047,-1.000000,""
65_0_1,w0,profile_65,161055.000000,256,21650.000000,1,COMPLETED_SUCCESSFULLY,256618.009150,21649.000000,278267.009150,95563.009150,117212.009150,5.414200,4096-4351,-1.000000,""
67_0_1,w0,profile_67,176635.000000,256,21696.000000,1,COMPLETED_SUCCESSFULLY,278270.010800,21695.000000,299965.010800,101635.010800,123330.010800,5.684720,4096-4351,-1.000000,""
36_0_1,w0,profile_36,0.000000,4096,62696.000000,1,COMPLETED_SUCCESSFULLY,256618.008550,62695.000000,319313.008550,256618.008550,319313.008550,5.093118,0-4095,-1.000000,""
69_0_1,w0,profile_69,241774.000000,256,21630.000000,1,COMPLETED_SUCCESSFULLY,319316.011400,21629.000000,340945.011400,77542.011400,99171.011400,4.585095,4097-4352,-1.000000,""
70_0_1,w0,profile_70,271806.000000,256,21642.000000,1,COMPLETED_SUCCESSFULLY,340948.013050,21641.000000,362589.013050,69142.013050,90783.013050,4.194955,4097-4352,-1.000000,""
71_0_1,w0,profile_71,273682.000000,256,21628.000000,1,COMPLETED_SUCCESSFULLY,362592.014700,21627.000000,384219.014700,88910.014700,110537.014700,5.111066,4097-4352,-1.000000,""
37_0_1,w0,profile_37,0.000000,4096,65810.000000,1,COMPLETED_SUCCESSFULLY,319316.010200,65809.000000,385125.010200,319316.010200,385125.010200,5.852163,0-4095,-1.000000,""
38_0_1,w0,profile_38,0.000000,1,78562.000000,1,COMPLETED_SUCCESSFULLY,319316.010800,78561.000000,397877.010800,319316.010800,397877.010800,5.064561,4096,-1.000000,""
42_0_1,w0,profile_42,14272.000000,640,43283.000000,1,COMPLETED_SUCCESSFULLY,385128.013050,43282.000000,428410.013050,370856.013050,414138.013050,9.568366,3424-4063,-1.000000,""
73_0_1,w0,profile_73,287575.000000,256,21640.000000,1,COMPLETED_SUCCESSFULLY,428413.015300,21639.000000,450052.015300,140838.015300,162477.015300,7.508527,3936-4063 4096 4193-4319,-1.000000,""
68_0_1,w0,profile_68,179244.000000,512,30019.000000,1,COMPLETED_SUCCESSFULLY,428413.014700,30018.000000,458431.014700,249169.014700,279187.014700,9.300653,3424-3935,-1.000000,""
3_0_1,w0,profile_3,0.000000,2048,85018.000000,1,COMPLETED_SUCCESSFULLY,385128.012450,85017.000000,470145.012450,385128.012450,470145.012450,5.530012,1376-3423,-1.000000,""
50_0_1,w0,profile_50,87878.000000,128,86500.000000,1,COMPLETED_SUCCESSFULLY,385128.013650,86499.000000,471627.013650,297250.013650,383749.013650,4.436456,4064-4095 4097-4192,-1.000000,""
82_0_1,w0,profile_82,334859.000000,256,21581.000000,1,COMPLETED_SUCCESSFULLY,450055.016950,21580.000000,471635.016950,115196.016950,136776.016950,6.338092,3936-4063 4096 4193-4319,-1.000000,""
39_0_1,w0,profile_39,0.000000,1376,86520.000000,1,COMPLETED_SUCCESSFULLY,385128.011850,86519.000000,471647.011850,385128.011850,471647.011850,5.451369,0-1375,-1.000000,""
40_0_1,w0,profile_40,0.000000,3850,21163.000000,1,COMPLETED_SUCCESSFULLY,471650.013500,21162.000000,492812.013500,471650.013500,492812.013500,23.287592,0-3849,-1.000000,""
74_0_1,w0,profile_74,287622.000000,256,21632.000000,1,COMPLETED_SUCCESSFULLY,492815.016350,21631.000000,514446.016350,205193.016350,226824.016350,10.486062,4000-4255,-1.000000,""
75_0_1,w0,profile_75,287632.000000,256,21654.000000,1,COMPLETED_SUCCESSFULLY,514449.018000,21653.000000,536102.018000,226817.018000,248470.018000,11.475085,4000-4255,-1.000000,""
6_0_1,w0,profile_6,0.000000,2000,43310.000000,1,COMPLETED_SUCCESSFULLY,492815.015750,43309.000000,536124.015750,492815.015750,536124.015750,12.379044,2000-3999,-1.000000,""
5_0_1,w0,profile_5,0.000000,2000,43334.000000,1,COMPLETED_SUCCESSFULLY,492815.015150,43333.000000,536148.015150,492815.015150,536148.015150,12.372742,0-1999,-1.000000,""
7_0_1,w0,profile_7,0.000000,2000,43230.000000,1,COMPLETED_SUCCESSFULLY,536127.017400,43229.000000,579356.017400,536127.017400,579356.017400,13.402022,2000-3999,-1.000000,""
8_0_1,w0,profile_8,0.000000,2000,43268.000000,1,COMPLETED_SUCCESSFULLY,536151.016800,43267.000000,579418.016800,536151.016800,579418.016800,13.391685,0-1999,-1.000000,""
46_0_1,w0,profile_46,74271.000000,1024,21692.000000,1,COMPLETED_SUCCESSFULLY,579421.018450,21691.000000,601112.018450,505150.018450,526841.018450,24.288462,0-1023,-1.000000,""
53_0_1,w0,profile_53,92948.000000,1024,26053.000000,1,COMPLETED_SUCCESSFULLY,579421.019050,26052.000000,605473.019050,486473.019050,512525.019050,19.673154,1024-1999 4000-4047,-1.000000,""
54_0_1,w0,profile_54,94976.000000,1024,21059.000000,1,COMPLETED_SUCCESSFULLY,601115.020100,21058.000000,622173.020100,506139.020100,527197.020100,25.035474,0-1023,-1.000000,""
9_0_1,w0,profile_9,0.000000,2000,43316.000000,1,COMPLETED_SUCCESSFULLY,579359.019050,43315.000000,622674.019050,579359.019050,622674.019050,14.375482,2000-3999,-1.000000,""
76_0_1,w0,profile_76,314900.000000,512,24353.000000,1,COMPLETED_SUCCESSFULLY,622677.021300,24352.000000,647029.021300,307777.021300,332129.021300,13.638675,3850-4361,-1.000000,""
43_0_1,w0,profile_43,21176.000000,3850,28223.000000,1,COMPLETED_SUCCESSFULLY,622677.020700,28222.000000,650899.020700,601501.020700,629723.020700,22.313196,0-3849,-1.000000,""
44_0_1,w0,profile_44,21210.000000,3850,22006.000000,1,COMPLETED_SUCCESSFULLY,650902.022350,22005.000000,672907.022350,629692.022350,651697.022350,29.615861,0-3849,-1.000000,""
66_0_1,w0,profile_66,175789.000000,704,43274.000000,1,COMPLETED_SUCCESSFULLY,672910.025800,43273.000000,716183.025800,497121.025800,540394.025800,12.488019,3424-3849 4106-4383,-1.000000,""
56_0_1,w0,profile_56,115101.000000,1024,44514.000000,1,COMPLETED_SUCCESSFULLY,672910.024000,44513.000000,717423.024000,557809.024000,602322.024000,13.531373,0-1023,-1.000000,""
58_0_1,w0,profile_58,118290.000000,1200,51124.000000,1,COMPLETED_SUCCESSFULLY,672910.025200,51123.000000,724033.025200,554620.025200,605743.025200,11.848738,2224-3423,-1.000000,""
57_0_1,w0,profile_57,118204.000000,1200,54059.000000,1,COMPLETED_SUCCESSFULLY,672910.024600,54058.000000,726968.024600,554706.024600,608764.024600,11.261312,1024-2223,-1.000000,""
52_0_1,w0,profile_52,87913.000000,128,86554.000000,1,COMPLETED_SUCCESSFULLY,650902.023550,86553.000000,737455.023550,562989.023550,649542.023550,7.504558,3978-4105,-1.000000,""
51_0_1,w0,profile_51,87896.000000,128,86603.000000,1,COMPLETED_SUCCESSFULLY,650902.022950,86602.000000,737504.022950,563006.022950,649608.022950,7.501074,3850-3977,-1.000000,""
77_0_1,w0,profile_77,316089.000000,640,21655.000000,1,COMPLETED_SUCCESSFULLY,726971.026850,21654.000000,748625.026850,410882.026850,432536.026850,19.974879,3072-3423 3600-3849 4106-4143,-1.000000,""
86_0_1,w0,profile_86,716769.000000,256,21646.000000,1,COMPLETED_SUCCESSFULLY,737458.025200,21645.000000,759103.025200,20689.025200,42334.025200,1.955834,3978-4105 4144-4271,-1.000000,""
88_0_1,w0,profile_88,716788.000000,256,21626.000000,1,COMPLETED_SUCCESSFULLY,748628.029100,21625.000000,770253.029100,31840.029100,53465.029100,2.472371,3328-3423 3600-3759,-1.000000,""
87_0_1,w0,profile_87,716774.000000,256,21641.000000,1,COMPLETED_SUCCESSFULLY,748628.028500,21640.000000,770268.028500,31854.028500,53494.028500,2.471998,3072-3327,-1.000000,""
59_0_1,w0,profile_59,118717.000000,1200,54077.000000,1,COMPLETED_SUCCESSFULLY,717426.025650,54076.000000,771502.025650,598709.025650,652785.025650,12.071622,0-1023 3424-3599,-1.000000,""
89_0_1,w0,profile_89,755881.000000,256,21631.000000,1,COMPLETED_SUCCESSFULLY,771505.027900,21630.000000,793135.027900,15624.027900,37254.027900,1.722331,4096-4351,-1.000000,""
62_0_1,w0,profile_62,159318.000000,2048,85303.000000,1,COMPLETED_SUCCESSFULLY,726971.026250,85302.000000,812273.026250,567653.026250,652955.026250,7.654627,1024-3071,-1.000000,""
90_0_1,w0,profile_90,758532.000000,256,20936.000000,1,COMPLETED_SUCCESSFULLY,812276.028500,20935.000000,833211.028500,53744.028500,74679.028500,3.567186,4096-4351,-1.000000,""
91_0_1,w0,profile_91,761095.000000,256,23067.000000,1,COMPLETED_SUCCESSFULLY,833214.030150,23066.000000,856280.030150,72119.030150,95185.030150,4.126638,4096-4351,-1.000000,""
63_0_1,w0,profile_63,159338.000000,2048,85010.000000,1,COMPLETED_SUCCESSFULLY,771505.027300,85009.000000,856514.027300,612167.027300,697176.027300,8.201203,0-1023 3072-4095,-1.000000,""
81_0_1,w0,profile_81,327403.000000,1024,21671.000000,1,COMPLETED_SUCCESSFULLY,856517.029550,21670.000000,878187.029550,529114.029550,550784.029550,25.416891,3072-4095,-1.000000,""
96_0_1,w0,profile_96,803095.000000,256,23101.000000,1,COMPLETED_SUCCESSFULLY,856517.030150,23100.000000,879617.030150,53422.030150,76522.030150,3.312642,4096-4351,-1.000000,""
72_0_1,w0,profile_72,275648.000000,1024,25266.000000,1,COMPLETED_SUCCESSFULLY,856517.028950,25265.000000,881782.028950,580869.028950,606134.028950,23.991056,0-1023,-1.000000,""
64_0_1,w0,profile_64,159356.000000,2048,85013.000000,1,COMPLETED_SUCCESSFULLY,812276.027900,85012.000000,897288.027900,652920.027900,737932.027900,8.680328,1024-3071,-1.000000,""
97_0_1,w0,profile_97,803114.000000,256,21684.000000,1,COMPLETED_SUCCESSFULLY,897291.030750,21683.000000,918974.030750,94177.030750,115860.030750,5.343358,4096-4351,-1.000000,""
95_0_1,w0,profile_95,780196.000000,1024,21719.000000,1,COMPLETED_SUCCESSFULLY,897291.030150,21718.000000,919009.030150,117095.030150,138813.030150,6.391612,3072-4095,-1.000000,""
78_0_1,w0,profile_78,326708.000000,3072,24583.000000,1,COMPLETED_SUCCESSFULLY,897291.029550,24582.000000,921873.029550,570583.029550,595165.029550,24.211416,0-3071,-1.000000,""
104_0_1,w0,profile_104,892546.000000,256,21647.000000,1,COMPLETED_SUCCESSFULLY,921876.032400,21646.000000,943522.032400,29330.032400,50976.032400,2.354986,3328-3583,-1.000000,""
98_0_1,w0,profile_98,803119.000000,256,21658.000000,1,COMPLETED_SUCCESSFULLY,921876.031800,21657.000000,943533.031800,118757.031800,140414.031800,6.483540,3072-3327,-1.000000,""
79_0_1,w0,profile_79,326709.000000,3072,25467.000000,1,COMPLETED_SUCCESSFULLY,921876.031200,25466.000000,947342.031200,595167.031200,620633.031200,24.371045,0-3071,-1.000000,""
106_0_1,w0,profile_106,936181.000000,256,21666.000000,1,COMPLETED_SUCCESSFULLY,947345.034050,21665.000000,969010.034050,11164.034050,32829.034050,1.515303,3874-4129,-1.000000,""
80_0_1,w0,profile_80,326710.000000,3072,24351.000000,1,COMPLETED_SUCCESSFULLY,947345.032850,24350.000000,971695.032850,620635.032850,644985.032850,26.488092,0-3071,-1.000000,""
83_0_1,w0,profile_83,346543.000000,802,32425.000000,1,COMPLETED_SUCCESSFULLY,947345.033450,32424.000000,979769.033450,600802.033450,633226.033450,19.529547,3072-3873,-1.000000,""
93_0_1,w0,profile_93,768134.000000,488,28861.000000,1,COMPLETED_SUCCESSFULLY,971698.036300,28860.000000,1000558.036300,203564.036300,232424.036300,8.053501,2602-3071 3874-3891,-1.000000,""
84_0_1,w0,profile_84,346736.000000,802,32459.000000,1,COMPLETED_SUCCESSFULLY,971698.034500,32458.000000,1004156.034500,624962.034500,657420.034500,20.254484,0-801,-1.000000,""
94_0_1,w0,profile_94,776451.000000,802,32483.000000,1,COMPLETED_SUCCESSFULLY,979772.035100,32482.000000,1012254.035100,203321.035100,235803.035100,7.259499,3072-3873,-1.000000,""
101_0_1,w0,profile_101,850972.000000,512,32396.000000,1,COMPLETED_SUCCESSFULLY,1000561.037950,32395.000000,1032956.037950,149589.037950,181984.037950,5.617658,2602-3071 3874-3915,-1.000000,""
105_0_1,w0,profile_105,927719.000000,640,21688.000000,1,COMPLETED_SUCCESSFULLY,1012257.036750,21687.000000,1033944.036750,84538.036750,106225.036750,4.898097,3072-3711,-1.000000,""
102_0_1,w0,profile_102,853585.000000,1024,44903.000000,1,COMPLETED_SUCCESSFULLY,1004159.036150,44902.000000,1049061.036150,150574.036150,195476.036150,4.353393,0-801 3916-4137,-1.000000,""
85_0_1,w0,profile_85,402199.000000,900,84965.000000,1,COMPLETED_SUCCESSFULLY,971698.035100,84964.000000,1056662.035100,569499.035100,654463.035100,7.702827,802-1701,-1.000000,""
92_0_1,w0,profile_92,765235.000000,900,85649.000000,1,COMPLETED_SUCCESSFULLY,971698.035700,85648.000000,1057346.035700,206463.035700,292111.035700,3.410600,1702-2601,-1.000000,""
109_0_1,w0,profile_109,1111795.000000,256,23027.000000,1,COMPLETED_SUCCESSFULLY,1111795.001800,23026.000000,1134821.001800,0.001800,23026.001800,1.000000,4096-4351,-1.000000,""
99_0_1,w0,profile_99,845105.000000,4096,86493.000000,1,COMPLETED_SUCCESSFULLY,1057349.037350,86492.000000,1143841.037350,212244.037350,298736.037350,3.453915,0-4095,-1.000000,""
111_0_1,w0,profile_111,1158488.000000,256,21646.000000,1,COMPLETED_SUCCESSFULLY,1158488.001800,21645.000000,1180133.001800,0.001800,21645.001800,1.000000,4096-4351,-1.000000,""
112_0_1,w0,profile_112,1159784.000000,256,21667.000000,1,COMPLETED_SUCCESSFULLY,1180136.003450,21666.000000,1201802.003450,20352.003450,42018.003450,1.939352,4096-4351,-1.000000,""
113_0_1,w0,profile_113,1165658.000000,256,21684.000000,1,COMPLETED_SUCCESSFULLY,1201805.005100,21683.000000,1223488.005100,36147.005100,57830.005100,2.667067,4096-4351,-1.000000,""
100_0_1,w0,profile_100,845107.000000,4096,86521.000000,1,COMPLETED_SUCCESSFULLY,1143844.039000,86520.000000,1230364.039000,298737.039000,385257.039000,4.452809,0-4095,-1.000000,""
114_0_1,w0,profile_114,1186997.000000,256,21657.000000,1,COMPLETED_SUCCESSFULLY,1230367.043050,21656.000000,1252023.043050,43370.043050,65026.043050,3.002680,3016-3271,-1.000000,""
110_0_1,w0,profile_110,1117123.000000,512,23685.000000,1,COMPLETED_SUCCESSFULLY,1230367.042450,23684.000000,1254051.042450,113244.042450,136928.042450,5.781458,2504-3015,-1.000000,""
115_0_1,w0,profile_115,1200152.000000,128,31845.000000,1,COMPLETED_SUCCESSFULLY,1230367.043650,31844.000000,1262211.043650,30215.043650,62059.043650,1.948846,3272-3399,-1.000000,""
116_0_1,w0,profile_116,1209904.000000,1376,21659.000000,1,COMPLETED_SUCCESSFULLY,1254054.044100,21658.000000,1275712.044100,44150.044100,65808.044100,3.038510,2504-3271 3400-4007,-1.000000,""
118_0_1,w0,profile_118,1237293.000000,256,21662.000000,1,COMPLETED_SUCCESSFULLY,1254054.045300,21661.000000,1275715.045300,16761.045300,38422.045300,1.773789,4136-4391,-1.000000,""
117_0_1,w0,profile_117,1232532.000000,128,31461.000000,1,COMPLETED_SUCCESSFULLY,1254054.044700,31460.000000,1285514.044700,21522.044700,52982.044700,1.684108,4008-4135,-1.000000,""
119_0_1,w0,profile_119,1271414.000000,256,21658.000000,1,COMPLETED_SUCCESSFULLY,1275715.045750,21657.000000,1297372.045750,4301.045750,25958.045750,1.198598,2504-2759,-1.000000,""
121_0_1,w0,profile_121,1274055.000000,256,21746.000000,1,COMPLETED_SUCCESSFULLY,1275718.048000,21745.000000,1297463.048000,1663.048000,23408.048000,1.076480,3016-3271,-1.000000,""
120_0_1,w0,profile_120,1272707.000000,256,21780.000000,1,COMPLETED_SUCCESSFULLY,1275718.047400,21779.000000,1297497.047400,3011.047400,24790.047400,1.138255,2760-3015,-1.000000,""
122_0_1,w0,profile_122,1274107.000000,512,23570.000000,1,COMPLETED_SUCCESSFULLY,1275718.048600,23569.000000,1299287.048600,1611.048600,25180.048600,1.068355,3272-3783,-1.000000,""
123_0_1,w0,profile_123,1278461.000000,256,21692.000000,1,COMPLETED_SUCCESSFULLY,1278461.001800,21691.000000,1300152.001800,0.001800,21691.001800,1.000000,3784-4007 4136-4167,-1.000000,""
108_0_1,w0,profile_108,1004382.000000,900,85628.000000,1,COMPLETED_SUCCESSFULLY,1230367.041850,85627.000000,1315994.041850,225985.041850,311612.041850,3.639180,1604-2503,-1.000000,""
107_0_1,w0,profile_107,958443.000000,802,86516.000000,1,COMPLETED_SUCCESSFULLY,1230367.041250,86515.000000,1316882.041250,271924.041250,358439.041250,4.143085,802-1603,-1.000000,""
103_0_1,w0,profile_103,873068.000000,802,86533.000000,1,COMPLETED_SUCCESSFULLY,1230367.040650,86532.000000,1316899.040650,357299.040650,443831.040650,5.129097,0-801,-1.000000,""
124_0_1,w0,profile_124,1316938.000000,256,23680.000000,1,COMPLETED_SUCCESSFULLY,1316938.001800,23679.000000,1340617.001800,0.001800,23679.001800,1.000000,0-255,-1.000000,""
126_0_1,w0,profile_126,1372721.000000,2,21682.000000,1,COMPLETED_SUCCESSFULLY,1372721.001800,21681.000000,1394402.001800,0.001800,21681.001800,1.000000,0-1,-1.000000,""
128_0_1,w0,profile_128,1372814.000000,2,21637.000000,1,COMPLETED_SUCCESSFULLY,1372814.002400,21636.000000,1394450.002400,0.002400,21636.002400,1.000000,4-5,-1.000000,""
127_0_1,w0,profile_127,1372814.000000,2,21654.000000,1,COMPLETED_SUCCESSFULLY,1372814.001800,21653.000000,1394467.001800,0.001800,21653.001800,1.000000,2-3,-1.000000,""
133_0_1,w0,profile_133,1373939.000000,256,21650.000000,1,COMPLETED_SUCCESSFULLY,1373939.001800,21649.000000,1395588.001800,0.001800,21649.001800,1.000000,1892-2147,-1.000000,""
131_0_1,w0,profile_131,1373928.000000,256,21664.000000,1,COMPLETED_SUCCESSFULLY,1373928.001800,21663.000000,1395591.001800,0.001800,21663.001800,1.000000,1380-1635,-1.000000,""
130_0_1,w0,profile_130,1373925.000000,256,21701.000000,1,COMPLETED_SUCCESSFULLY,1373925.001800,21700.000000,1395625.001800,0.001800,21700.001800,1.000000,1124-1379,-1.000000,""
129_0_1,w0,profile_129,1373923.000000,256,21759.000000,1,COMPLETED_SUCCESSFULLY,1373923.001800,21758.000000,1395681.001800,0.001800,21758.001800,1.000000,6-255 1118-1123,-1.000000,""
132_0_1,w0,profile_132,1373937.000000,256,21768.000000,1,COMPLETED_SUCCESSFULLY,1373937.001800,21767.000000,1395704.001800,0.001800,21767.001800,1.000000,1636-1891,-1.000000,""
125_0_1,w0,profile_125,1328119.000000,862,86086.000000,1,COMPLETED_SUCCESSFULLY,1328119.001800,86085.000000,1414204.001800,0.001800,86085.001800,1.000000,256-1117,-1.000000,""
134_0_1,w0,profile_134,1383908.000000,256,32452.000000,1,COMPLETED_SUCCESSFULLY,1383908.001800,32451.000000,1416359.001800,0.001800,32451.001800,1.000000,2148-2403,-1.000000,""
135_0_1,w0,profile_135,1395190.000000,512,22720.000000,1,COMPLETED_SUCCESSFULLY,1395190.001800,22719.000000,1417909.001800,0.001800,22719.001800,1.000000,0-5 2404-2909,-1.000000,""
136_0_1,w0,profile_136,1405112.000000,1024,21725.000000,1,COMPLETED_SUCCESSFULLY,1405112.001800,21724.000000,1426836.001800,0.001800,21724.001800,1.000000,6-255 1118-1891,-1.000000,""
138_0_1,w0,profile_138,1411114.000000,128,25157.000000,1,COMPLETED_SUCCESSFULLY,1411114.001800,25156.000000,1436270.001800,0.001800,25156.001800,1.000000,2020-2147,-1.000000,""
137_0_1,w0,profile_137,1411112.000000,128,25649.000000,1,COMPLETED_SUCCESSFULLY,1411112.001800,25648.000000,1436760.001800,0.001800,25648.001800,1.000000,1892-2019,-1.000000,""
140_0_1,w0,profile_140,1425332.000000,8,20059.000000,1,COMPLETED_SUCCESSFULLY,1425332.001800,20058.000000,1445390.001800,0.001800,20058.001800,1.000000,0-5 2310-2311,-1.000000,""
141_0_1,w0,profile_141,1447514.000000,256,21636.000000,1,COMPLETED_SUCCESSFULLY,1447514.001800,21635.000000,1469149.001800,0.001800,21635.001800,1.000000,0-255,-1.000000,""
142_0_1,w0,profile_142,1447531.000000,256,21661.000000,1,COMPLETED_SUCCESSFULLY,1447531.001800,21660.000000,1469191.001800,0.001800,21660.001800,1.000000,1118-1373,-1.000000,""
143_0_1,w0,profile_143,1447571.000000,256,21655.000000,1,COMPLETED_SUCCESSFULLY,1447571.001800,21654.000000,1469225.001800,0.001800,21654.001800,1.000000,1374-1629,-1.000000,""
144_0_1,w0,profile_144,1448587.000000,2,21644.000000,0,COMPLETED_WALLTIME_REACHED,1448587.001800,21644.000000,1470231.001800,0.001800,21644.001800,1.000000,1630-1631,-1.000000,""
139_0_1,w0,profile_139,1417767.000000,1024,61383.000000,1,COMPLETED_SUCCESSFULLY,1417767.001800,61382.000000,1479149.001800,0.001800,61382.001800,1.000000,256-1117 2148-2309,-1.000000,""
145_0_1,w0,profile_145,1463781.000000,256,21597.000000,1,COMPLETED_SUCCESSFULLY,1463781.001800,21596.000000,1485377.001800,0.001800,21596.001800,1.000000,1632-1887,-1.000000,""
147_0_1,w0,profile_147,1474334.000000,256,21679.000000,1,COMPLETED_SUCCESSFULLY,1474334.001800,21678.000000,1496012.001800,0.001800,21678.001800,1.000000,1246-1501,-1.000000,""
146_0_1,w0,profile_146,1472870.000000,384,28154.000000,1,COMPLETED_SUCCESSFULLY,1472870.001800,28153.000000,1501023.001800,0.001800,28153.001800,1.000000,0-255 1118-1245,-1.000000,""
148_0_1,w0,profile_148,1494143.000000,256,21643.000000,1,COMPLETED_SUCCESSFULLY,1494143.001800,21642.000000,1515785.001800,0.001800,21642.001800,1.000000,256-511,-1.000000,""
149_0_1,w0,profile_149,1494174.000000,256,21656.000000,1,COMPLETED_SUCCESSFULLY,1494174.001800,21655.000000,1515829.001800,0.001800,21655.001800,1.000000,512-767,-1.000000,""
151_0_1,w0,profile_151,1539247.000000,256,21714.000000,1,COMPLETED_SUCCESSFULLY,1539247.001800,21713.000000,1560960.001800,0.001800,21713.001800,1.000000,900-1155,-1.000000,""
153_0_1,w0,profile_153,1582800.000000,256,21626.000000,1,COMPLETED_SUCCESSFULLY,1582800.001800,21625.000000,1604425.001800,0.001800,21625.001800,1.000000,900-1155,-1.000000,""
154_0_1,w0,profile_154,1582815.000000,256,21663.000000,1,COMPLETED_SUCCESSFULLY,1582815.001800,21662.000000,1604477.001800,0.001800,21662.001800,1.000000,1958-2213,-1.000000,""
155_0_1,w0,profile_155,1582836.000000,256,21696.000000,1,COMPLETED_SUCCESSFULLY,1582836.001800,21695.000000,1604531.001800,0.001800,21695.001800,1.000000,2214-2469,-1.000000,""
150_0_1,w0,profile_150,1533429.000000,900,85616.000000,1,COMPLETED_SUCCESSFULLY,1533429.001800,85615.000000,1619044.001800,0.001800,85615.001800,1.000000,0-899,-1.000000,""
152_0_1,w0,profile_152,1541100.000000,802,86508.000000,1,COMPLETED_SUCCESSFULLY,1541100.001800,86507.000000,1627607.001800,0.001800,86507.001800,1.000000,1156-1957,-1.000000,""
156_0_1,w0,profile_156,1616179.000000,256,21593.000000,1,COMPLETED_SUCCESSFULLY,1616179.001800,21592.000000,1637771.001800,0.001800,21592.001800,1.000000,900-1155,-1.000000,""
157_0_1,w0,profile_157,1755157.000000,256,21624.000000,1,COMPLETED_SUCCESSFULLY,1755157.001800,21623.000000,1776780.001800,0.001800,21623.001800,1.000000,0-255,-1.000000,""
158_0_1,w0,profile_158,1756539.000000,256,21644.000000,1,COMPLETED_SUCCESSFULLY,1756539.001800,21643.000000,1778182.001800,0.001800,21643.001800,1.000000,256-511,-1.000000,""
159_0_1,w0,profile_159,1756557.000000,256,21648.000000,1,COMPLETED_SUCCESSFULLY,1756557.001800,21647.000000,1778204.001800,0.001800,21647.001800,1.000000,512-767,-1.000000,""
160_0_1,w0,profile_160,1761182.000000,840,85142.000000,1,COMPLETED_SUCCESSFULLY,1761182.001800,85141.000000,1846323.001800,0.001800,85141.001800,1.000000,768-1607,-1.000000,""
163_0_1,w0,profile_163,1834659.000000,256,21654.000000,1,COMPLETED_SUCCESSFULLY,1834659.001800,21653.000000,1856312.001800,0.001800,21653.001800,1.000000,2580-2835,-1.000000,""
164_0_1,w0,profile_164,1834700.000000,256,21630.000000,1,COMPLETED_SUCCESSFULLY,1834700.001800,21629.000000,1856329.001800,0.001800,21629.001800,1.000000,2836-3091,-1.000000,""
162_0_1,w0,profile_162,1814233.000000,840,44550.000000,1,COMPLETED_SUCCESSFULLY,1814233.001800,44549.000000,1858782.001800,0.001800,44549.001800,1.000000,1740-2579,-1.000000,""
161_0_1,w0,profile_161,1790779.000000,900,87390.000000,1,COMPLETED_SUCCESSFULLY,1790779.001800,87389.000000,1878168.001800,0.001800,87389.001800,1.000000,0-767 1608-1739,-1.000000,""
167_0_1,w0,profile_167,1931050.000000,256,21640.000000,1,COMPLETED_SUCCESSFULLY,1931050.001800,21639.000000,1952689.001800,0.001800,21639.001800,1.000000,1118-1373,-1.000000,""
166_0_1,w0,profile_166,1931035.000000,256,21664.000000,1,COMPLETED_SUCCESSFULLY,1931035.001800,21663.000000,1952698.001800,0.001800,21663.001800,1.000000,862-1117,-1.000000,""
168_0_1,w0,profile_168,1953301.000000,512,21983.000000,1,COMPLETED_SUCCESSFULLY,1953301.001800,21982.000000,1975283.001800,0.001800,21982.001800,1.000000,862-1373,-1.000000,""
170_0_1,w0,profile_170,1966247.000000,256,21702.000000,1,COMPLETED_SUCCESSFULLY,1966247.001800,21701.000000,1987948.001800,0.001800,21701.001800,1.000000,2214-2469,-1.000000,""
171_0_1,w0,profile_171,1966258.000000,256,21702.000000,1,COMPLETED_SUCCESSFULLY,1966258.001800,21701.000000,1987959.001800,0.001800,21701.001800,1.000000,2470-2725,-1.000000,""
172_0_1,w0,profile_172,1966281.000000,256,21734.000000,1,COMPLETED_SUCCESSFULLY,1966281.001800,21733.000000,1988014.001800,0.001800,21733.001800,1.000000,2726-2981,-1.000000,""
169_0_1,w0,profile_169,1962686.000000,840,28848.000000,1,COMPLETED_SUCCESSFULLY,1962686.001800,28847.000000,1991533.001800,0.001800,28847.001800,1.000000,1374-2213,-1.000000,""
173_0_1,w0,profile_173,1972584.000000,256,21630.000000,1,COMPLETED_SUCCESSFULLY,1972584.001800,21629.000000,1994213.001800,0.001800,21629.001800,1.000000,2982-3237,-1.000000,""
174_0_1,w0,profile_174,1973791.000000,256,21658.000000,1,COMPLETED_SUCCESSFULLY,1973791.001800,21657.000000,1995448.001800,0.001800,21657.001800,1.000000,3238-3493,-1.000000,""
175_0_1,w0,profile_175,1973793.000000,256,21704.000000,1,COMPLETED_SUCCESSFULLY,1973793.001800,21703.000000,1995496.001800,0.001800,21703.001800,1.000000,3494-3749,-1.000000,""
176_0_1,w0,profile_176,1974400.000000,256,21655.000000,1,COMPLETED_SUCCESSFULLY,1974400.001800,21654.000000,1996054.001800,0.001800,21654.001800,1.000000,3750-4005,-1.000000,""
165_0_1,w0,profile_165,1926457.000000,862,85940.000000,1,COMPLETED_SUCCESSFULLY,1926457.001800,85939.000000,2012396.001800,0.001800,85939.001800,1.000000,0-861,-1.000000,""
178_0_1,w0,profile_178,1990862.000000,1024,21707.000000,1,COMPLETED_SUCCESSFULLY,1990862.001800,21706.000000,2012568.001800,0.001800,21706.001800,1.000000,2342-2981 4006-4389,-1.000000,""
179_0_1,w0,profile_179,2003397.000000,256,21582.000000,1,COMPLETED_SUCCESSFULLY,2003397.001800,21581.000000,2024978.001800,0.001800,21581.001800,1.000000,1374-1629,-1.000000,""
177_0_1,w0,profile_177,1990237.000000,640,43259.000000,1,COMPLETED_SUCCESSFULLY,1990237.001800,43258.000000,2033495.001800,0.001800,43258.001800,1.000000,862-1373 2214-2341,-1.000000,""
182_0_1,w0,profile_182,2007892.000000,256,21635.000000,1,COMPLETED_SUCCESSFULLY,2012399.003450,21634.000000,2034033.003450,4507.003450,26141.003450,1.208330,0-255,-1.000000,""
180_0_1,w0,profile_180,2003419.000000,384,32374.000000,1,COMPLETED_SUCCESSFULLY,2003419.001800,32373.000000,2035792.001800,0.001800,32373.001800,1.000000,1630-2013,-1.000000,""
181_0_1,w0,profile_181,2004737.000000,1024,35162.000000,1,COMPLETED_SUCCESSFULLY,2004737.001800,35161.000000,2039898.001800,0.001800,35161.001800,1.000000,2014-2213 2982-3805,-1.000000,""
183_0_1,w0,profile_183,2020657.000000,256,21570.000000,1,COMPLETED_SUCCESSFULLY,2020657.001800,21569.000000,2042226.001800,0.001800,21569.001800,1.000000,256-511,-1.000000,""
185_0_1,w0,profile_185,2050233.000000,840,22916.000000,1,COMPLETED_SUCCESSFULLY,2050233.001800,22915.000000,2073148.001800,0.001800,22915.001800,1.000000,256-511 1156-1739,-1.000000,""
186_0_1,w0,profile_186,2056620.000000,256,21638.000000,1,COMPLETED_SUCCESSFULLY,2056620.001800,21637.000000,2078257.001800,0.001800,21637.001800,1.000000,1740-1995,-1.000000,""
187_0_1,w0,profile_187,2056632.000000,256,21675.000000,1,COMPLETED_SUCCESSFULLY,2056632.001800,21674.000000,2078306.001800,0.001800,21674.001800,1.000000,1996-2251,-1.000000,""
188_0_1,w0,profile_188,2056638.000000,256,21675.000000,1,COMPLETED_SUCCESSFULLY,2056638.001800,21674.000000,2078312.001800,0.001800,21674.001800,1.000000,2252-2507,-1.000000,""
191_0_1,w0,profile_191,2078802.000000,256,21652.000000,1,COMPLETED_SUCCESSFULLY,2078802.001800,21651.000000,2100453.001800,0.001800,21651.001800,1.000000,1156-1411,-1.000000,""
190_0_1,w0,profile_190,2078793.000000,256,21677.000000,1,COMPLETED_SUCCESSFULLY,2078793.001800,21676.000000,2100469.001800,0.001800,21676.001800,1.000000,256-511,-1.000000,""
189_0_1,w0,profile_189,2057334.000000,1024,52453.000000,1,COMPLETED_SUCCESSFULLY,2057334.001800,52452.000000,2109786.001800,0.001800,52452.001800,1.000000,2508-3531,-1.000000,""
184_0_1,w0,profile_184,2036437.000000,900,87023.000000,1,COMPLETED_SUCCESSFULLY,2036437.001800,87022.000000,2123459.001800,0.001800,87022.001800,1.000000,0-255 512-1155,-1.000000,""
192_0_1,w0,profile_192,2105884.000000,840,20850.000000,1,COMPLETED_SUCCESSFULLY,2105884.001800,20849.000000,2126733.001800,0.001800,20849.001800,1.000000,256-511 1156-1739,-1.000000,""
193_0_1,w0,profile_193,2105898.000000,840,22499.000000,1,COMPLETED_SUCCESSFULLY,2105898.001800,22498.000000,2128396.001800,0.001800,22498.001800,1.000000,1740-2507 3532-3603,-1.000000,""
195_0_1,w0,profile_195,2144722.000000,1024,21674.000000,1,COMPLETED_SUCCESSFULLY,2144722.001800,21673.000000,2166395.001800,0.001800,21673.001800,1.000000,512-1535,-1.000000,""
197_0_1,w0,profile_197,2145311.000000,512,27639.000000,1,COMPLETED_SUCCESSFULLY,2145311.001800,27638.000000,2172949.001800,0.001800,27638.001800,1.000000,2048-2559,-1.000000,""
196_0_1,w0,profile_196,2145268.000000,512,28220.000000,1,COMPLETED_SUCCESSFULLY,2145268.001800,28219.000000,2173487.001800,0.001800,28219.001800,1.000000,1536-2047,-1.000000,""
194_0_1,w0,profile_194,2143935.000000,512,30036.000000,1,COMPLETED_SUCCESSFULLY,2143935.001800,30035.000000,2173970.001800,0.001800,30035.001800,1.000000,0-511,-1.000000,""
199_0_1,w0,profile_199,2156207.000000,256,21636.000000,1,COMPLETED_SUCCESSFULLY,2156207.001800,21635.000000,2177842.001800,0.001800,21635.001800,1.000000,2944-3199,-1.000000,""
200_0_1,w0,profile_200,2164886.000000,256,23069.000000,1,COMPLETED_SUCCESSFULLY,2164886.001800,23068.000000,2187954.001800,0.001800,23068.001800,1.000000,3200-3455,-1.000000,""
201_0_1,w0,profile_201,2164905.000000,256,23178.000000,1,COMPLETED_SUCCESSFULLY,2164905.001800,23177.000000,2188082.001800,0.001800,23177.001800,1.000000,3456-3711,-1.000000,""
198_0_1,w0,profile_198,2156200.000000,384,32393.000000,1,COMPLETED_SUCCESSFULLY,2156200.001800,32392.000000,2188592.001800,0.001800,32392.001800,1.000000,2560-2943,-1.000000,""
202_0_1,w0,profile_202,2183207.000000,256,21561.000000,1,COMPLETED_SUCCESSFULLY,2183207.001800,21560.000000,2204767.001800,0.001800,21560.001800,1.000000,0-255,-1.000000,""
203_0_1,w0,profile_203,2229344.000000,256,21669.000000,1,COMPLETED_SUCCESSFULLY,2229344.001800,21668.000000,2251012.001800,0.001800,21668.001800,1.000000,0-255,-1.000000,""
204_0_1,w0,profile_204,2229357.000000,256,21697.000000,1,COMPLETED_SUCCESSFULLY,2229357.001800,21696.000000,2251053.001800,0.001800,21696.001800,1.000000,256-511,-1.000000,""
205_0_1,w0,profile_205,2232839.000000,256,21625.000000,1,COMPLETED_SUCCESSFULLY,2232839.001800,21624.000000,2254463.001800,0.001800,21624.001800,1.000000,512-767,-1.000000,""
206_0_1,w0,profile_206,2235862.000000,1376,21701.000000,1,COMPLETED_SUCCESSFULLY,2235862.001800,21700.000000,2257562.001800,0.001800,21700.001800,1.000000,768-2143,-1.000000,""
208_0_1,w0,profile_208,2243857.000000,512,22615.000000,1,COMPLETED_SUCCESSFULLY,2243857.001800,22614.000000,2266471.001800,0.001800,22614.001800,1.000000,2528-3039,-1.000000,""
207_0_1,w0,profile_207,2238687.000000,384,32437.000000,1,COMPLETED_SUCCESSFULLY,2238687.001800,32436.000000,2271123.001800,0.001800,32436.001800,1.000000,2144-2527,-1.000000,""
209_0_1,w0,profile_209,2254741.000000,256,21671.000000,1,COMPLETED_SUCCESSFULLY,2254741.001800,21670.000000,2276411.001800,0.001800,21670.001800,1.000000,0-255,-1.000000,""
211_0_1,w0,profile_211,2269379.000000,256,21213.000000,1,COMPLETED_SUCCESSFULLY,2269379.001800,21212.000000,2290591.001800,0.001800,21212.001800,1.000000,2528-2783,-1.000000,""
212_0_1,w0,profile_212,2270108.000000,256,21657.000000,1,COMPLETED_SUCCESSFULLY,2270108.001800,21656.000000,2291764.001800,0.001800,21656.001800,1.000000,2784-3039,-1.000000,""
214_0_1,w0,profile_214,2271422.000000,256,20441.000000,1,COMPLETED_SUCCESSFULLY,2271422.001800,20440.000000,2291862.001800,0.001800,20440.001800,1.000000,2144-2399,-1.000000,""
213_0_1,w0,profile_213,2271120.000000,256,20876.000000,1,COMPLETED_SUCCESSFULLY,2271120.001800,20875.000000,2291995.001800,0.001800,20875.001800,1.000000,3200-3455,-1.000000,""
210_0_1,w0,profile_210,2255093.000000,2048,39495.000000,1,COMPLETED_SUCCESSFULLY,2257565.003450,39494.000000,2297059.003450,2472.003450,41966.003450,1.062592,256-2143 3040-3199,-1.000000,""
215_0_1,w0,profile_215,2290722.000000,1024,49778.000000,1,COMPLETED_SUCCESSFULLY,2290722.001800,49777.000000,2340499.001800,0.001800,49777.001800,1.000000,0-255 2400-2783 3456-3839,-1.000000,""
216_0_1,w0,profile_216,2333879.000000,256,21668.000000,1,COMPLETED_SUCCESSFULLY,2333879.001800,21667.000000,2355546.001800,0.001800,21667.001800,1.000000,256-511,-1.000000,""
217_0_1,w0,profile_217,2417350.000000,256,21658.000000,1,COMPLETED_SUCCESSFULLY,2417350.001800,21657.000000,2439007.001800,0.001800,21657.001800,1.000000,0-255,-1.000000,""
218_0_1,w0,profile_218,2433570.000000,900,85619.000000,1,COMPLETED_SUCCESSFULLY,2433570.001800,85618.000000,2519188.001800,0.001800,85618.001800,1.000000,256-1155,-1.000000,""
219_0_1,w0,profile_219,2537714.000000,256,21678.000000,1,COMPLETED_SUCCESSFULLY,2537714.001800,21677.000000,2559391.001800,0.001800,21677.001800,1.000000,0-255,-1.000000,""
221_0_1,w0,profile_221,2537734.000000,256,21662.000000,1,COMPLETED_SUCCESSFULLY,2537734.001800,21661.000000,2559395.001800,0.001800,21661.001800,1.000000,512-767,-1.000000,""
220_0_1,w0,profile_220,2537720.000000,256,21725.000000,1,COMPLETED_SUCCESSFULLY,2537720.001800,21724.000000,2559444.001800,0.001800,21724.001800,1.000000,256-511,-1.000000,""
222_0_1,w0,profile_222,2570595.000000,1024,21668.000000,1,COMPLETED_SUCCESSFULLY,2570595.001800,21667.000000,2592262.001800,0.001800,21667.001800,1.000000,0-1023,-1.000000,""
223_0_1,w0,profile_223,2585283.000000,256,20342.000000,1,COMPLETED_SUCCESSFULLY,2585283.001800,20341.000000,2605624.001800,0.001800,20341.001800,1.000000,1024-1279,-1.000000,""
224_0_1,w0,profile_224,2606557.000000,512,22765.000000,1,COMPLETED_SUCCESSFULLY,2606557.001800,22764.000000,2629321.001800,0.001800,22764.001800,1.000000,0-511,-1.000000,""
225_0_1,w0,profile_225,2652286.000000,572,32461.000000,1,COMPLETED_SUCCESSFULLY,2652286.001800,32460.000000,2684746.001800,0.001800,32460.001800,1.000000,0-571,-1.000000,""
229_0_1,w0,profile_229,2683811.000000,256,21652.000000,1,COMPLETED_SUCCESSFULLY,2683811.001800,21651.000000,2705462.001800,0.001800,21651.001800,1.000000,1340-1595,-1.000000,""
230_0_1,w0,profile_230,2683822.000000,256,21642.000000,1,COMPLETED_SUCCESSFULLY,2683822.001800,21641.000000,2705463.001800,0.001800,21641.001800,1.000000,1596-1851,-1.000000,""
227_0_1,w0,profile_227,2683807.000000,256,21659.000000,1,COMPLETED_SUCCESSFULLY,2683807.001800,21658.000000,2705465.001800,0.001800,21658.001800,1.000000,828-1083,-1.000000,""
231_0_1,w0,profile_231,2683825.000000,256,21650.000000,1,COMPLETED_SUCCESSFULLY,2683825.001800,21649.000000,2705474.001800,0.001800,21649.001800,1.000000,1852-2107,-1.000000,""
228_0_1,w0,profile_228,2683809.000000,256,21709.000000,1,COMPLETED_SUCCESSFULLY,2683809.001800,21708.000000,2705517.001800,0.001800,21708.001800,1.000000,1084-1339,-1.000000,""
226_0_1,w0,profile_226,2682960.000000,256,23059.000000,1,COMPLETED_SUCCESSFULLY,2682960.001800,23058.000000,2706018.001800,0.001800,23058.001800,1.000000,572-827,-1.000000,""
233_0_1,w0,profile_233,2686918.000000,400,24692.000000,1,COMPLETED_SUCCESSFULLY,2686918.001800,24691.000000,2711609.001800,0.001800,24691.001800,1.000000,400-571 2108-2335,-1.000000,""
232_0_1,w0,profile_232,2686905.000000,400,26206.000000,1,COMPLETED_SUCCESSFULLY,2686905.001800,26205.000000,2713110.001800,0.001800,26205.001800,1.000000,0-399,-1.000000,""
234_0_1,w0,profile_234,2686925.000000,400,32486.000000,1,COMPLETED_SUCCESSFULLY,2686925.001800,32485.000000,2719410.001800,0.001800,32485.001800,1.000000,2336-2735,-1.000000,""
235_0_1,w0,profile_235,2687474.000000,1280,86488.000000,1,COMPLETED_SUCCESSFULLY,2687474.001800,86487.000000,2773961.001800,0.001800,86487.001800,1.000000,2736-4015,-1.000000,""
237_0_1,w0,profile_237,2753994.000000,1024,21644.000000,1,COMPLETED_SUCCESSFULLY,2753994.001800,21643.000000,2775637.001800,0.001800,21643.001800,1.000000,256-1279,-1.000000,""
236_0_1,w0,profile_236,2753083.000000,256,23043.000000,1,COMPLETED_SUCCESSFULLY,2753083.001800,23042.000000,2776125.001800,0.001800,23042.001800,1.000000,0-255,-1.000000,""
239_0_1,w0,profile_239,2771786.000000,384,30702.000000,1,COMPLETED_SUCCESSFULLY,2773964.004050,30701.000000,2804665.004050,2178.004050,32879.004050,1.070942,3328-3711,-1.000000,""
240_0_1,w0,profile_240,2779271.000000,600,32473.000000,1,COMPLETED_SUCCESSFULLY,2779271.001800,32472.000000,2811743.001800,0.001800,32472.001800,1.000000,0-599,-1.000000,""
241_0_1,w0,profile_241,2779458.000000,802,34859.000000,1,COMPLETED_SUCCESSFULLY,2779458.001800,34858.000000,2814316.001800,0.001800,34858.001800,1.000000,600-1279 3712-3833,-1.000000,""
242_0_1,w0,profile_242,2787205.000000,384,32504.000000,1,COMPLETED_SUCCESSFULLY,2787205.001800,32503.000000,2819708.001800,0.001800,32503.001800,1.000000,3834-4217,-1.000000,""
243_0_1,w0,profile_243,2798815.000000,512,32451.000000,1,COMPLETED_SUCCESSFULLY,2804668.005700,32450.000000,2837118.005700,5853.005700,38303.005700,1.180370,3328-3711 4218-4345,-1.000000,""
244_0_1,w0,profile_244,2819035.000000,512,24173.000000,1,COMPLETED_SUCCESSFULLY,2819035.001800,24172.000000,2843207.001800,0.001800,24172.001800,1.000000,0-511,-1.000000,""
246_0_1,w0,profile_246,2827748.000000,256,21549.000000,1,COMPLETED_SUCCESSFULLY,2827748.001800,21548.000000,2849296.001800,0.001800,21548.001800,1.000000,768-1023,-1.000000,""
245_0_1,w0,profile_245,2827657.000000,256,21654.000000,1,COMPLETED_SUCCESSFULLY,2827657.001800,21653.000000,2849310.001800,0.001800,21653.001800,1.000000,512-767,-1.000000,""
247_0_1,w0,profile_247,2833732.000000,1024,21599.000000,1,COMPLETED_SUCCESSFULLY,2837121.007350,21598.000000,2858719.007350,3389.007350,24987.007350,1.156913,1024-1279 3328-4095,-1.000000,""
238_0_1,w0,profile_238,2764509.000000,2048,86508.000000,1,COMPLETED_SUCCESSFULLY,2773964.003450,86507.000000,2860471.003450,9455.003450,95962.003450,1.109298,1280-3327,-1.000000,""
248_0_1,w0,profile_248,2838213.000000,1024,21656.000000,1,COMPLETED_SUCCESSFULLY,2849299.003450,21655.000000,2870954.003450,11086.003450,32741.003450,1.511937,0-511 768-1023 4096-4351,-1.000000,""
249_0_1,w0,profile_249,2850596.000000,256,21681.000000,1,COMPLETED_SUCCESSFULLY,2850596.001800,21680.000000,2872276.001800,0.001800,21680.001800,1.000000,512-767,-1.000000,""
252_0_1,w0,profile_252,2858636.000000,256,20407.000000,1,COMPLETED_SUCCESSFULLY,2858722.010200,20406.000000,2879128.010200,86.010200,20492.010200,1.004215,3584-3839,-1.000000,""
251_0_1,w0,profile_251,2850781.000000,256,21649.000000,1,COMPLETED_SUCCESSFULLY,2858722.009600,21648.000000,2880370.009600,7941.009600,29589.009600,1.366824,3328-3583,-1.000000,""
250_0_1,w0,profile_250,2850774.000000,256,21667.000000,1,COMPLETED_SUCCESSFULLY,2858722.009000,21666.000000,2880388.009000,7948.009000,29614.009000,1.366842,1024-1279,-1.000000,""
253_0_1,w0,profile_253,2911593.000000,256,20276.000000,1,COMPLETED_SUCCESSFULLY,2911593.001800,20275.000000,2931868.001800,0.001800,20275.001800,1.000000,0-255,-1.000000,""
257_0_1,w0,profile_257,2929341.000000,256,21627.000000,1,COMPLETED_SUCCESSFULLY,2931871.003450,21626.000000,2953497.003450,2530.003450,24156.003450,1.116989,0-255,-1.000000,""
258_0_1,w0,profile_258,2958967.000000,256,21652.000000,1,COMPLETED_SUCCESSFULLY,2958967.001800,21651.000000,2980618.001800,0.001800,21651.001800,1.000000,0-255,-1.000000,""
259_0_1,w0,profile_259,2958985.000000,256,21677.000000,1,COMPLETED_SUCCESSFULLY,2980621.003450,21676.000000,3002297.003450,21636.003450,43312.003450,1.998155,0-255,-1.000000,""
254_0_1,w0,profile_254,2929263.000000,2048,85887.000000,1,COMPLETED_SUCCESSFULLY,2929263.001800,85886.000000,3015149.001800,0.001800,85886.001800,1.000000,256-2303,-1.000000,""
255_0_1,w0,profile_255,2929280.000000,2048,86551.000000,1,COMPLETED_SUCCESSFULLY,2929280.001800,86550.000000,3015830.001800,0.001800,86550.001800,1.000000,2304-4351,-1.000000,""
260_0_1,w0,profile_260,2985715.000000,512,23210.000000,1,COMPLETED_SUCCESSFULLY,3015833.003450,23209.000000,3039042.003450,30118.003450,53327.003450,2.297686,2048-2559,-1.000000,""
262_0_1,w0,profile_262,3041758.000000,256,20084.000000,1,COMPLETED_SUCCESSFULLY,3041758.001800,20083.000000,3061841.001800,0.001800,20083.001800,1.000000,4096-4351,-1.000000,""
264_0_1,w0,profile_264,3070647.000000,256,20184.000000,1,COMPLETED_SUCCESSFULLY,3070647.001800,20183.000000,3090830.001800,0.001800,20183.001800,1.000000,4096-4351,-1.000000,""
256_0_1,w0,profile_256,2929281.000000,2048,87951.000000,1,COMPLETED_SUCCESSFULLY,3015152.003450,87950.000000,3103102.003450,85871.003450,173821.003450,1.976362,0-2047,-1.000000,""
267_0_1,w0,profile_267,3082616.000000,1024,21322.000000,1,COMPLETED_SUCCESSFULLY,3103105.006900,21321.000000,3124426.006900,20489.006900,41810.006900,1.960978,1280-2047 4096-4351,-1.000000,""
266_0_1,w0,profile_266,3077992.000000,256,21645.000000,1,COMPLETED_SUCCESSFULLY,3103105.006300,21644.000000,3124749.006300,25113.006300,46757.006300,2.160276,1024-1279,-1.000000,""
261_0_1,w0,profile_261,2997453.000000,2048,86558.000000,1,COMPLETED_SUCCESSFULLY,3039045.005100,86557.000000,3125602.005100,41592.005100,128149.005100,1.480516,2048-4095,-1.000000,""
263_0_1,w0,profile_263,3043689.000000,512,23621.000000,1,COMPLETED_SUCCESSFULLY,3103105.005100,23620.000000,3126725.005100,59416.005100,83036.005100,3.515496,0-511,-1.000000,""
265_0_1,w0,profile_265,3070828.000000,512,24983.000000,1,COMPLETED_SUCCESSFULLY,3103105.005700,24982.000000,3128087.005700,32277.005700,57259.005700,2.292010,512-1023,-1.000000,""
268_0_1,w0,profile_268,3082799.000000,256,21576.000000,1,COMPLETED_SUCCESSFULLY,3124429.008550,21575.000000,3146004.008550,41630.008550,63205.008550,2.929548,1280-1535,-1.000000,""
269_0_1,w0,profile_269,3083388.000000,1024,21585.000000,1,COMPLETED_SUCCESSFULLY,3124752.007950,21584.000000,3146336.007950,41364.007950,62948.007950,2.916420,1024-1279 1536-2047 4096-4351,-1.000000,""
270_0_1,w0,profile_270,3087274.000000,1024,21670.000000,1,COMPLETED_SUCCESSFULLY,3125605.006750,21669.000000,3147274.006750,38331.006750,60000.006750,2.768933,2048-3071,-1.000000,""
271_0_1,w0,profile_271,3092052.000000,1376,21681.000000,1,COMPLETED_SUCCESSFULLY,3126728.006750,21680.000000,3148408.006750,34676.006750,56356.006750,2.599447,0-511 3072-3935,-1.000000,""
272_0_1,w0,profile_272,3094124.000000,256,21641.000000,1,COMPLETED_SUCCESSFULLY,3128090.007350,21640.000000,3149730.007350,33966.007350,55606.007350,2.569594,512-767,-1.000000,""
277_0_1,w0,profile_277,3112143.000000,256,21629.000000,1,COMPLETED_SUCCESSFULLY,3146339.011400,21628.000000,3167967.011400,34196.011400,55824.011400,2.581099,3936-4191,-1.000000,""
274_0_1,w0,profile_274,3107398.000000,256,21652.000000,1,COMPLETED_SUCCESSFULLY,3146339.009600,21651.000000,3167990.009600,38941.009600,60592.009600,2.798578,1024-1279,-1.000000,""
276_0_1,w0,profile_276,3107672.000000,256,21656.000000,1,COMPLETED_SUCCESSFULLY,3146339.010800,21655.000000,3167994.010800,38667.010800,60322.010800,2.785593,1792-2047,-1.000000,""
275_0_1,w0,profile_275,3107659.000000,256,21727.000000,1,COMPLETED_SUCCESSFULLY,3146339.010200,21726.000000,3168065.010200,38680.010200,60406.010200,2.780356,1536-1791,-1.000000,""
273_0_1,w0,profile_273,3095964.000000,512,23358.000000,1,COMPLETED_SUCCESSFULLY,3146007.010200,23357.000000,3169364.010200,50043.010200,73400.010200,3.142527,768-1023 1280-1535,-1.000000,""
278_0_1,w0,profile_278,3118076.000000,802,47023.000000,1,COMPLETED_SUCCESSFULLY,3147277.008400,47022.000000,3194299.008400,29201.008400,76223.008400,1.621007,2048-2849,-1.000000,""
279_0_1,w0,profile_279,3171431.000000,512,23367.000000,1,COMPLETED_SUCCESSFULLY,3171431.001800,23366.000000,3194797.001800,0.001800,23366.001800,1.000000,0-511,-1.000000,""
281_0_1,w0,profile_281,3185916.000000,256,21664.000000,1,COMPLETED_SUCCESSFULLY,3185916.001800,21663.000000,3207579.001800,0.001800,21663.001800,1.000000,1314-1569,-1.000000,""
282_0_1,w0,profile_282,3188753.000000,256,21653.000000,1,COMPLETED_SUCCESSFULLY,3188753.001800,21652.000000,3210405.001800,0.001800,21652.001800,1.000000,1570-1825,-1.000000,""
283_0_1,w0,profile_283,3188768.000000,256,21661.000000,1,COMPLETED_SUCCESSFULLY,3188768.001800,21660.000000,3210428.001800,0.001800,21660.001800,1.000000,1826-2047 2850-2883,-1.000000,""
284_0_1,w0,profile_284,3202167.000000,512,24566.000000,1,COMPLETED_SUCCESSFULLY,3202167.001800,24565.000000,3226732.001800,0.001800,24565.001800,1.000000,0-511,-1.000000,""
280_0_1,w0,profile_280,3178365.000000,802,69330.000000,1,COMPLETED_SUCCESSFULLY,3178365.001800,69329.000000,3247694.001800,0.001800,69329.001800,1.000000,512-1313,-1.000000,""
286_0_1,w0,profile_286,3233582.000000,802,41752.000000,1,COMPLETED_SUCCESSFULLY,3233582.001800,41751.000000,3275333.001800,0.001800,41751.001800,1.000000,0-511 1570-1859,-1.000000,""
289_0_1,w0,profile_289,3264040.000000,256,21689.000000,1,COMPLETED_SUCCESSFULLY,3264040.001800,21688.000000,3285728.001800,0.001800,21688.001800,1.000000,3908-4163,-1.000000,""
288_0_1,w0,profile_288,3264026.000000,256,23014.000000,1,COMPLETED_SUCCESSFULLY,3264026.001800,23013.000000,3287039.001800,0.001800,23013.001800,1.000000,1860-2047 2850-2883 3874-3907,-1.000000,""
285_0_1,w0,profile_285,3209052.000000,2048,86525.000000,1,COMPLETED_SUCCESSFULLY,3209052.001800,86524.000000,3295576.001800,0.001800,86524.001800,1.000000,1314-1569 2048-2849 2884-3873,-1.000000,""
290_0_1,w0,profile_290,3283250.000000,2048,28278.000000,1,COMPLETED_SUCCESSFULLY,3295579.003450,28277.000000,3323856.003450,12329.003450,40606.003450,1.436008,0-511 1314-2849,-1.000000,""
291_0_1,w0,profile_291,3284281.000000,384,32338.000000,1,COMPLETED_SUCCESSFULLY,3295579.004050,32337.000000,3327916.004050,11298.004050,43635.004050,1.349383,2850-3233,-1.000000,""
287_0_1,w0,profile_287,3263764.000000,802,70237.000000,1,COMPLETED_SUCCESSFULLY,3263764.001800,70236.000000,3334000.001800,0.001800,70236.001800,1.000000,512-1313,-1.000000,""
292_0_1,w0,profile_292,3315568.000000,256,21733.000000,1,COMPLETED_SUCCESSFULLY,3315568.001800,21732.000000,3337300.001800,0.001800,21732.001800,1.000000,3234-3489,-1.000000,""
293_0_1,w0,profile_293,3327497.000000,512,22009.000000,1,COMPLETED_SUCCESSFULLY,3327497.001800,22008.000000,3349505.001800,0.001800,22008.001800,1.000000,0-511,-1.000000,""
294_0_1,w0,profile_294,3339284.000000,256,21690.000000,1,COMPLETED_SUCCESSFULLY,3339284.001800,21689.000000,3360973.001800,0.001800,21689.001800,1.000000,512-767,-1.000000,""
295_0_1,w0,profile_295,3349811.000000,256,21274.000000,1,COMPLETED_SUCCESSFULLY,3349811.001800,21273.000000,3371084.001800,0.001800,21273.001800,1.000000,0-255,-1.000000,""
297_0_1,w0,profile_297,3350206.000000,256,21633.000000,1,COMPLETED_SUCCESSFULLY,3350206.001800,21632.000000,3371838.001800,0.001800,21632.001800,1.000000,768-1023,-1.000000,""
298_0_1,w0,profile_298,3350218.000000,256,21621.000000,1,COMPLETED_SUCCESSFULLY,3350218.001800,21620.000000,3371838.001800,0.001800,21620.001800,1.000000,1024-1279,-1.000000,""
296_0_1,w0,profile_296,3350202.000000,256,23000.000000,1,COMPLETED_SUCCESSFULLY,3350202.001800,22999.000000,3373201.001800,0.001800,22999.001800,1.000000,256-511,-1.000000,""
299_0_1,w0,profile_299,3378655.000000,512,22735.000000,1,COMPLETED_SUCCESSFULLY,3378655.001800,22734.000000,3401389.001800,0.001800,22734.001800,1.000000,0-511,-1.000000,""
300_0_1,w0,profile_300,3399716.000000,2430,21216.000000,1,COMPLETED_SUCCESSFULLY,3399716.001800,21215.000000,3420931.001800,0.001800,21215.001800,1.000000,512-2941,-1.000000,""
301_0_1,w0,profile_301,3399725.000000,2430,21467.000000,1,COMPLETED_SUCCESSFULLY,3420934.003450,21466.000000,3442400.003450,21209.003450,42675.003450,1.988028,0-2429,-1.000000,""
302_0_1,w0,profile_302,3399738.000000,2430,20572.000000,1,COMPLETED_SUCCESSFULLY,3442403.005100,20571.000000,3462974.005100,42665.005100,63236.005100,3.074037,0-2429,-1.000000,""
303_0_1,w0,profile_303,3432453.000000,2430,21201.000000,1,COMPLETED_SUCCESSFULLY,3462977.006750,21200.000000,3484177.006750,30524.006750,51724.006750,2.439812,0-2429,-1.000000,""
304_0_1,w0,profile_304,3432489.000000,2430,21624.000000,1,COMPLETED_SUCCESSFULLY,3484180.008400,21623.000000,3505803.008400,51691.008400,73314.008400,3.390557,0-2429,-1.000000,""
319_0_1,w0,profile_319,3505599.000000,256,20209.000000,1,COMPLETED_SUCCESSFULLY,3505806.010650,20208.000000,3526014.010650,207.010650,20415.010650,1.010244,2430-2685,-1.000000,""
305_0_1,w0,profile_305,3432492.000000,2430,21467.000000,1,COMPLETED_SUCCESSFULLY,3505806.010050,21466.000000,3527272.010050,73314.010050,94780.010050,4.415355,0-2429,-1.000000,""
316_0_1,w0,profile_316,3484458.000000,256,21633.000000,1,COMPLETED_SUCCESSFULLY,3527275.012300,21632.000000,3548907.012300,42817.012300,64449.012300,2.979337,2430-2685,-1.000000,""
306_0_1,w0,profile_306,3432505.000000,2430,21676.000000,1,COMPLETED_SUCCESSFULLY,3527275.011700,21675.000000,3548950.011700,94770.011700,116445.011700,5.372319,0-2429,-1.000000,""
307_0_1,w0,profile_307,3432509.000000,2430,21377.000000,1,COMPLETED_SUCCESSFULLY,3548953.013350,21376.000000,3570329.013350,116444.013350,137820.013350,6.447418,0-2429,-1.000000,""
308_0_1,w0,profile_308,3432514.000000,2430,21165.000000,1,COMPLETED_SUCCESSFULLY,3570332.015000,21164.000000,3591496.015000,137818.015000,158982.015000,7.511908,0-2429,-1.000000,""
309_0_1,w0,profile_309,3432524.000000,2430,21174.000000,1,COMPLETED_SUCCESSFULLY,3591499.016650,21173.000000,3612672.016650,158975.016650,180148.016650,8.508384,0-2429,-1.000000,""
317_0_1,w0,profile_317,3484496.000000,256,21698.000000,1,COMPLETED_SUCCESSFULLY,3612675.020100,21697.000000,3634372.020100,128179.020100,149876.020100,6.907684,3966-4221,-1.000000,""
315_0_1,w0,profile_315,3474445.000000,512,23298.000000,1,COMPLETED_SUCCESSFULLY,3612675.019500,23297.000000,3635972.019500,138230.019500,161527.019500,6.933383,3454-3965,-1.000000,""
311_0_1,w0,profile_311,3447932.000000,1024,25663.000000,1,COMPLETED_SUCCESSFULLY,3612675.018900,25662.000000,3638337.018900,164743.018900,190405.018900,7.419726,2430-3453,-1.000000,""
321_0_1,w0,profile_321,3534458.000000,256,21678.000000,1,COMPLETED_SUCCESSFULLY,3638340.021750,21677.000000,3660017.021750,103882.021750,125559.021750,5.792269,3710-3965,-1.000000,""
320_0_1,w0,profile_320,3534436.000000,256,21685.000000,1,COMPLETED_SUCCESSFULLY,3638340.021150,21684.000000,3660024.021150,103904.021150,125588.021150,5.791737,3454-3709,-1.000000,""
322_0_1,w0,profile_322,3534533.000000,256,23076.000000,1,COMPLETED_SUCCESSFULLY,3638340.022350,23075.000000,3661415.022350,103807.022350,126882.022350,5.498679,3966-4221,-1.000000,""
312_0_1,w0,profile_312,3449213.000000,1024,36071.000000,1,COMPLETED_SUCCESSFULLY,3638340.020550,36070.000000,3674410.020550,189127.020550,225197.020550,6.243333,2430-3453,-1.000000,""
327_0_1,w0,profile_327,3643711.000000,256,20048.000000,1,COMPLETED_SUCCESSFULLY,3674413.024000,20047.000000,3694460.024000,30702.024000,50749.024000,2.531502,3966-4221,-1.000000,""
324_0_1,w0,profile_324,3586793.000000,256,21666.000000,1,COMPLETED_SUCCESSFULLY,3674413.022800,21665.000000,3696078.022800,87620.022800,109285.022800,5.044312,3454-3709,-1.000000,""
325_0_1,w0,profile_325,3621462.000000,256,21674.000000,1,COMPLETED_SUCCESSFULLY,3674413.023400,21673.000000,3696086.023400,52951.023400,74624.023400,3.443179,3710-3965,-1.000000,""
313_0_1,w0,profile_313,3458624.000000,1024,23449.000000,1,COMPLETED_SUCCESSFULLY,3674413.022200,23448.000000,3697861.022200,215789.022200,239237.022200,10.202875,2430-3453,-1.000000,""
310_0_1,w0,profile_310,3434031.000000,2430,86532.000000,1,COMPLETED_SUCCESSFULLY,3612675.018300,86531.000000,3699206.018300,178644.018300,265175.018300,3.064509,0-2429,-1.000000,""
330_0_1,w0,profile_330,3698401.000000,256,21086.000000,1,COMPLETED_SUCCESSFULLY,3699209.022350,21085.000000,3720294.022350,808.022350,21893.022350,1.038322,2304-2429 3454-3583,-1.000000,""
329_0_1,w0,profile_329,3691426.000000,256,21630.000000,1,COMPLETED_SUCCESSFULLY,3699209.021750,21629.000000,3720838.021750,7783.021750,29412.021750,1.359842,2048-2303,-1.000000,""
328_0_1,w0,profile_328,3683792.000000,512,23085.000000,1,COMPLETED_SUCCESSFULLY,3699209.021150,23084.000000,3722293.021150,15417.021150,38501.021150,1.667866,1536-2047,-1.000000,""
326_0_1,w0,profile_326,3643636.000000,512,23112.000000,1,COMPLETED_SUCCESSFULLY,3699209.020550,23111.000000,3722320.020550,55573.020550,78684.020550,3.404613,1024-1535,-1.000000,""
331_0_1,w0,profile_331,3702068.000000,256,21642.000000,1,COMPLETED_SUCCESSFULLY,3702068.001800,21641.000000,3723709.001800,0.001800,21641.001800,1.000000,3584-3839,-1.000000,""
314_0_1,w0,profile_314,3466838.000000,1024,32424.000000,1,COMPLETED_SUCCESSFULLY,3697864.023850,32423.000000,3730287.023850,231026.023850,263449.023850,8.125375,2430-3453,-1.000000,""
318_0_1,w0,profile_318,3493041.000000,1024,31795.000000,1,COMPLETED_SUCCESSFULLY,3699209.019950,31794.000000,3731003.019950,206168.019950,237962.019950,7.484495,0-1023,-1.000000,""
339_0_1,w0,profile_339,3712925.000000,256,21277.000000,1,COMPLETED_SUCCESSFULLY,3731006.022200,21276.000000,3752282.022200,18081.022200,39357.022200,1.849832,4096-4351,-1.000000,""
342_0_1,w0,profile_342,3745310.000000,256,21661.000000,1,COMPLETED_SUCCESSFULLY,3752285.023850,21660.000000,3773945.023850,6975.023850,28635.023850,1.322023,4096-4351,-1.000000,""
343_0_1,w0,profile_343,3745322.000000,256,21638.000000,1,COMPLETED_SUCCESSFULLY,3773948.025500,21637.000000,3795585.025500,28626.025500,50263.025500,2.323013,4096-4351,-1.000000,""
344_0_1,w0,profile_344,3745327.000000,256,21647.000000,1,COMPLETED_SUCCESSFULLY,3795588.027150,21646.000000,3817234.027150,50261.027150,71907.027150,3.321955,4096-4351,-1.000000,""
323_0_1,w0,profile_323,3555251.000000,4096,86589.000000,1,COMPLETED_SUCCESSFULLY,3731006.021600,86588.000000,3817594.021600,175755.021600,262343.021600,3.029785,0-4095,-1.000000,""
333_0_1,w0,profile_333,3705934.000000,1024,20815.000000,1,COMPLETED_SUCCESSFULLY,3817597.023850,20814.000000,3838411.023850,111663.023850,132477.023850,6.364804,1024-2047,-1.000000,""
332_0_1,w0,profile_332,3705933.000000,1024,20981.000000,1,COMPLETED_SUCCESSFULLY,3817597.023250,20980.000000,3838577.023250,111664.023250,132644.023250,6.322403,0-1023,-1.000000,""
335_0_1,w0,profile_335,3705939.000000,1024,20981.000000,1,COMPLETED_SUCCESSFULLY,3817597.025050,20980.000000,3838577.025050,111658.025050,132638.025050,6.322117,3072-4095,-1.000000,""
334_0_1,w0,profile_334,3705937.000000,1024,21054.000000,1,COMPLETED_SUCCESSFULLY,3817597.024450,21053.000000,3838650.024450,111660.024450,132713.024450,6.303758,2048-3071,-1.000000,""
349_0_1,w0,profile_349,3818718.000000,256,20646.000000,1,COMPLETED_SUCCESSFULLY,3838583.027150,20645.000000,3859228.027150,19865.027150,40510.027150,1.962220,3584-3839,-1.000000,""
337_0_1,w0,profile_337,3705951.000000,1024,21042.000000,1,COMPLETED_SUCCESSFULLY,3838583.025950,21041.000000,3859624.025950,132632.025950,153673.025950,7.303504,0-1023,-1.000000,""
336_0_1,w0,profile_336,3705940.000000,1024,21639.000000,1,COMPLETED_SUCCESSFULLY,3838414.025500,21638.000000,3860052.025500,132474.025500,154112.025500,7.122286,1024-2047,-1.000000,""
338_0_1,w0,profile_338,3711454.000000,512,22806.000000,1,COMPLETED_SUCCESSFULLY,3838583.026550,22805.000000,3861388.026550,127129.026550,149934.026550,6.574612,3072-3583,-1.000000,""
346_0_1,w0,profile_346,3782392.000000,256,21623.000000,1,COMPLETED_SUCCESSFULLY,3859627.028200,21622.000000,3881249.028200,77235.028200,98857.028200,4.572058,3966-4221,-1.000000,""
340_0_1,w0,profile_340,3718294.000000,2430,21624.000000,1,COMPLETED_SUCCESSFULLY,3859627.027600,21623.000000,3881250.027600,141333.027600,162956.027600,7.536236,0-1023 2048-3071 3584-3965,-1.000000,""
341_0_1,w0,profile_341,3718296.000000,2430,21614.000000,1,COMPLETED_SUCCESSFULLY,3881255.030900,21613.000000,3902868.030900,162959.030900,184572.030900,8.539862,0-2429,-1.000000,""
347_0_1,w0,profile_347,3782395.000000,256,21632.000000,1,COMPLETED_SUCCESSFULLY,3881255.032100,21631.000000,3902886.032100,98860.032100,120491.032100,5.570294,2942-3197,-1.000000,""
350_0_1,w0,profile_350,3822518.000000,256,21644.000000,1,COMPLETED_SUCCESSFULLY,3881255.033300,21643.000000,3902898.033300,58737.033300,80380.033300,3.713904,3710-3965,-1.000000,""
351_0_1,w0,profile_351,3822524.000000,256,21680.000000,1,COMPLETED_SUCCESSFULLY,3881255.033900,21679.000000,3902934.033900,58731.033900,80410.033900,3.709121,3966-4221,-1.000000,""
345_0_1,w0,profile_345,3768815.000000,512,22574.000000,1,COMPLETED_SUCCESSFULLY,3881255.031500,22573.000000,3903828.031500,112440.031500,135013.031500,5.981174,2430-2941,-1.000000,""
348_0_1,w0,profile_348,3797853.000000,512,22985.000000,1,COMPLETED_SUCCESSFULLY,3881255.032700,22984.000000,3904239.032700,83402.032700,106386.032700,4.628700,3198-3709,-1.000000,""
353_0_1,w0,profile_353,3866566.000000,1024,20700.000000,1,COMPLETED_SUCCESSFULLY,3902871.033150,20699.000000,3923570.033150,36305.033150,57004.033150,2.753951,512-1535,-1.000000,""
354_0_1,w0,profile_354,3866577.000000,1024,21229.000000,1,COMPLETED_SUCCESSFULLY,3902871.033750,21228.000000,3924099.033750,36294.033750,57522.033750,2.709725,1536-2429 4222-4351,-1.000000,""
355_0_1,w0,profile_355,3866579.000000,1024,21718.000000,1,COMPLETED_SUCCESSFULLY,3903831.033150,21717.000000,3925548.033150,37252.033150,58969.033150,2.715340,2430-3197 3710-3965,-1.000000,""
352_0_1,w0,profile_352,3852182.000000,512,22916.000000,1,COMPLETED_SUCCESSFULLY,3902871.032550,22915.000000,3925786.032550,50689.032550,73604.032550,3.212046,0-511,-1.000000,""
356_0_1,w0,profile_356,3866837.000000,1024,21272.000000,1,COMPLETED_SUCCESSFULLY,3923573.034800,21271.000000,3944844.034800,56736.034800,78007.034800,3.667295,512-1535,-1.000000,""
357_0_1,w0,profile_357,3866851.000000,1024,21658.000000,1,COMPLETED_SUCCESSFULLY,3924102.035400,21657.000000,3945759.035400,57251.035400,78908.035400,3.643535,1536-2429 3198-3327,-1.000000,""
358_0_1,w0,profile_358,3866871.000000,1024,20623.000000,1,COMPLETED_SUCCESSFULLY,3925551.034800,20622.000000,3946173.034800,58680.034800,79302.034800,3.845506,2430-3197 3328-3583,-1.000000,""
359_0_1,w0,profile_359,3918015.000000,256,21649.000000,1,COMPLETED_SUCCESSFULLY,3925551.035400,21648.000000,3947199.035400,7536.035400,29184.035400,1.348117,3584-3839,-1.000000,""
360_0_1,w0,profile_360,3954701.000000,256,21648.000000,1,COMPLETED_SUCCESSFULLY,3954701.001800,21647.000000,3976348.001800,0.001800,21647.001800,1.000000,0-255,-1.000000,""
361_0_1,w0,profile_361,3975043.000000,256,21004.000000,1,COMPLETED_SUCCESSFULLY,3975043.001800,21003.000000,3996046.001800,0.001800,21003.001800,1.000000,256-511,-1.000000,""
362_0_1,w0,profile_362,3977364.000000,256,23025.000000,1,COMPLETED_SUCCESSFULLY,3977364.001800,23024.000000,4000388.001800,0.001800,23024.001800,1.000000,0-255,-1.000000,""
363_0_1,w0,profile_363,3983169.000000,512,23410.000000,1,COMPLETED_SUCCESSFULLY,3983169.001800,23409.000000,4006578.001800,0.001800,23409.001800,1.000000,512-1023,-1.000000,""
364_0_1,w0,profile_364,4037039.000000,512,22907.000000,1,COMPLETED_SUCCESSFULLY,4037039.001800,22906.000000,4059945.001800,0.001800,22906.001800,1.000000,0-511,-1.000000,""
365_0_1,w0,profile_365,4057972.000000,256,21664.000000,1,COMPLETED_SUCCESSFULLY,4057972.001800,21663.000000,4079635.001800,0.001800,21663.001800,1.000000,512-767,-1.000000,""
366_0_1,w0,profile_366,4066555.000000,512,28867.000000,1,COMPLETED_SUCCESSFULLY,4066555.001800,28866.000000,4095421.001800,0.001800,28866.001800,1.000000,0-511,-1.000000,""
367_0_1,w0,profile_367,4077454.000000,256,21643.000000,1,COMPLETED_SUCCESSFULLY,4077454.001800,21642.000000,4099096.001800,0.001800,21642.001800,1.000000,768-1023,-1.000000,""
369_0_1,w0,profile_369,4080420.000000,256,21628.000000,1,COMPLETED_SUCCESSFULLY,4080420.001800,21627.000000,4102047.001800,0.001800,21627.001800,1.000000,1024-1279,-1.000000,""
370_0_1,w0,profile_370,4080435.000000,256,21627.000000,1,COMPLETED_SUCCESSFULLY,4080435.001800,21626.000000,4102061.001800,0.001800,21626.001800,1.000000,1280-1535,-1.000000,""
368_0_1,w0,profile_368,4080416.000000,256,21670.000000,1,COMPLETED_SUCCESSFULLY,4080416.001800,21669.000000,4102085.001800,0.001800,21669.001800,1.000000,512-767,-1.000000,""
371_0_1,w0,profile_371,4109426.000000,256,21620.000000,1,COMPLETED_SUCCESSFULLY,4109426.001800,21619.000000,4131045.001800,0.001800,21619.001800,1.000000,0-255,-1.000000,""
372_0_1,w0,profile_372,4121882.000000,256,21690.000000,1,COMPLETED_SUCCESSFULLY,4121882.001800,21688.000000,4143570.001800,0.001800,21688.001800,1.000000,256-511,-1.000000,""
373_0_1,w0,profile_373,4121887.000000,256,21689.000000,1,COMPLETED_SUCCESSFULLY,4121887.001800,21688.000000,4143575.001800,0.001800,21688.001800,1.000000,512-767,-1.000000,""
374_0_1,w0,profile_374,4126355.000000,512,28903.000000,1,COMPLETED_SUCCESSFULLY,4126355.001800,28902.000000,4155257.001800,0.001800,28902.001800,1.000000,768-1279,-1.000000,""
376_0_1,w0,profile_376,4137384.000000,256,21722.000000,1,COMPLETED_SUCCESSFULLY,4137384.001800,21721.000000,4159105.001800,0.001800,21721.001800,1.000000,1886-2141,-1.000000,""
377_0_1,w0,profile_377,4171071.000000,256,21649.000000,1,COMPLETED_SUCCESSFULLY,4171071.001800,21648.000000,4192719.001800,0.001800,21648.001800,1.000000,256-511,-1.000000,""
378_0_1,w0,profile_378,4171097.000000,256,21656.000000,1,COMPLETED_SUCCESSFULLY,4171097.001800,21655.000000,4192752.001800,0.001800,21655.001800,1.000000,512-767,-1.000000,""
379_0_1,w0,profile_379,4171109.000000,256,21656.000000,1,COMPLETED_SUCCESSFULLY,4171109.001800,21655.000000,4192764.001800,0.001800,21655.001800,1.000000,768-1023,-1.000000,""
375_0_1,w0,profile_375,4132976.000000,862,85954.000000,1,COMPLETED_SUCCESSFULLY,4132976.001800,85953.000000,4218929.001800,0.001800,85953.001800,1.000000,0-255 1280-1885,-1.000000,""
380_0_1,w0,profile_380,4203647.000000,256,21598.000000,1,COMPLETED_SUCCESSFULLY,4203647.001800,21597.000000,4225244.001800,0.001800,21597.001800,1.000000,256-511,-1.000000,""
381_0_1,w0,profile_381,4223908.000000,512,22283.000000,1,COMPLETED_SUCCESSFULLY,4223908.001800,22282.000000,4246190.001800,0.001800,22282.001800,1.000000,0-255 512-767,-1.000000,""
382_0_1,w0,profile_382,4250183.000000,256,21696.000000,1,COMPLETED_SUCCESSFULLY,4250183.001800,21695.000000,4271878.001800,0.001800,21695.001800,1.000000,0-255,-1.000000,""
383_0_1,w0,profile_383,4250191.000000,256,23031.000000,1,COMPLETED_SUCCESSFULLY,4250191.001800,23030.000000,4273221.001800,0.001800,23030.001800,1.000000,256-511,-1.000000,""
384_0_1,w0,profile_384,4259139.000000,256,21628.000000,1,COMPLETED_SUCCESSFULLY,4259139.001800,21627.000000,4280766.001800,0.001800,21627.001800,1.000000,512-767,-1.000000,""
385_0_1,w0,profile_385,4259161.000000,256,21626.000000,1,COMPLETED_SUCCESSFULLY,4259161.001800,21625.000000,4280786.001800,0.001800,21625.001800,1.000000,768-1023,-1.000000,""
386_0_1,w0,profile_386,4294558.000000,256,21582.000000,1,COMPLETED_SUCCESSFULLY,4294558.001800,21581.000000,4316139.001800,0.001800,21581.001800,1.000000,0-255,-1.000000,""
389_0_1,w0,profile_389,4297171.000000,1024,20443.000000,1,COMPLETED_SUCCESSFULLY,4297171.001800,20442.000000,4317613.001800,0.001800,20442.001800,1.000000,1024-2047,-1.000000,""
388_0_1,w0,profile_388,4296850.000000,256,21619.000000,1,COMPLETED_SUCCESSFULLY,4296850.001800,21618.000000,4318468.001800,0.001800,21618.001800,1.000000,768-1023,-1.000000,""
387_0_1,w0,profile_387,4295666.000000,512,22850.000000,1,COMPLETED_SUCCESSFULLY,4295666.001800,22849.000000,4318515.001800,0.001800,22849.001800,1.000000,256-767,-1.000000,""
391_0_1,w0,profile_391,4299769.000000,256,21620.000000,1,COMPLETED_SUCCESSFULLY,4299769.001800,21619.000000,4321388.001800,0.001800,21619.001800,1.000000,3072-3327,-1.000000,""
392_0_1,w0,profile_392,4299803.000000,256,21650.000000,1,COMPLETED_SUCCESSFULLY,4299803.001800,21649.000000,4321452.001800,0.001800,21649.001800,1.000000,3328-3583,-1.000000,""
393_0_1,w0,profile_393,4299824.000000,256,21654.000000,1,COMPLETED_SUCCESSFULLY,4299824.001800,21653.000000,4321477.001800,0.001800,21653.001800,1.000000,3584-3839,-1.000000,""
390_0_1,w0,profile_390,4297561.000000,1024,44661.000000,1,COMPLETED_SUCCESSFULLY,4297561.001800,44660.000000,4342221.001800,0.001800,44660.001800,1.000000,2048-3071,-1.000000,""
395_0_1,w0,profile_395,4321612.000000,512,30303.000000,1,COMPLETED_SUCCESSFULLY,4321612.001800,30302.000000,4351914.001800,0.001800,30302.001800,1.000000,256-767,-1.000000,""
396_0_1,w0,profile_396,4336934.000000,256,21705.000000,1,COMPLETED_SUCCESSFULLY,4336934.001800,21704.000000,4358638.001800,0.001800,21704.001800,1.000000,768-1023,-1.000000,""
397_0_1,w0,profile_397,4340511.000000,256,21726.000000,1,COMPLETED_SUCCESSFULLY,4340511.001800,21725.000000,4362236.001800,0.001800,21725.001800,1.000000,3072-3327,-1.000000,""
398_0_1,w0,profile_398,4352748.000000,256,23028.000000,1,COMPLETED_SUCCESSFULLY,4352748.001800,23027.000000,4375775.001800,0.001800,23027.001800,1.000000,256-511,-1.000000,""
399_0_1,w0,profile_399,4352755.000000,256,23050.000000,1,COMPLETED_SUCCESSFULLY,4352755.001800,23049.000000,4375804.001800,0.001800,23049.001800,1.000000,512-767,-1.000000,""
400_0_1,w0,profile_400,4368568.000000,512,22898.000000,1,COMPLETED_SUCCESSFULLY,4368568.001800,22897.000000,4391465.001800,0.001800,22897.001800,1.000000,768-1023 2048-2303,-1.000000,""
394_0_1,w0,profile_394,4310243.000000,1376,86521.000000,1,COMPLETED_SUCCESSFULLY,4317616.003450,86520.000000,4404136.003450,7373.003450,93893.003450,1.085217,0-255 1024-2047 3840-3935,-1.000000,""
402_0_1,w0,profile_402,4385386.000000,256,21590.000000,1,COMPLETED_SUCCESSFULLY,4385386.001800,21589.000000,4406975.001800,0.001800,21589.001800,1.000000,2304-2559,-1.000000,""
403_0_1,w0,profile_403,4386127.000000,256,21680.000000,1,COMPLETED_SUCCESSFULLY,4386127.001800,21679.000000,4407806.001800,0.001800,21679.001800,1.000000,2560-2815,-1.000000,""
404_0_1,w0,profile_404,4386594.000000,256,21533.000000,1,COMPLETED_SUCCESSFULLY,4386594.001800,21532.000000,4408126.001800,0.001800,21532.001800,1.000000,2816-3071,-1.000000,""
405_0_1,w0,profile_405,4386598.000000,256,21653.000000,1,COMPLETED_SUCCESSFULLY,4386598.001800,21652.000000,4408250.001800,0.001800,21652.001800,1.000000,3072-3327,-1.000000,""
401_0_1,w0,profile_401,4384778.000000,512,27364.000000,1,COMPLETED_SUCCESSFULLY,4384778.001800,27363.000000,4412141.001800,0.001800,27363.001800,1.000000,256-767,-1.000000,""
408_0_1,w0,profile_408,4394132.000000,256,21700.000000,1,COMPLETED_SUCCESSFULLY,4404139.005700,21699.000000,4425838.005700,10007.005700,31706.005700,1.461174,1630-1885,-1.000000,""
410_0_1,w0,profile_410,4400772.000000,1024,23038.000000,1,COMPLETED_SUCCESSFULLY,4408253.003450,23037.000000,4431290.003450,7481.003450,30518.003450,1.324739,2304-3327,-1.000000,""
409_0_1,w0,profile_409,4399528.000000,512,28087.000000,1,COMPLETED_SUCCESSFULLY,4404139.006300,28086.000000,4432225.006300,4611.006300,32697.006300,1.164175,1886-2047 3840-3935 3952-4205,-1.000000,""
411_0_1,w0,profile_411,4402372.000000,400,21632.000000,1,COMPLETED_SUCCESSFULLY,4412144.003450,21631.000000,4433775.003450,9772.003450,31403.003450,1.451759,256-655,-1.000000,""
406_0_1,w0,profile_406,4388866.000000,1040,43365.000000,1,COMPLETED_SUCCESSFULLY,4391468.003450,43364.000000,4434832.003450,2602.003450,45966.003450,1.060004,768-1023 2048-2303 3328-3839 3936-3951,-1.000000,""
407_0_1,w0,profile_407,4393721.000000,862,86033.000000,1,COMPLETED_SUCCESSFULLY,4404139.005100,86032.000000,4490171.005100,10418.005100,96450.005100,1.121095,0-255 1024-1629,-1.000000,""
