job_id,workload_name,profile,submission_time,requested_number_of_resources,requested_time,success,final_state,starting_time,execution_time,finish_time,waiting_time,turnaround_time,stretch,allocated_resources,consumed_energy,metadata
10_0_1,w0,profile_10,0.000000,270,21642.000000,1,COMPLETED_SUCCESSFULLY,0.003000,21640.000000,21640.003000,0.003000,21640.003000,1.000000,270-539,-1.000000,""
25_0_1,w0,profile_25,0.000000,270,21643.000000,1,COMPLETED_SUCCESSFULLY,0.007800,21642.000000,21642.007800,0.007800,21642.007800,1.000000,3631-3900,-1.000000,""
24_0_1,w0,profile_24,0.000000,270,21657.000000,1,COMPLETED_SUCCESSFULLY,0.007200,21656.000000,21656.007200,0.007200,21656.007200,1.000000,3361-3630,-1.000000,""
26_0_1,w0,profile_26,0.000000,270,21667.000000,1,COMPLETED_SUCCESSFULLY,0.008400,21666.000000,21666.008400,0.008400,21666.008400,1.000000,3901-4170,-1.000000,""
11_0_1,w0,profile_11,0.000000,512,21676.000000,1,COMPLETED_SUCCESSFULLY,0.003600,21675.000000,21675.003600,0.003600,21675.003600,1.000000,540-1051,-1.000000,""
0_0_1,w0,profile_0,0.000000,270,21682.000000,1,COMPLETED_SUCCESSFULLY,0.002400,21681.000000,21681.002400,0.002400,21681.002400,1.000000,0-269,-1.000000,""
16_0_1,w0,profile_16,0.000000,1024,43200.000000,1,COMPLETED_SUCCESSFULLY,0.006600,29964.000000,29964.006600,0.006600,29964.006600,1.000000,2337-3360,-1.000000,""
12_0_1,w0,profile_12,0.000000,520,32450.000000,1,COMPLETED_SUCCESSFULLY,0.004200,32449.000000,32449.004200,0.004200,32449.004200,1.000000,1052-1571,-1.000000,""
13_0_1,w0,profile_13,0.000000,512,32503.000000,1,COMPLETED_SUCCESSFULLY,0.004800,32502.000000,32502.004800,0.004800,32502.004800,1.000000,1572-2083,-1.000000,""
15_0_1,w0,profile_15,0.000000,4,43277.000000,1,COMPLETED_SUCCESSFULLY,0.006000,43276.000000,43276.006000,0.006000,43276.006000,1.000000,2333-2336,-1.000000,""
18_0_1,w0,profile_18,0.000000,1024,34200.000000,1,COMPLETED_SUCCESSFULLY,29967.008250,26340.000000,56307.008250,29967.008250,56307.008250,2.137700,2337-3360,-1.000000,""
17_0_1,w0,profile_17,0.000000,2048,57600.000000,1,COMPLETED_SUCCESSFULLY,21684.004050,41670.000000,63354.004050,21684.004050,63354.004050,1.520374,0-1051 3361-4356,-1.000000,""
14_0_1,w0,profile_14,0.000000,249,172800.000000,1,COMPLETED_SUCCESSFULLY,0.005400,69654.000000,69654.005400,0.005400,69654.005400,1.000000,2084-2332,-1.000000,""
31_0_1,w0,profile_31,0.000000,256,21660.000000,1,COMPLETED_SUCCESSFULLY,56310.010500,21659.000000,77969.010500,56310.010500,77969.010500,3.599844,3127-3360 4357-4378,-1.000000,""
19_0_1,w0,profile_19,0.000000,1024,86400.000000,1,COMPLETED_SUCCESSFULLY,32505.006450,47677.000000,80182.006450,32505.006450,80182.006450,1.681775,1052-2075,-1.000000,""
32_0_1,w0,profile_32,0.000000,256,21724.000000,1,COMPLETED_SUCCESSFULLY,69657.007050,21723.000000,91380.007050,69657.007050,91380.007050,4.206602,2084-2332 4379-4385,-1.000000,""
33_0_1,w0,profile_33,0.000000,256,21684.000000,1,COMPLETED_SUCCESSFULLY,77972.012150,21683.000000,99655.012150,77972.012150,99655.012150,4.595997,3127-3360 4357-4378,-1.000000,""
20_0_1,w0,profile_20,0.000000,2048,57600.000000,1,COMPLETED_SUCCESSFULLY,63357.005700,45471.000000,108828.005700,63357.005700,108828.005700,2.393350,0-1051 3361-4356,-1.000000,""
21_0_1,w0,profile_21,0.000000,512,32400.000000,1,COMPLETED_SUCCESSFULLY,80185.008100,30176.000000,110361.008100,80185.008100,110361.008100,3.657244,1052-1563,-1.000000,""
22_0_1,w0,profile_22,0.000000,520,32400.000000,1,COMPLETED_SUCCESSFULLY,91383.008700,32381.000000,123764.008700,91383.008700,123764.008700,3.822118,1564-2075 2084-2091,-1.000000,""
27_0_1,w0,profile_27,0.000000,270,21642.000000,1,COMPLETED_SUCCESSFULLY,108831.007950,21641.000000,130472.007950,108831.007950,130472.007950,6.028927,520-789,-1.000000,""
1_0_1,w0,profile_1,0.000000,802,86400.000000,1,COMPLETED_SUCCESSFULLY,56310.009900,80165.000000,136475.009900,56310.009900,136475.009900,1.702426,2076-2083 2333-3126,-1.000000,""
23_0_1,w0,profile_23,0.000000,520,32402.000000,1,COMPLETED_SUCCESSFULLY,108831.007350,32401.000000,141232.007350,108831.007350,141232.007350,4.358878,0-519,-1.000000,""
2_0_1,w0,profile_2,0.000000,429,21707.000000,1,COMPLETED_SUCCESSFULLY,123767.010350,21706.000000,145473.010350,123767.010350,145473.010350,6.701972,1564-1992,-1.000000,""
40_0_1,w0,profile_40,0.000000,256,21691.000000,1,COMPLETED_SUCCESSFULLY,136478.012750,21690.000000,158168.012750,136478.012750,158168.012750,7.292209,2831-3086,-1.000000,""
36_0_1,w0,profile_36,0.000000,256,21726.000000,1,COMPLETED_SUCCESSFULLY,136478.012150,21725.000000,158203.012150,136478.012150,158203.012150,7.282072,2575-2830,-1.000000,""
42_0_1,w0,profile_42,3141.000000,256,21600.000000,1,COMPLETED_SUCCESSFULLY,141235.009600,21335.000000,162570.009600,138094.009600,159429.009600,7.472651,270-519 3087-3092,-1.000000,""
9_0_1,w0,profile_9,0.000000,270,21701.000000,1,COMPLETED_SUCCESSFULLY,141235.009000,21700.000000,162935.009000,141235.009000,162935.009000,7.508526,0-269,-1.000000,""
34_0_1,w0,profile_34,0.000000,520,32400.000000,1,COMPLETED_SUCCESSFULLY,136478.011550,32393.000000,168871.011550,136478.011550,168871.011550,5.213195,520-789 2076-2083 2333-2574,-1.000000,""
41_0_1,w0,profile_41,2062.000000,520,32400.000000,1,COMPLETED_SUCCESSFULLY,145476.012000,32357.000000,177833.012000,143414.012000,175771.012000,5.432241,1564-1992 3093-3126 4194-4250,-1.000000,""
43_0_1,w0,profile_43,3146.000000,256,21628.000000,1,COMPLETED_SUCCESSFULLY,158171.014400,21627.000000,179798.014400,155025.014400,176652.014400,8.168124,2831-3086,-1.000000,""
44_0_1,w0,profile_44,3148.000000,256,21634.000000,1,COMPLETED_SUCCESSFULLY,158206.013800,21633.000000,179839.013800,155058.013800,176691.013800,8.167661,2575-2830,-1.000000,""
47_0_1,w0,profile_47,24198.000000,270,21702.000000,1,COMPLETED_SUCCESSFULLY,162573.011250,21701.000000,184274.011250,138375.011250,160076.011250,7.376435,270-519 3087-3092 4251-4264,-1.000000,""
48_0_1,w0,profile_48,24218.000000,270,21716.000000,1,COMPLETED_SUCCESSFULLY,162938.010650,21715.000000,184653.010650,138720.010650,160435.010650,7.388211,0-269,-1.000000,""
50_0_1,w0,profile_50,42741.000000,256,21674.000000,1,COMPLETED_SUCCESSFULLY,168874.013800,21673.000000,190547.013800,126133.013800,147806.013800,6.819823,2076-2083 2333-2574 4265-4270,-1.000000,""
49_0_1,w0,profile_49,24236.000000,270,21719.000000,1,COMPLETED_SUCCESSFULLY,168874.013200,21718.000000,190592.013200,144638.013200,166356.013200,7.659822,520-789,-1.000000,""
28_0_1,w0,profile_28,0.000000,1024,86400.000000,1,COMPLETED_SUCCESSFULLY,108831.008550,86395.000000,195226.008550,108831.008550,195226.008550,2.259691,790-1051 2092-2332 3127-3647,-1.000000,""
29_0_1,w0,profile_29,0.000000,900,86400.000000,1,COMPLETED_SUCCESSFULLY,110364.009750,85614.000000,195978.009750,110364.009750,195978.009750,2.289088,1052-1563 3648-4035,-1.000000,""
51_0_1,w0,profile_51,46058.000000,256,21662.000000,1,COMPLETED_SUCCESSFULLY,195981.011400,21661.000000,217642.011400,149923.011400,171584.011400,7.921334,1052-1307,-1.000000,""
54_0_1,w0,profile_54,46062.000000,256,21684.000000,1,COMPLETED_SUCCESSFULLY,195981.013200,21683.000000,217664.013200,149919.013200,171602.013200,7.914127,3904-4035 4221-4344,-1.000000,""
52_0_1,w0,profile_52,46059.000000,256,21715.000000,1,COMPLETED_SUCCESSFULLY,195981.012000,21714.000000,217695.012000,149922.012000,171636.012000,7.904394,1308-1563,-1.000000,""
53_0_1,w0,profile_53,46061.000000,256,21760.000000,1,COMPLETED_SUCCESSFULLY,195981.012600,21759.000000,217740.012600,149920.012600,171679.012600,7.890023,3648-3903,-1.000000,""
55_0_1,w0,profile_55,46063.000000,256,21658.000000,1,COMPLETED_SUCCESSFULLY,217645.013050,21657.000000,239302.013050,171582.013050,193239.013050,8.922705,1052-1307,-1.000000,""
57_0_1,w0,profile_57,46076.000000,256,21713.000000,1,COMPLETED_SUCCESSFULLY,217698.013650,21712.000000,239410.013650,171622.013650,193334.013650,8.904477,1308-1563,-1.000000,""
56_0_1,w0,profile_56,46064.000000,256,21750.000000,1,COMPLETED_SUCCESSFULLY,217667.014850,21749.000000,239416.014850,171603.014850,193352.014850,8.890157,3904-4035 4221-4344,-1.000000,""
58_0_1,w0,profile_58,46078.000000,256,21677.000000,1,COMPLETED_SUCCESSFULLY,217743.014250,21676.000000,239419.014250,171665.014250,193341.014250,8.919589,3648-3903,-1.000000,""
62_0_1,w0,profile_62,122188.000000,270,21632.000000,1,COMPLETED_SUCCESSFULLY,239305.014700,21631.000000,260936.014700,117117.014700,138748.014700,6.414313,1052-1307 4345-4358,-1.000000,""
63_0_1,w0,profile_63,122340.000000,270,21674.000000,1,COMPLETED_SUCCESSFULLY,239413.015300,21673.000000,261086.015300,117073.015300,138746.015300,6.401791,1308-1563 4359-4372,-1.000000,""
59_0_1,w0,profile_59,52856.000000,512,32554.000000,1,COMPLETED_SUCCESSFULLY,239422.017550,32553.000000,271975.017550,186566.017550,219119.017550,6.731147,3648-4035 4221-4344,-1.000000,""
35_0_1,w0,profile_35,0.000000,3072,86510.000000,1,COMPLETED_SUCCESSFULLY,195229.010200,86509.000000,281738.010200,195229.010200,281738.010200,3.256748,0-1051 1564-1992 2076-2083 2092-3647 4194-4220,-1.000000,""
30_0_1,w0,profile_30,0.000000,249,172900.000000,1,COMPLETED_SUCCESSFULLY,123767.010950,172899.000000,296666.010950,123767.010950,296666.010950,1.715834,1993-2075 2084-2091 4036-4193,-1.000000,""
38_0_1,w0,profile_38,0.000000,4,259200.000000,1,COMPLETED_SUCCESSFULLY,281741.012450,24674.000000,306415.012450,281741.012450,306415.012450,12.418538,4345-4348,-1.000000,""
39_0_1,w0,profile_39,0.000000,249,216000.000000,1,COMPLETED_SUCCESSFULLY,296669.012600,51221.000000,347890.012600,296669.012600,347890.012600,6.791941,1993-2075 2084-2091 4036-4193,-1.000000,""
37_0_1,w0,profile_37,0.000000,4096,86406.000000,1,COMPLETED_SUCCESSFULLY,281741.011850,86405.000000,368146.011850,281741.011850,368146.011850,4.260703,0-1992 2076-2083 2092-4035 4194-4344,-1.000000,""
3_0_1,w0,profile_3,0.000000,241,115200.000000,1,COMPLETED_SUCCESSFULLY,347893.014250,61369.000000,409262.014250,347893.014250,409262.014250,6.668872,1993-2075 2084-2091 4036-4185,-1.000000,""
66_0_1,w0,profile_66,151165.000000,256,21660.000000,1,COMPLETED_SUCCESSFULLY,409265.015900,21659.000000,430924.015900,258100.015900,279759.015900,12.916525,1993-2075 2084-2091 4036-4185 4337-4351,-1.000000,""
67_0_1,w0,profile_67,152545.000000,256,21721.000000,1,COMPLETED_SUCCESSFULLY,430927.017550,21720.000000,452647.017550,278382.017550,300102.017550,13.816852,1993-2075 2084-2091 4036-4185 4337-4351,-1.000000,""
4_0_1,w0,profile_4,0.000000,2048,86400.000000,1,COMPLETED_SUCCESSFULLY,368149.013500,85077.000000,453226.013500,368149.013500,453226.013500,5.327245,0-1992 2076-2083 2092-2138,-1.000000,""
5_0_1,w0,profile_5,0.000000,2048,86400.000000,1,COMPLETED_SUCCESSFULLY,368149.014100,85112.000000,453261.014100,368149.014100,453261.014100,5.325465,2139-4035 4186-4336,-1.000000,""
61_0_1,w0,profile_61,119292.000000,1024,57600.000000,1,COMPLETED_SUCCESSFULLY,453264.016950,39774.000000,493038.016950,333972.016950,373746.016950,9.396742,3313-4336,-1.000000,""
8_0_1,w0,profile_8,0.000000,241,223200.000000,1,COMPLETED_SUCCESSFULLY,453264.016350,40329.000000,493593.016350,453264.016350,493593.016350,12.239158,3072-3312,-1.000000,""
7_0_1,w0,profile_7,0.000000,1024,86400.000000,1,COMPLETED_SUCCESSFULLY,453264.015750,57834.000000,511098.015750,453264.015750,511098.015750,8.837328,2048-3071,-1.000000,""
70_0_1,w0,profile_70,180171.000000,409,21649.000000,1,COMPLETED_SUCCESSFULLY,493041.019200,21648.000000,514689.019200,312870.019200,334518.019200,15.452606,3953-4361,-1.000000,""
74_0_1,w0,profile_74,226137.000000,256,21635.000000,1,COMPLETED_SUCCESSFULLY,493596.018000,21634.000000,515230.018000,267459.018000,289093.018000,13.362902,3072-3312 4362-4376,-1.000000,""
77_0_1,w0,profile_77,241219.000000,256,21624.000000,1,COMPLETED_SUCCESSFULLY,511101.017400,21623.000000,532724.017400,269882.017400,291505.017400,13.481248,2048-2303,-1.000000,""
78_0_1,w0,profile_78,309941.000000,256,21646.000000,1,COMPLETED_SUCCESSFULLY,511101.018000,21645.000000,532746.018000,201160.018000,222805.018000,10.293602,2304-2559,-1.000000,""
80_0_1,w0,profile_80,310339.000000,256,21656.000000,1,COMPLETED_SUCCESSFULLY,511101.019200,21655.000000,532756.019200,200762.019200,222417.019200,10.270931,2816-3071,-1.000000,""
79_0_1,w0,profile_79,309962.000000,256,21674.000000,1,COMPLETED_SUCCESSFULLY,511101.018600,21673.000000,532774.018600,201139.018600,222812.018600,10.280627,2560-2815,-1.000000,""
65_0_1,w0,profile_65,149870.000000,640,43297.000000,1,COMPLETED_SUCCESSFULLY,493041.018600,43296.000000,536337.018600,343171.018600,386467.018600,8.926160,3313-3952,-1.000000,""
6_0_1,w0,profile_6,0.000000,2048,86400.000000,1,COMPLETED_SUCCESSFULLY,453229.015150,85505.000000,538734.015150,453229.015150,538734.015150,6.300614,0-2047,-1.000000,""
69_0_1,w0,profile_69,174610.000000,520,32400.000000,1,COMPLETED_SUCCESSFULLY,538737.019200,32336.000000,571073.019200,364127.019200,396463.019200,12.260732,3419-3938,-1.000000,""
45_0_1,w0,profile_45,3953.000000,1280,46800.000000,1,COMPLETED_SUCCESSFULLY,532759.020850,39955.000000,572714.020850,528806.020850,568761.020850,14.235040,2048-2559 2816-3312 3953-4223,-1.000000,""
46_0_1,w0,profile_46,3995.000000,1280,46800.000000,1,COMPLETED_SUCCESSFULLY,538737.016800,40698.000000,579435.016800,534742.016800,575440.016800,14.139270,0-1279,-1.000000,""
68_0_1,w0,profile_68,152933.000000,640,43200.000000,1,COMPLETED_SUCCESSFULLY,538737.018600,43061.000000,581798.018600,385804.018600,428865.018600,9.959477,1770-2047 2560-2815 3313-3418,-1.000000,""
76_0_1,w0,profile_76,241057.000000,4,259200.000000,1,COMPLETED_SUCCESSFULLY,579438.019050,20019.000000,599457.019050,338381.019050,358400.019050,17.902993,249-252,-1.000000,""
71_0_1,w0,profile_71,180250.000000,540,32451.000000,1,COMPLETED_SUCCESSFULLY,571076.020850,32450.000000,603526.020850,390826.020850,423276.020850,13.043945,3419-3952 4224-4229,-1.000000,""
72_0_1,w0,profile_72,212196.000000,512,32487.000000,1,COMPLETED_SUCCESSFULLY,572717.022500,32486.000000,605203.022500,360521.022500,393007.022500,12.097735,2048-2559,-1.000000,""
81_0_1,w0,profile_81,330750.000000,384,32531.000000,1,COMPLETED_SUCCESSFULLY,579438.019650,32530.000000,611968.019650,248688.019650,281218.019650,8.644882,253-636,-1.000000,""
73_0_1,w0,profile_73,213565.000000,896,43310.000000,1,COMPLETED_SUCCESSFULLY,572717.023100,43309.000000,616026.023100,359152.023100,402461.023100,9.292780,2816-3312 3953-4223 4230-4357,-1.000000,""
64_0_1,w0,profile_64,149031.000000,241,115200.000000,1,COMPLETED_SUCCESSFULLY,538737.018000,81722.000000,620459.018000,389706.018000,471428.018000,5.768679,1529-1769,-1.000000,""
84_0_1,w0,profile_84,393751.000000,520,32487.000000,1,COMPLETED_SUCCESSFULLY,605206.024150,32486.000000,637692.024150,211455.024150,243941.024150,7.509112,2048-2559 3774-3781,-1.000000,""
87_0_1,w0,profile_87,472015.000000,640,43200.000000,1,COMPLETED_SUCCESSFULLY,620462.019650,43054.000000,663516.019650,148447.019650,191501.019650,4.447926,1529-1769 3867-4265,-1.000000,""
82_0_1,w0,profile_82,387386.000000,840,86400.000000,1,COMPLETED_SUCCESSFULLY,581801.020250,85674.000000,667475.020250,194415.020250,280089.020250,3.269242,637-1279 1770-1966,-1.000000,""
93_0_1,w0,profile_93,645525.000000,520,32414.000000,1,COMPLETED_SUCCESSFULLY,645525.001800,32413.000000,677938.001800,0.001800,32413.001800,1.000000,2048-2559 3774-3781,-1.000000,""
95_0_1,w0,profile_95,660635.000000,300,21600.000000,1,COMPLETED_SUCCESSFULLY,663519.021900,20735.000000,684254.021900,2884.021900,23619.021900,1.139090,3867-4166,-1.000000,""
83_0_1,w0,profile_83,392069.000000,802,86559.000000,1,COMPLETED_SUCCESSFULLY,603529.022500,86558.000000,690087.022500,211460.022500,298018.022500,3.442986,249-252 1967-2047 2560-2815 3313-3773,-1.000000,""
94_0_1,w0,profile_94,650052.000000,241,43200.000000,1,COMPLETED_SUCCESSFULLY,663519.021300,27876.000000,691395.021300,13467.021300,41343.021300,1.483105,1529-1769,-1.000000,""
97_0_1,w0,profile_97,660637.000000,300,21600.000000,1,COMPLETED_SUCCESSFULLY,677941.004050,20752.000000,698693.004050,17304.004050,38056.004050,1.833848,2348-2559 3774-3781 4167-4246,-1.000000,""
96_0_1,w0,profile_96,660636.000000,300,21701.000000,1,COMPLETED_SUCCESSFULLY,677941.003450,21700.000000,699641.003450,17305.003450,39005.003450,1.797466,2048-2347,-1.000000,""
86_0_1,w0,profile_86,471988.000000,900,86400.000000,1,COMPLETED_SUCCESSFULLY,616029.024750,85616.000000,701645.024750,144041.024750,229657.024750,2.682408,253-636 2816-3312 3782-3800,-1.000000,""
91_0_1,w0,profile_91,616511.000000,66,86520.000000,1,COMPLETED_SUCCESSFULLY,616511.001800,86519.000000,703030.001800,0.001800,86519.001800,1.000000,3801-3866,-1.000000,""
98_0_1,w0,profile_98,660638.000000,300,21600.000000,1,COMPLETED_SUCCESSFULLY,684257.023550,20646.000000,704903.023550,23619.023550,44265.023550,2.144000,3867-4166,-1.000000,""
60_0_1,w0,profile_60,64915.000000,249,216000.000000,1,COMPLETED_SUCCESSFULLY,538737.017400,169129.000000,707866.017400,473822.017400,642951.017400,3.801542,1280-1528,-1.000000,""
99_0_1,w0,profile_99,660640.000000,300,21600.000000,1,COMPLETED_SUCCESSFULLY,690090.024150,20621.000000,710711.024150,29450.024150,50071.024150,2.428157,249-252 1967-2047 2560-2774,-1.000000,""
100_0_1,w0,profile_100,660642.000000,300,21600.000000,1,COMPLETED_SUCCESSFULLY,690090.024750,20658.000000,710748.024750,29448.024750,50106.024750,2.425502,2775-2815 3313-3571,-1.000000,""
101_0_1,w0,profile_101,660644.000000,300,21600.000000,1,COMPLETED_SUCCESSFULLY,690090.025350,20712.000000,710802.025350,29446.025350,50158.025350,2.421689,3572-3773 4247-4344,-1.000000,""
102_0_1,w0,profile_102,660654.000000,300,21600.000000,1,COMPLETED_SUCCESSFULLY,698696.005700,20770.000000,719466.005700,38042.005700,58812.005700,2.831584,1529-1769 2348-2406,-1.000000,""
108_0_1,w0,profile_108,692450.000000,512,21648.000000,1,COMPLETED_SUCCESSFULLY,699644.005100,21647.000000,721291.005100,7194.005100,28841.005100,1.332333,2048-2347 2407-2559 3774-3781 4167-4217,-1.000000,""
109_0_1,w0,profile_109,693761.000000,512,21657.000000,1,COMPLETED_SUCCESSFULLY,701648.026400,21656.000000,723304.026400,7887.026400,29543.026400,1.364196,253-636 2816-2943,-1.000000,""
110_0_1,w0,profile_110,694348.000000,512,21680.000000,1,COMPLETED_SUCCESSFULLY,703033.003450,21679.000000,724712.003450,8685.003450,30364.003450,1.400618,2944-3312 3782-3866 4218-4246 4345-4373,-1.000000,""
90_0_1,w0,profile_90,610282.000000,1041,27066.000000,1,COMPLETED_SUCCESSFULLY,719469.007350,27065.000000,746534.007350,109187.007350,136252.007350,5.034251,1529-1769 2348-2406 2775-2815 3313-3773 3958-4166 4247-4276,-1.000000,""
89_0_1,w0,profile_89,561515.000000,840,86400.000000,1,COMPLETED_SUCCESSFULLY,667478.021900,85704.000000,753182.021900,105963.021900,191667.021900,2.236384,637-1279 1770-1966,-1.000000,""
75_0_1,w0,profile_75,236649.000000,249,216000.000000,1,COMPLETED_SUCCESSFULLY,579438.018450,174317.000000,753755.018450,342789.018450,517106.018450,2.966469,0-248,-1.000000,""
111_0_1,w0,profile_111,703144.000000,640,43279.000000,1,COMPLETED_SUCCESSFULLY,710714.025800,43278.000000,753992.025800,7570.025800,50848.025800,1.174916,249-252 1280-1528 1967-2047 2560-2774 3867-3957,-1.000000,""
85_0_1,w0,profile_85,438374.000000,4096,86491.000000,1,COMPLETED_SUCCESSFULLY,753995.027450,86490.000000,840485.027450,315621.027450,402111.027450,4.649220,0-4095,-1.000000,""
88_0_1,w0,profile_88,553336.000000,249,216000.000000,1,COMPLETED_SUCCESSFULLY,753995.028050,96792.000000,850787.028050,200659.028050,297451.028050,3.073095,4096-4344,-1.000000,""
127_0_1,w0,profile_127,852614.000000,256,21662.000000,1,COMPLETED_SUCCESSFULLY,852614.001800,21661.000000,874275.001800,0.001800,21661.001800,1.000000,4096-4344 4349-4355,-1.000000,""
92_0_1,w0,profile_92,635522.000000,2048,64800.000000,1,COMPLETED_SUCCESSFULLY,840488.029100,37731.000000,878219.029100,204966.029100,242697.029100,6.432298,0-2047,-1.000000,""
104_0_1,w0,profile_104,674515.000000,2048,64800.000000,1,COMPLETED_SUCCESSFULLY,840488.030300,46554.000000,887042.030300,165973.030300,212527.030300,4.565172,2052-4095 4345-4348,-1.000000,""
128_0_1,w0,profile_128,852621.000000,256,21662.000000,1,COMPLETED_SUCCESSFULLY,874278.003450,21661.000000,895939.003450,21657.003450,43318.003450,1.999815,4096-4344 4349-4355,-1.000000,""
107_0_1,w0,profile_107,690276.000000,249,216000.000000,1,COMPLETED_SUCCESSFULLY,878222.031950,23944.000000,902166.031950,187946.031950,211890.031950,8.849400,1702-1950,-1.000000,""
113_0_1,w0,profile_113,735366.000000,1024,36000.000000,1,COMPLETED_SUCCESSFULLY,887045.032550,26376.000000,913421.032550,151679.032550,178055.032550,6.750646,2979-4002,-1.000000,""
112_0_1,w0,profile_112,734984.000000,1024,43200.000000,1,COMPLETED_SUCCESSFULLY,887045.031950,30633.000000,917678.031950,152061.031950,182694.031950,5.963961,1951-2047 2052-2978,-1.000000,""
115_0_1,w0,profile_115,775965.000000,384,32400.000000,1,COMPLETED_SUCCESSFULLY,902169.033600,24161.000000,926330.033600,126204.033600,150365.033600,6.223461,1702-1950 4252-4386,-1.000000,""
117_0_1,w0,profile_117,814541.000000,384,32400.000000,1,COMPLETED_SUCCESSFULLY,913424.034800,24239.000000,937663.034800,98883.034800,123122.034800,5.079501,3363-3746,-1.000000,""
116_0_1,w0,profile_116,778687.000000,384,32400.000000,1,COMPLETED_SUCCESSFULLY,913424.034200,24280.000000,937704.034200,134737.034200,159017.034200,6.549301,2979-3362,-1.000000,""
114_0_1,w0,profile_114,759400.000000,249,216000.000000,1,COMPLETED_SUCCESSFULLY,895942.005100,42830.000000,938772.005100,136542.005100,179372.005100,4.187999,4003-4251,-1.000000,""
120_0_1,w0,profile_120,814557.000000,384,32400.000000,1,COMPLETED_SUCCESSFULLY,917681.034800,24174.000000,941855.034800,103124.034800,127298.034800,5.265907,2723-2978 3747-3874,-1.000000,""
118_0_1,w0,profile_118,814543.000000,384,32400.000000,1,COMPLETED_SUCCESSFULLY,917681.033600,24206.000000,941887.033600,103138.033600,127344.033600,5.260846,1951-2047 2052-2338,-1.000000,""
119_0_1,w0,profile_119,814545.000000,384,32400.000000,1,COMPLETED_SUCCESSFULLY,917681.034200,24207.000000,941888.034200,103136.034200,127343.034200,5.260587,2339-2722,-1.000000,""
121_0_1,w0,profile_121,814558.000000,384,32400.000000,1,COMPLETED_SUCCESSFULLY,926333.035250,24155.000000,950488.035250,111775.035250,135930.035250,5.627408,1702-1950 3875-4002 4252-4258,-1.000000,""
122_0_1,w0,profile_122,814560.000000,384,32400.000000,1,COMPLETED_SUCCESSFULLY,937666.036450,24277.000000,961943.036450,123106.036450,147383.036450,6.070892,3363-3746,-1.000000,""
106_0_1,w0,profile_106,686906.000000,900,86400.000000,1,COMPLETED_SUCCESSFULLY,878222.031350,85698.000000,963920.031350,191316.031350,277014.031350,3.232445,802-1701,-1.000000,""
105_0_1,w0,profile_105,685777.000000,802,86535.000000,1,COMPLETED_SUCCESSFULLY,878222.030750,86534.000000,964756.030750,192445.030750,278979.030750,3.223924,0-801,-1.000000,""
130_0_1,w0,profile_130,852643.000000,256,21632.000000,0,COMPLETED_WALLTIME_REACHED,963923.034200,21632.000000,985555.034200,111280.034200,132912.034200,6.144232,1578-1701 3363-3494,-1.000000,""
129_0_1,w0,profile_129,852635.000000,256,21742.000000,1,COMPLETED_SUCCESSFULLY,963923.033600,21741.000000,985664.033600,111288.033600,133029.033600,6.118809,1322-1577,-1.000000,""
123_0_1,w0,profile_123,829899.000000,1024,57600.000000,1,COMPLETED_SUCCESSFULLY,941858.036450,44677.000000,986535.036450,111959.036450,156636.036450,3.505966,2723-3362 3747-3874 4003-4251 4259-4265,-1.000000,""
131_0_1,w0,profile_131,852946.000000,512,32400.000000,1,COMPLETED_SUCCESSFULLY,964759.032400,26167.000000,990926.032400,111813.032400,137980.032400,5.273055,0-511,-1.000000,""
126_0_1,w0,profile_126,840695.000000,520,32400.000000,1,COMPLETED_SUCCESSFULLY,963923.033000,32359.000000,996282.033000,123228.033000,155587.033000,4.808153,802-1321,-1.000000,""
124_0_1,w0,profile_124,833383.000000,249,216000.000000,1,COMPLETED_SUCCESSFULLY,941893.036300,65657.000000,1007550.036300,108510.036300,174167.036300,2.652680,1951-2047 2052-2203,-1.000000,""
134_0_1,w0,profile_134,923875.000000,520,32400.000000,1,COMPLETED_SUCCESSFULLY,986538.038100,32372.000000,1018910.038100,62663.038100,95035.038100,2.935717,2723-3242,-1.000000,""
125_0_1,w0,profile_125,838157.000000,1024,86400.000000,1,COMPLETED_SUCCESSFULLY,950491.036900,78128.000000,1028619.036900,112334.036900,190462.036900,2.437820,1702-1950 2204-2722 3875-4002 4252-4258 4266-4386,-1.000000,""
136_0_1,w0,profile_136,931123.000000,249,216000.000000,1,COMPLETED_SUCCESSFULLY,990929.034650,48974.000000,1039903.034650,59806.034650,108780.034650,2.221179,3707-3874 4003-4083,-1.000000,""
135_0_1,w0,profile_135,924246.000000,802,86400.000000,1,COMPLETED_SUCCESSFULLY,990929.034050,62630.000000,1053559.034050,66683.034050,129313.034050,2.064714,0-511 3243-3362 3537-3706,-1.000000,""
138_0_1,w0,profile_138,937525.000000,1280,46800.000000,1,COMPLETED_SUCCESSFULLY,1018913.039750,37836.000000,1056749.039750,81388.039750,119224.039750,3.151074,802-1321 1951-2047 2052-2203 2723-3233,-1.000000,""
140_0_1,w0,profile_140,956690.000000,1024,34248.000000,1,COMPLETED_SUCCESSFULLY,1028622.038550,34247.000000,1062869.038550,71932.038550,106179.038550,3.100389,1702-1950 2204-2722 3234-3242 3875-4002 4150-4268,-1.000000,""
132_0_1,w0,profile_132,908395.000000,840,86400.000000,1,COMPLETED_SUCCESSFULLY,985667.035250,85786.000000,1071453.035250,77272.035250,163058.035250,1.900753,512-801 1322-1701 3363-3532,-1.000000,""
103_0_1,w0,profile_103,673304.000000,4,259200.000000,1,COMPLETED_SUCCESSFULLY,840488.029700,231518.000000,1072006.029700,167184.029700,398702.029700,1.722121,2048-2051,-1.000000,""
137_0_1,w0,profile_137,935100.000000,66,86652.000000,1,COMPLETED_SUCCESSFULLY,990929.035250,86651.000000,1077580.035250,55829.035250,142480.035250,1.644298,4084-4149,-1.000000,""
142_0_1,w0,profile_142,1030401.000000,512,21681.000000,1,COMPLETED_SUCCESSFULLY,1056752.042600,21680.000000,1078432.042600,26351.042600,48031.042600,2.215454,3545-3874 4003-4083 4269-4369,-1.000000,""
139_0_1,w0,profile_139,937533.000000,1280,46800.000000,1,COMPLETED_SUCCESSFULLY,1056752.041400,39256.000000,1096008.041400,119219.041400,158475.041400,4.036964,0-511 802-1321 1951-2047 2052-2202,-1.000000,""
141_0_1,w0,profile_141,985306.000000,640,43200.000000,1,COMPLETED_SUCCESSFULLY,1056752.042000,43109.000000,1099861.042000,71446.042000,114555.042000,2.657335,2203 2723-3233 3243-3362 3537-3544,-1.000000,""
144_0_1,w0,profile_144,1077185.000000,512,32509.000000,1,COMPLETED_SUCCESSFULLY,1077185.001800,32508.000000,1109693.001800,0.001800,32508.001800,1.000000,512-801 1322-1543,-1.000000,""
145_0_1,w0,profile_145,1105285.000000,256,21628.000000,1,COMPLETED_SUCCESSFULLY,1105285.001800,21627.000000,1126912.001800,0.001800,21627.001800,1.000000,0-255,-1.000000,""
146_0_1,w0,profile_146,1105307.000000,256,21647.000000,1,COMPLETED_SUCCESSFULLY,1105307.001800,21646.000000,1126953.001800,0.001800,21646.001800,1.000000,256-511,-1.000000,""
148_0_1,w0,profile_148,1118907.000000,256,21703.000000,1,COMPLETED_SUCCESSFULLY,1118907.001800,21702.000000,1140609.001800,0.001800,21702.001800,1.000000,512-767,-1.000000,""
149_0_1,w0,profile_149,1120003.000000,256,21723.000000,1,COMPLETED_SUCCESSFULLY,1120003.001800,21722.000000,1141725.001800,0.001800,21722.001800,1.000000,768-801 1322-1543,-1.000000,""
150_0_1,w0,profile_150,1124806.000000,256,21639.000000,1,COMPLETED_SUCCESSFULLY,1124806.001800,21638.000000,1146444.001800,0.001800,21638.001800,1.000000,1664-1701 1951-2168,-1.000000,""
151_0_1,w0,profile_151,1124822.000000,256,21655.000000,1,COMPLETED_SUCCESSFULLY,1124822.001800,21654.000000,1146476.001800,0.001800,21654.001800,1.000000,2169-2203 2723-2943,-1.000000,""
152_0_1,w0,profile_152,1124849.000000,256,21680.000000,1,COMPLETED_SUCCESSFULLY,1124849.001800,21679.000000,1146528.001800,0.001800,21679.001800,1.000000,2944-3199,-1.000000,""
153_0_1,w0,profile_153,1124889.000000,256,21725.000000,1,COMPLETED_SUCCESSFULLY,1124889.001800,21724.000000,1146613.001800,0.001800,21724.001800,1.000000,3200-3233 3243-3464,-1.000000,""
147_0_1,w0,profile_147,1105579.000000,640,43328.000000,1,COMPLETED_SUCCESSFULLY,1105579.001800,43327.000000,1148906.001800,0.001800,43327.001800,1.000000,802-1321 1544-1663,-1.000000,""
155_0_1,w0,profile_155,1129627.000000,256,21633.000000,1,COMPLETED_SUCCESSFULLY,1129627.001800,21632.000000,1151259.001800,0.001800,21632.001800,1.000000,256-511,-1.000000,""
154_0_1,w0,profile_154,1129620.000000,256,21646.000000,1,COMPLETED_SUCCESSFULLY,1129620.001800,21645.000000,1151265.001800,0.001800,21645.001800,1.000000,0-255,-1.000000,""
143_0_1,w0,profile_143,1070400.000000,840,86400.000000,1,COMPLETED_SUCCESSFULLY,1070400.001800,85690.000000,1156090.001800,0.001800,85690.001800,1.000000,1702-1950 2204-2722 3234-3242 3875-3937,-1.000000,""
133_0_1,w0,profile_133,921666.000000,4,216108.000000,1,COMPLETED_SUCCESSFULLY,985667.035850,216107.000000,1201774.035850,64001.035850,280108.035850,1.296154,3533-3536,-1.000000,""
156_0_1,w0,profile_156,1162536.000000,249,172800.000000,1,COMPLETED_SUCCESSFULLY,1162536.001800,46146.000000,1208682.001800,0.001800,46146.001800,1.000000,0-248,-1.000000,""
157_0_1,w0,profile_157,1209881.000000,4096,86400.000000,1,COMPLETED_SUCCESSFULLY,1209881.001800,58346.000000,1268227.001800,0.001800,58346.001800,1.000000,0-4095,-1.000000,""
162_0_1,w0,profile_162,1255926.000000,256,21668.000000,1,COMPLETED_SUCCESSFULLY,1255926.001800,21667.000000,1277593.001800,0.001800,21667.001800,1.000000,4096-4351,-1.000000,""
158_0_1,w0,profile_158,1216488.000000,1024,28800.000000,1,COMPLETED_SUCCESSFULLY,1268230.003450,21576.000000,1289806.003450,51742.003450,73318.003450,3.398128,0-1023,-1.000000,""
163_0_1,w0,profile_163,1255927.000000,256,21653.000000,1,COMPLETED_SUCCESSFULLY,1268230.005850,21652.000000,1289882.005850,12303.005850,33955.005850,1.568216,3400-3655,-1.000000,""
164_0_1,w0,profile_164,1255945.000000,256,21663.000000,1,COMPLETED_SUCCESSFULLY,1268230.006450,21662.000000,1289892.006450,12285.006450,33947.006450,1.567122,3656-3911,-1.000000,""
159_0_1,w0,profile_159,1216581.000000,1024,32400.000000,1,COMPLETED_SUCCESSFULLY,1268230.004050,27292.000000,1295522.004050,51649.004050,78941.004050,2.892459,1024-2047,-1.000000,""
165_0_1,w0,profile_165,1255946.000000,256,21713.000000,1,COMPLETED_SUCCESSFULLY,1277596.003450,21712.000000,1299308.003450,21650.003450,43362.003450,1.997145,3912-4167,-1.000000,""
160_0_1,w0,profile_160,1217311.000000,520,32411.000000,1,COMPLETED_SUCCESSFULLY,1268230.004650,32410.000000,1300640.004650,50919.004650,83329.004650,2.571089,2048-2567,-1.000000,""
169_0_1,w0,profile_169,1255966.000000,256,21692.000000,1,COMPLETED_SUCCESSFULLY,1289809.006900,21691.000000,1311500.006900,33843.006900,55534.006900,2.560233,768-1023,-1.000000,""
167_0_1,w0,profile_167,1255950.000000,256,21733.000000,1,COMPLETED_SUCCESSFULLY,1289809.005700,21732.000000,1311541.005700,33859.005700,55591.005700,2.558025,256-511,-1.000000,""
166_0_1,w0,profile_166,1255948.000000,256,21734.000000,1,COMPLETED_SUCCESSFULLY,1289809.005100,21733.000000,1311542.005100,33861.005100,55594.005100,2.558046,0-255,-1.000000,""
168_0_1,w0,profile_168,1255965.000000,256,21758.000000,1,COMPLETED_SUCCESSFULLY,1289809.006300,21757.000000,1311566.006300,33844.006300,55601.006300,2.555546,512-767,-1.000000,""
170_0_1,w0,profile_170,1255968.000000,256,21728.000000,1,COMPLETED_SUCCESSFULLY,1289885.007500,21727.000000,1311612.007500,33917.007500,55644.007500,2.561053,3400-3655,-1.000000,""
171_0_1,w0,profile_171,1255971.000000,256,21857.000000,1,COMPLETED_SUCCESSFULLY,1289895.008100,21856.000000,1311751.008100,33924.008100,55780.008100,2.552160,3656-3911,-1.000000,""
173_0_1,w0,profile_173,1261117.000000,512,21665.000000,1,COMPLETED_SUCCESSFULLY,1295525.006300,21664.000000,1317189.006300,34408.006300,56072.006300,2.588257,1536-2047,-1.000000,""
172_0_1,w0,profile_172,1257543.000000,512,32400.000000,1,COMPLETED_SUCCESSFULLY,1295525.005700,26168.000000,1321693.005700,37982.005700,64150.005700,2.451468,1024-1535,-1.000000,""
174_0_1,w0,profile_174,1261176.000000,512,21644.000000,1,COMPLETED_SUCCESSFULLY,1300643.006300,21643.000000,1322286.006300,39467.006300,61110.006300,2.823546,2048-2559,-1.000000,""
177_0_1,w0,profile_177,1263003.000000,409,21644.000000,1,COMPLETED_SUCCESSFULLY,1311569.007950,21643.000000,1333212.007950,48566.007950,70209.007950,3.243959,241-649,-1.000000,""
161_0_1,w0,profile_161,1245365.000000,832,86400.000000,1,COMPLETED_SUCCESSFULLY,1268230.005250,69017.000000,1337247.005250,22865.005250,91882.005250,1.331295,2568-3399,-1.000000,""
178_0_1,w0,profile_178,1263095.000000,540,32516.000000,1,COMPLETED_SUCCESSFULLY,1311754.009750,32515.000000,1344269.009750,48659.009750,81174.009750,2.496510,650-767 3400-3821,-1.000000,""
179_0_1,w0,profile_179,1264288.000000,718,32447.000000,1,COMPLETED_SUCCESSFULLY,1321696.007350,32446.000000,1354142.007350,57408.007350,89854.007350,2.769340,1024-1741,-1.000000,""
180_0_1,w0,profile_180,1278321.000000,512,32400.000000,1,COMPLETED_SUCCESSFULLY,1322289.007950,32083.000000,1354372.007950,43968.007950,76051.007950,2.370446,1742-2253,-1.000000,""
181_0_1,w0,profile_181,1288146.000000,512,32400.000000,1,COMPLETED_SUCCESSFULLY,1333215.009600,21198.000000,1354413.009600,45069.009600,66267.009600,3.126097,241-649 2254-2356,-1.000000,""
175_0_1,w0,profile_175,1261357.000000,640,43349.000000,1,COMPLETED_SUCCESSFULLY,1311503.008550,43348.000000,1354851.008550,50146.008550,93494.008550,2.156824,768-1023 2560-2567 3912-4287,-1.000000,""
185_0_1,w0,profile_185,1344819.000000,256,21748.000000,1,COMPLETED_SUCCESSFULLY,1354145.009600,21747.000000,1375892.009600,9326.009600,31073.009600,1.428841,1536-1741 3911 4288-4336,-1.000000,""
186_0_1,w0,profile_186,1344833.000000,256,21685.000000,1,COMPLETED_SUCCESSFULLY,1354375.009600,21684.000000,1376059.009600,9542.009600,31226.009600,1.440048,1742-1997,-1.000000,""
184_0_1,w0,profile_184,1331171.000000,512,32400.000000,1,COMPLETED_SUCCESSFULLY,1354145.009000,30028.000000,1384173.009000,22974.009000,53002.009000,1.765086,1024-1535,-1.000000,""
176_0_1,w0,profile_176,1262026.000000,241,129600.000000,1,COMPLETED_SUCCESSFULLY,1311547.008400,81256.000000,1392803.008400,49521.008400,130777.008400,1.609444,0-240,-1.000000,""
199_0_1,w0,profile_199,1357477.000000,512,32508.000000,0,COMPLETED_WALLTIME_REACHED,1384176.010650,32508.000000,1416684.010650,26699.010650,59207.010650,1.821306,1024-1535,-1.000000,""
182_0_1,w0,profile_182,1330834.000000,832,86400.000000,1,COMPLETED_SUCCESSFULLY,1337250.006900,85666.000000,1422916.006900,6416.006900,92082.006900,1.074896,2357-2559 2568-3196,-1.000000,""
183_0_1,w0,profile_183,1330882.000000,832,86400.000000,1,COMPLETED_SUCCESSFULLY,1344272.011400,85675.000000,1429947.011400,13390.011400,99065.011400,1.156288,650-767 3197-3910,-1.000000,""
187_0_1,w0,profile_187,1346816.000000,832,86400.000000,1,COMPLETED_SUCCESSFULLY,1354854.010200,85676.000000,1440530.010200,8038.010200,93714.010200,1.093819,241-649 768-1023 1998-2164,-1.000000,""
190_0_1,w0,profile_190,1351253.000000,897,32424.000000,1,COMPLETED_SUCCESSFULLY,1422919.008550,32423.000000,1455342.008550,71666.008550,104089.008550,3.210345,1821-1997 2357-2559 2568-3084,-1.000000,""
209_0_1,w0,profile_209,1429949.000000,300,21600.000000,1,COMPLETED_SUCCESSFULLY,1440533.013050,20597.000000,1461130.013050,10584.013050,31181.013050,1.513862,3459-3758,-1.000000,""
208_0_1,w0,profile_208,1429947.000000,300,21600.000000,1,COMPLETED_SUCCESSFULLY,1440533.012450,20793.000000,1461326.012450,10586.012450,31379.012450,1.509114,3159-3458,-1.000000,""
188_0_1,w0,profile_188,1346907.000000,832,86400.000000,1,COMPLETED_SUCCESSFULLY,1375895.011250,85648.000000,1461543.011250,28988.011250,114636.011250,1.338455,1536-1741 2165-2356 2560-2567 3911-4336,-1.000000,""
207_0_1,w0,profile_207,1428475.000000,256,21804.000000,1,COMPLETED_SUCCESSFULLY,1461546.013500,21803.000000,1483349.013500,33071.013500,54874.013500,2.516810,3904-4159,-1.000000,""
189_0_1,w0,profile_189,1346928.000000,832,86400.000000,1,COMPLETED_SUCCESSFULLY,1416687.012300,85663.000000,1502350.012300,69759.012300,155422.012300,1.814342,0-240 1024-1535 1742-1820,-1.000000,""
210_0_1,w0,profile_210,1429951.000000,300,21600.000000,1,COMPLETED_SUCCESSFULLY,1483352.015150,20561.000000,1503913.015150,53401.015150,73962.015150,3.597199,3904-4203,-1.000000,""
212_0_1,w0,profile_212,1429955.000000,300,21600.000000,1,COMPLETED_SUCCESSFULLY,1502353.014550,20570.000000,1522923.014550,72398.014550,92968.014550,4.519592,1083-1382,-1.000000,""
213_0_1,w0,profile_213,1429956.000000,300,21600.000000,1,COMPLETED_SUCCESSFULLY,1502353.015150,20726.000000,1523079.015150,72397.015150,93123.015150,4.493053,1383-1535 1742-1820 4204-4271,-1.000000,""
211_0_1,w0,profile_211,1429953.000000,300,21724.000000,1,COMPLETED_SUCCESSFULLY,1502353.013950,21723.000000,1524076.013950,72400.013950,94123.013950,4.332874,0-240 1024-1082,-1.000000,""
214_0_1,w0,profile_214,1429969.000000,300,21600.000000,1,COMPLETED_SUCCESSFULLY,1503916.016800,20620.000000,1524536.016800,73947.016800,94567.016800,4.586179,3904-4203,-1.000000,""
191_0_1,w0,profile_191,1352307.000000,1024,86400.000000,1,COMPLETED_SUCCESSFULLY,1440533.011850,84372.000000,1524905.011850,88226.011850,172598.011850,2.045679,241-1023 1998-2164 3085-3158,-1.000000,""
192_0_1,w0,profile_192,1352307.000000,2048,86400.000000,1,COMPLETED_SUCCESSFULLY,1461546.012900,85078.000000,1546624.012900,109239.012900,194317.012900,2.283987,1536-1741 1821-1997 2165-3084 3159-3903,-1.000000,""
226_0_1,w0,profile_226,1558484.000000,256,21617.000000,1,COMPLETED_SUCCESSFULLY,1558484.001800,21616.000000,1580100.001800,0.001800,21616.001800,1.000000,4096-4351,-1.000000,""
227_0_1,w0,profile_227,1558499.000000,256,21600.000000,1,COMPLETED_SUCCESSFULLY,1580103.003450,21549.000000,1601652.003450,21604.003450,43153.003450,2.002552,4096-4351,-1.000000,""
193_0_1,w0,profile_193,1352329.000000,2048,86400.000000,1,COMPLETED_SUCCESSFULLY,1524908.013500,85233.000000,1610141.013500,172579.013500,257812.013500,3.024791,0-1535 1742-1820 1998-2164 3085-3158 3904-4095,-1.000000,""
194_0_1,w0,profile_194,1352351.000000,1024,86400.000000,1,COMPLETED_SUCCESSFULLY,1546627.014550,84056.000000,1630683.014550,194276.014550,278332.014550,3.311269,1536-1741 1821-1997 2165-2805,-1.000000,""
195_0_1,w0,profile_195,1352354.000000,1024,86400.000000,1,COMPLETED_SUCCESSFULLY,1546627.015150,84139.000000,1630766.015150,194273.015150,278412.015150,3.308953,2806-3084 3159-3903,-1.000000,""
228_0_1,w0,profile_228,1601278.000000,256,21693.000000,1,COMPLETED_SUCCESSFULLY,1610144.016350,21692.000000,1631836.016350,8866.016350,30558.016350,1.408723,4096-4351,-1.000000,""
215_0_1,w0,profile_215,1429971.000000,300,21600.000000,1,COMPLETED_SUCCESSFULLY,1631839.018000,20661.000000,1652500.018000,201868.018000,222529.018000,10.770486,3882-3903 4096-4373,-1.000000,""
202_0_1,w0,profile_202,1361365.000000,512,32500.000000,1,COMPLETED_SUCCESSFULLY,1630769.018000,32499.000000,1663268.018000,269404.018000,301903.018000,9.289609,3370-3881,-1.000000,""
200_0_1,w0,profile_200,1359674.000000,241,129600.000000,1,COMPLETED_SUCCESSFULLY,1630769.016800,36866.000000,1667635.016800,271095.016800,307961.016800,8.353524,2806-3046,-1.000000,""
220_0_1,w0,profile_220,1516849.000000,512,21673.000000,1,COMPLETED_SUCCESSFULLY,1667638.018450,21672.000000,1689310.018450,150789.018450,172461.018450,7.957780,2806-3046 3882-3903 4096-4344,-1.000000,""
196_0_1,w0,profile_196,1352356.000000,1024,86400.000000,1,COMPLETED_SUCCESSFULLY,1610144.015150,84136.000000,1694280.015150,257788.015150,341924.015150,4.063944,0-1023,-1.000000,""
197_0_1,w0,profile_197,1352358.000000,1024,86400.000000,1,COMPLETED_SUCCESSFULLY,1610144.015750,84158.000000,1694302.015750,257786.015750,341944.015750,4.063120,1024-1535 1742-1820 1998-2164 3085-3158 3904-4095,-1.000000,""
203_0_1,w0,profile_203,1362193.000000,512,32495.000000,1,COMPLETED_SUCCESSFULLY,1663271.019650,32494.000000,1695765.019650,301078.019650,333572.019650,10.265650,3370-3881,-1.000000,""
198_0_1,w0,profile_198,1352374.000000,1024,86400.000000,1,COMPLETED_SUCCESSFULLY,1630686.016200,84073.000000,1714759.016200,278312.016200,362385.016200,4.310361,1536-1741 1821-1997 2165-2805,-1.000000,""
231_0_1,w0,profile_231,1673282.000000,256,21716.000000,1,COMPLETED_SUCCESSFULLY,1694305.018000,21715.000000,1716020.018000,21023.018000,42738.018000,1.968133,2047-2164 3085-3158 3904-3967,-1.000000,""
221_0_1,w0,profile_221,1517123.000000,512,21647.000000,1,COMPLETED_SUCCESSFULLY,1714762.018450,21646.000000,1736408.018450,197639.018450,219285.018450,10.130510,3370-3881,-1.000000,""
206_0_1,w0,profile_206,1420654.000000,640,43323.000000,1,COMPLETED_SUCCESSFULLY,1694305.017400,43322.000000,1737627.017400,273651.017400,316973.017400,7.316676,1024-1535 1742-1820 1998-2046,-1.000000,""
205_0_1,w0,profile_205,1420652.000000,768,43378.000000,1,COMPLETED_SUCCESSFULLY,1694283.017400,43377.000000,1737660.017400,273631.017400,317008.017400,7.308205,802-1023 2806-3046 3882-3903 4096-4378,-1.000000,""
216_0_1,w0,profile_216,1452207.000000,1024,86400.000000,1,COMPLETED_SUCCESSFULLY,1714762.017850,43130.000000,1757892.017850,262555.017850,305685.017850,7.087526,1536-1741 1821-1997 2165-2805,-1.000000,""
233_0_1,w0,profile_233,1741675.000000,256,21699.000000,1,COMPLETED_SUCCESSFULLY,1741675.001800,21698.000000,1763373.001800,0.001800,21698.001800,1.000000,3996-4251,-1.000000,""
217_0_1,w0,profile_217,1452363.000000,1024,46800.000000,1,COMPLETED_SUCCESSFULLY,1737630.019050,31215.000000,1768845.019050,285267.019050,316482.019050,10.138780,1024-1535 1742-1820 1998-2164 3085-3158 3370-3561,-1.000000,""
218_0_1,w0,profile_218,1472538.000000,897,32417.000000,1,COMPLETED_SUCCESSFULLY,1737663.019050,32416.000000,1770079.019050,265125.019050,297541.019050,9.178832,802-1023 2806-3046 3562-3995,-1.000000,""
201_0_1,w0,profile_201,1359853.000000,249,201600.000000,1,COMPLETED_SUCCESSFULLY,1630769.017400,141037.000000,1771806.017400,270916.017400,411953.017400,2.920886,3047-3084 3159-3369,-1.000000,""
204_0_1,w0,profile_204,1370003.000000,802,86400.000000,1,COMPLETED_SUCCESSFULLY,1694283.016800,80262.000000,1774545.016800,324280.016800,404542.016800,5.040268,0-801,-1.000000,""
219_0_1,w0,profile_219,1514740.000000,512,32525.000000,1,COMPLETED_SUCCESSFULLY,1757895.019500,32524.000000,1790419.019500,243155.019500,275679.019500,8.476172,1536-1741 1821-1997 2165-2293,-1.000000,""
246_0_1,w0,profile_246,1789001.000000,256,21688.000000,1,COMPLETED_SUCCESSFULLY,1790422.021750,21687.000000,1812109.021750,1421.021750,23108.021750,1.065524,4096-4351,-1.000000,""
222_0_1,w0,profile_222,1527611.000000,4096,86400.000000,1,COMPLETED_SUCCESSFULLY,1790422.021150,66015.000000,1856437.021150,262811.021150,328826.021150,4.981080,0-4095,-1.000000,""
223_0_1,w0,profile_223,1527726.000000,4096,86400.000000,1,COMPLETED_SUCCESSFULLY,1856440.022800,30752.000000,1887192.022800,328714.022800,359466.022800,11.689192,0-4095,-1.000000,""
224_0_1,w0,profile_224,1531897.000000,241,129600.000000,1,COMPLETED_SUCCESSFULLY,1856440.023400,37107.000000,1893547.023400,324543.023400,361650.023400,9.746140,4096-4336,-1.000000,""
253_0_1,w0,profile_253,1874442.000000,256,21752.000000,1,COMPLETED_SUCCESSFULLY,1893550.025050,21751.000000,1915301.025050,19108.025050,40859.025050,1.878489,4096-4351,-1.000000,""
229_0_1,w0,profile_229,1624562.000000,1024,79200.000000,1,COMPLETED_SUCCESSFULLY,1887195.025050,46872.000000,1934067.025050,262633.025050,309505.025050,6.603196,3072-4095,-1.000000,""
254_0_1,w0,profile_254,1878468.000000,256,21704.000000,1,COMPLETED_SUCCESSFULLY,1915304.026700,21703.000000,1937007.026700,36836.026700,58539.026700,2.697278,4096-4351,-1.000000,""
225_0_1,w0,profile_225,1535918.000000,3072,79200.000000,1,COMPLETED_SUCCESSFULLY,1887195.024450,68693.000000,1955888.024450,351277.024450,419970.024450,6.113724,0-3071,-1.000000,""
234_0_1,w0,profile_234,1769629.000000,300,21600.000000,1,COMPLETED_SUCCESSFULLY,1937010.028350,20614.000000,1957624.028350,167381.028350,187995.028350,9.119774,3969-4268,-1.000000,""
230_0_1,w0,profile_230,1654183.000000,897,32475.000000,1,COMPLETED_SUCCESSFULLY,1934070.026700,32474.000000,1966544.026700,279887.026700,312361.026700,9.618804,3072-3968,-1.000000,""
238_0_1,w0,profile_238,1769637.000000,300,21600.000000,1,COMPLETED_SUCCESSFULLY,1955891.028500,20541.000000,1976432.028500,186254.028500,206795.028500,10.067428,1890-2189,-1.000000,""
235_0_1,w0,profile_235,1769631.000000,300,21600.000000,1,COMPLETED_SUCCESSFULLY,1955891.026700,20543.000000,1976434.026700,186260.026700,206803.026700,10.066837,990-1289,-1.000000,""
239_0_1,w0,profile_239,1769638.000000,300,21600.000000,1,COMPLETED_SUCCESSFULLY,1955891.029100,20570.000000,1976461.029100,186253.029100,206823.029100,10.054595,2190-2489,-1.000000,""
240_0_1,w0,profile_240,1769653.000000,300,21600.000000,1,COMPLETED_SUCCESSFULLY,1955891.029700,20614.000000,1976505.029700,186238.029700,206852.029700,10.034541,2490-2789,-1.000000,""
237_0_1,w0,profile_237,1769635.000000,300,21600.000000,1,COMPLETED_SUCCESSFULLY,1955891.027900,20649.000000,1976540.027900,186256.027900,206905.027900,10.020099,1590-1889,-1.000000,""
236_0_1,w0,profile_236,1769632.000000,300,21600.000000,1,COMPLETED_SUCCESSFULLY,1955891.027300,20954.000000,1976845.027300,186259.027300,207213.027300,9.888949,1290-1589,-1.000000,""
241_0_1,w0,profile_241,1769655.000000,300,21722.000000,1,COMPLETED_SUCCESSFULLY,1955891.030300,21721.000000,1977612.030300,186236.030300,207957.030300,9.574008,2790-3071 4269-4286,-1.000000,""
242_0_1,w0,profile_242,1771533.000000,512,21772.000000,1,COMPLETED_SUCCESSFULLY,1966547.028350,21771.000000,1988318.028350,195014.028350,216785.028350,9.957514,3072-3583,-1.000000,""
243_0_1,w0,profile_243,1772216.000000,512,21796.000000,1,COMPLETED_SUCCESSFULLY,1966547.028950,21795.000000,1988342.028950,194331.028950,216126.028950,9.916312,3584-4095,-1.000000,""
260_0_1,w0,profile_260,1959596.000000,5,21600.000000,1,COMPLETED_SUCCESSFULLY,1976848.030750,21352.000000,1998200.030750,17252.030750,38604.030750,1.807982,4227-4231,-1.000000,""
258_0_1,w0,profile_258,1959038.000000,5,21656.000000,1,COMPLETED_SUCCESSFULLY,1976848.029550,21655.000000,1998503.029550,17810.029550,39465.029550,1.822444,4217-4221,-1.000000,""
259_0_1,w0,profile_259,1959103.000000,5,21667.000000,1,COMPLETED_SUCCESSFULLY,1976848.030150,21666.000000,1998514.030150,17745.030150,39411.030150,1.819027,4222-4226,-1.000000,""
264_0_1,w0,profile_264,1975998.000000,256,21828.000000,0,COMPLETED_WALLTIME_REACHED,1977615.031950,21828.000000,1999443.031950,1617.031950,23445.031950,1.074081,2790-3045,-1.000000,""
245_0_1,w0,profile_245,1781205.000000,897,32400.000000,1,COMPLETED_SUCCESSFULLY,1976543.029550,32387.000000,2008930.029550,195338.029550,227725.029550,7.031372,1590-1889 2190-2786,-1.000000,""
247_0_1,w0,profile_247,1789305.000000,384,32451.000000,1,COMPLETED_SUCCESSFULLY,1976848.028950,32450.000000,2009298.028950,187543.028950,219993.028950,6.779446,1290-1589 2787-2789 4136-4216,-1.000000,""
244_0_1,w0,profile_244,1772415.000000,640,43200.000000,1,COMPLETED_SUCCESSFULLY,1976438.031200,42635.000000,2019073.031200,204023.031200,246658.031200,5.785341,990-1289 1890-2189 4096-4135,-1.000000,""
248_0_1,w0,profile_248,1797593.000000,2048,39600.000000,1,COMPLETED_SUCCESSFULLY,2008933.031200,25112.000000,2034045.031200,211340.031200,236452.031200,9.415898,1590-1889 2190-2786 2790-3940,-1.000000,""
257_0_1,w0,profile_257,1949704.000000,512,32516.000000,1,COMPLETED_SUCCESSFULLY,2009301.030600,32515.000000,2041816.030600,59597.030600,92112.030600,2.832909,1290-1589 2787-2789 3941-4095 4136-4189,-1.000000,""
232_0_1,w0,profile_232,1690853.000000,990,86533.000000,1,COMPLETED_SUCCESSFULLY,1955891.026100,86532.000000,2042423.026100,265038.026100,351570.026100,4.062890,0-989,-1.000000,""
266_0_1,w0,profile_266,2022468.000000,256,21881.000000,1,COMPLETED_SUCCESSFULLY,2022468.001800,21880.000000,2044348.001800,0.001800,21880.001800,1.000000,990-1245,-1.000000,""
267_0_1,w0,profile_267,2034886.000000,256,21751.000000,1,COMPLETED_SUCCESSFULLY,2044351.003450,21750.000000,2066101.003450,9465.003450,31215.003450,1.435173,990-1245,-1.000000,""
249_0_1,w0,profile_249,1855366.000000,4096,86400.000000,1,COMPLETED_SUCCESSFULLY,2042426.027750,24773.000000,2067199.027750,187060.027750,211833.027750,8.550964,0-989 1246-4351,-1.000000,""
268_0_1,w0,profile_268,2038122.000000,256,21731.000000,1,COMPLETED_SUCCESSFULLY,2066104.005100,21730.000000,2087834.005100,27982.005100,49712.005100,2.287713,990-1245,-1.000000,""
250_0_1,w0,profile_250,1855371.000000,4096,86400.000000,1,COMPLETED_SUCCESSFULLY,2067202.029400,43009.000000,2110211.029400,211831.029400,254840.029400,5.925272,0-989 1246-4351,-1.000000,""
271_0_1,w0,profile_271,2091796.000000,256,21695.000000,1,COMPLETED_SUCCESSFULLY,2091796.001800,21694.000000,2113490.001800,0.001800,21694.001800,1.000000,990-1245,-1.000000,""
251_0_1,w0,profile_251,1855388.000000,4096,86400.000000,1,COMPLETED_SUCCESSFULLY,2110214.031050,22176.000000,2132390.031050,254826.031050,277002.031050,12.491073,0-989 1246-4351,-1.000000,""
272_0_1,w0,profile_272,2130652.000000,512,32400.000000,1,COMPLETED_SUCCESSFULLY,2132393.033900,21185.000000,2153578.033900,1741.033900,22926.033900,1.082182,1794-2305,-1.000000,""
269_0_1,w0,profile_269,2045349.000000,897,32453.000000,1,COMPLETED_SUCCESSFULLY,2132393.033300,32452.000000,2164845.033300,87044.033300,119496.033300,3.682239,897-1793,-1.000000,""
252_0_1,w0,profile_252,1869585.000000,897,32477.000000,1,COMPLETED_SUCCESSFULLY,2132393.032700,32476.000000,2164869.032700,262808.032700,295284.032700,9.092377,0-896,-1.000000,""
276_0_1,w0,profile_276,2146661.000000,256,21671.000000,1,COMPLETED_SUCCESSFULLY,2164872.034950,21670.000000,2186542.034950,18211.034950,39881.034950,1.840380,4096-4351,-1.000000,""
255_0_1,w0,profile_255,1888093.000000,4096,86400.000000,1,COMPLETED_SUCCESSFULLY,2164872.034350,22152.000000,2187024.034350,276779.034350,298931.034350,13.494539,0-4095,-1.000000,""
278_0_1,w0,profile_278,2227735.000000,256,21672.000000,1,COMPLETED_SUCCESSFULLY,2227735.001800,21671.000000,2249406.001800,0.001800,21671.001800,1.000000,4096-4351,-1.000000,""
279_0_1,w0,profile_279,2227739.000000,256,21630.000000,1,COMPLETED_SUCCESSFULLY,2249409.003450,21629.000000,2271038.003450,21670.003450,43299.003450,2.001896,4096-4351,-1.000000,""
256_0_1,w0,profile_256,1888114.000000,4096,86557.000000,1,COMPLETED_SUCCESSFULLY,2187027.036000,86556.000000,2273583.036000,298913.036000,385469.036000,4.453406,0-4095,-1.000000,""
265_0_1,w0,profile_265,2001726.000000,1200,43321.000000,1,COMPLETED_SUCCESSFULLY,2273586.039450,43320.000000,2316906.039450,271860.039450,315180.039450,7.275624,3072-4271,-1.000000,""
261_0_1,w0,profile_261,1969821.000000,1024,79200.000000,1,COMPLETED_SUCCESSFULLY,2273586.037650,46943.000000,2320529.037650,303765.037650,350708.037650,7.470934,0-1023,-1.000000,""
262_0_1,w0,profile_262,1970821.000000,1024,79200.000000,1,COMPLETED_SUCCESSFULLY,2273586.038250,51685.000000,2325271.038250,302765.038250,354450.038250,6.857890,1024-2047,-1.000000,""
263_0_1,w0,profile_263,1970825.000000,1024,79200.000000,1,COMPLETED_SUCCESSFULLY,2273586.038850,58525.000000,2332111.038850,302761.038850,361286.038850,6.173192,2048-3071,-1.000000,""
280_0_1,w0,profile_280,2227741.000000,256,21631.000000,1,COMPLETED_SUCCESSFULLY,2320532.039900,21630.000000,2342162.039900,92791.039900,114421.039900,5.289923,897-1023 4258-4386,-1.000000,""
277_0_1,w0,profile_277,2203198.000000,384,32510.000000,1,COMPLETED_SUCCESSFULLY,2316909.041700,32509.000000,2349418.041700,113711.041700,146220.041700,4.497833,3874-4257,-1.000000,""
273_0_1,w0,profile_273,2132841.000000,897,32400.000000,1,COMPLETED_SUCCESSFULLY,2320532.039300,32366.000000,2352898.039300,187691.039300,220057.039300,6.799019,0-896,-1.000000,""
275_0_1,w0,profile_275,2141187.000000,1024,57600.000000,1,COMPLETED_SUCCESSFULLY,2352901.040950,42514.000000,2395415.040950,211714.040950,254228.040950,5.979866,0-1023,-1.000000,""
270_0_1,w0,profile_270,2068393.000000,802,86400.000000,1,COMPLETED_SUCCESSFULLY,2316909.041100,80494.000000,2397403.041100,248516.041100,329010.041100,4.087386,3072-3873,-1.000000,""
274_0_1,w0,profile_274,2133537.000000,2048,86400.000000,1,COMPLETED_SUCCESSFULLY,2332114.040500,84959.000000,2417073.040500,198577.040500,283536.040500,3.337328,1024-3071,-1.000000,""
281_0_1,w0,profile_281,2296441.000000,897,32428.000000,1,COMPLETED_SUCCESSFULLY,2395418.042600,32427.000000,2427845.042600,98977.042600,131404.042600,4.052303,0-896,-1.000000,""
287_0_1,w0,profile_287,2432409.000000,256,21690.000000,1,COMPLETED_SUCCESSFULLY,2432409.001800,21689.000000,2454098.001800,0.001800,21689.001800,1.000000,4096-4351,-1.000000,""
289_0_1,w0,profile_289,2432874.000000,256,21654.000000,1,COMPLETED_SUCCESSFULLY,2454101.003450,21653.000000,2475754.003450,21227.003450,42880.003450,1.980326,4096-4351,-1.000000,""
291_0_1,w0,profile_291,2465141.000000,256,21696.000000,1,COMPLETED_SUCCESSFULLY,2475757.005100,21695.000000,2497452.005100,10616.005100,32311.005100,1.489330,4096-4351,-1.000000,""
282_0_1,w0,profile_282,2298566.000000,4096,86563.000000,1,COMPLETED_SUCCESSFULLY,2427848.044250,86562.000000,2514410.044250,129282.044250,215844.044250,2.493520,0-4095,-1.000000,""
292_0_1,w0,profile_292,2465143.000000,256,21706.000000,1,COMPLETED_SUCCESSFULLY,2514413.048300,21705.000000,2536118.048300,49270.048300,70975.048300,3.269986,4091-4346,-1.000000,""
286_0_1,w0,profile_286,2419848.000000,897,32400.000000,1,COMPLETED_SUCCESSFULLY,2514413.047700,32348.000000,2546761.047700,94565.047700,126913.047700,3.923366,3194-4090,-1.000000,""
285_0_1,w0,profile_285,2419626.000000,897,32400.000000,1,COMPLETED_SUCCESSFULLY,2514413.047100,32360.000000,2546773.047100,94787.047100,127147.047100,3.929142,2297-3193,-1.000000,""
288_0_1,w0,profile_288,2432766.000000,512,21677.000000,1,COMPLETED_SUCCESSFULLY,2546764.049350,21676.000000,2568440.049350,113998.049350,135674.049350,6.259183,3194-3705,-1.000000,""
294_0_1,w0,profile_294,2465147.000000,256,21665.000000,1,COMPLETED_SUCCESSFULLY,2546776.049950,21664.000000,2568440.049950,81629.049950,103293.049950,4.767958,3885-4140,-1.000000,""
293_0_1,w0,profile_293,2465144.000000,256,21719.000000,1,COMPLETED_SUCCESSFULLY,2546776.049350,21718.000000,2568494.049350,81632.049350,103350.049350,4.758728,3117-3193 3706-3884,-1.000000,""
290_0_1,w0,profile_290,2449957.000000,820,25200.000000,1,COMPLETED_SUCCESSFULLY,2546776.048750,24111.000000,2570887.048750,96819.048750,120930.048750,5.015555,2297-3116,-1.000000,""
283_0_1,w0,profile_283,2329499.000000,2048,86400.000000,1,COMPLETED_SUCCESSFULLY,2514413.045900,56864.000000,2571277.045900,184914.045900,241778.045900,4.251865,0-2047,-1.000000,""
298_0_1,w0,profile_298,2473534.000000,256,21600.000000,1,COMPLETED_SUCCESSFULLY,2568497.051000,21537.000000,2590034.051000,94963.051000,116500.051000,5.409298,3117-3193 3706-3884,-1.000000,""
295_0_1,w0,profile_295,2465148.000000,256,21656.000000,1,COMPLETED_SUCCESSFULLY,2568446.052050,21655.000000,2590101.052050,103298.052050,124953.052050,5.770171,3194-3449,-1.000000,""
296_0_1,w0,profile_296,2465149.000000,256,21664.000000,1,COMPLETED_SUCCESSFULLY,2568446.052650,21663.000000,2590109.052650,103297.052650,124960.052650,5.768363,3450-3705,-1.000000,""
300_0_1,w0,profile_300,2493514.000000,256,21600.000000,1,COMPLETED_SUCCESSFULLY,2570890.051000,21537.000000,2592427.051000,77376.051000,98913.051000,4.592703,2553-2808,-1.000000,""
299_0_1,w0,profile_299,2493473.000000,256,21600.000000,1,COMPLETED_SUCCESSFULLY,2570890.050400,21576.000000,2592466.050400,77417.050400,98993.050400,4.588109,2297-2552,-1.000000,""
301_0_1,w0,profile_301,2499306.000000,512,21717.000000,1,COMPLETED_SUCCESSFULLY,2570890.051600,21716.000000,2592606.051600,71584.051600,93300.051600,4.296374,2809-3116 4141-4344,-1.000000,""
297_0_1,w0,profile_297,2465150.000000,256,32686.000000,1,COMPLETED_SUCCESSFULLY,2568446.053250,32685.000000,2601131.053250,103296.053250,135981.053250,4.160350,3885-4140,-1.000000,""
305_0_1,w0,profile_305,2545480.000000,241,216000.000000,1,COMPLETED_SUCCESSFULLY,2571280.049350,39660.000000,2610940.049350,25800.049350,65460.049350,1.650531,1657-1897,-1.000000,""
303_0_1,w0,profile_303,2536607.000000,640,43315.000000,1,COMPLETED_SUCCESSFULLY,2571280.048150,43314.000000,2614594.048150,34673.048150,77987.048150,1.800504,768-1407,-1.000000,""
302_0_1,w0,profile_302,2536604.000000,768,43354.000000,1,COMPLETED_SUCCESSFULLY,2571280.047550,43353.000000,2614633.047550,34676.047550,78029.047550,1.799853,0-767,-1.000000,""
304_0_1,w0,profile_304,2545239.000000,249,216000.000000,1,COMPLETED_SUCCESSFULLY,2571280.048750,46377.000000,2617657.048750,26041.048750,72418.048750,1.561508,1408-1656,-1.000000,""
308_0_1,w0,profile_308,2561951.000000,256,21640.000000,1,COMPLETED_SUCCESSFULLY,2610943.051000,21639.000000,2632582.051000,48992.051000,70631.051000,3.264063,1657-1897 4161-4175,-1.000000,""
314_0_1,w0,profile_314,2597852.000000,256,21689.000000,1,COMPLETED_SUCCESSFULLY,2614636.050400,21688.000000,2636324.050400,16784.050400,38472.050400,1.773886,1246-1407 4176-4269,-1.000000,""
316_0_1,w0,profile_316,2599447.000000,256,21640.000000,1,COMPLETED_SUCCESSFULLY,2617660.050400,21639.000000,2639299.050400,18213.050400,39852.050400,1.841677,1408-1656 4270-4276,-1.000000,""
306_0_1,w0,profile_306,2557280.000000,1024,57600.000000,1,COMPLETED_SUCCESSFULLY,2592430.052650,48737.000000,2641167.052650,35150.052650,83887.052650,1.721219,1898-2047 2553-2808 3117-3734,-1.000000,""
284_0_1,w0,profile_284,2372876.000000,249,201600.000000,1,COMPLETED_SUCCESSFULLY,2514413.046500,128041.000000,2642454.046500,141537.046500,269578.046500,2.105404,2048-2296,-1.000000,""
310_0_1,w0,profile_310,2577558.000000,256,43296.000000,1,COMPLETED_SUCCESSFULLY,2614636.049800,43295.000000,2657931.049800,37078.049800,80373.049800,1.856405,990-1245,-1.000000,""
317_0_1,w0,profile_317,2602993.000000,256,21600.000000,1,COMPLETED_SUCCESSFULLY,2641170.055500,21441.000000,2662611.055500,38177.055500,59618.055500,2.780563,3612-3734 4161-4293,-1.000000,""
315_0_1,w0,profile_315,2598105.000000,512,21717.000000,1,COMPLETED_SUCCESSFULLY,2641170.054900,21716.000000,2662886.054900,43065.054900,64781.054900,2.983103,2792-2808 3117-3611,-1.000000,""
322_0_1,w0,profile_322,2642561.000000,256,21633.000000,1,COMPLETED_SUCCESSFULLY,2642561.001800,21632.000000,2664193.001800,0.001800,21632.001800,1.000000,2048-2296 4294-4300,-1.000000,""
311_0_1,w0,profile_311,2580601.000000,1041,50400.000000,1,COMPLETED_SUCCESSFULLY,2641170.054300,37580.000000,2678750.054300,60569.054300,98149.054300,2.611736,1246-2047 2553-2791,-1.000000,""
323_0_1,w0,profile_323,2648863.000000,256,21660.000000,1,COMPLETED_SUCCESSFULLY,2657934.051450,21659.000000,2679593.051450,9071.051450,30730.051450,1.418812,990-1245,-1.000000,""
324_0_1,w0,profile_324,2661890.000000,256,21632.000000,1,COMPLETED_SUCCESSFULLY,2662614.057150,21631.000000,2684245.057150,724.057150,22355.057150,1.033473,3612-3734 4161-4293,-1.000000,""
307_0_1,w0,profile_307,2559391.000000,990,86559.000000,1,COMPLETED_SUCCESSFULLY,2601134.054900,86558.000000,2687692.054900,41743.054900,128301.054900,1.482255,2297-2552 2809-3116 3735-4160,-1.000000,""
309_0_1,w0,profile_309,2566017.000000,990,86576.000000,1,COMPLETED_SUCCESSFULLY,2614636.049200,86575.000000,2701211.049200,48619.049200,135194.049200,1.561583,0-989,-1.000000,""
313_0_1,w0,profile_313,2582872.000000,1200,43200.000000,1,COMPLETED_SUCCESSFULLY,2684248.058800,27596.000000,2711844.058800,101376.058800,128972.058800,4.673578,990-1245 2702-2808 3117-3734 4161-4379,-1.000000,""
312_0_1,w0,profile_312,2582658.000000,1200,43276.000000,1,COMPLETED_SUCCESSFULLY,2678753.055950,43275.000000,2722028.055950,96095.055950,139370.055950,3.220567,1246-2296 2553-2701,-1.000000,""
319_0_1,w0,profile_319,2635810.000000,241,216000.000000,1,COMPLETED_SUCCESSFULLY,2687695.057150,39657.000000,2727352.057150,51885.057150,91542.057150,2.308345,2546-2552 2809-3042,-1.000000,""
318_0_1,w0,profile_318,2632180.000000,249,216000.000000,1,COMPLETED_SUCCESSFULLY,2687695.056550,41736.000000,2729431.056550,55515.056550,97251.056550,2.330148,2297-2545,-1.000000,""
325_0_1,w0,profile_325,2670467.000000,256,21739.000000,1,COMPLETED_SUCCESSFULLY,2711847.060450,21738.000000,2733585.060450,41380.060450,63118.060450,2.903582,990-1245,-1.000000,""
320_0_1,w0,profile_320,2636058.000000,897,32444.000000,1,COMPLETED_SUCCESSFULLY,2701214.050850,32443.000000,2733657.050850,65156.050850,97599.050850,3.008324,0-896,-1.000000,""
321_0_1,w0,profile_321,2636832.000000,384,32512.000000,1,COMPLETED_SUCCESSFULLY,2701214.051450,32511.000000,2733725.051450,64382.051450,96893.051450,2.980316,897-989 3043-3116 3735-3951,-1.000000,""
326_0_1,w0,profile_326,2676279.000000,1024,86400.000000,1,COMPLETED_SUCCESSFULLY,2711847.061050,84108.000000,2795955.061050,35568.061050,119676.061050,1.422886,2702-2808 3117-3734 3952-4250,-1.000000,""
327_0_1,w0,profile_327,2676298.000000,1024,86400.000000,1,COMPLETED_SUCCESSFULLY,2722031.057600,84230.000000,2806261.057600,45733.057600,129963.057600,1.542955,1246-2269,-1.000000,""
328_0_1,w0,profile_328,2676312.000000,1024,86400.000000,1,COMPLETED_SUCCESSFULLY,2733588.062100,84049.000000,2817637.062100,57276.062100,141325.062100,1.681460,990-1245 2270-2701 2809-3042 4251-4352,-1.000000,""
329_0_1,w0,profile_329,2676315.000000,1024,86400.000000,1,COMPLETED_SUCCESSFULLY,2733728.053100,84074.000000,2817802.053100,57413.053100,141487.053100,1.682887,0-989 3043-3076,-1.000000,""
337_0_1,w0,profile_337,2729012.000000,897,32400.000000,1,COMPLETED_SUCCESSFULLY,2817805.054750,32378.000000,2850183.054750,88793.054750,121171.054750,3.742388,0-896,-1.000000,""
332_0_1,w0,profile_332,2681456.000000,1200,43241.000000,1,COMPLETED_SUCCESSFULLY,2817640.063750,43240.000000,2860880.063750,136184.063750,179424.063750,4.149493,990-1245 2270-2701 2809-3042 3994-4271,-1.000000,""
330_0_1,w0,profile_330,2676338.000000,1024,86400.000000,1,COMPLETED_SUCCESSFULLY,2795958.062700,84118.000000,2880076.062700,119620.062700,203738.062700,2.422051,2702-2808 3077-3993,-1.000000,""
331_0_1,w0,profile_331,2676353.000000,1024,86400.000000,1,COMPLETED_SUCCESSFULLY,2806264.059250,84463.000000,2890727.059250,129911.059250,214374.059250,2.538082,1246-2269,-1.000000,""
334_0_1,w0,profile_334,2686731.000000,1041,50400.000000,1,COMPLETED_SUCCESSFULLY,2860883.066000,30171.000000,2891054.066000,174152.066000,204323.066000,6.772168,1200-1245 2270-2701 2809-3076 3994-4288,-1.000000,""
333_0_1,w0,profile_333,2681468.000000,1200,43275.000000,1,COMPLETED_SUCCESSFULLY,2860883.065400,43274.000000,2904157.065400,179415.065400,222689.065400,5.146025,0-1199,-1.000000,""
339_0_1,w0,profile_339,2738276.000000,1536,28800.000000,1,COMPLETED_SUCCESSFULLY,2891057.067650,24964.000000,2916021.067650,152781.067650,177745.067650,7.120056,1200-1245 2270-2701 2809-3076 3460-4249,-1.000000,""
338_0_1,w0,profile_338,2734477.000000,1024,39600.000000,1,COMPLETED_SUCCESSFULLY,2890730.060900,28180.000000,2918910.060900,156253.060900,184433.060900,6.544821,1246-2269,-1.000000,""
340_0_1,w0,profile_340,2745521.000000,315,21707.000000,1,COMPLETED_SUCCESSFULLY,2904160.067050,21706.000000,2925866.067050,158639.067050,180345.067050,8.308535,0-314,-1.000000,""
342_0_1,w0,profile_342,2829877.000000,256,21681.000000,1,COMPLETED_SUCCESSFULLY,2916024.069300,21680.000000,2937704.069300,86147.069300,107827.069300,4.973573,1147-1245 2270-2426,-1.000000,""
343_0_1,w0,profile_343,2831313.000000,897,32400.000000,1,COMPLETED_SUCCESSFULLY,2916024.069900,32378.000000,2948402.069900,84711.069900,117089.069900,3.616316,2427-2701 2809-3076 3460-3813,-1.000000,""
344_0_1,w0,profile_344,2860850.000000,1024,86400.000000,1,COMPLETED_SUCCESSFULLY,2918913.062550,61348.000000,2980261.062550,58063.062550,119411.062550,1.946454,1246-2269,-1.000000,""
356_0_1,w0,profile_356,2927329.000000,897,32400.000000,1,COMPLETED_SUCCESSFULLY,2948405.071550,32348.000000,2980753.071550,21076.071550,53424.071550,1.651542,2427-2701 2809-3076 3460-3813,-1.000000,""
336_0_1,w0,profile_336,2717353.000000,249,216000.000000,1,COMPLETED_SUCCESSFULLY,2880079.064950,107095.000000,2987174.064950,162726.064950,269821.064950,2.519455,3211-3459,-1.000000,""
341_0_1,w0,profile_341,2808581.000000,832,86400.000000,1,COMPLETED_SUCCESSFULLY,2904160.067650,85715.000000,2989875.067650,95579.067650,181294.067650,2.115080,315-1146,-1.000000,""
345_0_1,w0,profile_345,2860864.000000,1024,86400.000000,1,COMPLETED_SUCCESSFULLY,2937707.070950,61262.000000,2998969.070950,76843.070950,138105.070950,2.254335,0-314 1147-1245 2270-2426 3814-4266,-1.000000,""
346_0_1,w0,profile_346,2860868.000000,1024,86400.000000,1,COMPLETED_SUCCESSFULLY,2980264.064200,60082.000000,3040346.064200,119396.064200,179478.064200,2.987219,1246-2269,-1.000000,""
347_0_1,w0,profile_347,2860884.000000,1024,86400.000000,1,COMPLETED_SUCCESSFULLY,2987177.066600,61225.000000,3048402.066600,126293.066600,187518.066600,3.062770,2427-2701 2809-3076 3211-3691,-1.000000,""
348_0_1,w0,profile_348,2860887.000000,1024,86400.000000,1,COMPLETED_SUCCESSFULLY,2989878.069300,61929.000000,3051807.069300,128991.069300,190920.069300,3.082886,315-1146 3692-3813 4267-4336,-1.000000,""
349_0_1,w0,profile_349,2860893.000000,1024,86400.000000,1,COMPLETED_SUCCESSFULLY,2998972.072600,64833.000000,3063805.072600,138079.072600,202912.072600,3.129765,0-314 1147-1245 2270-2426 3814-4266,-1.000000,""
335_0_1,w0,profile_335,2717219.000000,241,216000.000000,1,COMPLETED_SUCCESSFULLY,2880079.064350,194751.000000,3074830.064350,162860.064350,357611.064350,1.836248,2702-2808 3077-3210,-1.000000,""
357_0_1,w0,profile_357,2994469.000000,256,21658.000000,1,COMPLETED_SUCCESSFULLY,3074833.066000,21657.000000,3096490.066000,80364.066000,102021.066000,4.710766,2702-2808 3077-3210 4337-4351,-1.000000,""
350_0_1,w0,profile_350,2861088.000000,1024,86400.000000,1,COMPLETED_SUCCESSFULLY,3040349.065850,60999.000000,3101348.065850,179261.065850,240260.065850,3.938754,1246-2269,-1.000000,""
351_0_1,w0,profile_351,2861094.000000,1024,86400.000000,1,COMPLETED_SUCCESSFULLY,3048405.068250,63147.000000,3111552.068250,187311.068250,250458.068250,3.966270,2427-2701 2809-3076 3211-3691,-1.000000,""
352_0_1,w0,profile_352,2861190.000000,1024,86400.000000,1,COMPLETED_SUCCESSFULLY,3051810.070950,61463.000000,3113273.070950,190620.070950,252083.070950,4.101379,315-1146 3692-3813 4267-4336,-1.000000,""
358_0_1,w0,profile_358,3001664.000000,256,21661.000000,1,COMPLETED_SUCCESSFULLY,3096493.067650,21660.000000,3118153.067650,94829.067650,116489.067650,5.378073,2702-2808 3077-3210 4337-4351,-1.000000,""
353_0_1,w0,profile_353,2861194.000000,1024,86400.000000,1,COMPLETED_SUCCESSFULLY,3063808.074250,60536.000000,3124344.074250,202614.074250,263150.074250,4.347001,0-314 1147-1245 2270-2426 3814-4266,-1.000000,""
362_0_1,w0,profile_362,3023265.000000,256,21643.000000,1,COMPLETED_SUCCESSFULLY,3113276.074400,21642.000000,3134918.074400,90011.074400,111653.074400,5.159092,1061-1146 3692-3813 4267-4314,-1.000000,""
359_0_1,w0,profile_359,3016073.000000,256,21644.000000,1,COMPLETED_SUCCESSFULLY,3113276.072600,21643.000000,3134919.072600,97203.072600,118846.072600,5.491201,315-570,-1.000000,""
367_0_1,w0,profile_367,3037667.000000,256,21637.000000,1,COMPLETED_SUCCESSFULLY,3124347.077100,21636.000000,3145983.077100,86680.077100,108316.077100,5.006289,4060-4266 4315-4363,-1.000000,""
364_0_1,w0,profile_364,3030464.000000,256,21685.000000,1,COMPLETED_SUCCESSFULLY,3124347.076500,21684.000000,3146031.076500,93883.076500,115567.076500,5.329601,3201-3210 3814-4059,-1.000000,""
369_0_1,w0,profile_369,3052065.000000,256,21660.000000,1,COMPLETED_SUCCESSFULLY,3134924.077700,21659.000000,3156583.077700,82859.077700,104518.077700,4.825619,1061-1146 3692-3813 4267-4314,-1.000000,""
368_0_1,w0,profile_368,3044865.000000,256,21717.000000,1,COMPLETED_SUCCESSFULLY,3134924.077100,21716.000000,3156640.077100,90059.077100,111775.077100,5.147130,315-570,-1.000000,""
361_0_1,w0,profile_361,3020005.000000,249,216000.000000,1,COMPLETED_SUCCESSFULLY,3113276.073800,45624.000000,3158900.073800,93271.073800,138895.073800,3.044342,812-1060,-1.000000,""
354_0_1,w0,profile_354,2861205.000000,1024,86400.000000,1,COMPLETED_SUCCESSFULLY,3101351.067500,61073.000000,3162424.067500,240146.067500,301219.067500,4.932115,1246-2269,-1.000000,""
394_0_1,w0,profile_394,3124065.000000,256,21691.000000,1,COMPLETED_SUCCESSFULLY,3145986.078750,21690.000000,3167676.078750,21921.078750,43611.078750,2.010654,4060-4266 4315-4363,-1.000000,""
395_0_1,w0,profile_395,3151368.000000,256,21600.000000,1,COMPLETED_SUCCESSFULLY,3151368.001800,21595.000000,3172963.001800,0.001800,21595.001800,1.000000,3201-3210 3814-4059,-1.000000,""
355_0_1,w0,profile_355,2861208.000000,1024,86400.000000,1,COMPLETED_SUCCESSFULLY,3111555.069900,61610.000000,3173165.069900,250347.069900,311957.069900,5.063416,2427-2701 2809-3076 3211-3691,-1.000000,""
396_0_1,w0,profile_396,3151537.000000,256,21600.000000,1,COMPLETED_SUCCESSFULLY,3156586.079350,21598.000000,3178184.079350,5049.079350,26647.079350,1.233775,1061-1146 3692-3813 4267-4314,-1.000000,""
397_0_1,w0,profile_397,3152344.000000,256,21601.000000,1,COMPLETED_SUCCESSFULLY,3156643.078750,21600.000000,3178243.078750,4299.078750,25899.078750,1.199031,315-570,-1.000000,""
398_0_1,w0,profile_398,3152483.000000,256,21647.000000,1,COMPLETED_SUCCESSFULLY,3158903.075450,21646.000000,3180549.075450,6420.075450,28066.075450,1.296594,812-1060 4364-4370,-1.000000,""
400_0_1,w0,profile_400,3153055.000000,256,21622.000000,1,COMPLETED_SUCCESSFULLY,3162427.069750,21621.000000,3184048.069750,9372.069750,30993.069750,1.433471,1502-1757,-1.000000,""
401_0_1,w0,profile_401,3153102.000000,256,21637.000000,1,COMPLETED_SUCCESSFULLY,3162427.070350,21636.000000,3184063.070350,9325.070350,30961.070350,1.430998,1758-2013,-1.000000,""
399_0_1,w0,profile_399,3152581.000000,256,21659.000000,1,COMPLETED_SUCCESSFULLY,3162427.069150,21658.000000,3184085.069150,9846.069150,31504.069150,1.454616,1246-1501,-1.000000,""
363_0_1,w0,profile_363,3023806.000000,802,86400.000000,1,COMPLETED_SUCCESSFULLY,3124347.075900,80364.000000,3204711.075900,100541.075900,180905.075900,2.251071,0-314 1147-1245 2270-2426 2702-2808 3077-3200,-1.000000,""
365_0_1,w0,profile_365,3031712.000000,1408,43368.000000,1,COMPLETED_SUCCESSFULLY,3173168.071550,43367.000000,3216535.071550,141456.071550,184823.071550,4.261837,2014-2269 2427-2701 2809-3076 3201-3691 3814-3931,-1.000000,""
366_0_1,w0,profile_366,3031716.000000,1408,43269.000000,1,COMPLETED_SUCCESSFULLY,3184051.071400,43268.000000,3227319.071400,152335.071400,195603.071400,4.520733,315-570 812-1146 1502-1757 3692-3813 3932-4370,-1.000000,""
371_0_1,w0,profile_371,3069715.000000,897,32400.000000,1,COMPLETED_SUCCESSFULLY,3216538.073200,32398.000000,3248936.073200,146823.073200,179221.073200,5.531856,1920-2816,-1.000000,""
373_0_1,w0,profile_373,3081776.000000,1024,43200.000000,1,COMPLETED_SUCCESSFULLY,3227322.073650,32075.000000,3259397.073650,145546.073650,177621.073650,5.537680,2994-4017,-1.000000,""
372_0_1,w0,profile_372,3080029.000000,1024,64800.000000,1,COMPLETED_SUCCESSFULLY,3227322.073050,50990.000000,3278312.073050,147293.073050,198283.073050,3.888666,315-570 812-1146 1502-1757 2817-2993,-1.000000,""
376_0_1,w0,profile_376,3095448.000000,384,32629.000000,1,COMPLETED_SUCCESSFULLY,3248939.076050,32628.000000,3281567.076050,153491.076050,186119.076050,5.704275,2688-2816 4018-4272,-1.000000,""
374_0_1,w0,profile_374,3095422.000000,384,32635.000000,1,COMPLETED_SUCCESSFULLY,3248939.074850,32634.000000,3281573.074850,153517.074850,186151.074850,5.704206,1920-2303,-1.000000,""
375_0_1,w0,profile_375,3095447.000000,384,32648.000000,1,COMPLETED_SUCCESSFULLY,3248939.075450,32647.000000,3281586.075450,153492.075450,186139.075450,5.701568,2304-2687,-1.000000,""
370_0_1,w0,profile_370,3060459.000000,832,86400.000000,1,COMPLETED_SUCCESSFULLY,3204714.077550,85642.000000,3290356.077550,144255.077550,229897.077550,2.684396,0-314 1147-1501 1758-1919,-1.000000,""
378_0_1,w0,profile_378,3095452.000000,384,32628.000000,1,COMPLETED_SUCCESSFULLY,3259400.075900,32627.000000,3292027.075900,163948.075900,196575.075900,6.024920,3378-3761,-1.000000,""
377_0_1,w0,profile_377,3095450.000000,384,32652.000000,1,COMPLETED_SUCCESSFULLY,3259400.075300,32651.000000,3292051.075300,163950.075300,196601.075300,6.021288,2994-3377,-1.000000,""
360_0_1,w0,profile_360,3019080.000000,241,216000.000000,1,COMPLETED_SUCCESSFULLY,3113276.073200,184328.000000,3297604.073200,94196.073200,278524.073200,1.511024,571-811,-1.000000,""
381_0_1,w0,profile_381,3095467.000000,384,32453.000000,1,COMPLETED_SUCCESSFULLY,3278315.075900,32452.000000,3310767.075900,182848.075900,215300.075900,6.634416,1679-1757 2817-2993 3762-3889,-1.000000,""
380_0_1,w0,profile_380,3095457.000000,384,32610.000000,1,COMPLETED_SUCCESSFULLY,3278315.075300,32609.000000,3310924.075300,182858.075300,215467.075300,6.607595,940-1146 1502-1678,-1.000000,""
379_0_1,w0,profile_379,3095455.000000,384,32666.000000,1,COMPLETED_SUCCESSFULLY,3278315.074700,32665.000000,3310980.074700,182860.074700,215525.074700,6.598043,315-570 812-939,-1.000000,""
383_0_1,w0,profile_383,3095470.000000,384,32420.000000,1,COMPLETED_SUCCESSFULLY,3281576.076500,32419.000000,3313995.076500,186106.076500,218525.076500,6.740648,1920-2303,-1.000000,""
382_0_1,w0,profile_382,3095468.000000,384,32443.000000,1,COMPLETED_SUCCESSFULLY,3281570.077700,32442.000000,3314012.077700,186102.077700,218544.077700,6.736455,2688-2816 3890-4144,-1.000000,""
384_0_1,w0,profile_384,3120373.000000,384,32502.000000,1,COMPLETED_SUCCESSFULLY,3281589.077100,32501.000000,3314090.077100,161216.077100,193717.077100,5.960342,2304-2687,-1.000000,""
386_0_1,w0,profile_386,3120376.000000,384,32485.000000,1,COMPLETED_SUCCESSFULLY,3290359.079800,32484.000000,3322843.079800,169983.079800,202467.079800,6.232825,1216-1501 1758-1855,-1.000000,""
385_0_1,w0,profile_385,3120375.000000,384,32501.000000,1,COMPLETED_SUCCESSFULLY,3290359.079200,32500.000000,3322859.079200,169984.079200,202484.079200,6.230279,0-314 1147-1215,-1.000000,""
387_0_1,w0,profile_387,3120377.000000,384,32485.000000,1,COMPLETED_SUCCESSFULLY,3292030.077550,32484.000000,3324514.077550,171653.077550,204137.077550,6.284235,1856-1919 3378-3697,-1.000000,""
388_0_1,w0,profile_388,3120378.000000,384,32485.000000,1,COMPLETED_SUCCESSFULLY,3292054.076950,32484.000000,3324538.076950,171676.076950,204160.076950,6.284943,2994-3377,-1.000000,""
389_0_1,w0,profile_389,3120380.000000,384,32482.000000,1,COMPLETED_SUCCESSFULLY,3297607.074850,32481.000000,3330088.074850,177227.074850,209708.074850,6.456331,571-811 3698-3761 4145-4223,-1.000000,""
390_0_1,w0,profile_390,3120381.000000,384,32449.000000,1,COMPLETED_SUCCESSFULLY,3310770.077550,32448.000000,3343218.077550,190389.077550,222837.077550,6.867513,1679-1757 2817-2993 3762-3889,-1.000000,""
391_0_1,w0,profile_391,3120383.000000,384,32449.000000,1,COMPLETED_SUCCESSFULLY,3310927.076950,32448.000000,3343375.076950,190544.076950,222992.076950,6.872290,940-1146 1502-1678,-1.000000,""
392_0_1,w0,profile_392,3120393.000000,384,32563.000000,1,COMPLETED_SUCCESSFULLY,3310983.076350,32562.000000,3343545.076350,190590.076350,223152.076350,6.853144,315-570 812-939,-1.000000,""
393_0_1,w0,profile_393,3120395.000000,384,32443.000000,1,COMPLETED_SUCCESSFULLY,3313998.078150,32442.000000,3346440.078150,193603.078150,226045.078150,6.967668,1920-2303,-1.000000,""
403_0_1,w0,profile_403,3159352.000000,897,32408.000000,1,COMPLETED_SUCCESSFULLY,3324517.079200,32407.000000,3356924.079200,165165.079200,197572.079200,6.096587,0-314 1147-1215 1856-1919 3378-3697 4017-4144 4224,-1.000000,""
402_0_1,w0,profile_402,3156094.000000,1024,72000.000000,1,COMPLETED_SUCCESSFULLY,3322846.081450,55144.000000,3377990.081450,166752.081450,221896.081450,4.023939,1216-1501 1758-1855 2304-2816 3890-4016,-1.000000,""
