job_id,workload_name,profile,submission_time,requested_number_of_resources,requested_time,success,final_state,starting_time,execution_time,finish_time,waiting_time,turnaround_time,stretch,allocated_resources,consumed_energy,metadata
28_0_1,w0,profile_28,0.000000,120,20549.000000,1,COMPLETED_SUCCESSFULLY,0.008400,20548.000000,20548.008400,0.008400,20548.008400,1.000000,3258-3377,-1.000000,""
17_0_1,w0,profile_17,0.000000,802,20661.000000,1,COMPLETED_SUCCESSFULLY,0.007200,20660.000000,20660.007200,0.007200,20660.007200,1.000000,2328-3129,-1.000000,""
0_0_1,w0,profile_0,0.000000,4,21661.000000,1,COMPLETED_SUCCESSFULLY,0.002400,21660.000000,21660.002400,0.002400,21660.002400,1.000000,0-3,-1.000000,""
11_0_1,w0,profile_11,0.000000,256,21686.000000,1,COMPLETED_SUCCESSFULLY,0.003600,21685.000000,21685.003600,0.003600,21685.003600,1.000000,260-515,-1.000000,""
10_0_1,w0,profile_10,0.000000,256,21710.000000,1,COMPLETED_SUCCESSFULLY,0.003000,21709.000000,21709.003000,0.003000,21709.003000,1.000000,4-259,-1.000000,""
15_0_1,w0,profile_15,0.000000,120,30001.000000,1,COMPLETED_SUCCESSFULLY,0.006000,30000.000000,30000.006000,0.006000,30000.006000,1.000000,1192-1311,-1.000000,""
14_0_1,w0,profile_14,0.000000,448,32485.000000,1,COMPLETED_SUCCESSFULLY,0.005400,32484.000000,32484.005400,0.005400,32484.005400,1.000000,744-1191,-1.000000,""
12_0_1,w0,profile_12,0.000000,100,36143.000000,1,COMPLETED_SUCCESSFULLY,0.004200,36142.000000,36142.004200,0.004200,36142.004200,1.000000,516-615,-1.000000,""
20_0_1,w0,profile_20,0.000000,256,21703.000000,1,COMPLETED_SUCCESSFULLY,21688.005250,21702.000000,43390.005250,21688.005250,43390.005250,1.999355,0-3 260-511,-1.000000,""
21_0_1,w0,profile_21,0.000000,256,21683.000000,1,COMPLETED_SUCCESSFULLY,21712.004650,21682.000000,43394.004650,21712.004650,43394.004650,2.001384,4-259,-1.000000,""
1_0_1,w0,profile_1,0.000000,120,29974.000000,1,COMPLETED_SUCCESSFULLY,20663.009450,29973.000000,50636.009450,20663.009450,50636.009450,1.689387,4155-4274,-1.000000,""
22_0_1,w0,profile_22,0.000000,256,22889.000000,1,COMPLETED_SUCCESSFULLY,32487.007050,22888.000000,55375.007050,32487.007050,55375.007050,2.419390,512-515 744-995,-1.000000,""
26_0_1,w0,profile_26,0.000000,120,29850.000000,1,COMPLETED_SUCCESSFULLY,32487.008250,29849.000000,62336.008250,32487.008250,62336.008250,2.088378,1252-1311 4275-4334,-1.000000,""
27_0_1,w0,profile_27,0.000000,120,29617.000000,1,COMPLETED_SUCCESSFULLY,36145.005850,29616.000000,65761.005850,36145.005850,65761.005850,2.220455,516-615 4335-4354,-1.000000,""
32_0_1,w0,profile_32,0.000000,256,22904.000000,1,COMPLETED_SUCCESSFULLY,43397.006300,22903.000000,66300.006300,43397.006300,66300.006300,2.894818,4-259,-1.000000,""
2_0_1,w0,profile_2,0.000000,120,29755.000000,1,COMPLETED_SUCCESSFULLY,43393.006900,29754.000000,73147.006900,43393.006900,73147.006900,2.458392,0-3 260-375,-1.000000,""
3_0_1,w0,profile_3,0.000000,120,29979.000000,1,COMPLETED_SUCCESSFULLY,43393.007500,29978.000000,73371.007500,43393.007500,73371.007500,2.447495,376-495,-1.000000,""
33_0_1,w0,profile_33,0.000000,256,21749.000000,1,COMPLETED_SUCCESSFULLY,55378.008700,21748.000000,77126.008700,55378.008700,77126.008700,3.546349,512-515 744-995,-1.000000,""
4_0_1,w0,profile_4,0.000000,120,29497.000000,1,COMPLETED_SUCCESSFULLY,50639.011100,29496.000000,80135.011100,50639.011100,80135.011100,2.716809,496-511 4155-4258,-1.000000,""
7_0_1,w0,profile_7,0.000000,130,23904.000000,1,COMPLETED_SUCCESSFULLY,62339.009900,23903.000000,86242.009900,62339.009900,86242.009900,3.607999,1252-1311 4259-4328,-1.000000,""
16_0_1,w0,profile_16,0.000000,1016,86499.000000,1,COMPLETED_SUCCESSFULLY,0.006600,86498.000000,86498.006600,0.006600,86498.006600,1.000000,1312-2327,-1.000000,""
23_0_1,w0,profile_23,0.000000,256,56137.000000,1,COMPLETED_SUCCESSFULLY,32487.007650,56136.000000,88623.007650,32487.007650,88623.007650,1.578720,996-1251,-1.000000,""
13_0_1,w0,profile_13,0.000000,128,93728.000000,1,COMPLETED_SUCCESSFULLY,0.004800,93727.000000,93727.004800,0.004800,93727.004800,1.000000,616-743,-1.000000,""
19_0_1,w0,profile_19,0.000000,1699,74710.000000,1,COMPLETED_SUCCESSFULLY,20663.008850,74709.000000,95372.008850,20663.008850,95372.008850,1.276580,2328-3129 3258-4154,-1.000000,""
18_0_1,w0,profile_18,0.000000,128,98759.000000,1,COMPLETED_SUCCESSFULLY,0.007800,98758.000000,98758.007800,0.007800,98758.007800,1.000000,3130-3257,-1.000000,""
39_0_1,w0,profile_39,3089.000000,120,34717.000000,1,COMPLETED_SUCCESSFULLY,95375.011100,34716.000000,130091.011100,92286.011100,127002.011100,3.658313,4120-4154 4259-4343,-1.000000,""
50_0_1,w0,profile_50,135153.000000,120,21267.000000,1,COMPLETED_SUCCESSFULLY,135153.001800,21266.000000,156419.001800,0.001800,21266.001800,1.000000,4120-4154 4259-4343,-1.000000,""
41_0_1,w0,profile_41,40858.000000,128,66564.000000,1,COMPLETED_SUCCESSFULLY,98761.009450,66563.000000,165324.009450,57903.009450,124466.009450,1.869898,3130-3257,-1.000000,""
24_0_1,w0,profile_24,0.000000,2048,86272.000000,1,COMPLETED_SUCCESSFULLY,86501.008250,86271.000000,172772.008250,86501.008250,172772.008250,2.002666,0-615 744-995 1252-2327 4155-4258,-1.000000,""
25_0_1,w0,profile_25,0.000000,2048,86205.000000,1,COMPLETED_SUCCESSFULLY,95375.010500,86204.000000,181579.010500,95375.010500,181579.010500,2.106387,616-743 996-1251 2328-3129 3258-4119,-1.000000,""
5_0_1,w0,profile_5,0.000000,256,21222.000000,1,COMPLETED_SUCCESSFULLY,181582.012750,21221.000000,202803.012750,181582.012750,202803.012750,9.556713,3771-4026,-1.000000,""
29_0_1,w0,profile_29,0.000000,384,30338.000000,1,COMPLETED_SUCCESSFULLY,172775.009900,30337.000000,203112.009900,172775.009900,203112.009900,6.695191,0-383,-1.000000,""
56_0_1,w0,profile_56,173101.000000,8,26392.000000,1,COMPLETED_SUCCESSFULLY,203115.012750,26391.000000,229506.012750,30014.012750,56405.012750,2.137282,4285-4292,-1.000000,""
35_0_1,w0,profile_35,0.000000,512,33014.000000,1,COMPLETED_SUCCESSFULLY,203115.011550,33013.000000,236128.011550,203115.011550,236128.011550,7.152577,0-383 3771-3898,-1.000000,""
59_0_1,w0,profile_59,223603.000000,8,27808.000000,1,COMPLETED_SUCCESSFULLY,223603.001800,27807.000000,251410.001800,0.001800,27807.001800,1.000000,4293-4300,-1.000000,""
37_0_1,w0,profile_37,0.000000,256,53175.000000,1,COMPLETED_SUCCESSFULLY,203115.012150,53174.000000,256289.012150,203115.012150,256289.012150,4.819818,3899-4119 4250-4284,-1.000000,""
40_0_1,w0,profile_40,7670.000000,352,21688.000000,1,COMPLETED_SUCCESSFULLY,236131.013800,21687.000000,257818.013800,228461.013800,250148.013800,11.534468,256-383 3771-3898 4285-4292 4301-4388,-1.000000,""
9_0_1,w0,profile_9,0.000000,256,21695.000000,1,COMPLETED_SUCCESSFULLY,236131.013200,21694.000000,257825.013200,236131.013200,257825.013200,11.884623,0-255,-1.000000,""
31_0_1,w0,profile_31,0.000000,802,86528.000000,1,COMPLETED_SUCCESSFULLY,172775.011100,86527.000000,259302.011100,172775.011100,259302.011100,2.996776,1784-2327 3130-3257 4120-4249,-1.000000,""
30_0_1,w0,profile_30,0.000000,1016,86571.000000,1,COMPLETED_SUCCESSFULLY,172775.010500,86570.000000,259345.010500,172775.010500,259345.010500,2.995784,384-615 744-995 1252-1783,-1.000000,""
34_0_1,w0,profile_34,0.000000,1699,77812.000000,1,COMPLETED_SUCCESSFULLY,181582.012150,77811.000000,259393.012150,181582.012150,259393.012150,3.333629,616-743 996-1251 2328-3129 3258-3770,-1.000000,""
45_0_1,w0,profile_45,84381.000000,256,22507.000000,1,COMPLETED_SUCCESSFULLY,259396.014400,22506.000000,281902.014400,175015.014400,197521.014400,8.776371,2960-3129 3258-3343,-1.000000,""
63_0_1,w0,profile_63,238418.000000,12,28773.000000,1,COMPLETED_SUCCESSFULLY,259396.016200,28772.000000,288168.016200,20978.016200,49750.016200,1.729112,4336-4347,-1.000000,""
38_0_1,w0,profile_38,0.000000,256,34869.000000,1,COMPLETED_SUCCESSFULLY,259305.013350,34868.000000,294173.013350,259305.013350,294173.013350,8.436762,3226-3257 3771-3994,-1.000000,""
47_0_1,w0,profile_47,84398.000000,256,41864.000000,1,COMPLETED_SUCCESSFULLY,259396.015000,41863.000000,301259.015000,174998.015000,216861.015000,5.180255,3344-3599,-1.000000,""
48_0_1,w0,profile_48,93528.000000,256,43784.000000,1,COMPLETED_SUCCESSFULLY,259396.015600,43783.000000,303179.015600,165868.015600,209651.015600,4.788411,3600-3770 4251-4335,-1.000000,""
49_0_1,w0,profile_49,93530.000000,256,27680.000000,1,COMPLETED_SUCCESSFULLY,281905.016050,27679.000000,309584.016050,188375.016050,216054.016050,7.805702,2960-3129 3258-3343,-1.000000,""
6_0_1,w0,profile_6,0.000000,256,50724.000000,1,COMPLETED_SUCCESSFULLY,259305.013950,50723.000000,310028.013950,259305.013950,310028.013950,6.112178,3995-4250,-1.000000,""
54_0_1,w0,profile_54,147501.000000,256,20374.000000,1,COMPLETED_SUCCESSFULLY,301262.016650,20373.000000,321635.016650,153761.016650,174134.016650,8.547294,3344-3599,-1.000000,""
51_0_1,w0,profile_51,136888.000000,120,28290.000000,1,COMPLETED_SUCCESSFULLY,294176.015000,28289.000000,322465.015000,157288.015000,185577.015000,6.560042,3226-3257 3771-3858,-1.000000,""
52_0_1,w0,profile_52,136951.000000,120,29422.000000,1,COMPLETED_SUCCESSFULLY,294176.015600,29421.000000,323597.015600,157225.015600,186646.015600,6.343973,3859-3978,-1.000000,""
55_0_1,w0,profile_55,160089.000000,288,21332.000000,1,COMPLETED_SUCCESSFULLY,303182.017250,21331.000000,324513.017250,143093.017250,164424.017250,7.708219,3600-3770 3979-3994 4251-4351,-1.000000,""
70_0_1,w0,profile_70,307706.000000,8,22209.000000,1,COMPLETED_SUCCESSFULLY,307706.001800,22208.000000,329914.001800,0.001800,22208.001800,1.000000,4352-4359,-1.000000,""
36_0_1,w0,profile_36,0.000000,1024,73306.000000,1,COMPLETED_SUCCESSFULLY,259305.012750,73305.000000,332610.012750,259305.012750,332610.012750,4.537344,0-383 1784-2327 3130-3225,-1.000000,""
8_0_1,w0,profile_8,0.000000,1016,86506.000000,1,COMPLETED_SUCCESSFULLY,259348.012150,86505.000000,345853.012150,259348.012150,345853.012150,3.998070,384-615 744-995 1252-1783,-1.000000,""
42_0_1,w0,profile_42,62131.000000,1016,86505.000000,1,COMPLETED_SUCCESSFULLY,259396.013800,86504.000000,345900.013800,197265.013800,283769.013800,3.280415,616-743 996-1251 2328-2959,-1.000000,""
74_0_1,w0,profile_74,347716.000000,32,28904.000000,1,COMPLETED_SUCCESSFULLY,347716.001800,28903.000000,376619.001800,0.001800,28903.001800,1.000000,4223-4254,-1.000000,""
72_0_1,w0,profile_72,337927.000000,256,38077.000000,1,COMPLETED_SUCCESSFULLY,345903.016050,38076.000000,383979.016050,7976.016050,46052.016050,1.209476,3967-4222,-1.000000,""
43_0_1,w0,profile_43,65822.000000,1699,86188.000000,1,COMPLETED_SUCCESSFULLY,332613.014400,86187.000000,418800.014400,266791.014400,352978.014400,4.095490,0-383 1784-2327 2960-3730,-1.000000,""
46_0_1,w0,profile_46,84396.000000,256,77364.000000,1,COMPLETED_SUCCESSFULLY,345856.014400,77363.000000,423219.014400,261460.014400,338823.014400,4.379652,1668-1783 3731-3870,-1.000000,""
44_0_1,w0,profile_44,82937.000000,900,86250.000000,1,COMPLETED_SUCCESSFULLY,345856.013800,86249.000000,432105.013800,262919.013800,349168.013800,4.048372,384-615 744-995 1252-1667,-1.000000,""
53_0_1,w0,profile_53,140209.000000,1112,86520.000000,1,COMPLETED_SUCCESSFULLY,345903.015450,86519.000000,432422.015450,205694.015450,292213.015450,3.377443,616-743 996-1251 2328-2959 3871-3966,-1.000000,""
58_0_1,w0,profile_58,187968.000000,1024,21715.000000,1,COMPLETED_SUCCESSFULLY,418803.016650,21714.000000,440517.016650,230835.016650,252549.016650,11.630700,2202-2327 2960-3730 3967-4093,-1.000000,""
78_0_1,w0,profile_78,425085.000000,256,29830.000000,1,COMPLETED_SUCCESSFULLY,440520.020100,29829.000000,470349.020100,15435.020100,45264.020100,1.517450,4088-4343,-1.000000,""
57_0_1,w0,profile_57,173795.000000,802,55436.000000,1,COMPLETED_SUCCESSFULLY,418803.016050,55435.000000,474238.016050,245008.016050,300443.016050,5.419735,0-383 1784-2201,-1.000000,""
73_0_1,w0,profile_73,337930.000000,256,44370.000000,1,COMPLETED_SUCCESSFULLY,440520.018900,44369.000000,484889.018900,102590.018900,146959.018900,3.312200,3576-3831,-1.000000,""
79_0_1,w0,profile_79,425088.000000,256,26625.000000,1,COMPLETED_SUCCESSFULLY,470352.021750,26624.000000,496976.021750,45264.021750,71888.021750,2.700121,4088-4343,-1.000000,""
77_0_1,w0,profile_77,425083.000000,256,62005.000000,1,COMPLETED_SUCCESSFULLY,440520.019500,62004.000000,502524.019500,15437.019500,77441.019500,1.248968,3832-4087,-1.000000,""
60_0_1,w0,profile_60,224540.000000,850,75793.000000,1,COMPLETED_SUCCESSFULLY,432108.015450,75792.000000,507900.015450,207568.015450,283360.015450,3.738653,384-615 744-995 1252-1617,-1.000000,""
61_0_1,w0,profile_61,226900.000000,1024,84008.000000,1,COMPLETED_SUCCESSFULLY,432425.017100,84007.000000,516432.017100,205525.017100,289532.017100,3.446523,616-743 996-1251 1618-1783 2328-2801,-1.000000,""
62_0_1,w0,profile_62,227598.000000,900,86228.000000,1,COMPLETED_SUCCESSFULLY,440520.018300,86227.000000,526747.018300,212922.018300,299149.018300,3.469320,2202-2327 2802-3575,-1.000000,""
80_0_1,w0,profile_80,471163.000000,158,54836.000000,1,COMPLETED_SUCCESSFULLY,526750.020550,54835.000000,581585.020550,55587.020550,110422.020550,2.013714,4010-4167,-1.000000,""
65_0_1,w0,profile_65,255509.000000,850,70446.000000,1,COMPLETED_SUCCESSFULLY,516435.018750,70445.000000,586880.018750,260926.018750,331371.018750,4.703968,616-743 996-1251 1618-1783 2328-2627,-1.000000,""
64_0_1,w0,profile_64,239839.000000,2048,86230.000000,1,COMPLETED_SUCCESSFULLY,507903.017100,86229.000000,594132.017100,268064.017100,354293.017100,4.108746,0-615 744-995 1252-1617 1784-2201 3576-3971,-1.000000,""
66_0_1,w0,profile_66,295518.000000,1112,86505.000000,1,COMPLETED_SUCCESSFULLY,526750.019950,86504.000000,613254.019950,231232.019950,317736.019950,3.673079,2202-2327 2628-3575 3972-4009,-1.000000,""
84_0_1,w0,profile_84,513855.000000,256,21700.000000,1,COMPLETED_SUCCESSFULLY,613257.022200,21699.000000,634956.022200,99402.022200,121101.022200,5.580949,3526-3575 3734-3939,-1.000000,""
75_0_1,w0,profile_75,382056.000000,1024,32447.000000,1,COMPLETED_SUCCESSFULLY,613257.021600,32446.000000,645703.021600,231201.021600,263647.021600,8.125717,2202-2327 2628-3525,-1.000000,""
90_0_1,w0,profile_90,571552.000000,256,20245.000000,1,COMPLETED_SUCCESSFULLY,634959.023850,20244.000000,655203.023850,63407.023850,83651.023850,4.132139,3526-3575 3734-3939,-1.000000,""
88_0_1,w0,profile_88,524253.000000,1024,21726.000000,1,COMPLETED_SUCCESSFULLY,645706.023250,21725.000000,667431.023250,121453.023250,143178.023250,6.590473,2202-2327 2628-3525,-1.000000,""
85_0_1,w0,profile_85,521464.000000,256,59578.000000,1,COMPLETED_SUCCESSFULLY,613257.022800,59577.000000,672834.022800,91793.022800,151370.022800,2.540746,3940-4009 4176-4361,-1.000000,""
67_0_1,w0,profile_67,295539.000000,1016,86470.000000,1,COMPLETED_SUCCESSFULLY,586883.020400,86469.000000,673352.020400,291344.020400,377813.020400,4.369346,616-743 996-1251 1618-1783 2328-2627 4010-4175,-1.000000,""
71_0_1,w0,profile_71,318997.000000,850,79673.000000,1,COMPLETED_SUCCESSFULLY,594135.019950,79672.000000,673807.019950,275138.019950,354810.019950,4.453384,1344-1617 1784-2201 3576-3733,-1.000000,""
68_0_1,w0,profile_68,306000.000000,802,86529.000000,1,COMPLETED_SUCCESSFULLY,594135.018750,86528.000000,680663.018750,288135.018750,374663.018750,4.329963,0-615 744-929,-1.000000,""
69_0_1,w0,profile_69,307320.000000,158,86545.000000,1,COMPLETED_SUCCESSFULLY,594135.019350,86544.000000,680679.019350,286815.019350,373359.019350,4.314095,930-995 1252-1343,-1.000000,""
92_0_1,w0,profile_92,581643.000000,256,22948.000000,1,COMPLETED_SUCCESSFULLY,680666.022200,22947.000000,703613.022200,99023.022200,121970.022200,5.315293,896-929 4164-4385,-1.000000,""
96_0_1,w0,profile_96,607616.000000,32,26580.000000,1,COMPLETED_SUCCESSFULLY,680682.022200,26579.000000,707261.022200,73066.022200,99645.022200,3.749013,994-995 1252-1281,-1.000000,""
94_0_1,w0,profile_94,607317.000000,32,28920.000000,1,COMPLETED_SUCCESSFULLY,680682.021000,28919.000000,709601.021000,73365.021000,102284.021000,3.536914,930-961,-1.000000,""
95_0_1,w0,profile_95,607537.000000,32,28923.000000,1,COMPLETED_SUCCESSFULLY,680682.021600,28922.000000,709604.021600,73145.021600,102067.021600,3.529044,962-993,-1.000000,""
103_0_1,w0,profile_103,694647.000000,32,28918.000000,1,COMPLETED_SUCCESSFULLY,694647.001800,28917.000000,723564.001800,0.001800,28917.001800,1.000000,1282-1313,-1.000000,""
81_0_1,w0,profile_81,473456.000000,900,50445.000000,1,COMPLETED_SUCCESSFULLY,673810.021600,50444.000000,724254.021600,200354.021600,250798.021600,4.971811,1344-1617 1784-2201 3576-3733 3858-3907,-1.000000,""
82_0_1,w0,profile_82,492275.000000,256,61413.000000,1,COMPLETED_SUCCESSFULLY,673810.022200,61412.000000,735222.022200,181535.022200,242947.022200,3.956019,3908-4163,-1.000000,""
98_0_1,w0,profile_98,656961.000000,256,21559.000000,1,COMPLETED_SUCCESSFULLY,724257.024450,21558.000000,745815.024450,67296.024450,88854.024450,4.121627,3652-3733 3858-3907 4164-4287,-1.000000,""
106_0_1,w0,profile_106,707279.000000,256,21702.000000,1,COMPLETED_SUCCESSFULLY,735225.023850,21701.000000,756926.023850,27946.023850,49647.023850,2.287776,3908-4163,-1.000000,""
76_0_1,w0,profile_76,407178.000000,2048,85044.000000,1,COMPLETED_SUCCESSFULLY,673355.022050,85043.000000,758398.022050,266177.022050,351220.022050,4.129911,616-743 996-1251 1618-1783 2202-3575 3734-3857,-1.000000,""
83_0_1,w0,profile_83,492289.000000,256,82030.000000,1,COMPLETED_SUCCESSFULLY,680666.020400,82029.000000,762695.020400,188377.020400,270406.020400,3.296469,0-255,-1.000000,""
86_0_1,w0,profile_86,521466.000000,256,83781.000000,1,COMPLETED_SUCCESSFULLY,680666.021000,83780.000000,764446.021000,159200.021000,242980.021000,2.900215,256-511,-1.000000,""
87_0_1,w0,profile_87,521468.000000,256,85803.000000,1,COMPLETED_SUCCESSFULLY,680666.021600,85802.000000,766468.021600,159198.021600,245000.021600,2.855412,512-615 744-895,-1.000000,""
89_0_1,w0,profile_89,569214.000000,802,50263.000000,1,COMPLETED_SUCCESSFULLY,724257.023250,50262.000000,774519.023250,155043.023250,205305.023250,4.084697,896-995 1252-1617 1784-2119,-1.000000,""
91_0_1,w0,profile_91,575614.000000,158,59496.000000,1,COMPLETED_SUCCESSFULLY,724257.023850,59495.000000,783752.023850,148643.023850,208138.023850,3.498412,2120-2201 3576-3651,-1.000000,""
114_0_1,w0,profile_114,771604.000000,256,21975.000000,1,COMPLETED_SUCCESSFULLY,774522.026700,21974.000000,796496.026700,2918.026700,24892.026700,1.132795,1873-2119 4288-4296,-1.000000,""
115_0_1,w0,profile_115,772926.000000,32,28895.000000,1,COMPLETED_SUCCESSFULLY,774522.027300,28894.000000,803416.027300,1596.027300,30490.027300,1.055237,4297-4328,-1.000000,""
97_0_1,w0,profile_97,649205.000000,158,49694.000000,1,COMPLETED_SUCCESSFULLY,758401.024300,49693.000000,808094.024300,109196.024300,158889.024300,3.197413,2764-2921,-1.000000,""
109_0_1,w0,profile_109,747762.000000,6,37399.000000,1,COMPLETED_SUCCESSFULLY,774522.026100,37398.000000,811920.026100,26760.026100,64158.026100,1.715547,1867-1872,-1.000000,""
104_0_1,w0,profile_104,696654.000000,3,48298.000000,1,COMPLETED_SUCCESSFULLY,774522.025500,48297.000000,822819.025500,77868.025500,126165.025500,2.612275,1864-1866,-1.000000,""
99_0_1,w0,profile_99,659790.000000,802,70254.000000,1,COMPLETED_SUCCESSFULLY,758401.024900,70253.000000,828654.024900,98611.024900,168864.024900,2.403656,2922-3575 3652-3799,-1.000000,""
93_0_1,w0,profile_93,590203.000000,1112,87670.000000,1,COMPLETED_SUCCESSFULLY,758401.023700,87669.000000,846070.023700,168198.023700,255867.023700,2.918558,616-743 996-1251 1618-1783 2202-2763,-1.000000,""
101_0_1,w0,profile_101,669274.000000,802,75161.000000,1,COMPLETED_SUCCESSFULLY,774522.024900,75160.000000,849682.024900,105248.024900,180408.024900,2.400320,512-615 744-995 1252-1617 1784-1863,-1.000000,""
100_0_1,w0,profile_100,660249.000000,1000,86518.000000,1,COMPLETED_SUCCESSFULLY,764449.022650,86517.000000,850966.022650,104200.022650,190717.022650,2.204388,0-511 3800-4287,-1.000000,""
123_0_1,w0,profile_123,842379.000000,256,21920.000000,1,COMPLETED_SUCCESSFULLY,849685.027150,21919.000000,871604.027150,7306.027150,29225.027150,1.333319,3405-3660,-1.000000,""
124_0_1,w0,profile_124,843930.000000,80,22707.000000,1,COMPLETED_SUCCESSFULLY,849685.027750,22706.000000,872391.027750,5755.027750,28461.027750,1.253458,3661-3740,-1.000000,""
128_0_1,w0,profile_128,845143.000000,256,21710.000000,1,COMPLETED_SUCCESSFULLY,871607.028800,21709.000000,893316.028800,26464.028800,48173.028800,2.219035,3405-3660,-1.000000,""
126_0_1,w0,profile_126,844966.000000,256,46097.000000,1,COMPLETED_SUCCESSFULLY,850969.024900,46096.000000,897065.024900,6003.024900,52099.024900,1.130229,4031-4286,-1.000000,""
112_0_1,w0,profile_112,759942.000000,802,61611.000000,1,COMPLETED_SUCCESSFULLY,850969.024300,61610.000000,912579.024300,91027.024300,152637.024300,2.477472,0-511 3741-4030,-1.000000,""
102_0_1,w0,profile_102,669277.000000,802,86547.000000,1,COMPLETED_SUCCESSFULLY,828657.026550,86546.000000,915203.026550,159380.026550,245926.026550,2.841564,1864-2201 2764-3227,-1.000000,""
105_0_1,w0,profile_105,704324.000000,850,77683.000000,1,COMPLETED_SUCCESSFULLY,846073.025350,77682.000000,923755.025350,141749.025350,219431.025350,2.824734,616-743 996-1251 1618-1783 2202-2501,-1.000000,""
108_0_1,w0,profile_108,732960.000000,1112,79847.000000,1,COMPLETED_SUCCESSFULLY,849685.026550,79846.000000,929531.026550,116725.026550,196571.026550,2.461877,512-615 744-995 1252-1617 1784-1863 2631-2763 3228-3404,-1.000000,""
107_0_1,w0,profile_107,732046.000000,129,97018.000000,1,COMPLETED_SUCCESSFULLY,846073.025950,97017.000000,943090.025950,114027.025950,211044.025950,2.175330,2502-2630,-1.000000,""
135_0_1,w0,profile_135,930156.000000,2,28904.000000,1,COMPLETED_SUCCESSFULLY,930156.001800,28903.000000,959059.001800,0.001800,28903.001800,1.000000,4225-4226,-1.000000,""
131_0_1,w0,profile_131,876608.000000,256,22880.000000,1,COMPLETED_SUCCESSFULLY,943093.027600,22879.000000,965972.027600,66485.027600,89364.027600,3.905941,2502-2630 4227-4353,-1.000000,""
139_0_1,w0,profile_139,961054.000000,1,23085.000000,1,COMPLETED_SUCCESSFULLY,961054.001800,23084.000000,984138.001800,0.001800,23084.001800,1.000000,4225,-1.000000,""
133_0_1,w0,profile_133,913545.000000,256,21909.000000,1,COMPLETED_SUCCESSFULLY,965975.029250,21908.000000,987883.029250,52430.029250,74338.029250,3.393191,2502-2630 4226-4352,-1.000000,""
110_0_1,w0,profile_110,759482.000000,2048,85025.000000,1,COMPLETED_SUCCESSFULLY,915206.028200,85024.000000,1000230.028200,155724.028200,240748.028200,2.831530,0-511 1864-2201 2764-3227 3405-4138,-1.000000,""
111_0_1,w0,profile_111,759502.000000,2048,85047.000000,1,COMPLETED_SUCCESSFULLY,929534.028200,85046.000000,1014580.028200,170032.028200,255078.028200,2.999295,512-1863 2202-2501 2631-2763 3228-3404 4139-4224,-1.000000,""
117_0_1,w0,profile_117,787530.000000,802,30373.000000,1,COMPLETED_SUCCESSFULLY,1000233.031050,30372.000000,1030605.031050,212703.031050,243075.031050,8.003261,2508-2630 2764-3227 3405-3619,-1.000000,""
118_0_1,w0,profile_118,787587.000000,802,21152.000000,1,COMPLETED_SUCCESSFULLY,1014583.029850,21151.000000,1035734.029850,226996.029850,248147.029850,11.732165,512-1313,-1.000000,""
151_0_1,w0,profile_151,1025187.000000,6,21704.000000,1,COMPLETED_SUCCESSFULLY,1035737.032700,21703.000000,1057440.032700,10550.032700,32253.032700,1.486109,4186-4191,-1.000000,""
152_0_1,w0,profile_152,1037502.000000,1,21567.000000,1,COMPLETED_SUCCESSFULLY,1037502.001800,21566.000000,1059068.001800,0.001800,21566.001800,1.000000,4192,-1.000000,""
154_0_1,w0,profile_154,1037508.000000,1,21604.000000,1,COMPLETED_SUCCESSFULLY,1037508.001800,21603.000000,1059111.001800,0.001800,21603.001800,1.000000,4194,-1.000000,""
153_0_1,w0,profile_153,1037506.000000,1,21609.000000,1,COMPLETED_SUCCESSFULLY,1037506.001800,21608.000000,1059114.001800,0.001800,21608.001800,1.000000,4193,-1.000000,""
155_0_1,w0,profile_155,1037510.000000,1,21631.000000,1,COMPLETED_SUCCESSFULLY,1037510.001800,21630.000000,1059140.001800,0.001800,21630.001800,1.000000,4195,-1.000000,""
157_0_1,w0,profile_157,1041219.000000,1,21571.000000,1,COMPLETED_SUCCESSFULLY,1041219.001800,21570.000000,1062789.001800,0.001800,21570.001800,1.000000,4196,-1.000000,""
129_0_1,w0,profile_129,869113.000000,512,32524.000000,1,COMPLETED_SUCCESSFULLY,1035737.032100,32523.000000,1068260.032100,166624.032100,199147.032100,6.123268,3674-4185,-1.000000,""
119_0_1,w0,profile_119,818130.000000,1016,59673.000000,1,COMPLETED_SUCCESSFULLY,1014583.030450,59672.000000,1074255.030450,196453.030450,256125.030450,4.292215,1314-1863 2202-2501 2631-2763 3228-3260,-1.000000,""
113_0_1,w0,profile_113,771360.000000,850,79008.000000,1,COMPLETED_SUCCESSFULLY,1000233.029850,79007.000000,1079240.029850,228873.029850,307880.029850,3.896870,0-511 1864-2201,-1.000000,""
116_0_1,w0,profile_116,785324.000000,6,86498.000000,1,COMPLETED_SUCCESSFULLY,1000233.030450,86497.000000,1086730.030450,214909.030450,301406.030450,3.484584,2502-2507,-1.000000,""
122_0_1,w0,profile_122,838429.000000,2048,21732.000000,1,COMPLETED_SUCCESSFULLY,1079243.031500,21731.000000,1100974.031500,240814.031500,262545.031500,12.081590,0-511 1314-2501 2631-2763 3228-3260 3674-3855,-1.000000,""
121_0_1,w0,profile_121,823022.000000,802,71300.000000,1,COMPLETED_SUCCESSFULLY,1035737.031500,71299.000000,1107036.031500,212715.031500,284014.031500,3.983422,512-1313,-1.000000,""
120_0_1,w0,profile_120,819174.000000,1000,84152.000000,1,COMPLETED_SUCCESSFULLY,1030608.032700,84151.000000,1114759.032700,211434.032700,295585.032700,3.512555,2508-2630 2764-3227 3261-3673,-1.000000,""
130_0_1,w0,profile_130,874388.000000,512,22820.000000,1,COMPLETED_SUCCESSFULLY,1100977.033150,22819.000000,1123796.033150,226589.033150,249408.033150,10.929841,0-511,-1.000000,""
134_0_1,w0,profile_134,917251.000000,256,22909.000000,1,COMPLETED_SUCCESSFULLY,1100977.034350,22908.000000,1123885.034350,183726.034350,206634.034350,9.020169,2338-2507 2631-2716,-1.000000,""
138_0_1,w0,profile_138,947694.000000,256,21694.000000,1,COMPLETED_SUCCESSFULLY,1123799.034800,21693.000000,1145492.034800,176105.034800,197798.034800,9.118058,0-255,-1.000000,""
136_0_1,w0,profile_136,933349.000000,1016,38958.000000,1,COMPLETED_SUCCESSFULLY,1107039.033150,38957.000000,1145996.033150,173690.033150,212647.033150,5.458506,512-1313 2717-2763 3228-3260 3674-3807,-1.000000,""
140_0_1,w0,profile_140,966662.000000,480,32489.000000,1,COMPLETED_SUCCESSFULLY,1123888.036000,32488.000000,1156376.036000,157226.036000,189714.036000,5.839511,256-511 2338-2507 2631-2684,-1.000000,""
125_0_1,w0,profile_125,844964.000000,256,78060.000000,1,COMPLETED_SUCCESSFULLY,1079243.032100,78059.000000,1157302.032100,234279.032100,312338.032100,4.001307,3856-4111,-1.000000,""
127_0_1,w0,profile_127,844979.000000,256,86524.000000,1,COMPLETED_SUCCESSFULLY,1079243.032700,86523.000000,1165766.032700,234264.032700,320787.032700,3.707535,4112-4367,-1.000000,""
141_0_1,w0,profile_141,966785.000000,480,32550.000000,1,COMPLETED_SUCCESSFULLY,1145495.036450,32549.000000,1178044.036450,178710.036450,211259.036450,6.490492,0-255 2685-2716 3524-3673 3808-3849,-1.000000,""
167_0_1,w0,profile_167,1124098.000000,9,21608.000000,1,COMPLETED_SUCCESSFULLY,1165769.036150,21607.000000,1187376.036150,41671.036150,63278.036150,2.928590,4265-4273,-1.000000,""
163_0_1,w0,profile_163,1101269.000000,9,21609.000000,1,COMPLETED_SUCCESSFULLY,1165769.035550,21608.000000,1187377.035550,64500.035550,86108.035550,3.985007,4256-4264,-1.000000,""
160_0_1,w0,profile_160,1083554.000000,6,21706.000000,1,COMPLETED_SUCCESSFULLY,1165769.034950,21705.000000,1187474.034950,82215.034950,103920.034950,4.787839,4250-4255,-1.000000,""
144_0_1,w0,profile_144,993822.000000,256,21721.000000,1,COMPLETED_SUCCESSFULLY,1165769.034350,21720.000000,1187489.034350,171947.034350,193667.034350,8.916530,3994-4249,-1.000000,""
132_0_1,w0,profile_132,900204.000000,1024,86519.000000,1,COMPLETED_SUCCESSFULLY,1100977.033750,86518.000000,1187495.033750,200773.033750,287291.033750,3.320593,1314-2337,-1.000000,""
137_0_1,w0,profile_137,946533.000000,850,79115.000000,1,COMPLETED_SUCCESSFULLY,1114762.034350,79114.000000,1193876.034350,168229.034350,247343.034350,3.126413,2508-2630 2764-3227 3261-3523,-1.000000,""
143_0_1,w0,profile_143,993365.000000,640,40658.000000,1,COMPLETED_SUCCESSFULLY,1157305.033750,40657.000000,1197962.033750,163940.033750,204597.033750,5.032271,256-511 2338-2507 2631-2684 3792-3807 3850-3993,-1.000000,""
147_0_1,w0,profile_147,1009827.000000,256,21698.000000,1,COMPLETED_SUCCESSFULLY,1193879.036000,21697.000000,1215576.036000,184052.036000,205749.036000,9.482833,2508-2630 2764-2896,-1.000000,""
175_0_1,w0,profile_175,1195614.000000,10,21694.000000,1,COMPLETED_SUCCESSFULLY,1197965.037200,21693.000000,1219658.037200,2351.037200,24044.037200,1.108378,4362-4371,-1.000000,""
156_0_1,w0,profile_156,1040168.000000,256,21700.000000,1,COMPLETED_SUCCESSFULLY,1197965.036600,21699.000000,1219664.036600,157797.036600,179496.036600,8.272088,3474-3523 3792-3807 3850-3993 4316-4361,-1.000000,""
150_0_1,w0,profile_150,1022056.000000,256,23010.000000,1,COMPLETED_SUCCESSFULLY,1197965.036000,23009.000000,1220974.036000,175909.036000,198918.036000,8.645227,2466-2507 2631-2684 3314-3473,-1.000000,""
148_0_1,w0,profile_148,1021061.000000,384,32530.000000,1,COMPLETED_SUCCESSFULLY,1193879.036600,32529.000000,1226408.036600,172818.036600,205347.036600,6.312737,2897-3227 3261-3313,-1.000000,""
149_0_1,w0,profile_149,1021101.000000,384,32542.000000,1,COMPLETED_SUCCESSFULLY,1197965.035400,32541.000000,1230506.035400,176864.035400,209405.035400,6.435114,256-511 2338-2465,-1.000000,""
142_0_1,w0,profile_142,979538.000000,1000,86499.000000,1,COMPLETED_SUCCESSFULLY,1145999.034800,86498.000000,1232497.034800,166461.034800,252959.034800,2.924450,512-1313 2717-2763 3228-3260 3674-3791,-1.000000,""
162_0_1,w0,profile_162,1094467.000000,256,21680.000000,1,COMPLETED_SUCCESSFULLY,1232500.037650,21679.000000,1254179.037650,138033.037650,159712.037650,7.367131,3476-3523 3674-3807 3850-3923,-1.000000,""
145_0_1,w0,profile_145,997408.000000,802,76380.000000,1,COMPLETED_SUCCESSFULLY,1187492.036000,76379.000000,1263871.036000,190084.036000,266463.036000,3.488695,0-255 2685-2716 3524-3673 3808-3849 3994-4315,-1.000000,""
146_0_1,w0,profile_146,998966.000000,1024,78207.000000,1,COMPLETED_SUCCESSFULLY,1187498.035400,78206.000000,1265704.035400,188532.035400,266738.035400,3.410711,1314-2337,-1.000000,""
161_0_1,w0,profile_161,1088999.000000,202,39097.000000,1,COMPLETED_SUCCESSFULLY,1232500.037050,39096.000000,1271596.037050,143501.037050,182597.037050,4.670479,2392-2465 2717-2763 3228-3260 3428-3475,-1.000000,""
164_0_1,w0,profile_164,1115754.000000,256,21717.000000,1,COMPLETED_SUCCESSFULLY,1254182.039300,21716.000000,1275898.039300,138428.039300,160144.039300,7.374472,3476-3523 3674-3807 3850-3923,-1.000000,""
165_0_1,w0,profile_165,1115771.000000,256,21715.000000,1,COMPLETED_SUCCESSFULLY,1263874.037650,21714.000000,1285588.037650,148103.037650,169817.037650,7.820624,0-255,-1.000000,""
169_0_1,w0,profile_169,1176307.000000,256,21618.000000,1,COMPLETED_SUCCESSFULLY,1275901.040950,21617.000000,1297518.040950,99594.040950,121211.040950,5.607209,3476-3523 3674-3807 3850-3923,-1.000000,""
158_0_1,w0,profile_158,1054943.000000,850,77626.000000,1,COMPLETED_SUCCESSFULLY,1226411.038250,77625.000000,1304036.038250,171468.038250,249093.038250,3.208928,2466-2684 2764-3227 3261-3427,-1.000000,""
159_0_1,w0,profile_159,1074846.000000,1112,87706.000000,1,COMPLETED_SUCCESSFULLY,1232500.036450,87705.000000,1320205.036450,157654.036450,245359.036450,2.797549,256-1313 2338-2391,-1.000000,""
196_0_1,w0,profile_196,1284751.000000,7,21616.000000,1,COMPLETED_SUCCESSFULLY,1304039.043500,21615.000000,1325654.043500,19288.043500,40903.043500,1.892345,3374-3380,-1.000000,""
171_0_1,w0,profile_171,1176604.000000,256,21698.000000,1,COMPLETED_SUCCESSFULLY,1304039.039900,21697.000000,1325736.039900,127435.039900,149132.039900,6.873394,2466-2684 2764-2800,-1.000000,""
177_0_1,w0,profile_177,1213411.000000,10,21703.000000,1,COMPLETED_SUCCESSFULLY,1304039.041100,21702.000000,1325741.041100,90628.041100,112330.041100,5.176023,3346-3355,-1.000000,""
185_0_1,w0,profile_185,1258545.000000,4,21725.000000,1,COMPLETED_SUCCESSFULLY,1304039.041700,21724.000000,1325763.041700,45494.041700,67218.041700,3.094183,3356-3359,-1.000000,""
173_0_1,w0,profile_173,1185866.000000,512,21730.000000,1,COMPLETED_SUCCESSFULLY,1304039.040500,21729.000000,1325768.040500,118173.040500,139902.040500,6.438494,2801-3227 3261-3345,-1.000000,""
194_0_1,w0,profile_194,1284743.000000,7,22897.000000,1,COMPLETED_SUCCESSFULLY,1304039.042300,22896.000000,1326935.042300,19296.042300,42192.042300,1.842769,3360-3366,-1.000000,""
197_0_1,w0,profile_197,1284765.000000,7,22950.000000,1,COMPLETED_SUCCESSFULLY,1304039.044100,22949.000000,1326988.044100,19274.044100,42223.044100,1.839864,3381-3387,-1.000000,""
195_0_1,w0,profile_195,1284746.000000,7,23043.000000,1,COMPLETED_SUCCESSFULLY,1304039.042900,23042.000000,1327081.042900,19293.042900,42335.042900,1.837299,3367-3373,-1.000000,""
170_0_1,w0,profile_170,1176327.000000,512,33586.000000,1,COMPLETED_SUCCESSFULLY,1297521.042600,33585.000000,1331106.042600,121194.042600,154779.042600,4.608577,0-255 3476-3523 3674-3807 3850-3923,-1.000000,""
166_0_1,w0,profile_166,1120517.000000,850,77646.000000,1,COMPLETED_SUCCESSFULLY,1265707.037050,77645.000000,1343352.037050,145190.037050,222835.037050,2.869921,1314-2163,-1.000000,""
178_0_1,w0,profile_178,1213528.000000,256,21796.000000,1,COMPLETED_SUCCESSFULLY,1331109.046050,21795.000000,1352904.046050,117581.046050,139376.046050,6.394863,3476-3523 3674-3807 3850-3923,-1.000000,""
172_0_1,w0,profile_172,1176919.000000,2048,22888.000000,1,COMPLETED_SUCCESSFULLY,1331109.044250,22887.000000,1353996.044250,154190.044250,177077.044250,7.737014,0-1313 2338-2391 2466-2684 2764-3224,-1.000000,""
168_0_1,w0,profile_168,1151735.000000,1024,86494.000000,1,COMPLETED_SUCCESSFULLY,1271599.038700,86493.000000,1358092.038700,119864.038700,206357.038700,2.385824,2164-2337 2392-2465 2685-2763 3228-3260 3428-3475 3524-3673 3808-3849 3924-4347,-1.000000,""
176_0_1,w0,profile_176,1195728.000000,8,36037.000000,1,COMPLETED_SUCCESSFULLY,1331109.045450,36036.000000,1367145.045450,135381.045450,171417.045450,4.756828,3420-3427,-1.000000,""
179_0_1,w0,profile_179,1236818.000000,384,32486.000000,1,COMPLETED_SUCCESSFULLY,1343355.038700,32485.000000,1375840.038700,106537.038700,139022.038700,4.279576,1314-1697,-1.000000,""
183_0_1,w0,profile_183,1255408.000000,802,31089.000000,1,COMPLETED_SUCCESSFULLY,1353999.047700,31088.000000,1385087.047700,98591.047700,129679.047700,4.171354,2374-2391 2466-2684 2764-3224 3476-3523 3674-3729,-1.000000,""
181_0_1,w0,profile_181,1255375.000000,802,32014.000000,1,COMPLETED_SUCCESSFULLY,1353999.046500,32013.000000,1386012.046500,98624.046500,130637.046500,4.080750,1000-1313 1698-2163 2338-2359,-1.000000,""
184_0_1,w0,profile_184,1258405.000000,165,35027.000000,1,COMPLETED_SUCCESSFULLY,1353999.048300,35026.000000,1389025.048300,95594.048300,130620.048300,3.729231,3730-3807 3850-3923 4348-4360,-1.000000,""
182_0_1,w0,profile_182,1255408.000000,14,35979.000000,1,COMPLETED_SUCCESSFULLY,1353999.047100,35978.000000,1389977.047100,98591.047100,134569.047100,3.740315,2360-2373,-1.000000,""
187_0_1,w0,profile_187,1264746.000000,512,21731.000000,1,COMPLETED_SUCCESSFULLY,1385090.049350,21730.000000,1406820.049350,120344.049350,142074.049350,6.538152,2374-2391 2466-2684 2764-3038,-1.000000,""
193_0_1,w0,profile_193,1284118.000000,256,21745.000000,1,COMPLETED_SUCCESSFULLY,1386015.049350,21744.000000,1407759.049350,101897.049350,123641.049350,5.686215,1896-2151,-1.000000,""
205_0_1,w0,profile_205,1332640.000000,165,22727.000000,1,COMPLETED_SUCCESSFULLY,1386015.049950,22726.000000,1408741.049950,53375.049950,76101.049950,3.348634,2152-2163 2338-2359 3696-3729 4212-4308,-1.000000,""
186_0_1,w0,profile_186,1259392.000000,1280,35393.000000,1,COMPLETED_SUCCESSFULLY,1375843.040350,35392.000000,1411235.040350,116451.040350,151843.040350,4.290321,1314-1697 2164-2337 2392-2465 2685-2763 3228-3260 3420-3475 3524-3673 3808-3849 3924-4211,-1.000000,""
174_0_1,w0,profile_174,1188570.000000,162,86487.000000,1,COMPLETED_SUCCESSFULLY,1331109.044850,86486.000000,1417595.044850,142539.044850,229025.044850,2.648117,3225-3227 3261-3419,-1.000000,""
180_0_1,w0,profile_180,1253322.000000,1000,86369.000000,1,COMPLETED_SUCCESSFULLY,1353999.045900,86368.000000,1440367.045900,100677.045900,187045.045900,2.165675,0-999,-1.000000,""
198_0_1,w0,profile_198,1295745.000000,1,27583.000000,1,COMPLETED_SUCCESSFULLY,1417598.047100,27582.000000,1445180.047100,121853.047100,149435.047100,5.417847,4232,-1.000000,""
189_0_1,w0,profile_189,1267163.000000,256,69503.000000,1,COMPLETED_SUCCESSFULLY,1386015.048150,69502.000000,1455517.048150,118852.048150,188354.048150,2.710052,1000-1255,-1.000000,""
201_0_1,w0,profile_201,1303049.000000,256,20786.000000,1,COMPLETED_SUCCESSFULLY,1440370.048150,20785.000000,1461155.048150,137321.048150,158106.048150,7.606738,256-511,-1.000000,""
191_0_1,w0,profile_191,1271723.000000,1440,50497.000000,1,COMPLETED_SUCCESSFULLY,1411238.042000,50496.000000,1461734.042000,139515.042000,190011.042000,3.762893,1314-1697 1896-2951,-1.000000,""
200_0_1,w0,profile_200,1300672.000000,256,21677.000000,1,COMPLETED_SUCCESSFULLY,1440370.047550,21676.000000,1462046.047550,139698.047550,161374.047550,7.444826,0-255,-1.000000,""
203_0_1,w0,profile_203,1304724.000000,256,21682.000000,1,COMPLETED_SUCCESSFULLY,1440370.049350,21681.000000,1462051.049350,135646.049350,157327.049350,7.256448,768-999 4247-4270,-1.000000,""
199_0_1,w0,profile_199,1296993.000000,14,44557.000000,1,COMPLETED_SUCCESSFULLY,1417598.047700,44556.000000,1462154.047700,120605.047700,165161.047700,3.706819,4233-4246,-1.000000,""
202_0_1,w0,profile_202,1303052.000000,256,22080.000000,1,COMPLETED_SUCCESSFULLY,1440370.048750,22079.000000,1462449.048750,137318.048750,159397.048750,7.219396,512-767,-1.000000,""
188_0_1,w0,profile_188,1267159.000000,256,86523.000000,1,COMPLETED_SUCCESSFULLY,1385090.049950,86522.000000,1471612.049950,117931.049950,204453.049950,2.363018,3039-3224 3476-3523 3674-3695,-1.000000,""
190_0_1,w0,profile_190,1267166.000000,256,86497.000000,1,COMPLETED_SUCCESSFULLY,1386015.048750,86496.000000,1472511.048750,118849.048750,205345.048750,2.374041,1256-1313 1698-1895,-1.000000,""
204_0_1,w0,profile_204,1320845.000000,256,21749.000000,1,COMPLETED_SUCCESSFULLY,1455520.049800,21748.000000,1477268.049800,134675.049800,156423.049800,7.192526,1000-1255,-1.000000,""
208_0_1,w0,profile_208,1346135.000000,256,20747.000000,1,COMPLETED_SUCCESSFULLY,1461737.044850,20746.000000,1482483.044850,115602.044850,136348.044850,6.572257,2382-2637,-1.000000,""
209_0_1,w0,profile_209,1347108.000000,256,20752.000000,1,COMPLETED_SUCCESSFULLY,1461737.045450,20751.000000,1482488.045450,114629.045450,135380.045450,6.524025,2638-2893,-1.000000,""
210_0_1,w0,profile_210,1347154.000000,256,21737.000000,1,COMPLETED_SUCCESSFULLY,1462049.049200,21736.000000,1483785.049200,114895.049200,136631.049200,6.285933,0-255,-1.000000,""
211_0_1,w0,profile_211,1347185.000000,256,21742.000000,1,COMPLETED_SUCCESSFULLY,1462054.051000,21741.000000,1483795.051000,114869.051000,136610.051000,6.283522,768-999 2894-2917,-1.000000,""
212_0_1,w0,profile_212,1347838.000000,512,21682.000000,1,COMPLETED_SUCCESSFULLY,1471615.051600,21681.000000,1493296.051600,123777.051600,145458.051600,6.709010,512-767 2918-2951 3039-3224 3476-3511,-1.000000,""
192_0_1,w0,profile_192,1276286.000000,1024,86398.000000,1,COMPLETED_SUCCESSFULLY,1417598.046500,86397.000000,1503995.046500,141312.046500,227709.046500,2.635613,2952-3038 3225-3475 3524-3673 3696-4231,-1.000000,""
213_0_1,w0,profile_213,1347945.000000,1024,21747.000000,1,COMPLETED_SUCCESSFULLY,1482491.047100,21746.000000,1504237.047100,134546.047100,156292.047100,7.187163,1000-1313 1698-1895 2382-2893,-1.000000,""
214_0_1,w0,profile_214,1348622.000000,256,21700.000000,1,COMPLETED_SUCCESSFULLY,1483788.050850,21699.000000,1505487.050850,135166.050850,156865.050850,7.229137,0-255,-1.000000,""
215_0_1,w0,profile_215,1349140.000000,256,21697.000000,1,COMPLETED_SUCCESSFULLY,1483798.052650,21696.000000,1505494.052650,134658.052650,156354.052650,7.206584,768-999 2894-2917,-1.000000,""
216_0_1,w0,profile_216,1360110.000000,256,21833.000000,1,COMPLETED_SUCCESSFULLY,1493299.053250,21832.000000,1515131.053250,133189.053250,155021.053250,7.100635,512-767,-1.000000,""
221_0_1,w0,profile_221,1383462.000000,256,20417.000000,1,COMPLETED_SUCCESSFULLY,1504240.049950,20416.000000,1524656.049950,120778.049950,141194.049950,6.915853,2390-2645,-1.000000,""
217_0_1,w0,profile_217,1364242.000000,802,21026.000000,1,COMPLETED_SUCCESSFULLY,1503998.048150,21025.000000,1525023.048150,139756.048150,160781.048150,7.647137,2918-3719,-1.000000,""
218_0_1,w0,profile_218,1366967.000000,512,21704.000000,1,COMPLETED_SUCCESSFULLY,1503998.048750,21703.000000,1525701.048750,137031.048750,158734.048750,7.313922,3720-4231,-1.000000,""
219_0_1,w0,profile_219,1369107.000000,512,21687.000000,1,COMPLETED_SUCCESSFULLY,1504240.048750,21686.000000,1525926.048750,135133.048750,156819.048750,7.231350,1000-1313 1698-1895,-1.000000,""
222_0_1,w0,profile_222,1389545.000000,256,21728.000000,1,COMPLETED_SUCCESSFULLY,1504240.050550,21727.000000,1525967.050550,114695.050550,136422.050550,6.278918,2646-2893 4232-4239,-1.000000,""
224_0_1,w0,profile_224,1389739.000000,256,20906.000000,1,COMPLETED_SUCCESSFULLY,1505497.054300,20905.000000,1526402.054300,115758.054300,136663.054300,6.537338,768-999 2894-2917,-1.000000,""
223_0_1,w0,profile_223,1389586.000000,256,21696.000000,1,COMPLETED_SUCCESSFULLY,1505490.052500,21695.000000,1527185.052500,115904.052500,137599.052500,6.342432,0-255,-1.000000,""
220_0_1,w0,profile_220,1377396.000000,8,28920.000000,1,COMPLETED_SUCCESSFULLY,1504240.049350,28919.000000,1533159.049350,126844.049350,155763.049350,5.386184,2382-2389,-1.000000,""
225_0_1,w0,profile_225,1389775.000000,256,20472.000000,1,COMPLETED_SUCCESSFULLY,1515134.054900,20471.000000,1535605.054900,125359.054900,145830.054900,7.123739,512-767,-1.000000,""
206_0_1,w0,profile_206,1340191.000000,1112,80760.000000,1,COMPLETED_SUCCESSFULLY,1461737.043650,80759.000000,1542496.043650,121546.043650,202305.043650,2.505046,256-511 1314-1697 1896-2367,-1.000000,""
227_0_1,w0,profile_227,1394749.000000,256,21838.000000,1,COMPLETED_SUCCESSFULLY,1525026.050400,21837.000000,1546863.050400,130277.050400,152114.050400,6.965886,3142-3397,-1.000000,""
207_0_1,w0,profile_207,1341807.000000,14,85306.000000,1,COMPLETED_SUCCESSFULLY,1461737.044250,85305.000000,1547042.044250,119930.044250,205235.044250,2.405897,2368-2381,-1.000000,""
226_0_1,w0,profile_226,1394684.000000,480,32493.000000,1,COMPLETED_SUCCESSFULLY,1525026.049800,32492.000000,1557518.049800,130342.049800,162834.049800,5.011512,2390-2645 2918-3141,-1.000000,""
228_0_1,w0,profile_228,1395078.000000,480,32483.000000,1,COMPLETED_SUCCESSFULLY,1525704.050400,32482.000000,1558186.050400,130626.050400,163108.050400,5.021490,3398-3877,-1.000000,""
234_0_1,w0,profile_234,1434616.000000,256,21678.000000,1,COMPLETED_SUCCESSFULLY,1542499.047100,21677.000000,1564176.047100,107883.047100,129560.047100,5.976844,2024-2279,-1.000000,""
232_0_1,w0,profile_232,1426700.000000,256,21682.000000,1,COMPLETED_SUCCESSFULLY,1542499.045900,21681.000000,1564180.045900,115799.045900,137480.045900,6.341038,1314-1569,-1.000000,""
233_0_1,w0,profile_233,1427466.000000,256,21689.000000,1,COMPLETED_SUCCESSFULLY,1542499.046500,21688.000000,1564187.046500,115033.046500,136721.046500,6.303995,1570-1697 1896-2023,-1.000000,""
231_0_1,w0,profile_231,1426481.000000,256,21722.000000,1,COMPLETED_SUCCESSFULLY,1542499.045300,21721.000000,1564220.045300,116018.045300,137739.045300,6.341285,256-511,-1.000000,""
235_0_1,w0,profile_235,1440402.000000,14,28589.000000,1,COMPLETED_SUCCESSFULLY,1542499.047700,28588.000000,1571087.047700,102097.047700,130685.047700,4.571325,2280-2293,-1.000000,""
243_0_1,w0,profile_243,1482775.000000,7,20179.000000,1,COMPLETED_SUCCESSFULLY,1557521.052650,20178.000000,1577699.052650,74746.052650,94924.052650,4.704334,3342-3348,-1.000000,""
239_0_1,w0,profile_239,1457381.000000,256,20412.000000,1,COMPLETED_SUCCESSFULLY,1558189.052050,20411.000000,1578600.052050,100808.052050,121219.052050,5.938908,3370-3625,-1.000000,""
238_0_1,w0,profile_238,1457375.000000,256,21377.000000,1,COMPLETED_SUCCESSFULLY,1557521.052050,21376.000000,1578897.052050,100146.052050,121522.052050,5.684976,3086-3341,-1.000000,""
246_0_1,w0,profile_246,1482792.000000,7,21606.000000,1,COMPLETED_SUCCESSFULLY,1557521.054450,21605.000000,1579126.054450,74729.054450,96334.054450,4.458878,3363-3369,-1.000000,""
245_0_1,w0,profile_245,1482790.000000,7,21618.000000,1,COMPLETED_SUCCESSFULLY,1557521.053850,21617.000000,1579138.053850,74731.053850,96348.053850,4.457050,3356-3362,-1.000000,""
244_0_1,w0,profile_244,1482776.000000,7,21621.000000,1,COMPLETED_SUCCESSFULLY,1557521.053250,21620.000000,1579141.053250,74745.053250,96365.053250,4.457218,3349-3355,-1.000000,""
240_0_1,w0,profile_240,1457680.000000,256,22864.000000,1,COMPLETED_SUCCESSFULLY,1558189.052650,22863.000000,1581052.052650,100509.052650,123372.052650,5.396145,3626-3877 4232-4235,-1.000000,""
248_0_1,w0,profile_248,1484289.000000,256,21119.000000,1,COMPLETED_SUCCESSFULLY,1564190.048150,21118.000000,1585308.048150,79901.048150,101019.048150,4.783552,1570-1697 1896-2023,-1.000000,""
241_0_1,w0,profile_241,1457685.000000,256,22049.000000,1,COMPLETED_SUCCESSFULLY,1564179.048750,22048.000000,1586227.048750,106494.048750,128542.048750,5.830100,2024-2279,-1.000000,""
247_0_1,w0,profile_247,1484275.000000,256,22871.000000,1,COMPLETED_SUCCESSFULLY,1564183.047550,22870.000000,1587053.047550,79908.047550,102778.047550,4.494012,1314-1569,-1.000000,""
249_0_1,w0,profile_249,1511923.000000,241,24376.000000,1,COMPLETED_SUCCESSFULLY,1564223.046950,24375.000000,1588598.046950,52300.046950,76675.046950,3.145643,256-496,-1.000000,""
236_0_1,w0,profile_236,1442813.000000,512,32422.000000,1,COMPLETED_SUCCESSFULLY,1557521.051450,32421.000000,1589942.051450,114708.051450,147129.051450,4.538079,2294-2381 2390-2645 2918-3085,-1.000000,""
251_0_1,w0,profile_251,1536835.000000,256,21386.000000,1,COMPLETED_SUCCESSFULLY,1589945.053700,21385.000000,1611330.053700,53110.053700,74495.053700,3.483519,3584-3839,-1.000000,""
229_0_1,w0,profile_229,1412821.000000,1000,86388.000000,1,COMPLETED_SUCCESSFULLY,1525929.050400,86387.000000,1612316.050400,113108.050400,199495.050400,2.309318,1000-1313 1698-1895 3878-4231 4240-4373,-1.000000,""
237_0_1,w0,profile_237,1443211.000000,2048,22890.000000,1,COMPLETED_SUCCESSFULLY,1589945.053100,22889.000000,1612834.053100,146734.053100,169623.053100,7.410680,256-511 1314-1697 1896-2381 2390-2645 2918-3583,-1.000000,""
230_0_1,w0,profile_230,1412858.000000,1024,86419.000000,1,COMPLETED_SUCCESSFULLY,1535608.056550,86418.000000,1622026.056550,122750.056550,209168.056550,2.420422,0-255 512-999 2382-2389 2646-2917,-1.000000,""
253_0_1,w0,profile_253,1564760.000000,256,20651.000000,1,COMPLETED_SUCCESSFULLY,1612837.054750,20650.000000,1633487.054750,48077.054750,68727.054750,3.328187,256-511,-1.000000,""
252_0_1,w0,profile_252,1546310.000000,128,21481.000000,1,COMPLETED_SUCCESSFULLY,1612319.053250,21480.000000,1633799.053250,66009.053250,87489.053250,4.073047,4130-4257,-1.000000,""
255_0_1,w0,profile_255,1605567.000000,256,21671.000000,1,COMPLETED_SUCCESSFULLY,1612837.055950,21670.000000,1634507.055950,7270.055950,28940.055950,1.335489,1442-1697,-1.000000,""
250_0_1,w0,profile_250,1536828.000000,256,22898.000000,1,COMPLETED_SUCCESSFULLY,1612319.052650,22897.000000,1635216.052650,75491.052650,98388.052650,4.296984,3874-4129,-1.000000,""
242_0_1,w0,profile_242,1467504.000000,802,28917.000000,1,COMPLETED_SUCCESSFULLY,1612319.052050,28916.000000,1641235.052050,144815.052050,173731.052050,6.008129,1000-1313 1698-1895 3584-3873,-1.000000,""
254_0_1,w0,profile_254,1597325.000000,128,38269.000000,1,COMPLETED_SUCCESSFULLY,1612837.055350,38268.000000,1651105.055350,15512.055350,53780.055350,1.405353,1314-1441,-1.000000,""
258_0_1,w0,profile_258,1610849.000000,233,22870.000000,1,COMPLETED_SUCCESSFULLY,1651108.057000,22869.000000,1673977.057000,40259.057000,63128.057000,2.760421,1314-1441 4224-4328,-1.000000,""
259_0_1,w0,profile_259,1640691.000000,256,20855.000000,1,COMPLETED_SUCCESSFULLY,1673980.058650,20854.000000,1694834.058650,33289.058650,54143.058650,2.596291,1314-1441 4224-4351,-1.000000,""
256_0_1,w0,profile_256,1608281.000000,2048,85019.000000,1,COMPLETED_SUCCESSFULLY,1622029.058200,85018.000000,1707047.058200,13748.058200,98766.058200,1.161708,0-255 512-999 1896-3199,-1.000000,""
257_0_1,w0,profile_257,1608296.000000,2048,85027.000000,1,COMPLETED_SUCCESSFULLY,1641238.053700,85026.000000,1726264.053700,32942.053700,117968.053700,1.387435,256-511 1000-1313 1442-1895 3200-4223,-1.000000,""
265_0_1,w0,profile_265,1691198.000000,512,21706.000000,1,COMPLETED_SUCCESSFULLY,1707050.062250,21705.000000,1728755.062250,15852.062250,37557.062250,1.730341,2176-2687,-1.000000,""
266_0_1,w0,profile_266,1692308.000000,1024,21733.000000,1,COMPLETED_SUCCESSFULLY,1726267.055350,21732.000000,1747999.055350,33959.055350,55691.055350,2.562629,256-511 1000-1313 1442-1895,-1.000000,""
263_0_1,w0,profile_263,1687611.000000,256,41474.000000,1,COMPLETED_SUCCESSFULLY,1707050.061050,41473.000000,1748523.061050,19439.061050,60912.061050,1.468716,768-999 1896-1919,-1.000000,""
269_0_1,w0,profile_269,1711576.000000,512,24165.000000,1,COMPLETED_SUCCESSFULLY,1726267.057150,24164.000000,1750431.057150,14691.057150,38855.057150,1.607973,3666-4177,-1.000000,""
264_0_1,w0,profile_264,1687633.000000,256,57700.000000,1,COMPLETED_SUCCESSFULLY,1707050.061650,57699.000000,1764749.061650,19417.061650,77116.061650,1.336523,1920-2175,-1.000000,""
270_0_1,w0,profile_270,1734409.000000,802,20701.000000,1,COMPLETED_SUCCESSFULLY,1748002.057000,20700.000000,1768702.057000,13593.057000,34293.057000,1.656669,256-511 1000-1313 1442-1673,-1.000000,""
267_0_1,w0,profile_267,1693212.000000,128,43298.000000,1,COMPLETED_SUCCESSFULLY,1726267.055950,43297.000000,1769564.055950,33055.055950,76352.055950,1.763449,2688-2815,-1.000000,""
271_0_1,w0,profile_271,1737632.000000,256,22956.000000,1,COMPLETED_SUCCESSFULLY,1748002.057600,22955.000000,1770957.057600,10370.057600,33325.057600,1.451756,1674-1895 2176-2209,-1.000000,""
262_0_1,w0,profile_262,1687608.000000,256,71679.000000,1,COMPLETED_SUCCESSFULLY,1707050.060450,71678.000000,1778728.060450,19442.060450,91120.060450,1.271242,512-767,-1.000000,""
260_0_1,w0,profile_260,1686540.000000,201,86502.000000,1,COMPLETED_SUCCESSFULLY,1694837.060300,86501.000000,1781338.060300,8297.060300,94798.060300,1.095919,1314-1441 4224-4296,-1.000000,""
261_0_1,w0,profile_261,1687606.000000,256,86531.000000,1,COMPLETED_SUCCESSFULLY,1707050.059850,86530.000000,1793580.059850,19444.059850,105974.059850,1.224709,0-255,-1.000000,""
273_0_1,w0,profile_273,1772253.000000,2048,21679.000000,1,COMPLETED_SUCCESSFULLY,1772253.001800,21678.000000,1793931.001800,0.001800,21678.001800,1.000000,768-1313 1442-2815 3666-3793,-1.000000,""
268_0_1,w0,profile_268,1704505.000000,850,79513.000000,1,COMPLETED_SUCCESSFULLY,1726267.056550,79512.000000,1805779.056550,21762.056550,101274.056550,1.273695,2816-3665,-1.000000,""
275_0_1,w0,profile_275,1788459.000000,129,28725.000000,1,COMPLETED_SUCCESSFULLY,1788459.001800,28724.000000,1817183.001800,0.001800,28724.001800,1.000000,4260-4388,-1.000000,""
276_0_1,w0,profile_276,1799179.000000,256,22882.000000,1,COMPLETED_SUCCESSFULLY,1799179.001800,22881.000000,1822060.001800,0.001800,22881.001800,1.000000,0-255,-1.000000,""
272_0_1,w0,profile_272,1771981.000000,256,57743.000000,1,COMPLETED_SUCCESSFULLY,1771981.001800,57742.000000,1829723.001800,0.001800,57742.001800,1.000000,256-511,-1.000000,""
279_0_1,w0,profile_279,1813242.000000,32,21683.000000,1,COMPLETED_SUCCESSFULLY,1813242.001800,21682.000000,1834924.001800,0.001800,21682.001800,1.000000,961-992,-1.000000,""
281_0_1,w0,profile_281,1820113.000000,256,21697.000000,1,COMPLETED_SUCCESSFULLY,1820113.001800,21696.000000,1841809.001800,0.001800,21696.001800,1.000000,1249-1313 1442-1632,-1.000000,""
282_0_1,w0,profile_282,1820500.000000,256,21685.000000,1,COMPLETED_SUCCESSFULLY,1820500.001800,21684.000000,1842184.001800,0.001800,21684.001800,1.000000,1633-1888,-1.000000,""
283_0_1,w0,profile_283,1820599.000000,256,21704.000000,1,COMPLETED_SUCCESSFULLY,1820599.001800,21703.000000,1842302.001800,0.001800,21703.001800,1.000000,1889-2144,-1.000000,""
280_0_1,w0,profile_280,1820031.000000,256,22892.000000,1,COMPLETED_SUCCESSFULLY,1820031.001800,22891.000000,1842922.001800,0.001800,22891.001800,1.000000,993-1248,-1.000000,""
277_0_1,w0,profile_277,1799699.000000,64,43301.000000,1,COMPLETED_SUCCESSFULLY,1799699.001800,43300.000000,1842999.001800,0.001800,43300.001800,1.000000,768-831,-1.000000,""
274_0_1,w0,profile_274,1780131.000000,850,78165.000000,1,COMPLETED_SUCCESSFULLY,1781341.061950,78164.000000,1859505.061950,1210.061950,79374.061950,1.015481,512-767 1314-1441 3794-4259,-1.000000,""
278_0_1,w0,profile_278,1811983.000000,129,47699.000000,1,COMPLETED_SUCCESSFULLY,1811983.001800,47698.000000,1859681.001800,0.001800,47698.001800,1.000000,832-960,-1.000000,""
284_0_1,w0,profile_284,1852670.000000,129,28214.000000,1,COMPLETED_SUCCESSFULLY,1852670.001800,28213.000000,1880883.001800,0.001800,28213.001800,1.000000,0-128,-1.000000,""
287_0_1,w0,profile_287,1863372.000000,256,21626.000000,1,COMPLETED_SUCCESSFULLY,1863372.001800,21625.000000,1884997.001800,0.001800,21625.001800,1.000000,512-767,-1.000000,""
288_0_1,w0,profile_288,1864913.000000,256,21710.000000,1,COMPLETED_SUCCESSFULLY,1864913.001800,21709.000000,1886622.001800,0.001800,21709.001800,1.000000,832-960 1314-1440,-1.000000,""
292_0_1,w0,profile_292,1893702.000000,32,21701.000000,1,COMPLETED_SUCCESSFULLY,1893702.001800,21700.000000,1915402.001800,0.001800,21700.001800,1.000000,832-863,-1.000000,""
294_0_1,w0,profile_294,1908937.000000,1,21681.000000,1,COMPLETED_SUCCESSFULLY,1908937.001800,21680.000000,1930617.001800,0.001800,21680.001800,1.000000,3674,-1.000000,""
295_0_1,w0,profile_295,1911261.000000,256,21750.000000,1,COMPLETED_SUCCESSFULLY,1911261.001800,21749.000000,1933010.001800,0.001800,21749.001800,1.000000,3675-3930,-1.000000,""
285_0_1,w0,profile_285,1856568.000000,1000,86351.000000,1,COMPLETED_SUCCESSFULLY,1856568.001800,86350.000000,1942918.001800,0.001800,86350.001800,1.000000,129-511 768-831 961-1313 1442-1641,-1.000000,""
286_0_1,w0,profile_286,1856634.000000,1024,86442.000000,1,COMPLETED_SUCCESSFULLY,1856634.001800,86441.000000,1943075.001800,0.001800,86441.001800,1.000000,1642-2665,-1.000000,""
290_0_1,w0,profile_290,1885838.000000,256,73145.000000,1,COMPLETED_SUCCESSFULLY,1885838.001800,73144.000000,1958982.001800,0.001800,73144.001800,1.000000,639-767 1441 2666-2791,-1.000000,""
291_0_1,w0,profile_291,1885840.000000,256,78153.000000,1,COMPLETED_SUCCESSFULLY,1885840.001800,78152.000000,1963992.001800,0.001800,78152.001800,1.000000,2792-3047,-1.000000,""
289_0_1,w0,profile_289,1885836.000000,256,86517.000000,1,COMPLETED_SUCCESSFULLY,1885836.001800,86516.000000,1972352.001800,0.001800,86516.001800,1.000000,0-128 512-638,-1.000000,""
296_0_1,w0,profile_296,1953390.000000,1024,21703.000000,1,COMPLETED_SUCCESSFULLY,1953390.001800,21702.000000,1975092.001800,0.001800,21702.001800,1.000000,129-511 768-863 961-1313 1442-1633,-1.000000,""
297_0_1,w0,profile_297,1955316.000000,256,21629.000000,1,COMPLETED_SUCCESSFULLY,1955316.001800,21628.000000,1976944.001800,0.001800,21628.001800,1.000000,1634-1889,-1.000000,""
293_0_1,w0,profile_293,1899097.000000,850,78984.000000,1,COMPLETED_SUCCESSFULLY,1899097.001800,78983.000000,1978080.001800,0.001800,78983.001800,1.000000,864-960 1314-1440 3048-3673,-1.000000,""
298_0_1,w0,profile_298,1959041.000000,256,21696.000000,1,COMPLETED_SUCCESSFULLY,1959041.001800,21695.000000,1980736.001800,0.001800,21695.001800,1.000000,639-767 1441 1890-2015,-1.000000,""
299_0_1,w0,profile_299,1959118.000000,512,21691.000000,1,COMPLETED_SUCCESSFULLY,1959118.001800,21690.000000,1980808.001800,0.001800,21690.001800,1.000000,2016-2527,-1.000000,""
300_0_1,w0,profile_300,1959138.000000,256,21742.000000,1,COMPLETED_SUCCESSFULLY,1959138.001800,21741.000000,1980879.001800,0.001800,21741.001800,1.000000,2528-2783,-1.000000,""
301_0_1,w0,profile_301,1959403.000000,512,21727.000000,1,COMPLETED_SUCCESSFULLY,1959403.001800,21726.000000,1981129.001800,0.001800,21726.001800,1.000000,2784-2791 3674-4177,-1.000000,""
302_0_1,w0,profile_302,1959799.000000,1024,20948.000000,1,COMPLETED_SUCCESSFULLY,1975095.003450,20947.000000,1996042.003450,15296.003450,36243.003450,1.730224,0-638 768-863 961-1249,-1.000000,""
303_0_1,w0,profile_303,1961311.000000,2048,21691.000000,1,COMPLETED_SUCCESSFULLY,1980739.003450,21690.000000,2002429.003450,19428.003450,41118.003450,1.895712,639-767 864-960 1250-2015 2792-3673 4178-4351,-1.000000,""
305_0_1,w0,profile_305,1976242.000000,1,21696.000000,1,COMPLETED_SUCCESSFULLY,1996045.005700,21695.000000,2017740.005700,19803.005700,41498.005700,1.912791,3922,-1.000000,""
309_0_1,w0,profile_309,1984213.000000,256,21711.000000,1,COMPLETED_SUCCESSFULLY,2002432.006900,21710.000000,2024142.006900,18219.006900,39929.006900,1.839199,2859-3114,-1.000000,""
307_0_1,w0,profile_307,1979413.000000,1,21722.000000,1,COMPLETED_SUCCESSFULLY,2002432.005700,21721.000000,2024153.005700,23019.005700,44740.005700,2.059758,1826,-1.000000,""
304_0_1,w0,profile_304,1961591.000000,2048,43292.000000,1,COMPLETED_SUCCESSFULLY,1996045.005100,43291.000000,2039336.005100,34454.005100,77745.005100,1.795870,0-638 768-863 961-1249 2016-2791 3674-3921,-1.000000,""
310_0_1,w0,profile_310,2022140.000000,2,21709.000000,1,COMPLETED_SUCCESSFULLY,2022140.001800,21708.000000,2043848.001800,0.001800,21708.001800,1.000000,3115-3116,-1.000000,""
311_0_1,w0,profile_311,2023038.000000,2,21728.000000,1,COMPLETED_SUCCESSFULLY,2023038.001800,21727.000000,2044765.001800,0.001800,21727.001800,1.000000,3117-3118,-1.000000,""
306_0_1,w0,profile_306,1978534.000000,802,43313.000000,1,COMPLETED_SUCCESSFULLY,2002432.005100,43312.000000,2045744.005100,23898.005100,67210.005100,1.551764,639-767 864-960 1250-1825,-1.000000,""
308_0_1,w0,profile_308,1981817.000000,256,57712.000000,1,COMPLETED_SUCCESSFULLY,2002432.006300,57711.000000,2060143.006300,20615.006300,78326.006300,1.357211,1827-2015 2792-2858,-1.000000,""
314_0_1,w0,profile_314,2156465.000000,264,21682.000000,1,COMPLETED_SUCCESSFULLY,2156465.001800,21681.000000,2178146.001800,0.001800,21681.001800,1.000000,576-839,-1.000000,""
313_0_1,w0,profile_313,2156444.000000,320,21705.000000,1,COMPLETED_SUCCESSFULLY,2156444.001800,21704.000000,2178148.001800,0.001800,21704.001800,1.000000,256-575,-1.000000,""
312_0_1,w0,profile_312,2145069.000000,256,48359.000000,1,COMPLETED_SUCCESSFULLY,2145069.001800,48358.000000,2193427.001800,0.001800,48358.001800,1.000000,0-255,-1.000000,""
316_0_1,w0,profile_316,2204289.000000,1,21738.000000,1,COMPLETED_SUCCESSFULLY,2204289.001800,21737.000000,2226026.001800,0.001800,21737.001800,1.000000,201,-1.000000,""
317_0_1,w0,profile_317,2206825.000000,512,32516.000000,1,COMPLETED_SUCCESSFULLY,2206825.001800,32515.000000,2239340.001800,0.001800,32515.001800,1.000000,202-713,-1.000000,""
318_0_1,w0,profile_318,2226343.000000,1,21735.000000,1,COMPLETED_SUCCESSFULLY,2226343.001800,21734.000000,2248077.001800,0.001800,21734.001800,1.000000,201,-1.000000,""
321_0_1,w0,profile_321,2237710.000000,512,32522.000000,1,COMPLETED_SUCCESSFULLY,2237710.001800,32521.000000,2270231.001800,0.001800,32521.001800,1.000000,2738-3249,-1.000000,""
322_0_1,w0,profile_322,2239415.000000,512,32515.000000,1,COMPLETED_SUCCESSFULLY,2239415.001800,32514.000000,2271929.001800,0.001800,32514.001800,1.000000,202-713,-1.000000,""
324_0_1,w0,profile_324,2251224.000000,256,21720.000000,1,COMPLETED_SUCCESSFULLY,2251224.001800,21719.000000,2272943.001800,0.001800,21719.001800,1.000000,3505-3760,-1.000000,""
323_0_1,w0,profile_323,2250963.000000,256,22926.000000,1,COMPLETED_SUCCESSFULLY,2250963.001800,22925.000000,2273888.001800,0.001800,22925.001800,1.000000,201 3250-3504,-1.000000,""
315_0_1,w0,profile_315,2200805.000000,201,86491.000000,1,COMPLETED_SUCCESSFULLY,2200805.001800,86490.000000,2287295.001800,0.001800,86490.001800,1.000000,0-200,-1.000000,""
320_0_1,w0,profile_320,2234679.000000,1000,86315.000000,1,COMPLETED_SUCCESSFULLY,2234679.001800,86314.000000,2320993.001800,0.001800,86314.001800,1.000000,1738-2737,-1.000000,""
319_0_1,w0,profile_319,2234637.000000,1024,86429.000000,1,COMPLETED_SUCCESSFULLY,2234637.001800,86428.000000,2321065.001800,0.001800,86428.001800,1.000000,714-1737,-1.000000,""
326_0_1,w0,profile_326,2300117.000000,1024,21717.000000,1,COMPLETED_SUCCESSFULLY,2300117.001800,21716.000000,2321833.001800,0.001800,21716.001800,1.000000,3048-4071,-1.000000,""
327_0_1,w0,profile_327,2300777.000000,1024,21747.000000,1,COMPLETED_SUCCESSFULLY,2320996.003450,21746.000000,2342742.003450,20219.003450,41965.003450,1.929780,1738-2737 4072-4095,-1.000000,""
325_0_1,w0,profile_325,2300099.000000,1024,43337.000000,1,COMPLETED_SUCCESSFULLY,2300099.001800,43336.000000,2343435.001800,0.001800,43336.001800,1.000000,0-713 2738-3047,-1.000000,""
330_0_1,w0,profile_330,2306591.000000,256,21731.000000,1,COMPLETED_SUCCESSFULLY,2321836.004050,21730.000000,2343566.004050,15245.004050,36975.004050,1.701565,3560-3815,-1.000000,""
329_0_1,w0,profile_329,2304697.000000,512,31641.000000,1,COMPLETED_SUCCESSFULLY,2321836.003450,31640.000000,2353476.003450,17139.003450,48779.003450,1.541688,3048-3559,-1.000000,""
335_0_1,w0,profile_335,2313487.000000,256,21730.000000,1,COMPLETED_SUCCESSFULLY,2353479.005100,21729.000000,2375208.005100,39992.005100,61721.005100,2.840490,3048-3303,-1.000000,""
334_0_1,w0,profile_334,2311427.000000,256,47793.000000,1,COMPLETED_SUCCESSFULLY,2343569.005700,47792.000000,2391361.005700,32142.005700,79934.005700,1.672539,3040-3047 3560-3807,-1.000000,""
331_0_1,w0,profile_331,2309188.000000,256,73347.000000,1,COMPLETED_SUCCESSFULLY,2321836.004650,73346.000000,2395182.004650,12648.004650,85994.004650,1.172443,3816-4071,-1.000000,""
328_0_1,w0,profile_328,2302480.000000,1024,86517.000000,1,COMPLETED_SUCCESSFULLY,2321068.003450,86516.000000,2407584.003450,18588.003450,105104.003450,1.214850,714-1737,-1.000000,""
342_0_1,w0,profile_342,2321524.000000,256,21590.000000,1,COMPLETED_SUCCESSFULLY,2407587.006300,21589.000000,2429176.006300,86063.006300,107652.006300,4.986429,1226-1481,-1.000000,""
332_0_1,w0,profile_332,2310548.000000,1112,86519.000000,1,COMPLETED_SUCCESSFULLY,2342745.005100,86518.000000,2429263.005100,32197.005100,118715.005100,1.372142,1738-2737 4072-4183,-1.000000,""
343_0_1,w0,profile_343,2322300.000000,256,21706.000000,1,COMPLETED_SUCCESSFULLY,2407587.006900,21705.000000,2429292.006900,85287.006900,106992.006900,4.929371,1482-1737,-1.000000,""
333_0_1,w0,profile_333,2310649.000000,1016,86546.000000,1,COMPLETED_SUCCESSFULLY,2343438.003450,86545.000000,2429983.003450,32789.003450,119334.003450,1.378867,0-713 2738-3039,-1.000000,""
336_0_1,w0,profile_336,2320413.000000,256,86504.000000,1,COMPLETED_SUCCESSFULLY,2353479.005700,86503.000000,2439982.005700,33066.005700,119569.005700,1.382253,3304-3559,-1.000000,""
344_0_1,w0,profile_344,2322816.000000,20,36080.000000,1,COMPLETED_SUCCESSFULLY,2407587.007500,36079.000000,2443666.007500,84771.007500,120850.007500,3.349594,4064-4071 4184-4195,-1.000000,""
338_0_1,w0,profile_338,2320430.000000,256,55413.000000,1,COMPLETED_SUCCESSFULLY,2391364.007350,55412.000000,2446776.007350,70934.007350,126346.007350,2.280120,3040-3047 3560-3807,-1.000000,""
337_0_1,w0,profile_337,2320417.000000,256,82322.000000,1,COMPLETED_SUCCESSFULLY,2375211.006750,82321.000000,2457532.006750,54794.006750,137115.006750,1.665614,3048-3303,-1.000000,""
349_0_1,w0,profile_349,2337092.000000,256,21709.000000,1,COMPLETED_SUCCESSFULLY,2457535.008400,21708.000000,2479243.008400,120443.008400,142151.008400,6.548324,3048-3303,-1.000000,""
340_0_1,w0,profile_340,2321012.000000,256,73100.000000,1,COMPLETED_SUCCESSFULLY,2407587.005100,73099.000000,2480686.005100,86575.005100,159674.005100,2.184353,714-969,-1.000000,""
339_0_1,w0,profile_339,2321010.000000,256,86503.000000,1,COMPLETED_SUCCESSFULLY,2395185.006300,86502.000000,2481687.006300,74175.006300,160677.006300,1.857495,3808-4063,-1.000000,""
341_0_1,w0,profile_341,2321025.000000,256,77297.000000,1,COMPLETED_SUCCESSFULLY,2407587.005700,77296.000000,2484883.005700,86562.005700,163858.005700,2.119877,970-1225,-1.000000,""
350_0_1,w0,profile_350,2373449.000000,256,21732.000000,1,COMPLETED_SUCCESSFULLY,2484886.007350,21731.000000,2506617.007350,111437.007350,133168.007350,6.128020,970-1225,-1.000000,""
346_0_1,w0,profile_346,2328853.000000,512,30128.000000,1,COMPLETED_SUCCESSFULLY,2480689.006750,30127.000000,2510816.006750,151836.006750,181963.006750,6.039865,714-969 3048-3303,-1.000000,""
348_0_1,w0,profile_348,2335371.000000,16,43301.000000,1,COMPLETED_SUCCESSFULLY,2481690.008550,43300.000000,2524990.008550,146319.008550,189619.008550,4.379192,3824-3839,-1.000000,""
347_0_1,w0,profile_347,2335371.000000,16,43305.000000,1,COMPLETED_SUCCESSFULLY,2481690.007950,43304.000000,2524994.007950,146319.007950,189623.007950,4.378880,3808-3823,-1.000000,""
351_0_1,w0,profile_351,2373750.000000,256,21716.000000,1,COMPLETED_SUCCESSFULLY,2506620.009000,21715.000000,2528335.009000,132870.009000,154585.009000,7.118812,970-1225,-1.000000,""
375_0_1,w0,profile_375,2481295.000000,384,21132.000000,1,COMPLETED_SUCCESSFULLY,2510819.009000,21131.000000,2531950.009000,29524.009000,50655.009000,2.397189,3048-3303 3840-3967,-1.000000,""
354_0_1,w0,profile_354,2375422.000000,256,21711.000000,1,COMPLETED_SUCCESSFULLY,2510819.008400,21710.000000,2532529.008400,135397.008400,157107.008400,7.236619,714-969,-1.000000,""
345_0_1,w0,profile_345,2327220.000000,3360,86494.000000,1,COMPLETED_SUCCESSFULLY,2446779.009000,86493.000000,2533272.009000,119559.009000,206052.009000,2.382297,0-713 1226-3047 3304-3807 4064-4383,-1.000000,""
363_0_1,w0,profile_363,2401037.000000,1024,21679.000000,1,COMPLETED_SUCCESSFULLY,2533275.013050,21678.000000,2554953.013050,132238.013050,153916.013050,7.100102,3153-4176,-1.000000,""
356_0_1,w0,profile_356,2382774.000000,1024,21696.000000,1,COMPLETED_SUCCESSFULLY,2533275.012450,21695.000000,2554970.012450,150501.012450,172196.012450,7.937129,2129-3152,-1.000000,""
357_0_1,w0,profile_357,2384363.000000,2048,21781.000000,1,COMPLETED_SUCCESSFULLY,2554973.014100,21780.000000,2576753.014100,170610.014100,192390.014100,8.833334,2129-4176,-1.000000,""
352_0_1,w0,profile_352,2374618.000000,1112,48943.000000,1,COMPLETED_SUCCESSFULLY,2533275.010650,48942.000000,2582217.010650,158657.010650,207599.010650,4.241735,0-1111,-1.000000,""
378_0_1,w0,profile_378,2484455.000000,512,21710.000000,1,COMPLETED_SUCCESSFULLY,2576756.017550,21709.000000,2598465.017550,92301.017550,114010.017550,5.251740,3866-4377,-1.000000,""
360_0_1,w0,profile_360,2394038.000000,512,21725.000000,1,COMPLETED_SUCCESSFULLY,2576756.016950,21724.000000,2598480.016950,182718.016950,204442.016950,9.410883,3354-3865,-1.000000,""
355_0_1,w0,profile_355,2381281.000000,1,73238.000000,1,COMPLETED_SUCCESSFULLY,2533275.011850,73237.000000,2606512.011850,151994.011850,225231.011850,3.075372,2128,-1.000000,""
361_0_1,w0,profile_361,2395424.000000,2048,21722.000000,1,COMPLETED_SUCCESSFULLY,2598483.018600,21721.000000,2620204.018600,203059.018600,224780.018600,10.348512,0-1111 3354-4289,-1.000000,""
353_0_1,w0,profile_353,2374685.000000,1016,87658.000000,1,COMPLETED_SUCCESSFULLY,2533275.011250,87657.000000,2620932.011250,158590.011250,246247.011250,2.809211,1112-2127,-1.000000,""
364_0_1,w0,profile_364,2427545.000000,800,20956.000000,1,COMPLETED_SUCCESSFULLY,2620207.020850,20955.000000,2641162.020850,192662.020850,213617.020850,10.194084,512-1111 2128 3354-3552,-1.000000,""
366_0_1,w0,profile_366,2457531.000000,512,30278.000000,1,COMPLETED_SUCCESSFULLY,2620935.012900,30277.000000,2651212.012900,163404.012900,193681.012900,6.396968,1112-1623,-1.000000,""
362_0_1,w0,profile_362,2399364.000000,512,31178.000000,1,COMPLETED_SUCCESSFULLY,2620207.020250,31177.000000,2651384.020250,220843.020250,252020.020250,8.083524,0-511,-1.000000,""
368_0_1,w0,profile_368,2469007.000000,201,30606.000000,1,COMPLETED_SUCCESSFULLY,2620935.014100,30605.000000,2651540.014100,151928.014100,182533.014100,5.964157,2008-2127 4065-4145,-1.000000,""
365_0_1,w0,profile_365,2457376.000000,512,32079.000000,1,COMPLETED_SUCCESSFULLY,2620207.021450,32078.000000,2652285.021450,162831.021450,194909.021450,6.076096,3553-4064,-1.000000,""
367_0_1,w0,profile_367,2463752.000000,384,32520.000000,1,COMPLETED_SUCCESSFULLY,2620935.013500,32519.000000,2653454.013500,157183.013500,189702.013500,5.833575,1624-2007,-1.000000,""
358_0_1,w0,profile_358,2385360.000000,1024,86411.000000,1,COMPLETED_SUCCESSFULLY,2576756.015750,86410.000000,2663166.015750,191396.015750,277806.015750,3.214975,2129-3152,-1.000000,""
359_0_1,w0,profile_359,2386436.000000,201,86491.000000,1,COMPLETED_SUCCESSFULLY,2576756.016350,86490.000000,2663246.016350,190320.016350,276810.016350,3.200486,3153-3353,-1.000000,""
369_0_1,w0,profile_369,2472393.000000,720,43359.000000,1,COMPLETED_SUCCESSFULLY,2641165.022500,43358.000000,2684523.022500,168772.022500,212130.022500,4.892523,512-1111 2128 3354-3472,-1.000000,""
380_0_1,w0,profile_380,2493141.000000,256,21727.000000,1,COMPLETED_SUCCESSFULLY,2663169.018000,21726.000000,2684895.018000,170028.018000,191754.018000,8.826016,2931-3152 3971-4004,-1.000000,""
370_0_1,w0,profile_370,2472518.000000,720,43293.000000,1,COMPLETED_SUCCESSFULLY,2651215.014550,43292.000000,2694507.014550,178697.014550,221989.014550,5.127714,1112-1623 3473-3552 4146-4273,-1.000000,""
381_0_1,w0,profile_381,2500582.000000,32,31440.000000,1,COMPLETED_SUCCESSFULLY,2663169.018600,31439.000000,2694608.018600,162587.018600,194026.018600,6.171507,4005-4036,-1.000000,""
379_0_1,w0,profile_379,2484490.000000,512,22875.000000,1,COMPLETED_SUCCESSFULLY,2684526.024150,22874.000000,2707400.024150,200036.024150,222910.024150,9.745127,512-1023,-1.000000,""
371_0_1,w0,profile_371,2480094.000000,802,86511.000000,1,COMPLETED_SUCCESSFULLY,2651543.015750,86510.000000,2738053.015750,171449.015750,257959.015750,2.981840,0-511 2008-2127 4065-4145 4274-4362,-1.000000,""
372_0_1,w0,profile_372,2480106.000000,802,86511.000000,1,COMPLETED_SUCCESSFULLY,2653457.015150,86510.000000,2739967.015150,173351.015150,259861.015150,3.003826,1624-2007 3553-3970,-1.000000,""
373_0_1,w0,profile_373,2480111.000000,802,86559.000000,1,COMPLETED_SUCCESSFULLY,2663169.017400,86558.000000,2749727.017400,183058.017400,269616.017400,3.114860,2129-2930,-1.000000,""
374_0_1,w0,profile_374,2480994.000000,2048,43326.000000,1,COMPLETED_SUCCESSFULLY,2738056.017400,43325.000000,2781381.017400,257062.017400,300387.017400,6.933341,0-1623 2008-2128 2931-3233,-1.000000,""
376_0_1,w0,profile_376,2484054.000000,2048,85245.000000,1,COMPLETED_SUCCESSFULLY,2749730.019050,85244.000000,2834974.019050,265676.019050,350920.019050,4.116654,1624-2007 2129-2930 3234-4095,-1.000000,""
377_0_1,w0,profile_377,2484071.000000,2048,85264.000000,1,COMPLETED_SUCCESSFULLY,2781384.019050,85263.000000,2866647.019050,297313.019050,382576.019050,4.487011,0-1623 2008-2128 2931-3233,-1.000000,""
