time,nb_sleeping,nb_switching_on,nb_switching_off,nb_idle,nb_computing
0.00240003,0,0,0,4008,384
0.00300004,0,0,0,2402,1990
0.00360005,0,0,0,2146,2246
0.00420006,0,0,0,2122,2270
0.00480006,0,0,0,2097,2295
0.00540007,0,0,0,2072,2320
0.00600008,0,0,0,2047,2345
0.00660009,0,0,0,1927,2465
0.0072001,0,0,0,903,3489
0.0078001,0,0,0,645,3747
0.00840011,0,0,0,133,4259
21626,0,0,0,158,4234
21646,0,0,0,182,4210
22834,0,0,0,440,3952
22837,0,0,0,175,4217
23024,0,0,0,431,3961
23027,0,0,0,175,4217
29163,0,0,0,559,3833
29166,0,0,0,47,4345
32559,0,0,0,559,3833
32562,0,0,0,47,4345
43176,0,0,0,72,4320
43220,0,0,0,97,4295
45704,0,0,0,362,4030
45707,0,0,0,106,4286
46186,0,0,0,362,4030
46189,0,0,0,106,4286
56751,0,0,0,618,3774
56754,0,0,0,106,4286
65122,0,0,0,618,3774
65125,0,0,0,106,4286
67919,0,0,0,362,4030
68614,0,0,0,618,3774
77868,0,0,0,1130,3262
80983,0,0,0,2736,1656
85300,0,0,0,3248,1144
86429,0,0,0,3368,1024
86535,0,0,0,4392,0
86538,0,0,0,42,4350
115437,0,0,0,4392,0
115440,0,0,0,42,4350
144346,0,0,0,4392,0
144349,0,0,0,3720,672
144349,0,0,0,3208,1184
144349,0,0,0,2696,1696
144349,0,0,0,2184,2208
144349,0,0,0,1544,2848
144349,0,0,0,520,3872
144349,0,0,0,8,4384
164447,0,0,0,520,3872
166074,0,0,0,1032,3360
166077,0,0,0,230,4162
168476,0,0,0,742,3650
168674,0,0,0,1254,3138
187691,0,0,0,1926,2466
187694,0,0,0,320,4072
187707,0,0,0,960,3432
187710,0,0,0,448,3944
187710,0,0,0,192,4200
210694,0,0,0,448,3944
210845,0,0,0,960,3432
210848,0,0,0,448,3944
230882,0,0,0,1472,2920
230885,0,0,0,960,3432
230885,0,0,0,704,3688
230885,0,0,0,192,4200
235945,0,0,0,994,3398
235948,0,0,0,94,4298
239044,0,0,0,606,3786
239047,0,0,0,94,4298
253785,0,0,0,350,4042
257513,0,0,0,862,3530
257674,0,0,0,1762,2630
263381,0,0,0,2274,2118
265701,0,0,0,2786,1606
269245,0,0,0,4392,0
269248,0,0,0,423,3969
269248,0,0,0,167,4225
291512,0,0,0,423,3969
315811,0,0,0,4392,0
315814,0,0,0,3069,1323
315814,0,0,0,2557,1835
315814,0,0,0,2045,2347
315814,0,0,0,1533,2859
315814,0,0,0,1021,3371
337777,0,0,0,509,3883
341153,0,0,0,1021,3371
341158,0,0,0,1533,2859
341166,0,0,0,2045,2347
341191,0,0,0,2557,1835
359515,0,0,0,3069,1323
360171,0,0,0,4392,0
360174,0,0,0,36,4356
393988,0,0,0,4392,0
393991,0,0,0,4136,256
393991,0,0,0,3368,1024
393991,0,0,0,2856,1536
393991,0,0,0,2344,2048
393991,0,0,0,1832,2560
393991,0,0,0,808,3584
393991,0,0,0,552,3840
393991,0,0,0,520,3872
393991,0,0,0,488,3904
393991,0,0,0,456,3936
393991,0,0,0,424,3968
416856,0,0,0,680,3712
423083,0,0,0,712,3680
423615,0,0,0,744,3648
423645,0,0,0,776,3616
426519,0,0,0,1288,3104
436017,0,0,0,1032,3360
437267,0,0,0,1064,3328
437398,0,0,0,2088,2304
452152,0,0,0,2856,1536
454303,0,0,0,3112,1280
456499,0,0,0,3368,1024
465987,0,0,0,3880,512
466002,0,0,0,4392,0
466005,0,0,0,192,4200
553781,0,0,0,4392,0
553784,0,0,0,3368,1024
553784,0,0,0,1320,3072
553784,0,0,0,936,3456
553784,0,0,0,680,3712
553784,0,0,0,424,3968
553784,0,0,0,168,4224
575375,0,0,0,424,3968
575378,0,0,0,168,4224
576696,0,0,0,424,3968
576699,0,0,0,168,4224
576805,0,0,0,424,3968
576808,0,0,0,168,4224
586303,0,0,0,552,3840
597457,0,0,0,808,3584
598568,0,0,0,1064,3328
598571,0,0,0,48,4344
626809,0,0,0,304,4088
638808,0,0,0,2352,2040
638811,0,0,0,1456,2936
638811,0,0,0,440,3952
638811,0,0,0,184,4208
651069,0,0,0,1208,3184
651072,0,0,0,824,3568
651072,0,0,0,568,3824
651072,0,0,0,312,4080
661663,0,0,0,568,3824
673996,0,0,0,824,3568
674084,0,0,0,1080,3312
681868,0,0,0,824,3568
683610,0,0,0,1208,3184
685001,0,0,0,952,3440
686341,0,0,0,1968,2424
703726,0,0,0,2224,2168
707387,0,0,0,2480,1912
725344,0,0,0,3496,896
725390,0,0,0,4392,0
725393,0,0,0,42,4350
755703,0,0,0,4392,0
755706,0,0,0,42,4350
785775,0,0,0,4392,0
785778,0,0,0,42,4350
815897,0,0,0,4392,0
815900,0,0,0,2786,1606
815900,0,0,0,2658,1734
815900,0,0,0,1856,2536
815900,0,0,0,1216,3176
815900,0,0,0,192,4200
853317,0,0,0,994,3398
859339,0,0,0,1634,2758
859342,0,0,0,610,3782
859342,0,0,0,481,3911
859342,0,0,0,225,4167
869535,0,0,0,353,4039
869538,0,0,0,97,4295
879866,0,0,0,1121,3271
879869,0,0,0,105,4287
891292,0,0,0,361,4031
891295,0,0,0,105,4287
898500,0,0,0,1711,2681
898503,0,0,0,1455,2937
898503,0,0,0,1071,3321
902468,0,0,0,2095,2297
902471,0,0,0,815,3577
909604,0,0,0,1071,3321
911482,0,0,0,1200,3192
913007,0,0,0,1456,2936
921475,0,0,0,1712,2680
931056,0,0,0,2096,2296
935087,0,0,0,3376,1016
966547,0,0,0,4392,0
966550,0,0,0,168,4224
989639,0,0,0,4392,0
989642,0,0,0,2344,2048
989642,0,0,0,296,4096
989642,0,0,0,168,4224
989642,0,0,0,40,4352
1.03988e+06,0,0,0,168,4224
1.04171e+06,0,0,0,296,4096
1.0747e+06,0,0,0,2344,2048
1.07477e+06,0,0,0,4392,0
1.07477e+06,0,0,0,192,4200
1.07477e+06,0,0,0,64,4328
1.07477e+06,0,0,0,32,4360
1.07813e+06,0,0,0,31,4361
1.07818e+06,0,0,0,30,4362
1.12331e+06,0,0,0,158,4234
1.12521e+06,0,0,0,159,4233
1.12523e+06,0,0,0,160,4232
1.14243e+06,0,0,0,192,4200
1.14249e+06,0,0,0,4392,0
1.14249e+06,0,0,0,3069,1323
1.14249e+06,0,0,0,2813,1579
1.14249e+06,0,0,0,2301,2091
1.14249e+06,0,0,0,1789,2603
1.14249e+06,0,0,0,765,3627
1.14249e+06,0,0,0,332,4060
1.14686e+06,0,0,0,76,4316
1.16422e+06,0,0,0,509,3883
1.16426e+06,0,0,0,765,3627
1.16862e+06,0,0,0,1021,3371
1.17496e+06,0,0,0,1533,2859
1.17504e+06,0,0,0,2045,2347
1.18553e+06,0,0,0,3368,1024
1.19438e+06,0,0,0,2352,2040
1.20451e+06,0,0,0,1840,2552
1.20503e+06,0,0,0,1328,3064
1.2066e+06,0,0,0,1072,3320
1.22518e+06,0,0,0,1584,2808
1.22829e+06,0,0,0,1840,2552
1.2283e+06,0,0,0,234,4158
1.22903e+06,0,0,0,1258,3134
1.22903e+06,0,0,0,1002,3390
1.22903e+06,0,0,0,746,3646
1.23705e+06,0,0,0,1258,3134
1.24797e+06,0,0,0,1254,3138
1.25075e+06,0,0,0,1510,2882
1.25078e+06,0,0,0,1766,2626
1.27837e+06,0,0,0,1770,2622
1.28088e+06,0,0,0,2786,1606
1.28401e+06,0,0,0,2770,1622
1.29032e+06,0,0,0,1490,2902
1.31262e+06,0,0,0,3096,1296
1.31306e+06,0,0,0,3112,1280
1.31668e+06,0,0,0,2856,1536
1.32284e+06,0,0,0,4136,256
1.32362e+06,0,0,0,2530,1862
1.33716e+06,0,0,0,2786,1606
1.38339e+06,0,0,0,2530,1862
1.40438e+06,0,0,0,4136,256
1.40533e+06,0,0,0,4392,0
1.43471e+06,0,0,0,4136,256
1.43471e+06,0,0,0,3880,512
1.4348e+06,0,0,0,3624,768
1.43493e+06,0,0,0,3368,1024
1.43502e+06,0,0,0,3112,1280
1.43713e+06,0,0,0,2856,1536
1.45533e+06,0,0,0,3112,1280
1.45612e+06,0,0,0,3368,1024
1.45634e+06,0,0,0,3624,768
1.45655e+06,0,0,0,3880,512
1.45672e+06,0,0,0,4136,256
1.45865e+06,0,0,0,4392,0
1.50865e+06,0,0,0,4136,256
1.52879e+06,0,0,0,4392,0
1.54126e+06,0,0,0,4136,256
1.54126e+06,0,0,0,3880,512
1.5443e+06,0,0,0,2864,1528
1.54444e+06,0,0,0,2480,1912
1.54454e+06,0,0,0,2096,2296
1.56205e+06,0,0,0,2352,2040
1.56369e+06,0,0,0,2608,1784
1.5761e+06,0,0,0,2175,2217
1.57697e+06,0,0,0,2559,1833
1.57711e+06,0,0,0,2943,1449
1.59719e+06,0,0,0,3376,1016
1.59719e+06,0,0,0,16,4376
1.63088e+06,0,0,0,1032,3360
1.63088e+06,0,0,0,552,3840
1.63088e+06,0,0,0,424,3968
1.66212e+06,0,0,0,3784,608
1.66212e+06,0,0,0,2768,1624
1.66212e+06,0,0,0,720,3672
1.66338e+06,0,0,0,1200,3192
1.68008e+06,0,0,0,944,3448
1.70307e+06,0,0,0,1200,3192
1.71275e+06,0,0,0,304,4088
1.71738e+06,0,0,0,432,3960
1.72707e+06,0,0,0,176,4216
1.74718e+06,0,0,0,2224,2168
1.74718e+06,0,0,0,1968,2424
1.74867e+06,0,0,0,2984,1408
1.74883e+06,0,0,0,3240,1152
1.75141e+06,0,0,0,1192,3200
1.76888e+06,0,0,0,1448,2944
1.77054e+06,0,0,0,1015,3377
1.79161e+06,0,0,0,1448,2944
1.7993e+06,0,0,0,2344,2048
1.7993e+06,0,0,0,296,4096
1.83795e+06,0,0,0,2344,2048
1.83795e+06,0,0,0,1328,3064
1.87478e+06,0,0,0,526,3866
1.88438e+06,0,0,0,2574,1818
1.88439e+06,0,0,0,1558,2834
1.89232e+06,0,0,0,1457,2935
1.92448e+06,0,0,0,2473,1919
1.92448e+06,0,0,0,867,3525
1.92448e+06,0,0,0,611,3781
1.92448e+06,0,0,0,461,3931
1.92448e+06,0,0,0,205,4187
1.93924e+06,0,0,0,306,4086
1.93924e+06,0,0,0,50,4342
1.94719e+06,0,0,0,306,4086
1.94719e+06,0,0,0,50,4342
1.94739e+06,0,0,0,306,4086
1.94739e+06,0,0,0,50,4342
1.949e+06,0,0,0,200,4192
1.96085e+06,0,0,0,456,3936
1.96086e+06,0,0,0,200,4192
1.961e+06,0,0,0,1002,3390
1.961e+06,0,0,0,746,3646
1.961e+06,0,0,0,490,3902
1.961e+06,0,0,0,234,4158
1.96915e+06,0,0,0,490,3902
1.97006e+06,0,0,0,746,3646
1.97086e+06,0,0,0,1762,2630
1.98148e+06,0,0,0,2018,2374
1.98255e+06,0,0,0,2274,2118
1.98322e+06,0,0,0,2530,1862
1.9833e+06,0,0,0,2786,1606
1.99667e+06,0,0,0,2274,2118
1.99868e+06,0,0,0,1250,3142
2.00632e+06,0,0,0,2856,1536
2.0291e+06,0,0,0,3368,1024
2.05403e+06,0,0,0,2352,2040
2.05438e+06,0,0,0,2096,2296
2.06863e+06,0,0,0,1968,2424
2.07522e+06,0,0,0,1818,2574
2.0759e+06,0,0,0,2074,2318
2.08071e+06,0,0,0,1818,2574
2.08075e+06,0,0,0,1562,2830
2.08304e+06,0,0,0,1129,3263
2.0865e+06,0,0,0,2153,2239
2.0889e+06,0,0,0,1897,2495
2.08891e+06,0,0,0,1641,2751
2.09953e+06,0,0,0,1791,2601
2.1024e+06,0,0,0,2047,2345
2.10246e+06,0,0,0,2303,2089
2.10408e+06,0,0,0,2736,1656
2.11054e+06,0,0,0,2992,1400
2.11085e+06,0,0,0,3248,1144
2.112e+06,0,0,0,3376,1016
2.112e+06,0,0,0,16,4376
2.14052e+06,0,0,0,1032,3360
2.14052e+06,0,0,0,776,3616
2.16262e+06,0,0,0,1032,3360
2.16493e+06,0,0,0,4392,0
2.16493e+06,0,0,0,2344,2048
2.16493e+06,0,0,0,1021,3371
2.16493e+06,0,0,0,765,3627
2.16493e+06,0,0,0,509,3883
2.16493e+06,0,0,0,253,4139
2.18664e+06,0,0,0,509,3883
2.18664e+06,0,0,0,253,4139
2.20709e+06,0,0,0,509,3883
2.20756e+06,0,0,0,1832,2560
2.20756e+06,0,0,0,1192,3200
2.20756e+06,0,0,0,936,3456
2.20756e+06,0,0,0,680,3712
2.21261e+06,0,0,0,424,3968
2.22942e+06,0,0,0,680,3712
2.22998e+06,0,0,0,936,3456
2.23316e+06,0,0,0,1192,3200
2.24731e+06,0,0,0,1832,2560
2.24731e+06,0,0,0,226,4166
2.24996e+06,0,0,0,2274,2118
2.24997e+06,0,0,0,1890,2502
2.24997e+06,0,0,0,874,3518
2.24997e+06,0,0,0,746,3646
2.24997e+06,0,0,0,618,3774
2.24997e+06,0,0,0,490,3902
2.24997e+06,0,0,0,362,4030
2.24997e+06,0,0,0,234,4158
2.25144e+06,0,0,0,490,3902
2.25271e+06,0,0,0,746,3646
2.27576e+06,0,0,0,874,3518
2.27588e+06,0,0,0,1002,3390
2.27744e+06,0,0,0,1130,3262
2.27757e+06,0,0,0,1258,3134
2.28374e+06,0,0,0,1642,2750
2.31245e+06,0,0,0,626,3766
2.31766e+06,0,0,0,754,3638
2.3198e+06,0,0,0,2360,2032
2.33177e+06,0,0,0,2104,2288
2.33179e+06,0,0,0,1848,2544
2.3318e+06,0,0,0,1592,2800
2.33182e+06,0,0,0,1080,3312
2.33183e+06,0,0,0,568,3824
2.33184e+06,0,0,0,56,4336
2.33439e+06,0,0,0,52,4340
2.33647e+06,0,0,0,1068,3324
2.35339e+06,0,0,0,1324,3068
2.3534e+06,0,0,0,1580,2812
2.35341e+06,0,0,0,1836,2556
2.35341e+06,0,0,0,230,4162
2.36436e+06,0,0,0,742,3650
2.36437e+06,0,0,0,1254,3138
2.36438e+06,0,0,0,1766,2626
2.36992e+06,0,0,0,1510,2882
2.39894e+06,0,0,0,2526,1866
2.40672e+06,0,0,0,2530,1862
2.40919e+06,0,0,0,2786,1606
2.41331e+06,0,0,0,2530,1862
2.41637e+06,0,0,0,2274,2118
2.41642e+06,0,0,0,2018,2374
2.42422e+06,0,0,0,3624,768
2.43257e+06,0,0,0,3191,1201
2.43319e+06,0,0,0,2935,1457
2.43811e+06,0,0,0,3191,1201
2.43823e+06,0,0,0,3447,945
2.44262e+06,0,0,0,3191,1201
2.44405e+06,0,0,0,3061,1331
2.4528e+06,0,0,0,3317,1075
2.45387e+06,0,0,0,3750,642
2.45489e+06,0,0,0,4006,386
2.47532e+06,0,0,0,4262,130
2.47677e+06,0,0,0,3460,932
2.49802e+06,0,0,0,4262,130
2.51076e+06,0,0,0,4006,386
2.51097e+06,0,0,0,3750,642
2.5179e+06,0,0,0,2726,1666
2.52049e+06,0,0,0,2470,1922
2.53249e+06,0,0,0,2726,1666
2.53268e+06,0,0,0,2982,1410
2.54219e+06,0,0,0,3238,1154
2.54539e+06,0,0,0,2726,1666
2.5497e+06,0,0,0,2470,1922
2.54978e+06,0,0,0,2214,2178
2.54992e+06,0,0,0,1958,2434
2.55028e+06,0,0,0,1702,2690
2.55208e+06,0,0,0,1832,2560
2.55392e+06,0,0,0,1320,3072
2.56707e+06,0,0,0,1832,2560
2.57048e+06,0,0,0,2088,2304
2.57139e+06,0,0,0,2344,2048
2.57143e+06,0,0,0,2600,1792
2.57146e+06,0,0,0,2856,1536
2.57484e+06,0,0,0,3368,1024
2.58806e+06,0,0,0,3112,1280
2.59349e+06,0,0,0,2856,1536
2.59351e+06,0,0,0,2344,2048
2.59465e+06,0,0,0,2088,2304
2.59468e+06,0,0,0,1576,2816
2.5977e+06,0,0,0,1446,2946
2.59866e+06,0,0,0,1344,3048
2.60376e+06,0,0,0,2368,2024
2.60966e+06,0,0,0,2624,1768
2.6151e+06,0,0,0,2880,1512
2.61627e+06,0,0,0,3136,1256
2.62596e+06,0,0,0,3648,744
2.62713e+06,0,0,0,4160,232
2.62948e+06,0,0,0,3904,488
2.63051e+06,0,0,0,4034,358
2.6318e+06,0,0,0,3778,614
2.63935e+06,0,0,0,3880,512
2.64506e+06,0,0,0,3624,768
2.65123e+06,0,0,0,3880,512
2.65327e+06,0,0,0,4136,256
2.65566e+06,0,0,0,3176,1216
2.66675e+06,0,0,0,3432,960
2.66881e+06,0,0,0,1384,3008
2.67371e+06,0,0,0,1128,3264
2.67389e+06,0,0,0,1026,3366
2.67649e+06,0,0,0,770,3622
2.67718e+06,0,0,0,1730,2662
2.69062e+06,0,0,0,1474,2918
2.69063e+06,0,0,0,1218,3174
2.69064e+06,0,0,0,962,3430
2.69066e+06,0,0,0,706,3686
2.69067e+06,0,0,0,450,3942
2.69068e+06,0,0,0,194,4198
2.69542e+06,0,0,0,450,3942
2.69542e+06,0,0,0,194,4198
2.70275e+06,0,0,0,296,4096
2.70512e+06,0,0,0,552,3840
2.7121e+06,0,0,0,2600,1792
2.7121e+06,0,0,0,1576,2816
2.7121e+06,0,0,0,1096,3296
2.71235e+06,0,0,0,1352,3040
2.71245e+06,0,0,0,1608,2784
2.71251e+06,0,0,0,1864,2528
2.71337e+06,0,0,0,2120,2272
2.71354e+06,0,0,0,2376,2016
2.71384e+06,0,0,0,2632,1760
2.71656e+06,0,0,0,2376,2016
2.71721e+06,0,0,0,2632,1760
2.73831e+06,0,0,0,2888,1504
2.7441e+06,0,0,0,3368,1024
2.75556e+06,0,0,0,3266,1126
2.75899e+06,0,0,0,3010,1382
2.75899e+06,0,0,0,2754,1638
2.76582e+06,0,0,0,2498,1894
2.76607e+06,0,0,0,2114,2278
2.76661e+06,0,0,0,1730,2662
2.76674e+06,0,0,0,1346,3046
2.76722e+06,0,0,0,962,3430
2.78108e+06,0,0,0,706,3686
2.78756e+06,0,0,0,962,3430
2.79004e+06,0,0,0,1346,3046
2.79005e+06,0,0,0,322,4070
2.79042e+06,0,0,0,706,3686
2.79042e+06,0,0,0,194,4198
2.79105e+06,0,0,0,578,3814
2.79149e+06,0,0,0,962,3430
2.79858e+06,0,0,0,1986,2406
2.79859e+06,0,0,0,380,4012
2.80282e+06,0,0,0,636,3756
2.81655e+06,0,0,0,738,3654
2.81964e+06,0,0,0,226,4166
2.82273e+06,0,0,0,482,3910
2.82292e+06,0,0,0,994,3398
2.83601e+06,0,0,0,1250,3142
2.84138e+06,0,0,0,1130,3262
2.84559e+06,0,0,0,746,3646
2.84566e+06,0,0,0,362,4030
2.85219e+06,0,0,0,874,3518
2.85219e+06,0,0,0,490,3902
2.85219e+06,0,0,0,234,4158
2.86275e+06,0,0,0,354,4038
2.86275e+06,0,0,0,98,4294
2.87656e+06,0,0,0,1122,3270
2.87656e+06,0,0,0,994,3398
2.87656e+06,0,0,0,514,3878
2.87656e+06,0,0,0,482,3910
2.8781e+06,0,0,0,866,3526
2.87817e+06,0,0,0,1250,3142
2.88104e+06,0,0,0,2856,1536
2.88473e+06,0,0,0,3240,1152
2.89804e+06,0,0,0,3496,896
2.90549e+06,0,0,0,3528,864
2.90909e+06,0,0,0,4008,384
2.92071e+06,0,0,0,4000,392
2.9226e+06,0,0,0,2984,1408
2.92798e+06,0,0,0,2728,1664
2.92893e+06,0,0,0,2696,1696
2.92902e+06,0,0,0,2664,1728
2.93052e+06,0,0,0,2632,1760
2.93991e+06,0,0,0,1732,2660
2.94118e+06,0,0,0,1860,2532
2.94375e+06,0,0,0,1220,3172
2.94655e+06,0,0,0,1476,2916
2.9497e+06,0,0,0,1732,2660
2.96661e+06,0,0,0,1476,2916
2.96764e+06,0,0,0,1508,2884
2.96955e+06,0,0,0,1075,3317
2.97581e+06,0,0,0,1083,3309
2.97829e+06,0,0,0,2099,2293
2.98707e+06,0,0,0,2739,1653
2.9906e+06,0,0,0,3172,1220
3.01542e+06,0,0,0,3204,1188
3.01552e+06,0,0,0,3236,1156
3.01987e+06,0,0,0,3492,900
3.0273e+06,0,0,0,4392,0
