time,nb_sleeping,nb_switching_on,nb_switching_off,nb_idle,nb_computing
0.00240003,0,0,0,2344,2048
0.00300004,0,0,0,2088,2304
0.00360005,0,0,0,1960,2432
0.00420006,0,0,0,1576,2816
0.00480006,0,0,0,1448,2944
0.00540007,0,0,0,1320,3072
0.00600008,0,0,0,1192,3200
0.00660009,0,0,0,943,3449
0.0072001,0,0,0,815,3577
0.0078001,0,0,0,687,3705
0.00840011,0,0,0,559,3833
0.00900012,0,0,0,391,4001
0.00960013,0,0,0,263,4129
0.0102001,0,0,0,135,4257
0.0108001,0,0,0,7,4385
10745,0,0,0,135,4257
10768,0,0,0,263,4129
10786,0,0,0,391,4001
10816,0,0,0,519,3873
10840,0,0,0,647,3745
10848,0,0,0,815,3577
10866,0,0,0,943,3449
10878,0,0,0,1071,3321
10895,0,0,0,1199,3193
10898,0,0,0,87,4305
10920,0,0,0,215,4177
10923,0,0,0,71,4321
10933,0,0,0,199,4193
18102,0,0,0,455,3937
18105,0,0,0,206,4186
19194,0,0,0,590,3802
19197,0,0,0,341,4051
19197,0,0,0,213,4179
19197,0,0,0,85,4307
19197,0,0,0,84,4308
21858,0,0,0,228,4164
21861,0,0,0,100,4292
30130,0,0,0,228,4164
30133,0,0,0,100,4292
30245,0,0,0,228,4164
30248,0,0,0,100,4292
32768,0,0,0,228,4164
32771,0,0,0,72,4320
34635,0,0,0,73,4319
41037,0,0,0,201,4191
41138,0,0,0,329,4063
43628,0,0,0,485,3907
46014,0,0,0,2533,1859
46017,0,0,0,1731,2661
46017,0,0,0,531,3861
46017,0,0,0,275,4117
46017,0,0,0,147,4245
46017,0,0,0,19,4373
46222,0,0,0,268,4124
46225,0,0,0,140,4252
46225,0,0,0,12,4380
56776,0,0,0,140,4252
56912,0,0,0,268,4124
57030,0,0,0,396,3996
57088,0,0,0,524,3868
61520,0,0,0,780,3612
63734,0,0,0,1029,3363
63737,0,0,0,227,4165
63737,0,0,0,99,4293
74575,0,0,0,227,4165
74982,0,0,0,1029,3363
74985,0,0,0,5,4387
97379,0,0,0,1117,3275
97382,0,0,0,93,4299
117912,0,0,0,342,4050
117915,0,0,0,214,4178
117915,0,0,0,86,4306
128806,0,0,0,214,4178
128868,0,0,0,342,4050
132501,0,0,0,1542,2850
132504,0,0,0,518,3874
132595,0,0,0,1320,3072
132598,0,0,0,552,3840
142701,0,0,0,1320,3072
142704,0,0,0,296,4096
142704,0,0,0,168,4224
142704,0,0,0,40,4352
153469,0,0,0,168,4224
153607,0,0,0,296,4096
158960,0,0,0,1320,3072
158963,0,0,0,296,4096
158963,0,0,0,40,4352
175266,0,0,0,1064,3328
175269,0,0,0,808,3584
175269,0,0,0,552,3840
179109,0,0,0,1576,2816
179112,0,0,0,560,3832
179303,0,0,0,1584,2808
179306,0,0,0,568,3824
179306,0,0,0,317,4075
179306,0,0,0,66,4326
179354,0,0,0,322,4070
179357,0,0,0,194,4198
179357,0,0,0,66,4326
190163,0,0,0,194,4198
190243,0,0,0,322,4070
196890,0,0,0,578,3814
196893,0,0,0,178,4214
197031,0,0,0,434,3958
202051,0,0,0,1458,2934
202054,0,0,0,346,4046
202054,0,0,0,97,4295
225715,0,0,0,497,3895
225718,0,0,0,248,4144
225718,0,0,0,120,4272
230620,0,0,0,371,4021
230623,0,0,0,115,4277
236578,0,0,0,243,4149
236581,0,0,0,115,4277
241509,0,0,0,371,4021
241512,0,0,0,115,4277
247398,0,0,0,243,4149
247401,0,0,0,115,4277
247967,0,0,0,364,4028
247970,0,0,0,108,4284
252271,0,0,0,364,4028
252274,0,0,0,236,4156
252274,0,0,0,108,4284
255346,0,0,0,357,4035
257945,0,0,0,485,3907
258720,0,0,0,741,3651
263131,0,0,0,869,3523
263186,0,0,0,997,3395
265628,0,0,0,2013,2379
265631,0,0,0,1013,3379
265631,0,0,0,500,3892
265814,0,0,0,1516,2876
265817,0,0,0,1004,3388
265817,0,0,0,254,4138
265817,0,0,0,126,4266
276691,0,0,0,254,4138
276704,0,0,0,1004,3388
276707,0,0,0,254,4138
286891,0,0,0,1366,3026
286894,0,0,0,616,3776
287588,0,0,0,1366,3026
287591,0,0,0,366,4026
292325,0,0,0,617,3775
297722,0,0,0,1367,3025
297725,0,0,0,367,4025
298169,0,0,0,880,3512
298516,0,0,0,1880,2512
298519,0,0,0,880,3512
299633,0,0,0,1392,3000
299636,0,0,0,392,4000
308581,0,0,0,1392,3000
308584,0,0,0,392,4000
309496,0,0,0,1392,3000
309499,0,0,0,392,4000
310502,0,0,0,1392,3000
310505,0,0,0,392,4000
319445,0,0,0,1392,3000
319448,0,0,0,392,4000
320339,0,0,0,1392,3000
320342,0,0,0,392,4000
321378,0,0,0,1392,3000
321381,0,0,0,368,4024
321381,0,0,0,119,4273
330361,0,0,0,1119,3273
330364,0,0,0,870,3522
330364,0,0,0,614,3778
330364,0,0,0,358,4034
331306,0,0,0,1358,3034
331309,0,0,0,974,3418
331309,0,0,0,846,3546
331309,0,0,0,597,3795
331309,0,0,0,429,3963
331309,0,0,0,301,4091
331309,0,0,0,173,4219
331309,0,0,0,45,4347
341201,0,0,0,301,4091
341204,0,0,0,173,4219
341204,0,0,0,45,4347
342131,0,0,0,429,3963
342134,0,0,0,301,4091
342134,0,0,0,173,4219
342134,0,0,0,45,4347
342157,0,0,0,173,4219
342160,0,0,0,45,4347
342184,0,0,0,213,4179
342185,0,0,0,341,4051
342190,0,0,0,213,4179
342190,0,0,0,85,4307
342234,0,0,0,213,4179
342237,0,0,0,85,4307
342239,0,0,0,213,4179
342242,0,0,0,85,4307
351403,0,0,0,1085,3307
351406,0,0,0,957,3435
351406,0,0,0,829,3563
351406,0,0,0,701,3691
351406,0,0,0,573,3819
351406,0,0,0,445,3947
351406,0,0,0,317,4075
351406,0,0,0,68,4324
351955,0,0,0,324,4068
351958,0,0,0,75,4317
352067,0,0,0,203,4189
352070,0,0,0,75,4317
352094,0,0,0,203,4189
352968,0,0,0,331,4061
352971,0,0,0,82,4310
352974,0,0,0,210,4182
352977,0,0,0,82,4310
353050,0,0,0,210,4182
353061,0,0,0,338,4054
353069,0,0,0,466,3926
353085,0,0,0,594,3798
353119,0,0,0,722,3670
353156,0,0,0,850,3542
353928,0,0,0,1099,3293
353931,0,0,0,203,4189
355790,0,0,0,452,3940
362240,0,0,0,580,3812
362247,0,0,0,708,3684
362259,0,0,0,836,3556
362264,0,0,0,964,3428
362267,0,0,0,68,4324
362267,0,0,0,64,4328
362292,0,0,0,192,4200
362295,0,0,0,64,4328
362345,0,0,0,192,4200
362348,0,0,0,64,4328
362900,0,0,0,192,4200
362903,0,0,0,64,4328
363821,0,0,0,192,4200
363824,0,0,0,64,4328
364850,0,0,0,313,4079
364853,0,0,0,57,4335
373119,0,0,0,185,4207
373122,0,0,0,57,4335
373216,0,0,0,185,4207
373219,0,0,0,57,4335
373704,0,0,0,185,4207
373707,0,0,0,57,4335
374690,0,0,0,185,4207
374693,0,0,0,35,4357
376256,0,0,0,39,4353
378944,0,0,0,295,4097
378947,0,0,0,167,4225
378947,0,0,0,39,4353
383949,0,0,0,167,4225
384145,0,0,0,295,4097
384562,0,0,0,423,3969
385525,0,0,0,573,3819
389687,0,0,0,701,3691
389706,0,0,0,829,3563
393576,0,0,0,1725,2667
393579,0,0,0,829,3563
397205,0,0,0,1725,2667
397208,0,0,0,829,3563
400493,0,0,0,1078,3314
400496,0,0,0,182,4210
405167,0,0,0,431,3961
406588,0,0,0,680,3712
407858,0,0,0,1704,2688
407861,0,0,0,808,3584
407861,0,0,0,680,3712
407861,0,0,0,552,3840
418680,0,0,0,680,3712
418764,0,0,0,808,3584
424152,0,0,0,1704,2688
424155,0,0,0,808,3584
427483,0,0,0,1704,2688
427486,0,0,0,808,3584
430653,0,0,0,1704,2688
430656,0,0,0,704,3688
430656,0,0,0,448,3944
430656,0,0,0,48,4344
438299,0,0,0,944,3448
448691,0,0,0,1200,3192
454780,0,0,0,1600,2792
455307,0,0,0,2496,1896
455310,0,0,0,448,3944
457792,0,0,0,1344,3048
457795,0,0,0,320,4072
457795,0,0,0,192,4200
468650,0,0,0,320,4072
486098,0,0,0,192,4200
497007,0,0,0,320,4072
499229,0,0,0,2368,2024
499232,0,0,0,64,4328
516443,0,0,0,1064,3328
516446,0,0,0,864,3528
526532,0,0,0,1064,3328
526974,0,0,0,3368,1024
526977,0,0,0,1064,3328
526977,0,0,0,813,3579
526977,0,0,0,301,4091
526977,0,0,0,173,4219
526977,0,0,0,45,4347
537819,0,0,0,557,3835
537847,0,0,0,685,3707
539220,0,0,0,813,3579
539284,0,0,0,1837,2555
539287,0,0,0,813,3579
539287,0,0,0,685,3707
539287,0,0,0,557,3835
539287,0,0,0,429,3963
539287,0,0,0,301,4091
539287,0,0,0,173,4219
539287,0,0,0,45,4347
550130,0,0,0,173,4219
550151,0,0,0,301,4091
550153,0,0,0,429,3963
550167,0,0,0,557,3835
550168,0,0,0,685,3707
550190,0,0,0,813,3579
554349,0,0,0,3117,1275
554352,0,0,0,2242,2150
554352,0,0,0,1367,3025
554352,0,0,0,492,3900
554352,0,0,0,364,4028
554352,0,0,0,108,4284
565205,0,0,0,364,4028
565223,0,0,0,492,3900
573444,0,0,0,1516,2876
573447,0,0,0,641,3751
573447,0,0,0,241,4151
573447,0,0,0,113,4279
584304,0,0,0,241,4151
584307,0,0,0,113,4279
589012,0,0,0,73,4319
595159,0,0,0,201,4191
599912,0,0,0,241,4151
602310,0,0,0,641,3751
604562,0,0,0,1516,2876
604565,0,0,0,641,3751
604565,0,0,0,513,3879
604565,0,0,0,257,4135
604565,0,0,0,129,4263
604565,0,0,0,1,4391
615409,0,0,0,257,4135
615412,0,0,0,129,4263
615412,0,0,0,1,4391
615416,0,0,0,129,4263
615419,0,0,0,1,4391
615434,0,0,0,129,4263
615437,0,0,0,1,4391
615515,0,0,0,129,4263
615518,0,0,0,1,4391
626267,0,0,0,129,4263
626292,0,0,0,257,4135
626312,0,0,0,385,4007
626322,0,0,0,513,3879
626398,0,0,0,641,3751
634011,0,0,0,1516,2876
634014,0,0,0,641,3751
635563,0,0,0,1516,2876
635566,0,0,0,641,3751
635566,0,0,0,385,4007
635566,0,0,0,257,4135
635566,0,0,0,129,4263
635566,0,0,0,1,4391
646408,0,0,0,129,4263
646417,0,0,0,385,4007
646426,0,0,0,513,3879
646480,0,0,0,641,3751
653246,0,0,0,1516,2876
653249,0,0,0,641,3751
656716,0,0,0,892,3500
656719,0,0,0,17,4375
686269,0,0,0,892,3500
686272,0,0,0,90,4302
686272,0,0,0,30,4362
704314,0,0,0,90,4302
715570,0,0,0,965,3427
715573,0,0,0,163,4229
715756,0,0,0,1038,3354
715759,0,0,0,236,4156
722387,0,0,0,1038,3354
722390,0,0,0,236,4156
732567,0,0,0,1111,3281
732570,0,0,0,309,4083
732570,0,0,0,109,4283
734331,0,0,0,984,3408
734334,0,0,0,733,3659
734334,0,0,0,233,4159
734334,0,0,0,105,4287
745217,0,0,0,233,4159
748946,0,0,0,1035,3357
748949,0,0,0,535,3857
748949,0,0,0,35,4357
751784,0,0,0,837,3555
751787,0,0,0,337,4055
758477,0,0,0,1139,3253
758480,0,0,0,639,3753
758480,0,0,0,239,4153
758480,0,0,0,111,4281
766797,0,0,0,611,3781
766800,0,0,0,483,3909
766800,0,0,0,355,4037
766800,0,0,0,227,4165
766800,0,0,0,99,4293
767434,0,0,0,901,3491
767437,0,0,0,773,3619
767437,0,0,0,645,3747
767437,0,0,0,517,3875
767437,0,0,0,389,4003
767437,0,0,0,261,4131
767437,0,0,0,133,4259
767437,0,0,0,5,4387
769371,0,0,0,133,4259
777646,0,0,0,261,4131
777654,0,0,0,389,4003
777659,0,0,0,517,3875
777660,0,0,0,645,3747
778273,0,0,0,773,3619
778283,0,0,0,901,3491
778293,0,0,0,1029,3363
778363,0,0,0,1157,3235
778391,0,0,0,1285,3107
778397,0,0,0,1413,2979
778448,0,0,0,1541,2851
781402,0,0,0,2041,2351
781418,0,0,0,2541,1851
781421,0,0,0,493,3899
784215,0,0,0,993,3399
784218,0,0,0,481,3911
784218,0,0,0,232,4160
791010,0,0,0,632,3760
791013,0,0,0,120,4272
791155,0,0,0,620,3772
791158,0,0,0,108,4284
801108,0,0,0,308,4084
802142,0,0,0,557,3835
809031,0,0,0,1069,3323
809034,0,0,0,45,4347
816697,0,0,0,557,3835
821087,0,0,0,1581,2811
821090,0,0,0,779,3613
821090,0,0,0,523,3869
821090,0,0,0,267,4125
821090,0,0,0,11,4381
823663,0,0,0,523,3869
823666,0,0,0,267,4125
823666,0,0,0,11,4381
842718,0,0,0,267,4125
842732,0,0,0,523,3869
842790,0,0,0,779,3613
845315,0,0,0,1035,3357
845388,0,0,0,1291,3101
851067,0,0,0,3339,1053
851070,0,0,0,267,4125
851070,0,0,0,18,4374
864020,0,0,0,269,4123
864023,0,0,0,13,4379
878362,0,0,0,269,4123
878365,0,0,0,13,4379
900114,0,0,0,269,4123
902185,0,0,0,518,3874
904301,0,0,0,3590,802
904304,0,0,0,518,3874
907648,0,0,0,1320,3072
907651,0,0,0,445,3947
907651,0,0,0,189,4203
907651,0,0,0,61,4331
918479,0,0,0,189,4203
918482,0,0,0,61,4331
929359,0,0,0,317,4075
929362,0,0,0,61,4331
929368,0,0,0,189,4203
929371,0,0,0,61,4331
940339,0,0,0,189,4203
940342,0,0,0,61,4331
951053,0,0,0,317,4075
951056,0,0,0,141,4251
951056,0,0,0,13,4379
951162,0,0,0,141,4251
951165,0,0,0,13,4379
961961,0,0,0,141,4251
961986,0,0,0,269,4123
962231,0,0,0,445,3947
962330,0,0,0,3517,875
962333,0,0,0,2642,1750
962333,0,0,0,1840,2552
962333,0,0,0,1188,3204
962333,0,0,0,676,3716
962333,0,0,0,420,3972
962333,0,0,0,164,4228
962333,0,0,0,36,4356
973062,0,0,0,164,4228
979701,0,0,0,420,3972
983300,0,0,0,932,3460
983303,0,0,0,130,4262
984041,0,0,0,386,4006
984071,0,0,0,1038,3354
985393,0,0,0,1913,2479
994156,0,0,0,2715,1677
994844,0,0,0,3517,875
994847,0,0,0,445,3947
994847,0,0,0,196,4196
1.04082e+06,0,0,0,1071,3321
1.04083e+06,0,0,0,47,4345
1.05306e+06,0,0,0,1071,3321
1.05346e+06,0,0,0,1320,3072
1.05559e+06,0,0,0,4392,0
1.05559e+06,0,0,0,2344,2048
1.05559e+06,0,0,0,296,4096
1.05559e+06,0,0,0,47,4345
1.12326e+06,0,0,0,296,4096
1.12326e+06,0,0,0,40,4352
1.14012e+06,0,0,0,296,4096
1.14064e+06,0,0,0,2344,2048
1.14065e+06,0,0,0,4392,0
1.14065e+06,0,0,0,183,4209
1.15403e+06,0,0,0,55,4337
1.16487e+06,0,0,0,183,4209
1.16687e+06,0,0,0,4392,0
1.16687e+06,0,0,0,2344,2048
1.16687e+06,0,0,0,296,4096
1.16687e+06,0,0,0,40,4352
1.18855e+06,0,0,0,296,4096
1.18855e+06,0,0,0,168,4224
1.19942e+06,0,0,0,296,4096
1.2045e+06,0,0,0,2344,2048
1.20451e+06,0,0,0,296,4096
1.20451e+06,0,0,0,47,4345
1.24217e+06,0,0,0,296,4096
1.24217e+06,0,0,0,168,4224
1.24217e+06,0,0,0,40,4352
1.25304e+06,0,0,0,168,4224
1.25316e+06,0,0,0,296,4096
1.25339e+06,0,0,0,2344,2048
1.25339e+06,0,0,0,296,4096
1.25339e+06,0,0,0,40,4352
1.27505e+06,0,0,0,296,4096
1.27505e+06,0,0,0,40,4352
1.28882e+06,0,0,0,296,4096
1.29106e+06,0,0,0,2344,2048
1.29107e+06,0,0,0,1328,3064
1.29107e+06,0,0,0,928,3464
1.29693e+06,0,0,0,2976,1416
1.29693e+06,0,0,0,1952,2440
1.29693e+06,0,0,0,928,3464
1.29693e+06,0,0,0,126,4266
1.31508e+06,0,0,0,928,3464
1.31991e+06,0,0,0,1328,3064
1.31991e+06,0,0,0,304,4088
1.31991e+06,0,0,0,176,4216
1.31991e+06,0,0,0,48,4344
1.33078e+06,0,0,0,176,4216
1.33085e+06,0,0,0,304,4088
1.33258e+06,0,0,0,1328,3064
1.33258e+06,0,0,0,304,4088
1.34485e+06,0,0,0,1328,3064
1.34485e+06,0,0,0,304,4088
1.35472e+06,0,0,0,1328,3064
1.35473e+06,0,0,0,304,4088
1.35732e+06,0,0,0,1328,3064
1.35732e+06,0,0,0,526,3866
1.36719e+06,0,0,0,1550,2842
1.3672e+06,0,0,0,748,3644
1.36905e+06,0,0,0,1772,2620
1.36905e+06,0,0,0,970,3422
1.36905e+06,0,0,0,168,4224
1.37539e+06,0,0,0,970,3422
1.3754e+06,0,0,0,168,4224
1.37761e+06,0,0,0,1184,3208
1.37761e+06,0,0,0,382,4010
1.37761e+06,0,0,0,254,4138
1.37761e+06,0,0,0,126,4266
1.38846e+06,0,0,0,254,4138
1.38847e+06,0,0,0,382,4010
1.38889e+06,0,0,0,1184,3208
1.38889e+06,0,0,0,382,4010
1.38889e+06,0,0,0,126,4266
1.40151e+06,0,0,0,928,3464
1.40152e+06,0,0,0,1730,2662
1.40297e+06,0,0,0,1986,2406
1.40784e+06,0,0,0,2788,1604
1.41015e+06,0,0,0,3590,802
1.41015e+06,0,0,0,518,3874
1.41015e+06,0,0,0,269,4123
1.41015e+06,0,0,0,136,4256
1.41015e+06,0,0,0,4,4388
1.42105e+06,0,0,0,137,4255
1.42106e+06,0,0,0,269,4123
1.42134e+06,0,0,0,1071,3321
1.42135e+06,0,0,0,269,4123
1.42135e+06,0,0,0,68,4324
1.42135e+06,0,0,0,67,4325
1.43587e+06,0,0,0,68,4324
1.44338e+06,0,0,0,67,4325
1.458e+06,0,0,0,68,4324
1.46206e+06,0,0,0,269,4123
1.46206e+06,0,0,0,13,4379
1.47592e+06,0,0,0,262,4130
1.47652e+06,0,0,0,518,3874
1.47815e+06,0,0,0,3590,802
1.47816e+06,0,0,0,2788,1604
1.47816e+06,0,0,0,1588,2804
1.47816e+06,0,0,0,1339,3053
1.47816e+06,0,0,0,227,4165
1.47816e+06,0,0,0,99,4293
1.49044e+06,0,0,0,227,4165
1.49045e+06,0,0,0,94,4298
1.49978e+06,0,0,0,896,3496
1.49979e+06,0,0,0,640,3752
1.49979e+06,0,0,0,128,4264
1.49979e+06,0,0,0,0,4392
1.50138e+06,0,0,0,133,4259
1.50139e+06,0,0,0,5,4387
1.50787e+06,0,0,0,807,3585
1.50787e+06,0,0,0,5,4387
1.51064e+06,0,0,0,133,4259
1.51065e+06,0,0,0,5,4387
1.51223e+06,0,0,0,133,4259
1.51224e+06,0,0,0,5,4387
1.52132e+06,0,0,0,261,4131
1.52132e+06,0,0,0,5,4387
1.5215e+06,0,0,0,133,4259
1.5215e+06,0,0,0,5,4387
1.52311e+06,0,0,0,133,4259
1.52312e+06,0,0,0,5,4387
1.52952e+06,0,0,0,807,3585
1.52952e+06,0,0,0,558,3834
1.52952e+06,0,0,0,430,3962
1.52952e+06,0,0,0,174,4218
1.52952e+06,0,0,0,46,4346
1.53224e+06,0,0,0,558,3834
1.53224e+06,0,0,0,302,4090
1.53224e+06,0,0,0,46,4346
1.53235e+06,0,0,0,174,4218
1.53235e+06,0,0,0,46,4346
1.53387e+06,0,0,0,174,4218
1.53723e+06,0,0,0,46,4346
1.54027e+06,0,0,0,174,4218
1.54035e+06,0,0,0,302,4090
1.54048e+06,0,0,0,558,3834
1.54288e+06,0,0,0,814,3578
1.54312e+06,0,0,0,1070,3322
1.54313e+06,0,0,0,1198,3194
1.54316e+06,0,0,0,1454,2938
1.54741e+06,0,0,0,1582,2810
1.54787e+06,0,0,0,1831,2561
1.54887e+06,0,0,0,2080,2312
1.54887e+06,0,0,0,32,4360
1.5639e+06,0,0,0,1232,3160
1.5647e+06,0,0,0,2344,2048
1.5647e+06,0,0,0,296,4096
1.5647e+06,0,0,0,45,4347
1.56733e+06,0,0,0,40,4352
1.56764e+06,0,0,0,35,4357
1.56769e+06,0,0,0,30,4362
1.5678e+06,0,0,0,25,4367
1.56784e+06,0,0,0,20,4372
1.56798e+06,0,0,0,15,4377
1.5681e+06,0,0,0,10,4382
1.5682e+06,0,0,0,5,4387
1.56822e+06,0,0,0,0,4392
1.58595e+06,0,0,0,5,4387
1.58596e+06,0,0,0,10,4382
1.58596e+06,0,0,0,5,4387
1.58596e+06,0,0,0,0,4392
1.58596e+06,0,0,0,5,4387
1.58596e+06,0,0,0,10,4382
1.58597e+06,0,0,0,5,4387
1.58597e+06,0,0,0,0,4392
1.58597e+06,0,0,0,5,4387
1.58598e+06,0,0,0,10,4382
1.58598e+06,0,0,0,15,4377
1.586e+06,0,0,0,20,4372
1.58602e+06,0,0,0,25,4367
1.59703e+06,0,0,0,30,4362
1.59988e+06,0,0,0,35,4357
1.6035e+06,0,0,0,40,4352
1.60361e+06,0,0,0,45,4347
1.63392e+06,0,0,0,2093,2299
1.63392e+06,0,0,0,1269,3123
1.63392e+06,0,0,0,1013,3379
1.63392e+06,0,0,0,757,3635
1.63392e+06,0,0,0,501,3891
1.63392e+06,0,0,0,245,4147
1.63392e+06,0,0,0,113,4279
1.64475e+06,0,0,0,245,4147
1.6448e+06,0,0,0,501,3891
1.64482e+06,0,0,0,757,3635
1.64482e+06,0,0,0,1013,3379
1.64487e+06,0,0,0,1269,3123
1.64579e+06,0,0,0,2093,2299
1.64976e+06,0,0,0,4141,251
1.64976e+06,0,0,0,1069,3323
1.64976e+06,0,0,0,557,3835
1.64976e+06,0,0,0,301,4091
1.64976e+06,0,0,0,45,4347
1.6713e+06,0,0,0,301,4091
1.6713e+06,0,0,0,45,4347
1.67135e+06,0,0,0,301,4091
1.67135e+06,0,0,0,45,4347
1.68233e+06,0,0,0,557,3835
1.68234e+06,0,0,0,301,4091
1.68234e+06,0,0,0,45,4347
1.69291e+06,0,0,0,301,4091
1.69291e+06,0,0,0,45,4347
1.69299e+06,0,0,0,301,4091
1.69299e+06,0,0,0,45,4347
1.69441e+06,0,0,0,296,4096
1.69441e+06,0,0,0,40,4352
1.70396e+06,0,0,0,296,4096
1.70396e+06,0,0,0,40,4352
1.704e+06,0,0,0,296,4096
1.704e+06,0,0,0,95,4297
1.71462e+06,0,0,0,351,4041
1.71465e+06,0,0,0,607,3785
1.7148e+06,0,0,0,863,3529
1.71608e+06,0,0,0,1119,3273
1.71608e+06,0,0,0,1320,3072
1.72018e+06,0,0,0,4392,0
1.72018e+06,0,0,0,1320,3072
1.72018e+06,0,0,0,808,3584
1.72018e+06,0,0,0,559,3833
1.72018e+06,0,0,0,47,4345
1.7527e+06,0,0,0,559,3833
1.7527e+06,0,0,0,303,4089
1.7527e+06,0,0,0,47,4345
1.75272e+06,0,0,0,559,3833
1.75272e+06,0,0,0,303,4089
1.75272e+06,0,0,0,47,4345
1.75437e+06,0,0,0,296,4096
1.75437e+06,0,0,0,40,4352
1.77437e+06,0,0,0,296,4096
1.77438e+06,0,0,0,168,4224
1.77438e+06,0,0,0,40,4352
1.77438e+06,0,0,0,296,4096
1.77438e+06,0,0,0,168,4224
1.77438e+06,0,0,0,40,4352
1.77441e+06,0,0,0,296,4096
1.77441e+06,0,0,0,168,4224
1.77441e+06,0,0,0,40,4352
1.77448e+06,0,0,0,296,4096
1.77449e+06,0,0,0,168,4224
1.77449e+06,0,0,0,40,4352
1.77602e+06,0,0,0,296,4096
1.7846e+06,0,0,0,424,3968
1.78499e+06,0,0,0,552,3840
1.78502e+06,0,0,0,680,3712
1.78505e+06,0,0,0,808,3584
1.78522e+06,0,0,0,936,3456
1.78524e+06,0,0,0,1064,3328
1.78534e+06,0,0,0,1192,3200
1.78538e+06,0,0,0,1320,3072
1.78605e+06,0,0,0,4392,0
1.78606e+06,0,0,0,296,4096
1.78606e+06,0,0,0,40,4352
1.79357e+06,0,0,0,35,4357
1.79724e+06,0,0,0,30,4362
1.79734e+06,0,0,0,25,4367
1.79742e+06,0,0,0,20,4372
1.80759e+06,0,0,0,25,4367
1.80785e+06,0,0,0,281,4111
1.80785e+06,0,0,0,25,4367
1.81522e+06,0,0,0,30,4362
1.81889e+06,0,0,0,35,4357
1.81899e+06,0,0,0,40,4352
1.82037e+06,0,0,0,35,4357
1.82167e+06,0,0,0,30,4362
1.82596e+06,0,0,0,25,4367
1.8261e+06,0,0,0,20,4372
1.82961e+06,0,0,0,276,4116
1.82961e+06,0,0,0,146,4246
1.82961e+06,0,0,0,18,4374
1.84052e+06,0,0,0,148,4244
1.84057e+06,0,0,0,276,4116
1.84213e+06,0,0,0,281,4111
1.8425e+06,0,0,0,286,4106
1.84255e+06,0,0,0,291,4101
1.84257e+06,0,0,0,296,4096
1.84548e+06,0,0,0,4392,0
1.84548e+06,0,0,0,296,4096
1.84548e+06,0,0,0,40,4352
1.85911e+06,0,0,0,296,4096
1.85969e+06,0,0,0,4392,0
1.85969e+06,0,0,0,296,4096
1.85969e+06,0,0,0,168,4224
1.85969e+06,0,0,0,40,4352
1.87055e+06,0,0,0,168,4224
1.87066e+06,0,0,0,296,4096
1.87402e+06,0,0,0,4392,0
1.87402e+06,0,0,0,296,4096
1.87402e+06,0,0,0,168,4224
1.87402e+06,0,0,0,40,4352
1.88485e+06,0,0,0,168,4224
1.88492e+06,0,0,0,296,4096
1.88839e+06,0,0,0,4392,0
1.88839e+06,0,0,0,2344,2048
1.88839e+06,0,0,0,296,4096
1.88839e+06,0,0,0,168,4224
1.88839e+06,0,0,0,40,4352
1.89924e+06,0,0,0,168,4224
1.89928e+06,0,0,0,296,4096
1.90026e+06,0,0,0,2344,2048
1.90027e+06,0,0,0,4392,0
1.90027e+06,0,0,0,2344,2048
1.90027e+06,0,0,0,1320,3072
1.90027e+06,0,0,0,1119,3273
1.90027e+06,0,0,0,918,3474
1.90027e+06,0,0,0,662,3730
1.91035e+06,0,0,0,2710,1682
1.91035e+06,0,0,0,1694,2698
1.91035e+06,0,0,0,414,3978
1.91035e+06,0,0,0,158,4234
1.91035e+06,0,0,0,30,4362
1.92118e+06,0,0,0,158,4234
1.92119e+06,0,0,0,30,4362
1.92137e+06,0,0,0,231,4161
1.92137e+06,0,0,0,103,4289
1.92195e+06,0,0,0,359,4033
1.92195e+06,0,0,0,23,4369
1.92539e+06,0,0,0,1039,3353
1.92539e+06,0,0,0,527,3865
1.92539e+06,0,0,0,399,3993
1.92539e+06,0,0,0,271,4121
1.92539e+06,0,0,0,143,4249
1.92539e+06,0,0,0,13,4379
1.93141e+06,0,0,0,141,4251
1.93149e+06,0,0,0,397,3995
1.93181e+06,0,0,0,525,3867
1.93593e+06,0,0,0,653,3739
1.93596e+06,0,0,0,781,3611
1.93611e+06,0,0,0,909,3483
1.93623e+06,0,0,0,1421,2971
1.93628e+06,0,0,0,1551,2841
1.93729e+06,0,0,0,1887,2505
1.93741e+06,0,0,0,3167,1225
1.93742e+06,0,0,0,1119,3273
1.93742e+06,0,0,0,844,3548
1.93742e+06,0,0,0,643,3749
1.93742e+06,0,0,0,442,3950
1.93742e+06,0,0,0,241,4151
1.93742e+06,0,0,0,111,4281
1.94834e+06,0,0,0,241,4151
1.95384e+06,0,0,0,442,3950
1.95384e+06,0,0,0,42,4350
1.95844e+06,0,0,0,317,4075
1.95845e+06,0,0,0,187,4205
1.95845e+06,0,0,0,37,4355
1.96933e+06,0,0,0,167,4225
1.96936e+06,0,0,0,317,4075
1.97019e+06,0,0,0,2365,2027
1.97019e+06,0,0,0,1965,2427
1.97019e+06,0,0,0,765,3627
1.97019e+06,0,0,0,509,3883
1.97019e+06,0,0,0,349,4043
1.97019e+06,0,0,0,221,4171
1.97019e+06,0,0,0,93,4299
1.97905e+06,0,0,0,294,4098
1.98103e+06,0,0,0,422,3970
1.98109e+06,0,0,0,550,3842
1.98112e+06,0,0,0,710,3682
1.98344e+06,0,0,0,911,3481
1.98449e+06,0,0,0,1935,2457
1.98449e+06,0,0,0,823,3569
1.98449e+06,0,0,0,567,3825
1.98449e+06,0,0,0,316,4076
1.98449e+06,0,0,0,60,4332
1.9864e+06,0,0,0,460,3932
1.9864e+06,0,0,0,211,4181
1.9864e+06,0,0,0,83,4309
1.9902e+06,0,0,0,284,4108
1.9902e+06,0,0,0,28,4364
1.99132e+06,0,0,0,284,4108
1.99133e+06,0,0,0,28,4364
1.99424e+06,0,0,0,428,3964
1.99425e+06,0,0,0,180,4212
1.99425e+06,0,0,0,52,4340
1.99655e+06,0,0,0,180,4212
1.99655e+06,0,0,0,52,4340
2.00097e+06,0,0,0,308,4084
2.00098e+06,0,0,0,180,4212
2.00098e+06,0,0,0,52,4340
2.00482e+06,0,0,0,180,4212
2.00483e+06,0,0,0,52,4340
2.0049e+06,0,0,0,308,4084
2.0049e+06,0,0,0,180,4212
2.0049e+06,0,0,0,52,4340
2.00581e+06,0,0,0,308,4084
2.00581e+06,0,0,0,180,4212
2.00581e+06,0,0,0,52,4340
2.00727e+06,0,0,0,180,4212
2.00727e+06,0,0,0,52,4340
2.01133e+06,0,0,0,180,4212
2.01133e+06,0,0,0,52,4340
2.01166e+06,0,0,0,180,4212
2.01166e+06,0,0,0,52,4340
2.01185e+06,0,0,0,308,4084
2.01185e+06,0,0,0,107,4285
2.01303e+06,0,0,0,356,4036
2.01303e+06,0,0,0,155,4237
2.01536e+06,0,0,0,283,4109
2.01546e+06,0,0,0,411,3981
2.01573e+06,0,0,0,539,3853
2.01574e+06,0,0,0,27,4365
2.01664e+06,0,0,0,155,4237
2.01668e+06,0,0,0,283,4109
2.01821e+06,0,0,0,411,3981
2.02098e+06,0,0,0,659,3733
2.02098e+06,0,0,0,159,4233
2.02168e+06,0,0,0,287,4105
2.02219e+06,0,0,0,415,3977
2.03188e+06,0,0,0,915,3477
2.03189e+06,0,0,0,40,4352
2.0338e+06,0,0,0,552,3840
2.0338e+06,0,0,0,40,4352
2.03409e+06,0,0,0,241,4151
2.04543e+06,0,0,0,753,3639
2.04543e+06,0,0,0,241,4151
2.05476e+06,0,0,0,1116,3276
2.05512e+06,0,0,0,1317,3075
2.05577e+06,0,0,0,1829,2563
2.05594e+06,0,0,0,3029,1363
2.05595e+06,0,0,0,981,3411
2.05595e+06,0,0,0,231,4161
2.05595e+06,0,0,0,103,4289
2.05714e+06,0,0,0,98,4294
2.05765e+06,0,0,0,93,4299
2.0578e+06,0,0,0,88,4304
2.05791e+06,0,0,0,83,4309
2.06682e+06,0,0,0,211,4181
2.06683e+06,0,0,0,961,3431
2.06932e+06,0,0,0,966,3426
2.06934e+06,0,0,0,971,3421
2.06936e+06,0,0,0,976,3416
2.06938e+06,0,0,0,981,3411
2.07097e+06,0,0,0,2093,2299
2.07097e+06,0,0,0,1069,3323
2.07097e+06,0,0,0,45,4347
2.08128e+06,0,0,0,2093,2299
2.08128e+06,0,0,0,1069,3323
2.08128e+06,0,0,0,45,4347
2.08128e+06,0,0,0,44,4348
2.08199e+06,0,0,0,1068,3324
2.08199e+06,0,0,0,44,4348
2.09421e+06,0,0,0,45,4347
2.11254e+06,0,0,0,296,4096
2.11254e+06,0,0,0,168,4224
2.11254e+06,0,0,0,40,4352
2.12339e+06,0,0,0,168,4224
2.12341e+06,0,0,0,296,4096
2.12813e+06,0,0,0,1320,3072
2.13062e+06,0,0,0,2344,2048
2.1345e+06,0,0,0,3368,1024
2.13451e+06,0,0,0,296,4096
2.13451e+06,0,0,0,95,4297
2.14354e+06,0,0,0,1119,3273
2.14354e+06,0,0,0,607,3785
2.14354e+06,0,0,0,95,4297
2.15707e+06,0,0,0,607,3785
2.15708e+06,0,0,0,95,4297
2.17274e+06,0,0,0,607,3785
2.17274e+06,0,0,0,351,4041
2.17274e+06,0,0,0,69,4323
2.17421e+06,0,0,0,581,3811
2.17422e+06,0,0,0,69,4323
2.17784e+06,0,0,0,270,4122
2.18362e+06,0,0,0,552,3840
2.19015e+06,0,0,0,808,3584
2.19587e+06,0,0,0,1320,3072
2.19587e+06,0,0,0,296,4096
2.2083e+06,0,0,0,1320,3072
2.21024e+06,0,0,0,4392,0
2.21024e+06,0,0,0,2344,2048
2.21024e+06,0,0,0,1320,3072
2.21024e+06,0,0,0,296,4096
2.21024e+06,0,0,0,95,4297
2.2463e+06,0,0,0,1119,3273
2.25057e+06,0,0,0,1320,3072
2.25352e+06,0,0,0,3368,1024
2.25352e+06,0,0,0,1320,3072
2.25352e+06,0,0,0,1071,3321
2.25352e+06,0,0,0,822,3570
2.25352e+06,0,0,0,566,3826
2.26642e+06,0,0,0,815,3577
2.268e+06,0,0,0,1071,3321
2.27854e+06,0,0,0,2095,2297
2.27854e+06,0,0,0,895,3497
2.27854e+06,0,0,0,93,4299
2.29665e+06,0,0,0,895,3497
2.30441e+06,0,0,0,2943,1449
2.30441e+06,0,0,0,895,3497
2.30441e+06,0,0,0,694,3698
2.30441e+06,0,0,0,493,3899
2.30441e+06,0,0,0,237,4155
2.3261e+06,0,0,0,493,3899
2.3261e+06,0,0,0,237,4155
2.34732e+06,0,0,0,438,3954
2.34773e+06,0,0,0,694,3698
2.35076e+06,0,0,0,895,3497
2.36416e+06,0,0,0,2095,2297
2.36416e+06,0,0,0,47,4345
2.38323e+06,0,0,0,296,4096
2.38948e+06,0,0,0,2344,2048
2.38948e+06,0,0,0,1320,3072
2.38948e+06,0,0,0,808,3584
2.38948e+06,0,0,0,296,4096
2.38948e+06,0,0,0,167,4225
2.38948e+06,0,0,0,38,4354
2.4003e+06,0,0,0,167,4225
2.40031e+06,0,0,0,39,4353
2.40031e+06,0,0,0,168,4224
2.40031e+06,0,0,0,40,4352
2.41114e+06,0,0,0,168,4224
2.41114e+06,0,0,0,40,4352
2.41256e+06,0,0,0,168,4224
2.41257e+06,0,0,0,40,4352
2.41483e+06,0,0,0,1064,3328
2.41484e+06,0,0,0,262,4130
2.41484e+06,0,0,0,134,4258
2.41484e+06,0,0,0,6,4386
2.4219e+06,0,0,0,518,3874
2.42191e+06,0,0,0,390,4002
2.42191e+06,0,0,0,262,4130
2.42194e+06,0,0,0,774,3618
2.42202e+06,0,0,0,902,3490
2.42202e+06,0,0,0,74,4318
2.42341e+06,0,0,0,202,4190
2.42572e+06,0,0,0,330,4062
2.42572e+06,0,0,0,458,3934
2.43277e+06,0,0,0,586,3806
2.43281e+06,0,0,0,714,3678
2.43419e+06,0,0,0,1542,2850
2.43419e+06,0,0,0,534,3858
2.43654e+06,0,0,0,1336,3056
2.44627e+06,0,0,0,2344,2048
2.44939e+06,0,0,0,4392,0
2.44939e+06,0,0,0,392,4000
2.48034e+06,0,0,0,264,4128
2.49119e+06,0,0,0,392,4000
2.50567e+06,0,0,0,4392,0
2.50567e+06,0,0,0,2344,2048
2.50567e+06,0,0,0,296,4096
2.50567e+06,0,0,0,40,4352
2.52733e+06,0,0,0,296,4096
2.53552e+06,0,0,0,2344,2048
2.53553e+06,0,0,0,1320,3072
2.53553e+06,0,0,0,984,3408
2.53553e+06,0,0,0,856,3536
2.53553e+06,0,0,0,728,3664
2.53553e+06,0,0,0,600,3792
2.53553e+06,0,0,0,472,3920
2.53553e+06,0,0,0,408,3984
2.54639e+06,0,0,0,536,3856
2.54639e+06,0,0,0,664,3728
2.54639e+06,0,0,0,792,3600
2.54639e+06,0,0,0,920,3472
2.54657e+06,0,0,0,984,3408
2.55099e+06,0,0,0,1320,3072
2.55701e+06,0,0,0,3368,1024
2.55702e+06,0,0,0,1320,3072
2.55702e+06,0,0,0,296,4096
2.55702e+06,0,0,0,168,4224
2.55702e+06,0,0,0,40,4352
2.56784e+06,0,0,0,168,4224
2.56786e+06,0,0,0,296,4096
2.5765e+06,0,0,0,2344,2048
2.5765e+06,0,0,0,1320,3072
2.5765e+06,0,0,0,1071,3321
2.5765e+06,0,0,0,269,4123
2.57878e+06,0,0,0,1293,3099
2.57878e+06,0,0,0,491,3901
2.57878e+06,0,0,0,363,4029
2.57878e+06,0,0,0,235,4157
2.57878e+06,0,0,0,107,4285
2.58927e+06,0,0,0,235,4157
2.58928e+06,0,0,0,107,4285
2.58964e+06,0,0,0,235,4157
2.58964e+06,0,0,0,107,4285
2.58965e+06,0,0,0,235,4157
2.58965e+06,0,0,0,107,4285
2.60012e+06,0,0,0,235,4157
2.60049e+06,0,0,0,363,4029
2.60056e+06,0,0,0,491,3901
2.60895e+06,0,0,0,1293,3099
2.60895e+06,0,0,0,491,3901
2.60951e+06,0,0,0,1515,2877
2.60951e+06,0,0,0,713,3679
2.61125e+06,0,0,0,1515,2877
2.61125e+06,0,0,0,713,3679
2.61125e+06,0,0,0,457,3935
2.61125e+06,0,0,0,182,4210
2.63291e+06,0,0,0,438,3954
2.63293e+06,0,0,0,713,3679
2.64149e+06,0,0,0,1515,2877
2.64149e+06,0,0,0,403,3989
2.64196e+06,0,0,0,1205,3187
2.64196e+06,0,0,0,181,4211
2.64369e+06,0,0,0,983,3409
2.64369e+06,0,0,0,483,3909
2.65456e+06,0,0,0,983,3409
2.65618e+06,0,0,0,2007,2385
2.65618e+06,0,0,0,895,3497
2.65618e+06,0,0,0,93,4299
2.68864e+06,0,0,0,895,3497
2.68864e+06,0,0,0,395,3997
2.68864e+06,0,0,0,75,4317
2.69954e+06,0,0,0,575,3817
2.69954e+06,0,0,0,75,4317
2.70628e+06,0,0,0,324,4068
2.71032e+06,0,0,0,644,3748
2.71046e+06,0,0,0,1144,3248
2.71404e+06,0,0,0,2168,2224
2.71404e+06,0,0,0,968,3424
2.71404e+06,0,0,0,767,3625
2.71404e+06,0,0,0,566,3826
2.71404e+06,0,0,0,66,4326
2.72495e+06,0,0,0,566,3826
2.728e+06,0,0,0,1678,2714
2.728e+06,0,0,0,653,3739
2.728e+06,0,0,0,452,3940
2.74242e+06,0,0,0,1477,2915
2.74243e+06,0,0,0,977,3415
2.74243e+06,0,0,0,477,3915
2.7427e+06,0,0,0,1589,2803
2.74271e+06,0,0,0,1089,3303
2.74271e+06,0,0,0,589,3803
2.74271e+06,0,0,0,77,4315
2.75331e+06,0,0,0,577,3815
2.75332e+06,0,0,0,1077,3315
2.75333e+06,0,0,0,275,4117
2.75355e+06,0,0,0,775,3617
2.75359e+06,0,0,0,1275,3117
2.75359e+06,0,0,0,329,4063
2.75359e+06,0,0,0,69,4323
2.7559e+06,0,0,0,270,4122
2.7559e+06,0,0,0,14,4378
2.76163e+06,0,0,0,526,3866
2.76163e+06,0,0,0,325,4067
2.76335e+06,0,0,0,1127,3265
2.76335e+06,0,0,0,15,4377
2.76428e+06,0,0,0,216,4176
2.76446e+06,0,0,0,1162,3230
2.76447e+06,0,0,0,50,4342
2.7737e+06,0,0,0,306,4086
2.7737e+06,0,0,0,105,4287
2.77441e+06,0,0,0,306,4086
2.77441e+06,0,0,0,105,4287
2.77519e+06,0,0,0,365,4027
2.7752e+06,0,0,0,164,4228
2.78216e+06,0,0,0,365,4027
2.78216e+06,0,0,0,164,4228
2.79579e+06,0,0,0,365,4027
2.7989e+06,0,0,0,566,3826
2.7989e+06,0,0,0,54,4338
2.79964e+06,0,0,0,1254,3138
2.79964e+06,0,0,0,998,3394
2.79964e+06,0,0,0,870,3522
2.81046e+06,0,0,0,998,3394
2.81444e+06,0,0,0,486,3906
2.81653e+06,0,0,0,687,3705
2.81653e+06,0,0,0,175,4217
2.81748e+06,0,0,0,687,3705
2.82062e+06,0,0,0,486,3906
2.82133e+06,0,0,0,742,3650
2.82187e+06,0,0,0,943,3449
2.83106e+06,0,0,0,687,3705
2.83328e+06,0,0,0,1199,3193
2.83628e+06,0,0,0,1711,2681
2.84119e+06,0,0,0,1912,2480
2.84608e+06,0,0,0,2168,2224
2.84998e+06,0,0,0,3280,1112
2.85109e+06,0,0,0,4392,0
2.8511e+06,0,0,0,392,4000
2.8511e+06,0,0,0,191,4201
2.89773e+06,0,0,0,392,4000
2.89774e+06,0,0,0,191,4201
2.90422e+06,0,0,0,4191,201
2.90422e+06,0,0,0,3935,457
2.90618e+06,0,0,0,3807,585
2.90656e+06,0,0,0,3679,713
2.90715e+06,0,0,0,3551,841
2.90754e+06,0,0,0,3423,969
2.90791e+06,0,0,0,3295,1097
2.90796e+06,0,0,0,3167,1225
2.90801e+06,0,0,0,3039,1353
2.90817e+06,0,0,0,2911,1481
2.90825e+06,0,0,0,2783,1609
2.90829e+06,0,0,0,2655,1737
2.91274e+06,0,0,0,2015,2377
2.91706e+06,0,0,0,2143,2249
2.91739e+06,0,0,0,2271,2121
2.91798e+06,0,0,0,2399,1993
2.91838e+06,0,0,0,2527,1865
2.91886e+06,0,0,0,2655,1737
2.9189e+06,0,0,0,2783,1609
2.91891e+06,0,0,0,2911,1481
2.91909e+06,0,0,0,3039,1353
2.91912e+06,0,0,0,3167,1225
2.91918e+06,0,0,0,2966,1426
2.91921e+06,0,0,0,3094,1298
2.91924e+06,0,0,0,3093,1299
2.9206e+06,0,0,0,2837,1555
2.92233e+06,0,0,0,2581,1811
2.92281e+06,0,0,0,2782,1610
2.92587e+06,0,0,0,3038,1354
2.92966e+06,0,0,0,2789,1603
2.92968e+06,0,0,0,2277,2115
2.9305e+06,0,0,0,1765,2627
2.93364e+06,0,0,0,1637,2755
2.93388e+06,0,0,0,1509,2883
2.9342e+06,0,0,0,397,3995
2.93516e+06,0,0,0,653,3739
2.93626e+06,0,0,0,909,3483
2.93951e+06,0,0,0,653,3739
2.93954e+06,0,0,0,141,4251
2.94008e+06,0,0,0,781,3611
2.94453e+06,0,0,0,909,3483
2.94474e+06,0,0,0,1037,3355
2.94502e+06,0,0,0,235,4157
2.95002e+06,0,0,0,747,3645
2.95544e+06,0,0,0,1549,2843
2.95662e+06,0,0,0,1421,2971
2.959e+06,0,0,0,619,3773
2.95939e+06,0,0,0,363,4029
2.96038e+06,0,0,0,875,3517
2.96038e+06,0,0,0,73,4319
2.96069e+06,0,0,0,322,4070
2.96122e+06,0,0,0,578,3814
2.96123e+06,0,0,0,1090,3302
2.96177e+06,0,0,0,1291,3101
2.96256e+06,0,0,0,1292,3100
2.96744e+06,0,0,0,1420,2972
2.96927e+06,0,0,0,2222,2170
2.97128e+06,0,0,0,3024,1368
2.97714e+06,0,0,0,3280,1112
2.98447e+06,0,0,0,3151,1241
2.98449e+06,0,0,0,3022,1370
2.99405e+06,0,0,0,2821,1571
2.99524e+06,0,0,0,2950,1442
2.99527e+06,0,0,0,3079,1313
3.00478e+06,0,0,0,2055,2337
3.02008e+06,0,0,0,1719,2673
3.02012e+06,0,0,0,1383,3009
3.02073e+06,0,0,0,2495,1897
3.02485e+06,0,0,0,2246,2146
3.02528e+06,0,0,0,2045,2347
3.02648e+06,0,0,0,3069,1323
3.0356e+06,0,0,0,3405,987
3.03574e+06,0,0,0,3741,651
3.04199e+06,0,0,0,3942,450
3.05025e+06,0,0,0,3686,706
3.05297e+06,0,0,0,3174,1218
3.05652e+06,0,0,0,3423,969
3.06662e+06,0,0,0,3935,457
3.07191e+06,0,0,0,4191,201
3.07382e+06,0,0,0,4392,0
3.08199e+06,0,0,0,4132,260
3.08248e+06,0,0,0,4004,388
3.08276e+06,0,0,0,3640,752
3.08294e+06,0,0,0,3276,1116
3.08361e+06,0,0,0,2912,1480
3.08695e+06,0,0,0,2784,1608
3.087e+06,0,0,0,2656,1736
3.08711e+06,0,0,0,2528,1864
3.08872e+06,0,0,0,2384,2008
3.09285e+06,0,0,0,2644,1748
3.09332e+06,0,0,0,2772,1620
3.09781e+06,0,0,0,2900,1492
3.09782e+06,0,0,0,3028,1364
3.09796e+06,0,0,0,3156,1236
3.09802e+06,0,0,0,2900,1492
3.09802e+06,0,0,0,2644,1748
3.09803e+06,0,0,0,2388,2004
3.09803e+06,0,0,0,2132,2260
3.09804e+06,0,0,0,1876,2516
3.09804e+06,0,0,0,1620,2772
3.09804e+06,0,0,0,1364,3028
3.09806e+06,0,0,0,1108,3284
3.09806e+06,0,0,0,852,3540
3.09808e+06,0,0,0,596,3796
3.09958e+06,0,0,0,740,3652
3.09998e+06,0,0,0,612,3780
3.10448e+06,0,0,0,976,3416
3.10449e+06,0,0,0,172,4220
3.10449e+06,0,0,0,44,4348
3.10463e+06,0,0,0,408,3984
3.10464e+06,0,0,0,280,4112
3.10533e+06,0,0,0,644,3748
3.10887e+06,0,0,0,900,3492
3.10887e+06,0,0,0,1156,3236
3.10888e+06,0,0,0,1412,2980
3.10888e+06,0,0,0,1668,2724
3.10888e+06,0,0,0,1924,2468
3.10889e+06,0,0,0,2180,2212
3.1089e+06,0,0,0,2436,1956
3.10892e+06,0,0,0,2692,1700
3.10893e+06,0,0,0,2948,1444
3.10897e+06,0,0,0,3204,1188
3.11088e+06,0,0,0,3332,1060
3.11536e+06,0,0,0,3460,932
3.11551e+06,0,0,0,3588,804
3.12421e+06,0,0,0,2838,1554
3.12422e+06,0,0,0,2088,2304
3.12422e+06,0,0,0,1338,3054
3.12422e+06,0,0,0,588,3804
3.13511e+06,0,0,0,1338,3054
3.13511e+06,0,0,0,588,3804
3.13511e+06,0,0,0,355,4037
3.13511e+06,0,0,0,122,4270
3.13512e+06,0,0,0,872,3520
3.13514e+06,0,0,0,1622,2770
3.13514e+06,0,0,0,2372,2020
3.1352e+06,0,0,0,2244,2148
3.14322e+06,0,0,0,2116,2276
3.14601e+06,0,0,0,2866,1526
3.14604e+06,0,0,0,2994,1398
3.14624e+06,0,0,0,2866,1526
3.1541e+06,0,0,0,2994,1398
3.15429e+06,0,0,0,2866,1526
3.15712e+06,0,0,0,2994,1398
3.1623e+06,0,0,0,3798,594
3.16515e+06,0,0,0,3926,466
3.17777e+06,0,0,0,3798,594
3.18115e+06,0,0,0,2774,1618
3.18207e+06,0,0,0,1774,2618
3.18437e+06,0,0,0,1646,2746
3.18471e+06,0,0,0,622,3770
3.18813e+06,0,0,0,750,3642
3.19462e+06,0,0,0,878,3514
3.19921e+06,0,0,0,750,3642
3.19987e+06,0,0,0,414,3978
3.20028e+06,0,0,0,78,4314
3.21015e+06,0,0,0,206,4186
3.21016e+06,0,0,0,78,4314
3.21531e+06,0,0,0,414,3978
3.21531e+06,0,0,0,158,4234
3.21531e+06,0,0,0,30,4362
3.21584e+06,0,0,0,366,4026
3.21585e+06,0,0,0,238,4154
3.21585e+06,0,0,0,110,4282
3.22105e+06,0,0,0,238,4154
3.22106e+06,0,0,0,110,4282
3.22619e+06,0,0,0,238,4154
3.22619e+06,0,0,0,110,4282
3.22671e+06,0,0,0,238,4154
3.22671e+06,0,0,0,366,4026
3.22672e+06,0,0,0,110,4282
3.23191e+06,0,0,0,238,4154
3.23703e+06,0,0,0,494,3898
3.23703e+06,0,0,0,158,4234
3.23706e+06,0,0,0,286,4106
3.23837e+06,0,0,0,158,4234
3.24156e+06,0,0,0,30,4362
3.24592e+06,0,0,0,1054,3338
3.2479e+06,0,0,0,926,3466
3.24822e+06,0,0,0,798,3594
3.24824e+06,0,0,0,1054,3338
3.24923e+06,0,0,0,1182,3210
3.2524e+06,0,0,0,1518,2874
3.25243e+06,0,0,0,1646,2746
3.25879e+06,0,0,0,1774,2618
3.25911e+06,0,0,0,1902,2490
3.25934e+06,0,0,0,2135,2257
3.25935e+06,0,0,0,87,4305
3.26015e+06,0,0,0,320,4072
3.26552e+06,0,0,0,1344,3048
3.26767e+06,0,0,0,2344,2048
3.26768e+06,0,0,0,296,4096
3.26768e+06,0,0,0,168,4224
3.26768e+06,0,0,0,40,4352
3.27851e+06,0,0,0,168,4224
3.27852e+06,0,0,0,40,4352
3.27863e+06,0,0,0,168,4224
3.27864e+06,0,0,0,40,4352
3.28946e+06,0,0,0,168,4224
3.28946e+06,0,0,0,40,4352
3.28951e+06,0,0,0,168,4224
3.30033e+06,0,0,0,296,4096
3.30034e+06,0,0,0,14,4378
3.31042e+06,0,0,0,296,4096
3.3121e+06,0,0,0,2344,2048
3.3121e+06,0,0,0,1320,3072
3.3121e+06,0,0,0,296,4096
3.3121e+06,0,0,0,40,4352
3.32656e+06,0,0,0,296,4096
3.33611e+06,0,0,0,2344,2048
3.33612e+06,0,0,0,296,4096
3.33612e+06,0,0,0,40,4352
3.34698e+06,0,0,0,296,4096
3.34698e+06,0,0,0,40,4352
3.3687e+06,0,0,0,296,4096
3.3698e+06,0,0,0,1320,3072
3.3698e+06,0,0,0,820,3572
3.3698e+06,0,0,0,320,4072
3.3698e+06,0,0,0,64,4328
3.38066e+06,0,0,0,320,4072
3.38066e+06,0,0,0,64,4328
3.3915e+06,0,0,0,320,4072
3.39345e+06,0,0,0,1344,3048
3.39345e+06,0,0,0,844,3548
3.39345e+06,0,0,0,444,3948
3.39345e+06,0,0,0,44,4348
3.40224e+06,0,0,0,544,3848
3.40225e+06,0,0,0,144,4248
3.40232e+06,0,0,0,644,3748
3.40528e+06,0,0,0,2692,1700
3.40528e+06,0,0,0,644,3748
3.40528e+06,0,0,0,388,4004
3.40528e+06,0,0,0,132,4260
3.41615e+06,0,0,0,388,4004
3.41616e+06,0,0,0,644,3748
3.41749e+06,0,0,0,1044,3348
3.42592e+06,0,0,0,1544,2848
3.42604e+06,0,0,0,1944,2448
3.4264e+06,0,0,0,2344,2048
3.4264e+06,0,0,0,296,4096
3.4264e+06,0,0,0,40,4352
3.43733e+06,0,0,0,296,4096
3.43734e+06,0,0,0,40,4352
3.44828e+06,0,0,0,296,4096
3.44828e+06,0,0,0,40,4352
3.45919e+06,0,0,0,296,4096
3.4592e+06,0,0,0,40,4352
3.47015e+06,0,0,0,296,4096
3.47015e+06,0,0,0,40,4352
3.4811e+06,0,0,0,296,4096
3.4811e+06,0,0,0,40,4352
3.48719e+06,0,0,0,2088,2304
3.48719e+06,0,0,0,1832,2560
3.48719e+06,0,0,0,1576,2816
3.48719e+06,0,0,0,1320,3072
3.48719e+06,0,0,0,1064,3328
3.48719e+06,0,0,0,808,3584
3.48719e+06,0,0,0,552,3840
3.48719e+06,0,0,0,296,4096
3.48719e+06,0,0,0,40,4352
3.49286e+06,0,0,0,2088,2304
3.49286e+06,0,0,0,1832,2560
3.49286e+06,0,0,0,1576,2816
3.49286e+06,0,0,0,1192,3200
3.49286e+06,0,0,0,680,3712
3.49286e+06,0,0,0,168,4224
3.50281e+06,0,0,0,424,3968
3.50884e+06,0,0,0,680,3712
3.50885e+06,0,0,0,212,4180
3.50889e+06,0,0,0,468,3924
3.5089e+06,0,0,0,212,4180
3.50891e+06,0,0,0,468,3924
3.50891e+06,0,0,0,212,4180
3.50891e+06,0,0,0,468,3924
3.50892e+06,0,0,0,724,3668
3.50893e+06,0,0,0,980,3412
3.50895e+06,0,0,0,1236,3156
3.50908e+06,0,0,0,1492,2900
3.51452e+06,0,0,0,1748,2644
3.51457e+06,0,0,0,2004,2388
3.51976e+06,0,0,0,2260,2132
3.52336e+06,0,0,0,2644,1748
3.52359e+06,0,0,0,3156,1236
3.52366e+06,0,0,0,3668,724
3.53055e+06,0,0,0,3924,468
3.53055e+06,0,0,0,4392,0
3.6491e+06,0,0,0,3590,802
3.64919e+06,0,0,0,2788,1604
3.64927e+06,0,0,0,1986,2406
3.65264e+06,0,0,0,1184,3208
3.65276e+06,0,0,0,382,4010
3.65923e+06,0,0,0,1184,3208
3.65923e+06,0,0,0,382,4010
3.66159e+06,0,0,0,126,4266
3.67343e+06,0,0,0,382,4010
3.68174e+06,0,0,0,1184,3208
3.68174e+06,0,0,0,382,4010
3.68185e+06,0,0,0,1184,3208
3.68185e+06,0,0,0,382,4010
3.68549e+06,0,0,0,1184,3208
3.6855e+06,0,0,0,160,4232
3.68878e+06,0,0,0,962,3430
3.68993e+06,0,0,0,834,3558
3.69169e+06,0,0,0,706,3686
3.69231e+06,0,0,0,578,3814
3.69233e+06,0,0,0,450,3942
3.6932e+06,0,0,0,1252,3140
3.69678e+06,0,0,0,450,3942
3.70084e+06,0,0,0,578,3814
3.70249e+06,0,0,0,706,3686
3.70316e+06,0,0,0,834,3558
3.70319e+06,0,0,0,962,3430
3.70443e+06,0,0,0,834,3558
3.71516e+06,0,0,0,962,3430
3.71786e+06,0,0,0,1764,2628
3.71786e+06,0,0,0,740,3652
3.71786e+06,0,0,0,484,3908
3.71786e+06,0,0,0,228,4164
3.71798e+06,0,0,0,1030,3362
3.71798e+06,0,0,0,774,3618
3.71798e+06,0,0,0,518,3874
3.71798e+06,0,0,0,262,4130
3.71798e+06,0,0,0,6,4386
3.72419e+06,0,0,0,808,3584
3.72419e+06,0,0,0,552,3840
3.72419e+06,0,0,0,296,4096
3.72419e+06,0,0,0,40,4352
3.72566e+06,0,0,0,1064,3328
3.72566e+06,0,0,0,808,3584
3.72566e+06,0,0,0,552,3840
3.72566e+06,0,0,0,303,4089
3.72566e+06,0,0,0,54,4338
3.73195e+06,0,0,0,310,4082
3.73196e+06,0,0,0,61,4331
3.7326e+06,0,0,0,1085,3307
3.73261e+06,0,0,0,836,3556
3.73857e+06,0,0,0,1092,3300
3.73858e+06,0,0,0,68,4324
3.73859e+06,0,0,0,317,4075
3.7396e+06,0,0,0,573,3819
3.73962e+06,0,0,0,829,3563
3.73962e+06,0,0,0,1085,3307
3.73967e+06,0,0,0,1341,3051
3.74547e+06,0,0,0,1590,2802
3.74582e+06,0,0,0,1846,2546
3.74582e+06,0,0,0,2102,2290
3.74585e+06,0,0,0,2358,2034
3.74732e+06,0,0,0,2614,1778
3.74732e+06,0,0,0,2870,1522
3.75807e+06,0,0,0,2742,1650
3.76507e+06,0,0,0,2991,1401
3.76897e+06,0,0,0,3119,1273
3.77094e+06,0,0,0,2870,1522
3.77501e+06,0,0,0,2742,1650
3.77555e+06,0,0,0,2614,1778
3.77809e+06,0,0,0,1590,2802
3.78139e+06,0,0,0,1334,3058
3.7859e+06,0,0,0,1462,2930
3.78638e+06,0,0,0,1590,2802
3.79023e+06,0,0,0,710,3682
3.79133e+06,0,0,0,1734,2658
3.79133e+06,0,0,0,382,4010
3.79225e+06,0,0,0,1406,2986
3.79225e+06,0,0,0,254,4138
3.79397e+06,0,0,0,503,3889
3.80306e+06,0,0,0,759,3633
3.80437e+06,0,0,0,477,3915
3.80774e+06,0,0,0,726,3666
3.81451e+06,0,0,0,1008,3384
3.81944e+06,0,0,0,2160,2232
3.81945e+06,0,0,0,772,3620
3.82631e+06,0,0,0,1652,2740
3.82631e+06,0,0,0,628,3764
3.83707e+06,0,0,0,1652,2740
3.83707e+06,0,0,0,628,3764
3.83707e+06,0,0,0,379,4013
3.83941e+06,0,0,0,1731,2661
3.83941e+06,0,0,0,707,3685
3.83941e+06,0,0,0,579,3813
3.84616e+06,0,0,0,1967,2425
3.84991e+06,0,0,0,1835,2557
3.85031e+06,0,0,0,1963,2429
3.85767e+06,0,0,0,1835,2557
3.86074e+06,0,0,0,1967,2425
3.86107e+06,0,0,0,1839,2553
3.8686e+06,0,0,0,1967,2425
3.87192e+06,0,0,0,2095,2297
3.8726e+06,0,0,0,1759,2633
3.87693e+06,0,0,0,1631,2761
3.87708e+06,0,0,0,1499,2893
3.88784e+06,0,0,0,1627,2765
3.88792e+06,0,0,0,1759,2633
3.88796e+06,0,0,0,2095,2297
3.89492e+06,0,0,0,3119,1273
3.90189e+06,0,0,0,4143,249
3.9019e+06,0,0,0,47,4345
3.92103e+06,0,0,0,4143,249
3.92103e+06,0,0,0,3268,1124
3.92103e+06,0,0,0,2756,1636
3.92103e+06,0,0,0,2244,2148
3.92103e+06,0,0,0,1732,2660
3.92601e+06,0,0,0,1476,2916
3.94624e+06,0,0,0,1227,3165
3.94758e+06,0,0,0,1483,2909
3.95173e+06,0,0,0,1995,2397
3.95184e+06,0,0,0,2507,1885
3.95354e+06,0,0,0,3019,1373
3.96287e+06,0,0,0,2763,1629
3.9629e+06,0,0,0,2507,1885
3.96291e+06,0,0,0,2251,2141
3.96677e+06,0,0,0,2500,1892
3.96741e+06,0,0,0,2244,2148
3.97096e+06,0,0,0,2493,1899
3.97682e+06,0,0,0,2749,1643
3.97715e+06,0,0,0,3005,1387
3.97729e+06,0,0,0,3261,1131
3.98728e+06,0,0,0,2793,1599
3.98916e+06,0,0,0,3049,1343
4.00107e+06,0,0,0,3924,468
4.00737e+06,0,0,0,4392,0
4.04297e+06,0,0,0,4264,128
4.04463e+06,0,0,0,4136,256
4.04705e+06,0,0,0,4008,384
4.0472e+06,0,0,0,3759,633
4.04753e+06,0,0,0,3510,882
4.05386e+06,0,0,0,3638,754
4.05464e+06,0,0,0,3766,626
4.05932e+06,0,0,0,3894,498
4.05962e+06,0,0,0,2782,1610
4.0628e+06,0,0,0,2270,2122
4.06287e+06,0,0,0,1758,2634
4.06295e+06,0,0,0,1246,3146
4.06297e+06,0,0,0,734,3658
4.063e+06,0,0,0,222,4170
4.07491e+06,0,0,0,734,3658
4.07492e+06,0,0,0,222,4170
4.0826e+06,0,0,0,734,3658
4.0826e+06,0,0,0,222,4170
4.08262e+06,0,0,0,734,3658
4.08263e+06,0,0,0,222,4170
4.08275e+06,0,0,0,734,3658
4.08275e+06,0,0,0,1246,3146
4.08275e+06,0,0,0,734,3658
4.08275e+06,0,0,0,222,4170
4.10023e+06,0,0,0,734,3658
4.10787e+06,0,0,0,1246,3146
4.10787e+06,0,0,0,222,4170
4.10794e+06,0,0,0,734,3658
4.10802e+06,0,0,0,1246,3146
4.10802e+06,0,0,0,222,4170
4.10803e+06,0,0,0,734,3658
4.11502e+06,0,0,0,983,3409
4.11722e+06,0,0,0,471,3921
4.12323e+06,0,0,0,720,3672
4.12894e+06,0,0,0,1232,3160
4.12894e+06,0,0,0,120,4272
4.14392e+06,0,0,0,1144,3248
4.14393e+06,0,0,0,32,4360
4.14615e+06,0,0,0,1144,3248
4.14615e+06,0,0,0,1016,3376
4.14615e+06,0,0,0,504,3888
4.14615e+06,0,0,0,499,3893
4.14615e+06,0,0,0,243,4149
4.14728e+06,0,0,0,1267,3125
4.14729e+06,0,0,0,755,3637
4.14729e+06,0,0,0,627,3765
4.14729e+06,0,0,0,378,4014
4.14729e+06,0,0,0,250,4142
4.14729e+06,0,0,0,122,4270
4.15699e+06,0,0,0,250,4142
4.15699e+06,0,0,0,122,4270
4.15811e+06,0,0,0,250,4142
4.15822e+06,0,0,0,378,4014
4.15824e+06,0,0,0,506,3886
4.16212e+06,0,0,0,755,3637
4.16212e+06,0,0,0,243,4149
4.16781e+06,0,0,0,499,3893
4.16781e+06,0,0,0,31,4361
4.16786e+06,0,0,0,159,4233
4.16786e+06,0,0,0,5,4387
4.16897e+06,0,0,0,10,4382
4.17613e+06,0,0,0,522,3870
4.17748e+06,0,0,0,1034,3358
4.17748e+06,0,0,0,10,4382
4.17811e+06,0,0,0,164,4228
4.19289e+06,0,0,0,676,3716
4.1929e+06,0,0,0,419,3973
4.19751e+06,0,0,0,1443,2949
4.19751e+06,0,0,0,930,3462
4.19751e+06,0,0,0,673,3719
4.19751e+06,0,0,0,160,4232
4.20028e+06,0,0,0,628,3764
4.20365e+06,0,0,0,885,3507
4.20582e+06,0,0,0,636,3756
4.20831e+06,0,0,0,1149,3243
4.20833e+06,0,0,0,1406,2986
4.20841e+06,0,0,0,1919,2473
4.21003e+06,0,0,0,807,3585
4.21544e+06,0,0,0,1919,2473
4.23046e+06,0,0,0,3031,1361
4.23046e+06,0,0,0,983,3409
4.23179e+06,0,0,0,1232,3160
4.23249e+06,0,0,0,208,4184
4.23771e+06,0,0,0,80,4312
4.24134e+06,0,0,0,2128,2264
4.24427e+06,0,0,0,1879,2513
4.245e+06,0,0,0,1004,3388
4.24642e+06,0,0,0,2116,2276
4.24702e+06,0,0,0,3140,1252
4.24856e+06,0,0,0,3268,1124
4.29886e+06,0,0,0,3517,875
4.29961e+06,0,0,0,3261,1131
4.29963e+06,0,0,0,3005,1387
4.29964e+06,0,0,0,2749,1643
4.30007e+06,0,0,0,2500,1892
4.31309e+06,0,0,0,2756,1636
4.31317e+06,0,0,0,3012,1380
4.31429e+06,0,0,0,3268,1124
4.32354e+06,0,0,0,4143,249
4.33166e+06,0,0,0,4392,0
