time,nb_sleeping,nb_switching_on,nb_switching_off,nb_idle,nb_computing
0.00240003,0,0,0,3590,802
0.00300004,0,0,0,2606,1786
0.00360005,0,0,0,2350,2042
0.00420006,0,0,0,2094,2298
0.00480006,0,0,0,1838,2554
0.00540007,0,0,0,1582,2810
0.00600008,0,0,0,1326,3066
0.00660009,0,0,0,1070,3322
0.0072001,0,0,0,814,3578
0.0078001,0,0,0,558,3834
0.00840011,0,0,0,302,4090
0.00900012,0,0,0,46,4346
21698,0,0,0,302,4090
21710,0,0,0,558,3834
21713,0,0,0,238,4154
21726,0,0,0,494,3898
21729,0,0,0,238,4154
21738,0,0,0,494,3898
21740,0,0,0,750,3642
21740,0,0,0,1006,3386
21744,0,0,0,1262,3130
21748,0,0,0,1518,2874
21753,0,0,0,1262,3130
21753,0,0,0,1006,3386
21753,0,0,0,750,3642
21753,0,0,0,494,3898
21753,0,0,0,238,4154
21796,0,0,0,494,3898
21799,0,0,0,46,4346
21814,0,0,0,302,4090
21817,0,0,0,46,4346
24346,0,0,0,1030,3362
24349,0,0,0,774,3618
24349,0,0,0,518,3874
24349,0,0,0,118,4274
33281,0,0,0,920,3472
33284,0,0,0,664,3728
33284,0,0,0,408,3984
33284,0,0,0,152,4240
42616,0,0,0,472,3920
42619,0,0,0,216,4176
43485,0,0,0,472,3920
43490,0,0,0,728,3664
43491,0,0,0,984,3408
43528,0,0,0,1240,3152
43531,0,0,0,216,4176
43538,0,0,0,472,3920
43550,0,0,0,728,3664
43553,0,0,0,88,4304
44694,0,0,0,344,4048
46050,0,0,0,600,3792
46053,0,0,0,88,4304
46085,0,0,0,344,4048
54330,0,0,0,792,3600
54333,0,0,0,408,3984
54333,0,0,0,152,4240
54978,0,0,0,408,3984
54983,0,0,0,664,3728
56202,0,0,0,920,3472
56891,0,0,0,1320,3072
56894,0,0,0,296,4096
64358,0,0,0,552,3840
64361,0,0,0,152,4240
77217,0,0,0,408,3984
78595,0,0,0,920,3472
78598,0,0,0,320,4072
79712,0,0,0,960,3432
83308,0,0,0,1344,3048
83311,0,0,0,320,4072
88094,0,0,0,720,3672
100386,0,0,0,1320,3072
100389,0,0,0,296,4096
101808,0,0,0,1320,3072
101811,0,0,0,296,4096
101811,0,0,0,40,4352
123497,0,0,0,296,4096
126500,0,0,0,1320,3072
126503,0,0,0,296,4096
126845,0,0,0,1320,3072
126848,0,0,0,936,3456
126848,0,0,0,336,4056
129277,0,0,0,1360,3032
129280,0,0,0,760,3632
129280,0,0,0,160,4232
148545,0,0,0,760,3632
148548,0,0,0,160,4232
151030,0,0,0,760,3632
151033,0,0,0,160,4232
151042,0,0,0,760,3632
151045,0,0,0,160,4232
153957,0,0,0,544,3848
166845,0,0,0,1568,2824
166848,0,0,0,968,3424
166848,0,0,0,368,4024
170298,0,0,0,968,3424
170301,0,0,0,368,4024
170301,0,0,0,112,4280
172765,0,0,0,712,3680
172768,0,0,0,456,3936
172768,0,0,0,200,4192
172777,0,0,0,800,3592
172780,0,0,0,544,3848
172780,0,0,0,288,4104
172780,0,0,0,32,4360
188554,0,0,0,632,3760
188557,0,0,0,376,4016
188557,0,0,0,120,4272
189807,0,0,0,720,3672
189810,0,0,0,464,3928
189810,0,0,0,208,4184
191405,0,0,0,1232,3160
191408,0,0,0,968,3424
191408,0,0,0,712,3680
191408,0,0,0,456,3936
192136,0,0,0,1056,3336
193203,0,0,0,1312,3080
193206,0,0,0,112,4280
194456,0,0,0,368,4024
194522,0,0,0,624,3768
194525,0,0,0,880,3512
194528,0,0,0,240,4152
194529,0,0,0,496,3896
194532,0,0,0,176,4216
194538,0,0,0,432,3960
194541,0,0,0,48,4344
210307,0,0,0,304,4088
210310,0,0,0,48,4344
210370,0,0,0,304,4088
210373,0,0,0,48,4344
211557,0,0,0,304,4088
211559,0,0,0,560,3832
211563,0,0,0,304,4088
211563,0,0,0,48,4344
213153,0,0,0,304,4088
213156,0,0,0,48,4344
213168,0,0,0,304,4088
213171,0,0,0,48,4344
214347,0,0,0,312,4080
214350,0,0,0,56,4336
216265,0,0,0,376,4016
216268,0,0,0,120,4272
228242,0,0,0,504,3888
228245,0,0,0,248,4144
232014,0,0,0,504,3888
232017,0,0,0,248,4144
232160,0,0,0,504,3888
232163,0,0,0,248,4144
233297,0,0,0,504,3888
233300,0,0,0,248,4144
234505,0,0,0,504,3888
234508,0,0,0,248,4144
234892,0,0,0,504,3888
234893,0,0,0,760,3632
234898,0,0,0,504,3888
234898,0,0,0,248,4144
236083,0,0,0,504,3888
236086,0,0,0,248,4144
237838,0,0,0,888,3504
237841,0,0,0,408,3984
237841,0,0,0,152,4240
237993,0,0,0,408,3984
237996,0,0,0,152,4240
249966,0,0,0,408,3984
253690,0,0,0,664,3728
253693,0,0,0,184,4208
253912,0,0,0,440,3952
255031,0,0,0,696,3696
255034,0,0,0,216,4176
256319,0,0,0,472,3920
256604,0,0,0,728,3664
256604,0,0,0,984,3408
256610,0,0,0,504,3888
257787,0,0,0,760,3632
258064,0,0,0,1240,3152
258067,0,0,0,365,4027
258067,0,0,0,109,4283
259569,0,0,0,365,4027
259572,0,0,0,109,4283
259752,0,0,0,365,4027
266190,0,0,0,1565,2827
266193,0,0,0,1181,3211
266193,0,0,0,925,3467
266193,0,0,0,669,3723
266193,0,0,0,285,4107
266193,0,0,0,29,4363
278004,0,0,0,509,3883
279670,0,0,0,989,3403
279673,0,0,0,185,4207
279748,0,0,0,441,3951
279814,0,0,0,921,3471
281308,0,0,0,1177,3215
281311,0,0,0,153,4239
286373,0,0,0,409,3983
286376,0,0,0,145,4247
287280,0,0,0,401,3991
287283,0,0,0,145,4247
288836,0,0,0,401,3991
288839,0,0,0,145,4247
297908,0,0,0,529,3863
297911,0,0,0,145,4247
298716,0,0,0,529,3863
298719,0,0,0,265,4127
298719,0,0,0,1,4391
309287,0,0,0,265,4127
309290,0,0,0,9,4383
310219,0,0,0,265,4127
310628,0,0,0,521,3871
314490,0,0,0,1325,3067
321752,0,0,0,1589,2803
321761,0,0,0,1853,2539
324304,0,0,0,2728,1664
327617,0,0,0,3112,1280
331026,0,0,0,3368,1024
337087,0,0,0,3112,1280
346920,0,0,0,2856,1536
358449,0,0,0,2600,1792
358494,0,0,0,2344,2048
358536,0,0,0,2088,2304
358537,0,0,0,1832,2560
358538,0,0,0,1576,2816
358539,0,0,0,1320,3072
358542,0,0,0,1064,3328
358543,0,0,0,808,3584
358858,0,0,0,1064,3328
359396,0,0,0,2088,2304
359504,0,0,0,1832,2560
366331,0,0,0,1576,2816
368640,0,0,0,1832,2560
371413,0,0,0,1576,2816
371457,0,0,0,1320,3072
379555,0,0,0,1576,2816
379611,0,0,0,1832,2560
379656,0,0,0,2088,2304
379658,0,0,0,2344,2048
379685,0,0,0,2600,1792
379726,0,0,0,2856,1536
380117,0,0,0,3112,1280
380984,0,0,0,3368,1024
381263,0,0,0,3624,768
388037,0,0,0,3880,512
393161,0,0,0,4136,256
393232,0,0,0,4392,0
405793,0,0,0,4136,256
418776,0,0,0,3752,640
427545,0,0,0,4008,384
439070,0,0,0,3183,1209
447752,0,0,0,3567,825
488545,0,0,0,4392,0
558836,0,0,0,3542,850
590405,0,0,0,3286,1106
590423,0,0,0,3030,1362
593839,0,0,0,2774,1618
593840,0,0,0,2518,1874
593860,0,0,0,2262,2130
593861,0,0,0,2006,2386
593862,0,0,0,1750,2642
593863,0,0,0,1494,2898
593864,0,0,0,1238,3154
593865,0,0,0,982,3410
593866,0,0,0,726,3666
593867,0,0,0,470,3922
602187,0,0,0,214,4178
612016,0,0,0,470,3922
612019,0,0,0,214,4178
612024,0,0,0,470,3922
612027,0,0,0,214,4178
614835,0,0,0,470,3922
614838,0,0,0,214,4178
614937,0,0,0,470,3922
614939,0,0,0,726,3666
614943,0,0,0,470,3922
614943,0,0,0,214,4178
614954,0,0,0,470,3922
614957,0,0,0,214,4178
614987,0,0,0,470,3922
615010,0,0,0,726,3666
615100,0,0,0,982,3410
616074,0,0,0,1238,3154
616228,0,0,0,1494,2898
616273,0,0,0,1750,2642
625327,0,0,0,2006,2386
633717,0,0,0,1742,2650
633729,0,0,0,1998,2394
634418,0,0,0,2848,1544
634484,0,0,0,1824,2568
634948,0,0,0,2080,2312
634951,0,0,0,32,4360
636278,0,0,0,288,4104
636551,0,0,0,544,3848
636648,0,0,0,800,3592
636664,0,0,0,1056,3336
643347,0,0,0,206,4186
656173,0,0,0,1230,3162
656621,0,0,0,3278,1114
656634,0,0,0,3542,850
666050,0,0,0,3286,1106
667067,0,0,0,2646,1746
679580,0,0,0,598,3794
687789,0,0,0,854,3538
688862,0,0,0,1494,2898
719157,0,0,0,982,3410
719270,0,0,0,718,3674
719633,0,0,0,454,3938
719713,0,0,0,190,4202
727314,0,0,0,2238,2154
729294,0,0,0,3088,1304
737831,0,0,0,2576,1816
737843,0,0,0,1552,2840
742100,0,0,0,2064,2328
742308,0,0,0,2328,2064
742555,0,0,0,2592,1800
742844,0,0,0,2856,1536
760069,0,0,0,2600,1792
763331,0,0,0,1750,2642
769406,0,0,0,1366,3026
770403,0,0,0,1878,2514
771845,0,0,0,1366,3026
771923,0,0,0,854,3538
781796,0,0,0,1110,3282
781799,0,0,0,94,4298
798350,0,0,0,478,3914
804414,0,0,0,990,3402
804417,0,0,0,478,3914
804417,0,0,0,214,4178
805534,0,0,0,726,3666
805537,0,0,0,214,4178
818868,0,0,0,1238,3154
827308,0,0,0,1502,2890
836961,0,0,0,2014,2378
838164,0,0,0,2526,1866
849733,0,0,0,3376,1016
853851,0,0,0,2526,1866
859645,0,0,0,26,4366
868312,0,0,0,1042,3350
868315,0,0,0,786,3606
868315,0,0,0,530,3862
868315,0,0,0,274,4118
868315,0,0,0,18,4374
888449,0,0,0,2518,1874
888452,0,0,0,2262,2130
888452,0,0,0,2006,2386
888452,0,0,0,1750,2642
888452,0,0,0,1494,2898
888452,0,0,0,1238,3154
888452,0,0,0,982,3410
888452,0,0,0,726,3666
889351,0,0,0,982,3410
889392,0,0,0,1238,3154
889405,0,0,0,1494,2898
889704,0,0,0,1750,2642
909511,0,0,0,2006,2386
909580,0,0,0,2262,2130
909757,0,0,0,2518,1874
910182,0,0,0,2774,1618
910783,0,0,0,3030,1362
910851,0,0,0,3286,1106
910964,0,0,0,3542,850
915338,0,0,0,3286,1106
929266,0,0,0,2902,1490
937030,0,0,0,3158,1234
940397,0,0,0,4008,384
944657,0,0,0,3752,640
944667,0,0,0,3240,1152
955377,0,0,0,2390,2002
958205,0,0,0,2774,1618
966423,0,0,0,3030,1362
968039,0,0,0,3542,850
1.00566e+06,0,0,0,3286,1106
1.02541e+06,0,0,0,2774,1618
1.02623e+06,0,0,0,2390,2002
1.0274e+06,0,0,0,2646,1746
1.02781e+06,0,0,0,2390,2002
1.03363e+06,0,0,0,2134,2258
1.04192e+06,0,0,0,2984,1408
1.04964e+06,0,0,0,3240,1152
1.05275e+06,0,0,0,2920,1472
1.05522e+06,0,0,0,3304,1088
1.05534e+06,0,0,0,3560,832
1.05795e+06,0,0,0,4072,320
1.07448e+06,0,0,0,4392,0
1.07716e+06,0,0,0,3376,1016
1.0838e+06,0,0,0,3120,1272
1.0838e+06,0,0,0,2864,1528
1.09924e+06,0,0,0,2014,2378
1.10394e+06,0,0,0,1758,2634
1.1055e+06,0,0,0,2014,2378
1.10553e+06,0,0,0,2270,2122
1.12569e+06,0,0,0,2526,1866
1.12901e+06,0,0,0,2262,2130
1.13023e+06,0,0,0,1782,2610
1.13571e+06,0,0,0,1526,2866
1.13575e+06,0,0,0,1270,3122
1.13593e+06,0,0,0,1014,3378
1.14409e+06,0,0,0,758,3634
1.14441e+06,0,0,0,502,3890
1.14605e+06,0,0,0,246,4146
1.15195e+06,0,0,0,510,3882
1.15195e+06,0,0,0,254,4138
1.15552e+06,0,0,0,1104,3288
1.15552e+06,0,0,0,848,3544
1.15552e+06,0,0,0,592,3800
1.15552e+06,0,0,0,336,4056
1.15552e+06,0,0,0,80,4312
1.15749e+06,0,0,0,336,4056
1.1575e+06,0,0,0,80,4312
1.15751e+06,0,0,0,336,4056
1.15752e+06,0,0,0,80,4312
1.15895e+06,0,0,0,336,4056
1.15895e+06,0,0,0,80,4312
1.1592e+06,0,0,0,560,3832
1.1592e+06,0,0,0,304,4088
1.1592e+06,0,0,0,48,4344
1.16367e+06,0,0,0,1064,3328
1.16368e+06,0,0,0,808,3584
1.16368e+06,0,0,0,552,3840
1.16368e+06,0,0,0,296,4096
1.16368e+06,0,0,0,40,4352
1.16591e+06,0,0,0,296,4096
1.16592e+06,0,0,0,40,4352
1.16734e+06,0,0,0,296,4096
1.16734e+06,0,0,0,32,4360
1.16748e+06,0,0,0,288,4104
1.17299e+06,0,0,0,544,3848
1.17781e+06,0,0,0,800,3592
1.17783e+06,0,0,0,1056,3336
1.17798e+06,0,0,0,1312,3080
1.17828e+06,0,0,0,1568,2824
1.17871e+06,0,0,0,1824,2568
1.18046e+06,0,0,0,2080,2312
1.18095e+06,0,0,0,2336,2056
1.18097e+06,0,0,0,2592,1800
1.18186e+06,0,0,0,2848,1544
1.18535e+06,0,0,0,3104,1288
1.18542e+06,0,0,0,3360,1032
1.18545e+06,0,0,0,3616,776
1.18651e+06,0,0,0,3872,520
1.18881e+06,0,0,0,4128,264
1.19029e+06,0,0,0,4392,0
1.20594e+06,0,0,0,4136,256
1.20594e+06,0,0,0,3880,512
1.20595e+06,0,0,0,3624,768
1.20598e+06,0,0,0,3368,1024
1.20598e+06,0,0,0,3112,1280
1.20598e+06,0,0,0,2856,1536
1.20598e+06,0,0,0,2600,1792
1.20598e+06,0,0,0,2344,2048
1.20598e+06,0,0,0,2088,2304
1.20598e+06,0,0,0,1832,2560
1.2105e+06,0,0,0,1576,2816
1.21339e+06,0,0,0,1320,3072
1.22383e+06,0,0,0,812,3580
1.22765e+06,0,0,0,1068,3324
1.22768e+06,0,0,0,1324,3068
1.22768e+06,0,0,0,1580,2812
1.22769e+06,0,0,0,1836,2556
1.22769e+06,0,0,0,2092,2300
1.2277e+06,0,0,0,2348,2044
1.22773e+06,0,0,0,2604,1788
1.22775e+06,0,0,0,2860,1532
1.2289e+06,0,0,0,3116,1276
1.22905e+06,0,0,0,3372,1020
1.23227e+06,0,0,0,3628,764
1.23518e+06,0,0,0,3884,508
1.23818e+06,0,0,0,3628,764
1.23945e+06,0,0,0,3372,1020
1.23957e+06,0,0,0,3108,1284
1.23968e+06,0,0,0,2844,1548
1.24133e+06,0,0,0,2588,1804
1.25634e+06,0,0,0,3096,1296
1.25991e+06,0,0,0,3352,1040
1.26116e+06,0,0,0,3608,784
1.26246e+06,0,0,0,3872,520
1.26265e+06,0,0,0,4136,256
1.26306e+06,0,0,0,4392,0
1.26537e+06,0,0,0,3752,640
1.26567e+06,0,0,0,3496,896
1.28396e+06,0,0,0,3112,1280
1.28601e+06,0,0,0,3368,1024
1.28708e+06,0,0,0,4008,384
1.29567e+06,0,0,0,3500,892
1.3031e+06,0,0,0,3236,1156
1.30813e+06,0,0,0,2980,1412
1.3162e+06,0,0,0,3364,1028
1.31698e+06,0,0,0,2514,1878
1.32498e+06,0,0,0,2778,1614
1.32817e+06,0,0,0,3286,1106
1.32988e+06,0,0,0,3542,850
1.32993e+06,0,0,0,3286,1106
1.32994e+06,0,0,0,3030,1362
1.32994e+06,0,0,0,2774,1618
1.33143e+06,0,0,0,2262,2130
1.33176e+06,0,0,0,1750,2642
1.34518e+06,0,0,0,1486,2906
1.35216e+06,0,0,0,1998,2394
1.35283e+06,0,0,0,2254,2138
1.35288e+06,0,0,0,2510,1882
1.35297e+06,0,0,0,2766,1626
1.35316e+06,0,0,0,3278,1114
1.36691e+06,0,0,0,3542,850
1.36779e+06,0,0,0,3158,1234
1.37474e+06,0,0,0,2838,1554
1.38254e+06,0,0,0,2582,1810
1.39384e+06,0,0,0,3432,960
1.39648e+06,0,0,0,3752,640
1.40003e+06,0,0,0,4136,256
1.40541e+06,0,0,0,4392,0
1.40584e+06,0,0,0,4128,264
1.40823e+06,0,0,0,3278,1114
1.41758e+06,0,0,0,3022,1370
1.42378e+06,0,0,0,2638,1754
1.42878e+06,0,0,0,2902,1490
1.43932e+06,0,0,0,3158,1234
1.45742e+06,0,0,0,3542,850
1.47015e+06,0,0,0,2518,1874
1.47017e+06,0,0,0,1494,2898
1.47465e+06,0,0,0,470,3922
1.4881e+06,0,0,0,1320,3072
1.4881e+06,0,0,0,296,4096
1.51303e+06,0,0,0,40,4352
1.52247e+06,0,0,0,1064,3328
1.52247e+06,0,0,0,680,3712
1.52247e+06,0,0,0,296,4096
1.52266e+06,0,0,0,1320,3072
1.52433e+06,0,0,0,470,3922
1.52555e+06,0,0,0,1494,2898
1.53595e+06,0,0,0,1750,2642
1.5388e+06,0,0,0,2774,1618
1.55476e+06,0,0,0,3158,1234
1.55496e+06,0,0,0,3542,850
1.55824e+06,0,0,0,3286,1106
1.57954e+06,0,0,0,2778,1614
1.57991e+06,0,0,0,3034,1358
1.60133e+06,0,0,0,2778,1614
1.6015e+06,0,0,0,2522,1870
1.60591e+06,0,0,0,2138,2254
1.60755e+06,0,0,0,2988,1404
1.61205e+06,0,0,0,3496,896
1.62307e+06,0,0,0,3752,640
1.62323e+06,0,0,0,4008,384
1.62491e+06,0,0,0,3752,640
1.63818e+06,0,0,0,4136,256
1.64409e+06,0,0,0,3880,512
1.64412e+06,0,0,0,3372,1020
1.64665e+06,0,0,0,3628,764
1.65899e+06,0,0,0,3244,1148
1.66586e+06,0,0,0,3500,892
1.67676e+06,0,0,0,4008,384
1.6899e+06,0,0,0,3752,640
1.69022e+06,0,0,0,3496,896
1.69035e+06,0,0,0,2856,1536
1.69161e+06,0,0,0,3240,1152
1.71018e+06,0,0,0,3496,896
1.71202e+06,0,0,0,3752,640
1.71214e+06,0,0,0,4392,0
1.77005e+06,0,0,0,4008,384
1.78434e+06,0,0,0,3752,640
1.78448e+06,0,0,0,3496,896
1.78452e+06,0,0,0,3240,1152
1.78454e+06,0,0,0,2984,1408
1.78465e+06,0,0,0,2728,1664
1.7875e+06,0,0,0,2472,1920
1.80231e+06,0,0,0,2856,1536
1.80597e+06,0,0,0,3112,1280
1.80626e+06,0,0,0,3368,1024
1.80634e+06,0,0,0,3624,768
1.80637e+06,0,0,0,3880,512
1.80748e+06,0,0,0,4136,256
1.8091e+06,0,0,0,4392,0
1.81462e+06,0,0,0,4008,384
1.81474e+06,0,0,0,3624,768
1.8278e+06,0,0,0,3368,1024
1.8293e+06,0,0,0,2984,1408
1.82959e+06,0,0,0,2600,1792
1.83339e+06,0,0,0,2344,2048
1.8334e+06,0,0,0,2088,2304
1.84463e+06,0,0,0,1824,2568
1.84478e+06,0,0,0,1560,2832
1.84845e+06,0,0,0,1944,2448
1.84865e+06,0,0,0,2328,2064
1.84963e+06,0,0,0,2584,1808
1.85094e+06,0,0,0,2076,2316
1.85312e+06,0,0,0,2460,1932
1.85509e+06,0,0,0,2716,1676
1.85515e+06,0,0,0,2972,1420
1.86152e+06,0,0,0,3356,1036
1.86753e+06,0,0,0,3620,772
1.86782e+06,0,0,0,3884,508
1.87709e+06,0,0,0,3628,764
1.87711e+06,0,0,0,3372,1020
1.87936e+06,0,0,0,2988,1404
1.88343e+06,0,0,0,3496,896
1.88367e+06,0,0,0,2986,1406
1.89247e+06,0,0,0,1962,2430
1.89395e+06,0,0,0,1706,2686
1.89412e+06,0,0,0,1450,2942
1.89507e+06,0,0,0,1194,3198
1.8951e+06,0,0,0,938,3454
1.89911e+06,0,0,0,682,3710
1.90019e+06,0,0,0,938,3454
1.90034e+06,0,0,0,1194,3198
1.90237e+06,0,0,0,686,3706
1.90677e+06,0,0,0,430,3962
1.90681e+06,0,0,0,174,4218
1.91224e+06,0,0,0,684,3708
1.91299e+06,0,0,0,1068,3324
1.91526e+06,0,0,0,253,4139
1.91568e+06,0,0,0,509,3883
1.91583e+06,0,0,0,765,3627
1.91605e+06,0,0,0,1021,3371
1.91684e+06,0,0,0,1277,3115
1.92083e+06,0,0,0,1533,2859
1.92839e+06,0,0,0,1789,2603
1.92841e+06,0,0,0,2045,2347
1.93371e+06,0,0,0,1658,2734
1.93491e+06,0,0,0,2166,2226
1.94301e+06,0,0,0,3190,1202
1.95359e+06,0,0,0,2926,1466
1.95361e+06,0,0,0,2662,1730
1.95363e+06,0,0,0,2398,1994
1.95475e+06,0,0,0,2142,2250
1.95487e+06,0,0,0,1502,2890
1.95645e+06,0,0,0,478,3914
1.96618e+06,0,0,0,865,3527
1.97176e+06,0,0,0,1680,2712
1.97177e+06,0,0,0,656,3736
1.97177e+06,0,0,0,272,4120
1.97645e+06,0,0,0,528,3864
1.97647e+06,0,0,0,792,3600
1.97651e+06,0,0,0,1056,3336
1.97661e+06,0,0,0,1696,2696
1.97661e+06,0,0,0,488,3904
1.97665e+06,0,0,0,752,3640
1.97812e+06,0,0,0,496,3896
1.99017e+06,0,0,0,1520,2872
1.99018e+06,0,0,0,715,3677
1.99985e+06,0,0,0,971,3421
2.004e+06,0,0,0,1355,3037
2.004e+06,0,0,0,339,4053
2.004e+06,0,0,0,75,4317
2.0094e+06,0,0,0,1283,3109
2.0094e+06,0,0,0,1027,3365
2.0094e+06,0,0,0,771,3621
2.0094e+06,0,0,0,515,3877
2.0094e+06,0,0,0,131,4261
2.0202e+06,0,0,0,1155,3237
2.02688e+06,0,0,0,1419,2973
2.02916e+06,0,0,0,1163,3229
2.03101e+06,0,0,0,1419,2973
2.03115e+06,0,0,0,1675,2717
2.03223e+06,0,0,0,1931,2461
2.03401e+06,0,0,0,1547,2845
2.0362e+06,0,0,0,1931,2461
2.04614e+06,0,0,0,907,3485
2.05088e+06,0,0,0,1163,3229
2.05089e+06,0,0,0,139,4253
2.06625e+06,0,0,0,523,3869
2.06625e+06,0,0,0,267,4125
2.06625e+06,0,0,0,11,4381
2.07669e+06,0,0,0,816,3576
2.0767e+06,0,0,0,560,3832
2.0767e+06,0,0,0,80,4312
2.07881e+06,0,0,0,1104,3288
2.08785e+06,0,0,0,1360,3032
2.08788e+06,0,0,0,1616,2776
2.09051e+06,0,0,0,2632,1760
2.09051e+06,0,0,0,132,4260
2.09847e+06,0,0,0,388,4004
2.09847e+06,0,0,0,132,4260
2.09947e+06,0,0,0,1156,3236
2.09947e+06,0,0,0,900,3492
2.09947e+06,0,0,0,644,3748
2.09947e+06,0,0,0,380,4012
2.09947e+06,0,0,0,116,4276
2.10687e+06,0,0,0,596,3796
2.11411e+06,0,0,0,212,4180
2.11933e+06,0,0,0,2712,1680
2.12104e+06,0,0,0,2968,1424
2.12146e+06,0,0,0,3224,1168
2.12238e+06,0,0,0,3488,904
2.12246e+06,0,0,0,3752,640
2.12267e+06,0,0,0,4008,384
2.14234e+06,0,0,0,4392,0
2.22635e+06,0,0,0,4136,256
2.24356e+06,0,0,0,3880,512
2.24379e+06,0,0,0,3624,768
2.24718e+06,0,0,0,3880,512
2.24727e+06,0,0,0,3624,768
2.26132e+06,0,0,0,2608,1784
2.26163e+06,0,0,0,2352,2040
2.26324e+06,0,0,0,1328,3064
2.26487e+06,0,0,0,1072,3320
2.26525e+06,0,0,0,1328,3064
2.26552e+06,0,0,0,1584,2808
2.27017e+06,0,0,0,1840,2552
2.28198e+06,0,0,0,2096,2296
2.28657e+06,0,0,0,2352,2040
2.29622e+06,0,0,0,2096,2296
2.30026e+06,0,0,0,1840,2552
2.3007e+06,0,0,0,1360,3032
2.30344e+06,0,0,0,336,4056
2.30423e+06,0,0,0,80,4312
2.31781e+06,0,0,0,336,4056
2.322e+06,0,0,0,592,3800
2.32465e+06,0,0,0,848,3544
2.33322e+06,0,0,0,1328,3064
2.33593e+06,0,0,0,1072,3320
2.33787e+06,0,0,0,257,4135
2.34786e+06,0,0,0,1273,3119
2.34787e+06,0,0,0,1009,3383
2.34787e+06,0,0,0,745,3647
2.35097e+06,0,0,0,1769,2623
2.35248e+06,0,0,0,2793,1599
2.35468e+06,0,0,0,1777,2615
2.35704e+06,0,0,0,2033,2359
2.36862e+06,0,0,0,1183,3209
2.37075e+06,0,0,0,1447,2945
2.37082e+06,0,0,0,1711,2681
2.37459e+06,0,0,0,1455,2937
2.38022e+06,0,0,0,1199,3193
2.38022e+06,0,0,0,943,3449
2.38022e+06,0,0,0,687,3705
2.38022e+06,0,0,0,431,3961
2.38024e+06,0,0,0,175,4217
2.38594e+06,0,0,0,990,3402
2.39632e+06,0,0,0,1246,3146
2.39632e+06,0,0,0,222,4170
2.40049e+06,0,0,0,478,3914
2.40056e+06,0,0,0,734,3658
2.40071e+06,0,0,0,990,3402
2.40082e+06,0,0,0,1246,3146
2.40083e+06,0,0,0,1502,2890
2.40364e+06,0,0,0,478,3914
2.42837e+06,0,0,0,222,4170
2.43622e+06,0,0,0,1246,3146
2.43622e+06,0,0,0,990,3402
2.43622e+06,0,0,0,606,3786
2.44119e+06,0,0,0,1622,2770
2.44219e+06,0,0,0,2646,1746
2.4506e+06,0,0,0,3496,896
2.45125e+06,0,0,0,3752,640
2.45293e+06,0,0,0,2902,1490
2.45796e+06,0,0,0,3158,1234
2.45865e+06,0,0,0,2902,1490
2.46963e+06,0,0,0,3286,1106
2.47028e+06,0,0,0,2262,2130
2.4703e+06,0,0,0,1238,3154
2.47794e+06,0,0,0,854,3538
2.48164e+06,0,0,0,1110,3282
2.49299e+06,0,0,0,726,3666
2.5105e+06,0,0,0,1110,3282
2.5105e+06,0,0,0,86,4306
2.52101e+06,0,0,0,1110,3282
2.52247e+06,0,0,0,2134,2258
2.52656e+06,0,0,0,2518,1874
2.53112e+06,0,0,0,2254,2138
2.53115e+06,0,0,0,1990,2402
2.53122e+06,0,0,0,1726,2666
2.53634e+06,0,0,0,2576,1816
2.54249e+06,0,0,0,1560,2832
2.54854e+06,0,0,0,745,3647
2.55295e+06,0,0,0,361,4031
2.55412e+06,0,0,0,625,3767
2.55419e+06,0,0,0,889,3503
2.55423e+06,0,0,0,1153,3239
2.56138e+06,0,0,0,2177,2215
2.57028e+06,0,0,0,2992,1400
2.57338e+06,0,0,0,1968,2424
2.57351e+06,0,0,0,944,3448
2.58238e+06,0,0,0,1328,3064
2.58239e+06,0,0,0,304,4088
2.59551e+06,0,0,0,1328,3064
2.59551e+06,0,0,0,944,3448
2.59551e+06,0,0,0,94,4298
2.60319e+06,0,0,0,1118,3274
2.60556e+06,0,0,0,734,3658
2.62078e+06,0,0,0,470,3922
2.62078e+06,0,0,0,206,4186
2.62504e+06,0,0,0,1230,3162
2.62911e+06,0,0,0,2246,2146
2.62934e+06,0,0,0,2630,1762
2.63753e+06,0,0,0,3014,1378
2.64003e+06,0,0,0,2758,1634
2.64292e+06,0,0,0,1734,2658
2.64292e+06,0,0,0,710,3682
2.64371e+06,0,0,0,974,3418
2.64372e+06,0,0,0,1238,3154
2.64372e+06,0,0,0,214,4178
2.66173e+06,0,0,0,470,3922
2.66173e+06,0,0,0,214,4178
2.66431e+06,0,0,0,1238,3154
2.66902e+06,0,0,0,726,3666
2.67248e+06,0,0,0,1576,2816
2.67943e+06,0,0,0,976,3416
2.67943e+06,0,0,0,376,4016
2.68467e+06,0,0,0,632,3760
2.68467e+06,0,0,0,32,4360
2.69185e+06,0,0,0,544,3848
2.69383e+06,0,0,0,1568,2824
2.69383e+06,0,0,0,968,3424
2.69383e+06,0,0,0,368,4024
2.69404e+06,0,0,0,1392,3000
2.69404e+06,0,0,0,792,3600
2.69404e+06,0,0,0,192,4200
2.70113e+06,0,0,0,792,3600
2.70113e+06,0,0,0,192,4200
2.70234e+06,0,0,0,792,3600
2.70235e+06,0,0,0,192,4200
2.70775e+06,0,0,0,792,3600
2.70775e+06,0,0,0,192,4200
2.71555e+06,0,0,0,792,3600
2.71555e+06,0,0,0,536,3856
2.71555e+06,0,0,0,280,4112
2.71555e+06,0,0,0,24,4368
2.71556e+06,0,0,0,624,3768
2.71556e+06,0,0,0,368,4024
2.71556e+06,0,0,0,112,4280
2.71576e+06,0,0,0,712,3680
2.71576e+06,0,0,0,456,3936
2.71576e+06,0,0,0,200,4192
2.71577e+06,0,0,0,800,3592
2.71577e+06,0,0,0,544,3848
2.71577e+06,0,0,0,288,4104
2.71577e+06,0,0,0,32,4360
2.72285e+06,0,0,0,632,3760
2.72411e+06,0,0,0,1232,3160
2.72411e+06,0,0,0,592,3800
2.72946e+06,0,0,0,1192,3200
2.73727e+06,0,0,0,1448,2944
2.73734e+06,0,0,0,1704,2688
2.73746e+06,0,0,0,1960,2432
2.73752e+06,0,0,0,2216,2176
2.73762e+06,0,0,0,2472,1920
2.73851e+06,0,0,0,2728,1664
2.73855e+06,0,0,0,2984,1408
2.73865e+06,0,0,0,3240,1152
2.73871e+06,0,0,0,3496,896
2.73881e+06,0,0,0,3752,640
2.76749e+06,0,0,0,4392,0
