time,nb_sleeping,nb_switching_on,nb_switching_off,nb_idle,nb_computing
0.00240003,0,0,0,4008,384
0.00300004,0,0,0,2856,1536
0.00360005,0,0,0,2054,2338
0.00420006,0,0,0,1254,3138
0.00480006,0,0,0,598,3794
0.00540007,0,0,0,342,4050
0.00600008,0,0,0,86,4306
21763,0,0,0,470,3922
22765,0,0,0,726,3666
22848,0,0,0,982,3410
23946,0,0,0,2134,2258
24503,0,0,0,2790,1602
24506,0,0,0,54,4338
27827,0,0,0,856,3536
27830,0,0,0,344,4048
27830,0,0,0,88,4304
49523,0,0,0,344,4048
60377,0,0,0,856,3536
60380,0,0,0,472,3920
65343,0,0,0,1272,3120
65346,0,0,0,760,3632
68867,0,0,0,3496,896
68870,0,0,0,2696,1696
68870,0,0,0,2040,2352
68870,0,0,0,1238,3154
68870,0,0,0,582,3810
68870,0,0,0,198,4194
90555,0,0,0,582,3810
91373,0,0,0,1094,3298
91376,0,0,0,294,4098
92883,0,0,0,678,3714
92886,0,0,0,294,4098
95601,0,0,0,1096,3296
95604,0,0,0,296,4096
95604,0,0,0,40,4352
106977,0,0,0,696,3696
106980,0,0,0,440,3952
109676,0,0,0,1096,3296
109679,0,0,0,436,3956
109679,0,0,0,180,4212
114626,0,0,0,564,3828
114629,0,0,0,308,4084
117375,0,0,0,564,3828
117378,0,0,0,180,4212
128712,0,0,0,436,3956
131399,0,0,0,692,3700
136352,0,0,0,948,3444
136355,0,0,0,148,4244
136948,0,0,0,948,3444
136951,0,0,0,564,3828
136951,0,0,0,180,4212
139150,0,0,0,564,3828
139153,0,0,0,204,4188
155954,0,0,0,1004,3388
155957,0,0,0,364,4028
158734,0,0,0,748,3644
159761,0,0,0,1132,3260
159764,0,0,0,330,4062
159764,0,0,0,74,4318
160869,0,0,0,434,3958
160872,0,0,0,178,4214
161270,0,0,0,978,3414
161273,0,0,0,722,3670
177723,0,0,0,1362,3030
177726,0,0,0,562,3830
177726,0,0,0,50,4342
181496,0,0,0,306,4086
181499,0,0,0,50,4342
181499,0,0,0,34,4358
182551,0,0,0,290,4102
182998,0,0,0,546,3846
183001,0,0,0,162,4230
183001,0,0,0,146,4246
187839,0,0,0,948,3444
187842,0,0,0,148,4244
196153,0,0,0,808,3584
201621,0,0,0,1064,3328
203186,0,0,0,1080,3312
204270,0,0,0,1880,2512
204726,0,0,0,2264,2128
205701,0,0,0,2280,2112
210238,0,0,0,2792,1600
210241,0,0,0,56,4336
233459,0,0,0,856,3536
233462,0,0,0,472,3920
253551,0,0,0,3208,1184
253554,0,0,0,2696,1696
253554,0,0,0,2184,2208
253554,0,0,0,1384,3008
254778,0,0,0,2184,2208
255168,0,0,0,2568,1824
265164,0,0,0,2056,2336
274640,0,0,0,2568,1824
277994,0,0,0,3080,1312
282874,0,0,0,2824,1568
290729,0,0,0,3336,1056
290825,0,0,0,3080,1312
304603,0,0,0,3336,1056
312566,0,0,0,3592,800
318499,0,0,0,4392,0
507482,0,0,0,4391,1
511070,0,0,0,3591,801
511316,0,0,0,1543,2849
534306,0,0,0,1287,3105
543579,0,0,0,1288,3104
544983,0,0,0,1287,3105
545700,0,0,0,2087,2305
547548,0,0,0,1703,2689
554765,0,0,0,3751,641
556037,0,0,0,4007,385
556272,0,0,0,3751,641
577994,0,0,0,4007,385
580100,0,0,0,4391,1
580492,0,0,0,4007,385
581095,0,0,0,4008,384
592791,0,0,0,3408,984
592793,0,0,0,2808,1584
592794,0,0,0,2208,2184
592795,0,0,0,1608,2784
592796,0,0,0,1008,3384
592797,0,0,0,408,3984
602810,0,0,0,792,3600
602813,0,0,0,192,4200
614491,0,0,0,792,3600
614494,0,0,0,192,4200
614499,0,0,0,792,3600
614502,0,0,0,192,4200
614548,0,0,0,792,3600
614551,0,0,0,192,4200
614557,0,0,0,792,3600
614560,0,0,0,536,3856
614560,0,0,0,280,4112
614560,0,0,0,24,4368
615631,0,0,0,624,3768
615634,0,0,0,368,4024
615634,0,0,0,112,4280
615637,0,0,0,712,3680
615640,0,0,0,456,3936
615640,0,0,0,200,4192
624553,0,0,0,800,3592
624556,0,0,0,544,3848
624556,0,0,0,288,4104
624556,0,0,0,32,4360
636192,0,0,0,632,3760
636195,0,0,0,376,4016
636225,0,0,0,632,3760
636236,0,0,0,1232,3160
636249,0,0,0,1832,2560
636266,0,0,0,2088,2304
636298,0,0,0,2344,2048
637360,0,0,0,2600,1792
637385,0,0,0,2856,1536
638494,0,0,0,3112,1280
638513,0,0,0,3368,1024
642239,0,0,0,2566,1826
646267,0,0,0,2822,1570
646292,0,0,0,3078,1314
646329,0,0,0,3334,1058
649534,0,0,0,2950,1442
657923,0,0,0,3206,1186
666567,0,0,0,4008,384
680621,0,0,0,3752,640
682048,0,0,0,4136,256
697122,0,0,0,3624,768
698977,0,0,0,2822,1570
701195,0,0,0,2566,1826
702341,0,0,0,2822,1570
706577,0,0,0,2438,1954
708687,0,0,0,2182,2210
708736,0,0,0,1926,2466
718819,0,0,0,2438,1954
721569,0,0,0,2182,2210
722043,0,0,0,1926,2466
722065,0,0,0,1670,2722
722066,0,0,0,1414,2978
722067,0,0,0,1158,3234
722068,0,0,0,902,3490
722069,0,0,0,646,3746
722879,0,0,0,1448,2944
722969,0,0,0,1704,2688
728312,0,0,0,2088,2304
730393,0,0,0,2344,2048
730459,0,0,0,2600,1792
743291,0,0,0,2856,1536
743748,0,0,0,3112,1280
743779,0,0,0,3368,1024
743784,0,0,0,3624,768
743836,0,0,0,3880,512
744960,0,0,0,4136,256
745099,0,0,0,4392,0
763714,0,0,0,4136,256
779072,0,0,0,3880,512
786572,0,0,0,4136,256
800811,0,0,0,4392,0
809743,0,0,0,3590,802
809835,0,0,0,2788,1604
815928,0,0,0,1764,2628
831883,0,0,0,2566,1826
838645,0,0,0,3368,1024
840726,0,0,0,4392,0
848500,0,0,0,3368,1024
851868,0,0,0,3112,1280
865457,0,0,0,2856,1536
865458,0,0,0,2600,1792
865459,0,0,0,2344,2048
865460,0,0,0,2088,2304
865461,0,0,0,1832,2560
865462,0,0,0,1576,2816
865463,0,0,0,1320,3072
865464,0,0,0,1064,3328
865465,0,0,0,808,3584
865496,0,0,0,552,3840
866187,0,0,0,168,4224
873589,0,0,0,424,3968
873592,0,0,0,168,4224
887126,0,0,0,424,3968
887145,0,0,0,680,3712
887148,0,0,0,168,4224
887171,0,0,0,424,3968
887174,0,0,0,168,4224
887175,0,0,0,424,3968
887198,0,0,0,680,3712
887204,0,0,0,936,3456
887206,0,0,0,1192,3200
887213,0,0,0,1448,2944
887214,0,0,0,1704,2688
887246,0,0,0,1960,2432
887883,0,0,0,2344,2048
893773,0,0,0,1744,2648
893774,0,0,0,1144,3248
893775,0,0,0,544,3848
894560,0,0,0,800,3592
894563,0,0,0,200,4192
902149,0,0,0,1224,3168
902152,0,0,0,624,3768
902152,0,0,0,24,4368
908805,0,0,0,280,4112
915486,0,0,0,880,3512
915489,0,0,0,280,4112
915510,0,0,0,880,3512
915513,0,0,0,280,4112
916687,0,0,0,880,3512
916690,0,0,0,280,4112
917458,0,0,0,880,3512
917461,0,0,0,280,4112
919564,0,0,0,792,3600
923895,0,0,0,1392,3000
923898,0,0,0,590,3802
923928,0,0,0,1190,3202
923931,0,0,0,388,4004
937178,0,0,0,988,3404
938337,0,0,0,1588,2804
938433,0,0,0,2188,2204
938436,0,0,0,140,4252
939216,0,0,0,740,3652
939219,0,0,0,356,4036
945095,0,0,0,1158,3234
945098,0,0,0,134,4258
945300,0,0,0,936,3456
945303,0,0,0,424,3968
945303,0,0,0,40,4352
960969,0,0,0,424,3968
960972,0,0,0,40,4352
970440,0,0,0,2088,2304
970443,0,0,0,1704,2688
970443,0,0,0,676,3716
970443,0,0,0,420,3972
974253,0,0,0,1444,2948
977504,0,0,0,1828,2564
977591,0,0,0,2340,2052
993305,0,0,0,2596,1796
993500,0,0,0,2980,1412
1.00298e+06,0,0,0,3364,1028
1.01379e+06,0,0,0,4392,0
1.01955e+06,0,0,0,3880,512
1.02569e+06,0,0,0,3496,896
1.03442e+06,0,0,0,760,3632
1.04224e+06,0,0,0,504,3888
1.05175e+06,0,0,0,1016,3376
1.05293e+06,0,0,0,1400,2992
1.06517e+06,0,0,0,1656,2736
1.06717e+06,0,0,0,1272,3120
1.06772e+06,0,0,0,4008,384
1.07494e+06,0,0,0,3206,1186
1.07502e+06,0,0,0,2404,1988
1.07586e+06,0,0,0,2020,2372
1.08383e+06,0,0,0,1508,2884
1.09867e+06,0,0,0,1892,2500
1.09922e+06,0,0,0,2276,2116
1.10235e+06,0,0,0,3078,1314
1.10285e+06,0,0,0,3880,512
1.10458e+06,0,0,0,4392,0
1.10935e+06,0,0,0,4136,256
1.11398e+06,0,0,0,3752,640
1.11596e+06,0,0,0,2952,1440
1.13046e+06,0,0,0,904,3488
1.13107e+06,0,0,0,1160,3232
1.14762e+06,0,0,0,1544,2848
1.14922e+06,0,0,0,1288,3104
1.15536e+06,0,0,0,904,3488
1.15759e+06,0,0,0,2952,1440
1.16773e+06,0,0,0,2150,2242
1.16783e+06,0,0,0,1348,3044
1.17093e+06,0,0,0,1604,2788
1.17409e+06,0,0,0,1092,3300
1.18146e+06,0,0,0,1892,2500
1.18794e+06,0,0,0,2276,2116
1.19215e+06,0,0,0,1476,2916
1.19227e+06,0,0,0,2278,2114
1.19365e+06,0,0,0,3080,1312
1.19668e+06,0,0,0,2824,1568
1.19668e+06,0,0,0,2568,1824
1.19668e+06,0,0,0,2312,2080
1.19668e+06,0,0,0,2056,2336
1.19669e+06,0,0,0,1800,2592
1.19669e+06,0,0,0,1544,2848
1.19669e+06,0,0,0,1288,3104
1.19669e+06,0,0,0,1032,3360
1.19669e+06,0,0,0,776,3616
1.19669e+06,0,0,0,520,3872
1.20658e+06,0,0,0,1032,3360
1.20659e+06,0,0,0,232,4160
1.21839e+06,0,0,0,488,3904
1.2184e+06,0,0,0,744,3648
1.21841e+06,0,0,0,1000,3392
1.21843e+06,0,0,0,1256,3136
1.21843e+06,0,0,0,1512,2880
1.21844e+06,0,0,0,1768,2624
1.21844e+06,0,0,0,2024,2368
1.21844e+06,0,0,0,2280,2112
1.21845e+06,0,0,0,2536,1856
1.21845e+06,0,0,0,488,3904
1.21952e+06,0,0,0,744,3648
1.21952e+06,0,0,0,144,4248
1.24124e+06,0,0,0,744,3648
1.24124e+06,0,0,0,144,4248
1.25053e+06,0,0,0,2192,2200
1.25053e+06,0,0,0,1592,2800
1.25053e+06,0,0,0,992,3400
1.25053e+06,0,0,0,392,4000
1.26069e+06,0,0,0,1192,3200
1.26069e+06,0,0,0,592,3800
1.26405e+06,0,0,0,1192,3200
1.26406e+06,0,0,0,592,3800
1.27221e+06,0,0,0,1192,3200
1.27221e+06,0,0,0,592,3800
1.27223e+06,0,0,0,1192,3200
1.27223e+06,0,0,0,592,3800
1.27228e+06,0,0,0,1192,3200
1.27228e+06,0,0,0,592,3800
1.27228e+06,0,0,0,336,4056
1.27228e+06,0,0,0,80,4312
1.27459e+06,0,0,0,880,3512
1.27459e+06,0,0,0,496,3896
1.27459e+06,0,0,0,112,4280
1.28245e+06,0,0,0,712,3680
1.28578e+06,0,0,0,1312,3080
1.28578e+06,0,0,0,510,3882
1.29324e+06,0,0,0,766,3626
1.2939e+06,0,0,0,1366,3026
1.29391e+06,0,0,0,564,3828
1.29391e+06,0,0,0,308,4084
1.29391e+06,0,0,0,52,4340
1.29507e+06,0,0,0,652,3740
1.29507e+06,0,0,0,370,4022
1.29507e+06,0,0,0,114,4278
1.29518e+06,0,0,0,714,3678
1.29518e+06,0,0,0,458,3934
1.29518e+06,0,0,0,202,4190
1.29535e+06,0,0,0,458,3934
1.29535e+06,0,0,0,202,4190
1.30188e+06,0,0,0,586,3806
1.30189e+06,0,0,0,304,4088
1.30717e+06,0,0,0,688,3704
1.313e+06,0,0,0,1490,2902
1.3154e+06,0,0,0,1772,2620
1.31561e+06,0,0,0,2028,2364
1.31562e+06,0,0,0,2284,2108
1.3168e+06,0,0,0,2540,1852
1.31693e+06,0,0,0,2796,1596
1.31695e+06,0,0,0,3052,1340
1.31823e+06,0,0,0,3308,1084
1.32217e+06,0,0,0,3590,802
1.32288e+06,0,0,0,4392,0
1.3229e+06,0,0,0,4008,384
1.34467e+06,0,0,0,4392,0
1.35859e+06,0,0,0,3592,800
1.39119e+06,0,0,0,3336,1056
1.41293e+06,0,0,0,3592,800
1.42621e+06,0,0,0,4392,0
1.44249e+06,0,0,0,4136,256
1.46423e+06,0,0,0,4392,0
1.46703e+06,0,0,0,4136,256
1.46723e+06,0,0,0,3876,516
1.47854e+06,0,0,0,3620,772
1.47854e+06,0,0,0,3364,1028
1.47854e+06,0,0,0,3108,1284
1.47854e+06,0,0,0,2852,1540
1.47855e+06,0,0,0,2596,1796
1.47855e+06,0,0,0,2340,2052
1.47855e+06,0,0,0,2084,2308
1.47855e+06,0,0,0,1828,2564
1.47855e+06,0,0,0,1572,2820
1.47855e+06,0,0,0,1316,3076
1.48871e+06,0,0,0,1572,2820
1.48896e+06,0,0,0,1832,2560
1.50025e+06,0,0,0,2088,2304
1.50027e+06,0,0,0,2344,2048
1.50028e+06,0,0,0,2600,1792
1.50028e+06,0,0,0,2856,1536
1.50028e+06,0,0,0,3112,1280
1.50033e+06,0,0,0,3368,1024
1.50139e+06,0,0,0,3624,768
1.50139e+06,0,0,0,3880,512
1.50143e+06,0,0,0,4136,256
1.50158e+06,0,0,0,4392,0
1.59825e+06,0,0,0,3825,567
1.59828e+06,0,0,0,3258,1134
1.59828e+06,0,0,0,2691,1701
1.5983e+06,0,0,0,2124,2268
1.59831e+06,0,0,0,1557,2835
1.59833e+06,0,0,0,990,3402
1.60487e+06,0,0,0,606,3786
1.62007e+06,0,0,0,1173,3219
1.62009e+06,0,0,0,1740,2652
1.6201e+06,0,0,0,2307,2085
1.62015e+06,0,0,0,2874,1518
1.62017e+06,0,0,0,3441,951
1.62018e+06,0,0,0,4008,384
1.62966e+06,0,0,0,4000,392
1.6374e+06,0,0,0,4384,8
1.64276e+06,0,0,0,3784,608
1.64276e+06,0,0,0,3184,1208
1.64276e+06,0,0,0,2584,1808
1.64277e+06,0,0,0,1984,2408
1.64277e+06,0,0,0,1384,3008
1.64277e+06,0,0,0,784,3608
1.64277e+06,0,0,0,184,4208
1.66444e+06,0,0,0,784,3608
1.66445e+06,0,0,0,184,4208
1.66447e+06,0,0,0,784,3608
1.66448e+06,0,0,0,184,4208
1.66449e+06,0,0,0,784,3608
1.66449e+06,0,0,0,1384,3008
1.66449e+06,0,0,0,784,3608
1.66449e+06,0,0,0,528,3864
1.6646e+06,0,0,0,1128,3264
1.6646e+06,0,0,0,328,4064
1.66564e+06,0,0,0,928,3464
1.66565e+06,0,0,0,128,4264
1.66565e+06,0,0,0,728,3664
1.66575e+06,0,0,0,736,3656
1.67081e+06,0,0,0,480,3912
1.68617e+06,0,0,0,1080,3312
1.6862e+06,0,0,0,1680,2712
1.68623e+06,0,0,0,1936,2456
1.68626e+06,0,0,0,2536,1856
1.69254e+06,0,0,0,2792,1600
1.70494e+06,0,0,0,2791,1601
1.71281e+06,0,0,0,2535,1857
1.71562e+06,0,0,0,2151,2241
1.71578e+06,0,0,0,1767,2625
1.72138e+06,0,0,0,1383,3009
1.72148e+06,0,0,0,999,3393
1.72155e+06,0,0,0,615,3777
1.72159e+06,0,0,0,231,4161
1.73181e+06,0,0,0,1031,3361
1.73181e+06,0,0,0,647,3745
1.73181e+06,0,0,0,263,4129
1.73181e+06,0,0,0,7,4385
1.7342e+06,0,0,0,807,3585
1.7342e+06,0,0,0,7,4385
1.73454e+06,0,0,0,263,4129
1.73878e+06,0,0,0,647,3745
1.74101e+06,0,0,0,648,3744
1.74639e+06,0,0,0,1032,3360
1.75352e+06,0,0,0,1288,3104
1.75392e+06,0,0,0,1672,2720
1.75399e+06,0,0,0,2056,2336
1.7541e+06,0,0,0,2440,1952
1.7541e+06,0,0,0,40,4352
1.75411e+06,0,0,0,424,3968
1.7643e+06,0,0,0,808,3584
1.7643e+06,0,0,0,1192,3200
1.76431e+06,0,0,0,625,3767
1.76431e+06,0,0,0,58,4334
1.78552e+06,0,0,0,625,3767
1.78552e+06,0,0,0,58,4334
1.78564e+06,0,0,0,625,3767
1.78564e+06,0,0,0,369,4023
1.79683e+06,0,0,0,2769,1623
1.79684e+06,0,0,0,1969,2423
1.79684e+06,0,0,0,1713,2679
1.79684e+06,0,0,0,1329,3063
1.79684e+06,0,0,0,1073,3319
1.80371e+06,0,0,0,817,3575
1.80423e+06,0,0,0,433,3959
1.80495e+06,0,0,0,1233,3159
1.80528e+06,0,0,0,849,3543
1.80682e+06,0,0,0,1416,2976
1.80739e+06,0,0,0,1672,2720
1.80906e+06,0,0,0,872,3520
1.81419e+06,0,0,0,616,3776
1.81739e+06,0,0,0,360,4032
1.81773e+06,0,0,0,744,3648
1.81859e+06,0,0,0,1000,3392
1.81897e+06,0,0,0,744,3648
1.82472e+06,0,0,0,488,3904
1.82547e+06,0,0,0,744,3648
1.82558e+06,0,0,0,1128,3264
1.82572e+06,0,0,0,872,3520
1.82577e+06,0,0,0,1128,3264
1.83585e+06,0,0,0,744,3648
1.83782e+06,0,0,0,1128,3264
1.83914e+06,0,0,0,1384,3008
1.8407e+06,0,0,0,1640,2752
1.84429e+06,0,0,0,1896,2496
1.84487e+06,0,0,0,1096,3296
1.84643e+06,0,0,0,1352,3040
1.84747e+06,0,0,0,1608,2784
1.84921e+06,0,0,0,1352,3040
1.84983e+06,0,0,0,968,3424
1.8523e+06,0,0,0,712,3680
1.8542e+06,0,0,0,1512,2880
1.8684e+06,0,0,0,1896,2496
1.87205e+06,0,0,0,2152,2240
1.87406e+06,0,0,0,2408,1984
1.87716e+06,0,0,0,3208,1184
1.87915e+06,0,0,0,2952,1440
1.88144e+06,0,0,0,2152,2240
1.88234e+06,0,0,0,2536,1856
1.89387e+06,0,0,0,2535,1857
1.8967e+06,0,0,0,2151,2241
1.9009e+06,0,0,0,2407,1985
1.90919e+06,0,0,0,3207,1185
1.9156e+06,0,0,0,3208,1184
1.92092e+06,0,0,0,1032,3360
1.92921e+06,0,0,0,1416,2976
1.9426e+06,0,0,0,3592,800
1.9426e+06,0,0,0,1288,3104
1.94505e+06,0,0,0,2088,2304
1.96431e+06,0,0,0,4392,0
1.97773e+06,0,0,0,3592,800
1.98295e+06,0,0,0,2792,1600
2.03281e+06,0,0,0,744,3648
2.04507e+06,0,0,0,1544,2848
2.04833e+06,0,0,0,2344,2048
2.04833e+06,0,0,0,296,4096
2.05449e+06,0,0,0,2344,2048
2.05449e+06,0,0,0,296,4096
2.07001e+06,0,0,0,2344,2048
2.07001e+06,0,0,0,296,4096
2.07622e+06,0,0,0,2344,2048
2.07622e+06,0,0,0,296,4096
2.07622e+06,0,0,0,40,4352
2.09174e+06,0,0,0,2088,2304
2.09175e+06,0,0,0,1832,2560
2.09699e+06,0,0,0,3880,512
2.0979e+06,0,0,0,4136,256
2.1059e+06,0,0,0,3880,512
2.11149e+06,0,0,0,3624,768
2.11348e+06,0,0,0,3880,512
2.12763e+06,0,0,0,4136,256
2.13321e+06,0,0,0,4392,0
2.14707e+06,0,0,0,3792,600
2.14708e+06,0,0,0,3192,1200
2.14709e+06,0,0,0,2592,1800
2.14709e+06,0,0,0,1992,2400
2.14709e+06,0,0,0,1392,3000
2.14709e+06,0,0,0,792,3600
2.14709e+06,0,0,0,192,4200
2.16878e+06,0,0,0,792,3600
2.16878e+06,0,0,0,1392,3000
2.16879e+06,0,0,0,792,3600
2.16879e+06,0,0,0,192,4200
2.1688e+06,0,0,0,792,3600
2.16881e+06,0,0,0,192,4200
2.16881e+06,0,0,0,792,3600
2.16882e+06,0,0,0,192,4200
2.16882e+06,0,0,0,792,3600
2.16882e+06,0,0,0,192,4200
2.16884e+06,0,0,0,792,3600
2.16884e+06,0,0,0,1392,3000
2.16885e+06,0,0,0,792,3600
2.16885e+06,0,0,0,192,4200
2.1905e+06,0,0,0,792,3600
2.19051e+06,0,0,0,192,4200
2.19053e+06,0,0,0,792,3600
2.19053e+06,0,0,0,1392,3000
2.19054e+06,0,0,0,792,3600
2.19054e+06,0,0,0,192,4200
2.19054e+06,0,0,0,792,3600
2.19055e+06,0,0,0,192,4200
2.19056e+06,0,0,0,792,3600
2.19057e+06,0,0,0,192,4200
2.19058e+06,0,0,0,792,3600
2.19058e+06,0,0,0,1392,3000
2.19058e+06,0,0,0,792,3600
2.19058e+06,0,0,0,536,3856
2.21222e+06,0,0,0,1136,3256
2.21222e+06,0,0,0,496,3896
2.21222e+06,0,0,0,1096,3296
2.21222e+06,0,0,0,1696,2696
2.21223e+06,0,0,0,416,3976
2.21224e+06,0,0,0,1016,3376
2.21224e+06,0,0,0,504,3888
2.21231e+06,0,0,0,1104,3288
2.21231e+06,0,0,0,1360,3032
2.21232e+06,0,0,0,848,3544
2.21232e+06,0,0,0,336,4056
2.21232e+06,0,0,0,80,4312
2.21234e+06,0,0,0,680,3712
2.21234e+06,0,0,0,424,3968
2.22945e+06,0,0,0,168,4224
2.23122e+06,0,0,0,167,4225
2.23123e+06,0,0,0,166,4226
2.23123e+06,0,0,0,165,4227
2.23124e+06,0,0,0,164,4228
2.23404e+06,0,0,0,420,3972
2.23512e+06,0,0,0,1060,3332
2.23922e+06,0,0,0,1316,3076
2.23989e+06,0,0,0,2596,1796
2.24478e+06,0,0,0,3108,1284
2.24482e+06,0,0,0,3620,772
2.24483e+06,0,0,0,4132,260
2.25119e+06,0,0,0,4388,4
2.25376e+06,0,0,0,4389,3
2.26013e+06,0,0,0,4390,2
2.26013e+06,0,0,0,4391,1
2.26013e+06,0,0,0,4392,0
