job_id,workload_name,profile,submission_time,requested_number_of_resources,requested_time,success,final_state,starting_time,execution_time,finish_time,waiting_time,turnaround_time,stretch,allocated_resources,consumed_energy,metadata
31_0_1,w0,profile_31,0.000000,10,20018.000000,1,COMPLETED_SUCCESSFULLY,0.016800,20017.000000,20017.016800,0.016800,20017.016800,1.000001,2244-2253,-1.000000,""
30_0_1,w0,profile_30,0.000000,10,20068.000000,1,COMPLETED_SUCCESSFULLY,0.016200,20067.000000,20067.016200,0.016200,20067.016200,1.000001,2234-2243,-1.000000,""
28_0_1,w0,profile_28,0.000000,10,20116.000000,1,COMPLETED_SUCCESSFULLY,0.014400,20115.000000,20115.014400,0.014400,20115.014400,1.000001,2204-2213,-1.000000,""
29_0_1,w0,profile_29,0.000000,10,20116.000000,1,COMPLETED_SUCCESSFULLY,0.015000,20115.000000,20115.015000,0.015000,20115.015000,1.000001,2214-2223,-1.000000,""
23_0_1,w0,profile_23,0.000000,10,20142.000000,1,COMPLETED_SUCCESSFULLY,0.011400,20141.000000,20141.011400,0.011400,20141.011400,1.000001,2154-2163,-1.000000,""
25_0_1,w0,profile_25,0.000000,10,20214.000000,1,COMPLETED_SUCCESSFULLY,0.012600,20213.000000,20213.012600,0.012600,20213.012600,1.000001,2174-2183,-1.000000,""
26_0_1,w0,profile_26,0.000000,10,20273.000000,1,COMPLETED_SUCCESSFULLY,0.013200,20272.000000,20272.013200,0.013200,20272.013200,1.000001,2184-2193,-1.000000,""
27_0_1,w0,profile_27,0.000000,10,20284.000000,1,COMPLETED_SUCCESSFULLY,0.013800,20283.000000,20283.013800,0.013800,20283.013800,1.000001,2194-2203,-1.000000,""
24_0_1,w0,profile_24,0.000000,10,20335.000000,1,COMPLETED_SUCCESSFULLY,0.012000,20334.000000,20334.012000,0.012000,20334.012000,1.000001,2164-2173,-1.000000,""
20_0_1,w0,profile_20,0.000000,10,20358.000000,1,COMPLETED_SUCCESSFULLY,0.009600,20357.000000,20357.009600,0.009600,20357.009600,1.000000,2124-2133,-1.000000,""
18_0_1,w0,profile_18,0.000000,10,20373.000000,1,COMPLETED_SUCCESSFULLY,0.007800,20372.000000,20372.007800,0.007800,20372.007800,1.000000,1104-1113,-1.000000,""
22_0_1,w0,profile_22,0.000000,10,20397.000000,1,COMPLETED_SUCCESSFULLY,0.010800,20396.000000,20396.010800,0.010800,20396.010800,1.000001,2144-2153,-1.000000,""
19_0_1,w0,profile_19,0.000000,10,20418.000000,1,COMPLETED_SUCCESSFULLY,0.008400,20417.000000,20417.008400,0.008400,20417.008400,1.000000,1114-1123,-1.000000,""
21_0_1,w0,profile_21,0.000000,10,20442.000000,1,COMPLETED_SUCCESSFULLY,0.010200,20441.000000,20441.010200,0.010200,20441.010200,1.000000,2134-2143,-1.000000,""
17_0_1,w0,profile_17,0.000000,10,20476.000000,1,COMPLETED_SUCCESSFULLY,0.007200,20475.000000,20475.007200,0.007200,20475.007200,1.000000,1094-1103,-1.000000,""
10_0_1,w0,profile_10,0.000000,10,21693.000000,1,COMPLETED_SUCCESSFULLY,0.003000,21692.000000,21692.003000,0.003000,21692.003000,1.000000,1024-1033,-1.000000,""
16_0_1,w0,profile_16,0.000000,10,21724.000000,1,COMPLETED_SUCCESSFULLY,0.006600,21723.000000,21723.006600,0.006600,21723.006600,1.000000,1084-1093,-1.000000,""
13_0_1,w0,profile_13,0.000000,10,21725.000000,1,COMPLETED_SUCCESSFULLY,0.004800,21724.000000,21724.004800,0.004800,21724.004800,1.000000,1054-1063,-1.000000,""
4_0_1,w0,profile_4,0.000000,10,21728.000000,1,COMPLETED_SUCCESSFULLY,0.018000,21727.000000,21727.018000,0.018000,21727.018000,1.000001,2264-2273,-1.000000,""
6_0_1,w0,profile_6,0.000000,10,21728.000000,1,COMPLETED_SUCCESSFULLY,0.019200,21727.000000,21727.019200,0.019200,21727.019200,1.000001,2284-2293,-1.000000,""
5_0_1,w0,profile_5,0.000000,10,21735.000000,1,COMPLETED_SUCCESSFULLY,0.018600,21734.000000,21734.018600,0.018600,21734.018600,1.000001,2274-2283,-1.000000,""
8_0_1,w0,profile_8,0.000000,10,21737.000000,1,COMPLETED_SUCCESSFULLY,0.020400,21736.000000,21736.020400,0.020400,21736.020400,1.000001,2304-2313,-1.000000,""
7_0_1,w0,profile_7,0.000000,10,21754.000000,1,COMPLETED_SUCCESSFULLY,0.019800,21753.000000,21753.019800,0.019800,21753.019800,1.000001,2294-2303,-1.000000,""
11_0_1,w0,profile_11,0.000000,10,21760.000000,1,COMPLETED_SUCCESSFULLY,0.003600,21759.000000,21759.003600,0.003600,21759.003600,1.000000,1034-1043,-1.000000,""
12_0_1,w0,profile_12,0.000000,10,21767.000000,1,COMPLETED_SUCCESSFULLY,0.004200,21766.000000,21766.004200,0.004200,21766.004200,1.000000,1044-1053,-1.000000,""
3_0_1,w0,profile_3,0.000000,10,21769.000000,1,COMPLETED_SUCCESSFULLY,0.017400,21768.000000,21768.017400,0.017400,21768.017400,1.000001,2254-2263,-1.000000,""
9_0_1,w0,profile_9,0.000000,10,21769.000000,1,COMPLETED_SUCCESSFULLY,0.021000,21768.000000,21768.021000,0.021000,21768.021000,1.000001,2314-2323,-1.000000,""
15_0_1,w0,profile_15,0.000000,10,21770.000000,1,COMPLETED_SUCCESSFULLY,0.006000,21769.000000,21769.006000,0.006000,21769.006000,1.000000,1074-1083,-1.000000,""
14_0_1,w0,profile_14,0.000000,10,21787.000000,1,COMPLETED_SUCCESSFULLY,0.005400,21786.000000,21786.005400,0.005400,21786.005400,1.000000,1064-1073,-1.000000,""
2_0_1,w0,profile_2,0.000000,10,21791.000000,1,COMPLETED_SUCCESSFULLY,0.015600,21790.000000,21790.015600,0.015600,21790.015600,1.000001,2224-2233,-1.000000,""
1_0_1,w0,profile_1,0.000000,1000,85758.000000,1,COMPLETED_SUCCESSFULLY,0.009000,85757.000000,85757.009000,0.009000,85757.009000,1.000000,1124-2123,-1.000000,""
0_0_1,w0,profile_0,0.000000,1024,85930.000000,1,COMPLETED_SUCCESSFULLY,0.002400,85929.000000,85929.002400,0.002400,85929.002400,1.000000,0-1023,-1.000000,""
32_0_1,w0,profile_32,7103.000000,2048,85932.000000,1,COMPLETED_SUCCESSFULLY,7103.002400,85931.000000,93034.002400,0.002400,85931.002400,1.000000,2324-4371,-1.000000,""
34_0_1,w0,profile_34,26472.000000,1024,31573.000000,1,COMPLETED_SUCCESSFULLY,85932.004050,31572.000000,117504.004050,59460.004050,91032.004050,2.883314,0-1023,-1.000000,""
37_0_1,w0,profile_37,58700.000000,500,27746.000000,1,COMPLETED_SUCCESSFULLY,93037.005250,27745.000000,120782.005250,34337.005250,62082.005250,2.237593,3040-3539,-1.000000,""
38_0_1,w0,profile_38,59022.000000,500,28909.000000,1,COMPLETED_SUCCESSFULLY,93037.005850,28908.000000,121945.005850,34015.005850,62923.005850,2.176664,3540-4039,-1.000000,""
36_0_1,w0,profile_36,58621.000000,500,28932.000000,1,COMPLETED_SUCCESSFULLY,93037.004650,28931.000000,121968.004650,34416.004650,63347.004650,2.189589,2540-3039,-1.000000,""
35_0_1,w0,profile_35,53931.000000,500,32551.000000,1,COMPLETED_SUCCESSFULLY,93037.004050,32550.000000,125587.004050,39106.004050,71656.004050,2.201413,2040-2539,-1.000000,""
39_0_1,w0,profile_39,99678.000000,1000,24213.000000,1,COMPLETED_SUCCESSFULLY,117507.005700,24212.000000,141719.005700,17829.005700,42041.005700,1.736371,0-999,-1.000000,""
46_0_1,w0,profile_46,123854.000000,640,21905.000000,1,COMPLETED_SUCCESSFULLY,125590.005700,21904.000000,147494.005700,1736.005700,23640.005700,1.079255,2040-2539 4040-4179,-1.000000,""
40_0_1,w0,profile_40,99698.000000,500,32605.000000,1,COMPLETED_SUCCESSFULLY,120785.006900,32604.000000,153389.006900,21087.006900,53691.006900,1.646761,1000-1023 3040-3515,-1.000000,""
41_0_1,w0,profile_41,102551.000000,1024,43307.000000,1,COMPLETED_SUCCESSFULLY,121971.006300,43306.000000,165277.006300,19420.006300,62726.006300,1.448437,2540-3039 3516-4039,-1.000000,""
33_0_1,w0,profile_33,14816.000000,1016,86538.000000,1,COMPLETED_SUCCESSFULLY,85760.010650,86537.000000,172297.010650,70944.010650,157481.010650,1.819811,1024-2039,-1.000000,""
43_0_1,w0,profile_43,109358.000000,2048,21785.000000,1,COMPLETED_SUCCESSFULLY,172300.012300,21784.000000,194084.012300,62942.012300,84726.012300,3.889369,1024-2039 2540-3039 3516-4039 4088-4095,-1.000000,""
42_0_1,w0,profile_42,107105.000000,2048,44532.000000,1,COMPLETED_SUCCESSFULLY,153392.008550,44531.000000,197923.008550,46287.008550,90818.008550,2.039433,0-1023 2040-2539 3040-3515 4040-4087,-1.000000,""
44_0_1,w0,profile_44,115291.000000,2048,21817.000000,1,COMPLETED_SUCCESSFULLY,194087.013950,21816.000000,215903.013950,78796.013950,100612.013950,4.611845,1024-2039 2540-3039 3516-4039 4088-4095,-1.000000,""
45_0_1,w0,profile_45,123171.000000,1000,24206.000000,1,COMPLETED_SUCCESSFULLY,197926.010200,24205.000000,222131.010200,74755.010200,98960.010200,4.088412,0-999,-1.000000,""
47_0_1,w0,profile_47,143494.000000,865,43617.000000,1,COMPLETED_SUCCESSFULLY,197926.010800,43616.000000,241542.010800,54432.010800,98048.010800,2.247983,1000-1023 2040-2539 3040-3380,-1.000000,""
51_0_1,w0,profile_51,193555.000000,1024,21763.000000,1,COMPLETED_SUCCESSFULLY,222134.011850,21762.000000,243896.011850,28579.011850,50341.011850,2.313253,0-999 4090-4113,-1.000000,""
54_0_1,w0,profile_54,208071.000000,256,21729.000000,1,COMPLETED_SUCCESSFULLY,243899.013500,21728.000000,265627.013500,35828.013500,57556.013500,2.648933,0-255,-1.000000,""
52_0_1,w0,profile_52,201203.000000,975,42923.000000,1,COMPLETED_SUCCESSFULLY,241545.012450,42922.000000,284467.012450,40342.012450,83264.012450,1.939891,1000-1023 2040-2539 3040-3380 4114-4223,-1.000000,""
49_0_1,w0,profile_49,175598.000000,1000,85711.000000,1,COMPLETED_SUCCESSFULLY,215906.016200,85710.000000,301616.016200,40308.016200,126018.016200,1.470284,2548-3039 3381-3888,-1.000000,""
48_0_1,w0,profile_48,175537.000000,1024,85956.000000,1,COMPLETED_SUCCESSFULLY,215906.015600,85955.000000,301861.015600,40369.015600,126324.015600,1.469653,1024-2039 2540-2547,-1.000000,""
53_0_1,w0,profile_53,202408.000000,2048,21778.000000,1,COMPLETED_SUCCESSFULLY,284470.014100,21777.000000,306247.014100,82062.014100,103839.014100,4.768288,0-1023 2040-2539 3040-3380 4090-4272,-1.000000,""
50_0_1,w0,profile_50,177091.000000,201,108176.000000,1,COMPLETED_SUCCESSFULLY,215906.016800,108175.000000,324081.016800,38815.016800,146990.016800,1.358817,3889-4089,-1.000000,""
56_0_1,w0,profile_56,268127.000000,256,21739.000000,1,COMPLETED_SUCCESSFULLY,306250.015750,21738.000000,327988.015750,38123.015750,59861.015750,2.753750,0-255,-1.000000,""
57_0_1,w0,profile_57,306931.000000,256,21735.000000,1,COMPLETED_SUCCESSFULLY,306931.001800,21734.000000,328665.001800,0.001800,21734.001800,1.000000,256-511,-1.000000,""
58_0_1,w0,profile_58,307015.000000,512,21765.000000,1,COMPLETED_SUCCESSFULLY,307015.001800,21764.000000,328779.001800,0.001800,21764.001800,1.000000,512-1023,-1.000000,""
59_0_1,w0,profile_59,310053.000000,512,31968.000000,1,COMPLETED_SUCCESSFULLY,310053.001800,31967.000000,342020.001800,0.001800,31967.001800,1.000000,2040-2539 3040-3051,-1.000000,""
60_0_1,w0,profile_60,310074.000000,512,32558.000000,1,COMPLETED_SUCCESSFULLY,310074.001800,32557.000000,342631.001800,0.001800,32557.001800,1.000000,3052-3380 4090-4272,-1.000000,""
55_0_1,w0,profile_55,236627.000000,2048,46930.000000,1,COMPLETED_SUCCESSFULLY,301864.017250,46929.000000,348793.017250,65237.017250,112166.017250,2.390122,1024-2039 2540-3039 3381-3888 4273-4296,-1.000000,""
61_0_1,w0,profile_61,310093.000000,512,30137.000000,1,COMPLETED_SUCCESSFULLY,327991.017400,30136.000000,358127.017400,17898.017400,48034.017400,1.593908,0-255 3889-4089 4297-4351,-1.000000,""
62_0_1,w0,profile_62,310112.000000,512,30077.000000,1,COMPLETED_SUCCESSFULLY,328782.003450,30076.000000,358858.003450,18670.003450,48746.003450,1.620761,256-767,-1.000000,""
63_0_1,w0,profile_63,350687.000000,1,20482.000000,1,COMPLETED_SUCCESSFULLY,350687.001800,20481.000000,371168.001800,0.001800,20481.001800,1.000000,768,-1.000000,""
64_0_1,w0,profile_64,378823.000000,500,28950.000000,1,COMPLETED_SUCCESSFULLY,378823.001800,28949.000000,407772.001800,0.001800,28949.001800,1.000000,0-499,-1.000000,""
65_0_1,w0,profile_65,399232.000000,802,21784.000000,1,COMPLETED_SUCCESSFULLY,399232.001800,21783.000000,421015.001800,0.001800,21783.001800,1.000000,500-1301,-1.000000,""
66_0_1,w0,profile_66,399733.000000,802,21736.000000,1,COMPLETED_SUCCESSFULLY,399733.001800,21735.000000,421468.001800,0.001800,21735.001800,1.000000,1302-2103,-1.000000,""
67_0_1,w0,profile_67,399937.000000,802,21741.000000,1,COMPLETED_SUCCESSFULLY,399937.001800,21740.000000,421677.001800,0.001800,21740.001800,1.000000,2104-2905,-1.000000,""
68_0_1,w0,profile_68,401079.000000,802,21743.000000,1,COMPLETED_SUCCESSFULLY,401079.001800,21742.000000,422821.001800,0.001800,21742.001800,1.000000,2906-3707,-1.000000,""
69_0_1,w0,profile_69,458254.000000,14,21677.000000,1,COMPLETED_SUCCESSFULLY,458254.001800,21676.000000,479930.001800,0.001800,21676.001800,1.000000,0-13,-1.000000,""
70_0_1,w0,profile_70,463526.000000,500,21830.000000,1,COMPLETED_SUCCESSFULLY,463526.001800,21829.000000,485355.001800,0.001800,21829.001800,1.000000,14-513,-1.000000,""
71_0_1,w0,profile_71,466958.000000,201,21707.000000,1,COMPLETED_SUCCESSFULLY,466958.001800,21706.000000,488664.001800,0.001800,21706.001800,1.000000,514-714,-1.000000,""
72_0_1,w0,profile_72,467201.000000,1,72091.000000,1,COMPLETED_SUCCESSFULLY,467201.001800,72090.000000,539291.001800,0.001800,72090.001800,1.000000,715,-1.000000,""
75_0_1,w0,profile_75,523339.000000,201,20063.000000,1,COMPLETED_SUCCESSFULLY,523339.001800,20062.000000,543401.001800,0.001800,20062.001800,1.000000,2025-2225,-1.000000,""
77_0_1,w0,profile_77,533778.000000,640,26156.000000,1,COMPLETED_SUCCESSFULLY,533778.001800,26155.000000,559933.001800,0.001800,26155.001800,1.000000,2738-3377,-1.000000,""
78_0_1,w0,profile_78,539340.000000,400,26455.000000,1,COMPLETED_SUCCESSFULLY,539340.001800,26454.000000,565794.001800,0.001800,26454.001800,1.000000,715 3378-3776,-1.000000,""
76_0_1,w0,profile_76,533762.000000,512,33705.000000,1,COMPLETED_SUCCESSFULLY,533762.001800,33704.000000,567466.001800,0.001800,33704.001800,1.000000,2226-2737,-1.000000,""
79_0_1,w0,profile_79,555191.000000,500,28925.000000,1,COMPLETED_SUCCESSFULLY,555191.001800,28924.000000,584115.001800,0.001800,28924.001800,1.000000,2025-2225 3777-4075,-1.000000,""
81_0_1,w0,profile_81,576171.000000,802,21795.000000,1,COMPLETED_SUCCESSFULLY,576171.001800,21794.000000,597965.001800,0.001800,21794.001800,1.000000,715 2226-3026,-1.000000,""
82_0_1,w0,profile_82,577018.000000,802,21687.000000,1,COMPLETED_SUCCESSFULLY,577018.001800,21686.000000,598704.001800,0.001800,21686.001800,1.000000,3027-3776 4277-4328,-1.000000,""
73_0_1,w0,profile_73,514830.000000,1024,85807.000000,1,COMPLETED_SUCCESSFULLY,514830.001800,85806.000000,600636.001800,0.001800,85806.001800,1.000000,0-714 716-1024,-1.000000,""
74_0_1,w0,profile_74,514865.000000,1000,87090.000000,1,COMPLETED_SUCCESSFULLY,514865.001800,87089.000000,601954.001800,0.001800,87089.001800,1.000000,1025-2024,-1.000000,""
83_0_1,w0,profile_83,618534.000000,802,21840.000000,1,COMPLETED_SUCCESSFULLY,618534.001800,21839.000000,640373.001800,0.001800,21839.001800,1.000000,0-801,-1.000000,""
87_0_1,w0,profile_87,621510.000000,500,28882.000000,1,COMPLETED_SUCCESSFULLY,621510.001800,28881.000000,650391.001800,0.001800,28881.001800,1.000000,3430-3929,-1.000000,""
86_0_1,w0,profile_86,621509.000000,500,28945.000000,1,COMPLETED_SUCCESSFULLY,621509.001800,28944.000000,650453.001800,0.001800,28944.001800,1.000000,2930-3429,-1.000000,""
80_0_1,w0,profile_80,557085.000000,201,129763.000000,1,COMPLETED_SUCCESSFULLY,557085.001800,129762.000000,686847.001800,0.001800,129762.001800,1.000000,4076-4276,-1.000000,""
88_0_1,w0,profile_88,659928.000000,500,28962.000000,1,COMPLETED_SUCCESSFULLY,659928.001800,28961.000000,688889.001800,0.001800,28961.001800,1.000000,0-499,-1.000000,""
84_0_1,w0,profile_84,619484.000000,1016,86494.000000,1,COMPLETED_SUCCESSFULLY,619484.001800,86493.000000,705977.001800,0.001800,86493.001800,1.000000,802-1817,-1.000000,""
85_0_1,w0,profile_85,619520.000000,1112,87832.000000,1,COMPLETED_SUCCESSFULLY,619520.001800,87831.000000,707351.001800,0.001800,87831.001800,1.000000,1818-2929,-1.000000,""
90_0_1,w0,profile_90,691052.000000,384,24130.000000,1,COMPLETED_SUCCESSFULLY,691052.001800,24129.000000,715181.001800,0.001800,24129.001800,1.000000,0-383,-1.000000,""
91_0_1,w0,profile_91,691055.000000,384,25081.000000,1,COMPLETED_SUCCESSFULLY,691055.001800,25080.000000,716135.001800,0.001800,25080.001800,1.000000,384-499 3478-3745,-1.000000,""
92_0_1,w0,profile_92,700445.000000,2560,27470.000000,1,COMPLETED_SUCCESSFULLY,707354.003450,27469.000000,734823.003450,6909.003450,34378.003450,1.251520,802-2929 3746-4177,-1.000000,""
89_0_1,w0,profile_89,663950.000000,850,85666.000000,1,COMPLETED_SUCCESSFULLY,663950.001800,85665.000000,749615.001800,0.001800,85665.001800,1.000000,500-801 2930-3477,-1.000000,""
95_0_1,w0,profile_95,705886.000000,256,21609.000000,1,COMPLETED_SUCCESSFULLY,734826.006300,21608.000000,756434.006300,28940.006300,50548.006300,2.339319,2326-2581,-1.000000,""
105_0_1,w0,profile_105,749032.000000,1,21687.000000,1,COMPLETED_SUCCESSFULLY,749618.004650,21686.000000,771304.004650,586.004650,22272.004650,1.027022,4329,-1.000000,""
102_0_1,w0,profile_102,724495.000000,1,21737.000000,1,COMPLETED_SUCCESSFULLY,749618.004050,21736.000000,771354.004050,25123.004050,46859.004050,2.155825,4328,-1.000000,""
104_0_1,w0,profile_104,736568.000000,256,21748.000000,1,COMPLETED_SUCCESSFULLY,756437.007950,21747.000000,778184.007950,19869.007950,41616.007950,1.913644,2326-2581,-1.000000,""
96_0_1,w0,profile_96,708444.000000,1024,84128.000000,1,COMPLETED_SUCCESSFULLY,734826.006900,84127.000000,818953.006900,26382.006900,110509.006900,1.313597,2582-2929 3478-4153,-1.000000,""
93_0_1,w0,profile_93,701514.000000,1000,85765.000000,1,COMPLETED_SUCCESSFULLY,734826.005100,85764.000000,820590.005100,33312.005100,119076.005100,1.388415,0-499 802-1301,-1.000000,""
94_0_1,w0,profile_94,701553.000000,1024,85786.000000,1,COMPLETED_SUCCESSFULLY,734826.005700,85785.000000,820611.005700,33273.005700,119058.005700,1.387865,1302-2325,-1.000000,""
97_0_1,w0,profile_97,708521.000000,1024,84086.000000,1,COMPLETED_SUCCESSFULLY,749618.003450,84085.000000,833703.003450,41097.003450,125182.003450,1.488755,500-801 2930-3477 4154-4327,-1.000000,""
106_0_1,w0,profile_106,803051.000000,1,21591.000000,1,COMPLETED_SUCCESSFULLY,833706.005700,21590.000000,855296.005700,30655.005700,52245.005700,2.419871,4096,-1.000000,""
109_0_1,w0,profile_109,825604.000000,1,21751.000000,1,COMPLETED_SUCCESSFULLY,833706.006300,21750.000000,855456.006300,8102.006300,29852.006300,1.372506,4097,-1.000000,""
113_0_1,w0,profile_113,874426.000000,256,21711.000000,1,COMPLETED_SUCCESSFULLY,874426.001800,21710.000000,896136.001800,0.001800,21710.001800,1.000000,4096-4351,-1.000000,""
98_0_1,w0,profile_98,708526.000000,1024,85447.000000,1,COMPLETED_SUCCESSFULLY,818956.008550,85446.000000,904402.008550,110430.008550,195876.008550,2.292395,2326-2929 3478-3897,-1.000000,""
99_0_1,w0,profile_99,708541.000000,1024,84094.000000,1,COMPLETED_SUCCESSFULLY,820593.006750,84093.000000,904686.006750,112052.006750,196145.006750,2.332477,0-499 802-1301 3898-3921,-1.000000,""
100_0_1,w0,profile_100,708548.000000,1024,84087.000000,1,COMPLETED_SUCCESSFULLY,820614.007350,84086.000000,904700.007350,112066.007350,196152.007350,2.332755,1302-2325,-1.000000,""
101_0_1,w0,profile_101,708562.000000,1024,84101.000000,1,COMPLETED_SUCCESSFULLY,833706.005100,84100.000000,917806.005100,125144.005100,209244.005100,2.488038,500-801 2930-3477 3922-4095,-1.000000,""
107_0_1,w0,profile_107,813143.000000,1024,21718.000000,1,COMPLETED_SUCCESSFULLY,904689.008400,21717.000000,926406.008400,91546.008400,113263.008400,5.215408,0-499 802-1301 3676-3699,-1.000000,""
116_0_1,w0,profile_116,883268.000000,256,21283.000000,1,COMPLETED_SUCCESSFULLY,926409.010650,21282.000000,947691.010650,43141.010650,64423.010650,3.027113,802-1057,-1.000000,""
112_0_1,w0,profile_112,872393.000000,500,32512.000000,1,COMPLETED_SUCCESSFULLY,926409.010050,32511.000000,958920.010050,54016.010050,86527.010050,2.661469,0-499,-1.000000,""
118_0_1,w0,profile_118,897431.000000,128,42213.000000,1,COMPLETED_SUCCESSFULLY,926409.011850,42212.000000,968621.011850,28978.011850,71190.011850,1.686488,1186-1301 3676-3687,-1.000000,""
117_0_1,w0,profile_117,897389.000000,128,42254.000000,1,COMPLETED_SUCCESSFULLY,926409.011250,42253.000000,968662.011250,29020.011250,71273.011250,1.686815,1058-1185,-1.000000,""
110_0_1,w0,profile_110,866645.000000,1000,85756.000000,1,COMPLETED_SUCCESSFULLY,904703.009000,85755.000000,990458.009000,38058.009000,123813.009000,1.443799,1302-2301,-1.000000,""
103_0_1,w0,profile_103,732473.000000,802,86552.000000,1,COMPLETED_SUCCESSFULLY,904405.010200,86551.000000,990956.010200,171932.010200,258483.010200,2.986482,2326-2929 3478-3675,-1.000000,""
111_0_1,w0,profile_111,866685.000000,1024,86025.000000,1,COMPLETED_SUCCESSFULLY,917809.006750,86024.000000,1003833.006750,51124.006750,137148.006750,1.594299,500-801 2302-2325 2930-3477 3901-4050,-1.000000,""
120_0_1,w0,profile_120,971553.000000,500,28946.000000,1,COMPLETED_SUCCESSFULLY,990959.011850,28945.000000,1019904.011850,19406.011850,48351.011850,1.670444,2326-2825,-1.000000,""
125_0_1,w0,profile_125,1000513.000000,330,21765.000000,1,COMPLETED_SUCCESSFULLY,1000513.001800,21764.000000,1022277.001800,0.001800,21764.001800,1.000000,2826-2929 3478-3675 4331-4358,-1.000000,""
124_0_1,w0,profile_124,998610.000000,384,23997.000000,1,COMPLETED_SUCCESSFULLY,1003836.009000,23996.000000,1027832.009000,5226.009000,29222.009000,1.217787,2988-3371,-1.000000,""
123_0_1,w0,profile_123,998607.000000,384,24321.000000,1,COMPLETED_SUCCESSFULLY,1003836.008400,24320.000000,1028156.008400,5229.008400,29549.008400,1.215009,500-801 2302-2325 2930-2987,-1.000000,""
108_0_1,w0,profile_108,820348.000000,201,129737.000000,1,COMPLETED_SUCCESSFULLY,904689.009000,129736.000000,1034425.009000,84341.009000,214077.009000,1.650097,3700-3900,-1.000000,""
114_0_1,w0,profile_114,876233.000000,2304,45618.000000,1,COMPLETED_SUCCESSFULLY,990461.010650,45617.000000,1036078.010650,114228.010650,159845.010650,3.504067,0-499 802-2301 3676-3699 4051-4330,-1.000000,""
126_0_1,w0,profile_126,1000514.000000,330,21713.000000,1,COMPLETED_SUCCESSFULLY,1036081.012900,21712.000000,1057793.012900,35567.012900,57279.012900,2.638127,3584-3913,-1.000000,""
127_0_1,w0,profile_127,1000516.000000,330,21736.000000,1,COMPLETED_SUCCESSFULLY,1036081.013500,21735.000000,1057816.013500,35565.013500,57300.013500,2.636302,3914-4243,-1.000000,""
128_0_1,w0,profile_128,1000517.000000,330,21728.000000,1,COMPLETED_SUCCESSFULLY,1057796.014550,21727.000000,1079523.014550,57279.014550,79006.014550,3.636306,3584-3913,-1.000000,""
129_0_1,w0,profile_129,1000519.000000,330,21786.000000,1,COMPLETED_SUCCESSFULLY,1057819.015150,21785.000000,1079604.015150,57300.015150,79085.015150,3.630251,3914-4243,-1.000000,""
139_0_1,w0,profile_139,1069671.000000,10,21785.000000,1,COMPLETED_SUCCESSFULLY,1069671.001800,21784.000000,1091455.001800,0.001800,21784.001800,1.000000,4244-4253,-1.000000,""
140_0_1,w0,profile_140,1070534.000000,10,21813.000000,1,COMPLETED_SUCCESSFULLY,1070534.001800,21812.000000,1092346.001800,0.001800,21812.001800,1.000000,4254-4263,-1.000000,""
142_0_1,w0,profile_142,1072505.000000,10,21733.000000,1,COMPLETED_SUCCESSFULLY,1072505.001800,21732.000000,1094237.001800,0.001800,21732.001800,1.000000,4274-4283,-1.000000,""
141_0_1,w0,profile_141,1072504.000000,10,21776.000000,1,COMPLETED_SUCCESSFULLY,1072504.001800,21775.000000,1094279.001800,0.001800,21775.001800,1.000000,4264-4273,-1.000000,""
143_0_1,w0,profile_143,1072507.000000,10,21816.000000,1,COMPLETED_SUCCESSFULLY,1072507.001800,21815.000000,1094322.001800,0.001800,21815.001800,1.000000,4284-4293,-1.000000,""
145_0_1,w0,profile_145,1072606.000000,10,21720.000000,1,COMPLETED_SUCCESSFULLY,1072606.001800,21719.000000,1094325.001800,0.001800,21719.001800,1.000000,4304-4313,-1.000000,""
144_0_1,w0,profile_144,1072508.000000,10,21841.000000,1,COMPLETED_SUCCESSFULLY,1072508.001800,21840.000000,1094348.001800,0.001800,21840.001800,1.000000,4294-4303,-1.000000,""
146_0_1,w0,profile_146,1074285.000000,10,21734.000000,1,COMPLETED_SUCCESSFULLY,1074285.001800,21733.000000,1096018.001800,0.001800,21733.001800,1.000000,4314-4323,-1.000000,""
131_0_1,w0,profile_131,1000521.000000,330,21067.000000,1,COMPLETED_SUCCESSFULLY,1079607.016800,21066.000000,1100673.016800,79086.016800,100152.016800,4.754202,3914-4243,-1.000000,""
130_0_1,w0,profile_130,1000519.000000,330,21754.000000,1,COMPLETED_SUCCESSFULLY,1079526.016200,21753.000000,1101279.016200,79007.016200,100760.016200,4.632006,3584-3913,-1.000000,""
115_0_1,w0,profile_115,881548.000000,3584,74309.000000,1,COMPLETED_SUCCESSFULLY,1036081.012300,74308.000000,1110389.012300,154533.012300,228841.012300,3.079628,0-3583,-1.000000,""
132_0_1,w0,profile_132,1000534.000000,330,21732.000000,1,COMPLETED_SUCCESSFULLY,1110392.015750,21731.000000,1132123.015750,109858.015750,131589.015750,6.055359,2978-3307,-1.000000,""
134_0_1,w0,profile_134,1008978.000000,802,21759.000000,1,COMPLETED_SUCCESSFULLY,1110392.016950,21758.000000,1132150.016950,101414.016950,123172.016950,5.660999,3561-4362,-1.000000,""
133_0_1,w0,profile_133,1002609.000000,253,35186.000000,1,COMPLETED_SUCCESSFULLY,1110392.016350,35185.000000,1145577.016350,107783.016350,142968.016350,4.063323,3308-3560,-1.000000,""
135_0_1,w0,profile_135,1009080.000000,802,21869.000000,1,COMPLETED_SUCCESSFULLY,1132153.018600,21868.000000,1154021.018600,123073.018600,144941.018600,6.627996,2978-3307 3561-4032,-1.000000,""
136_0_1,w0,profile_136,1010267.000000,500,28973.000000,1,COMPLETED_SUCCESSFULLY,1145580.018000,28972.000000,1174552.018000,135313.018000,164285.018000,5.670476,3308-3560 4033-4279,-1.000000,""
119_0_1,w0,profile_119,927905.000000,850,73912.000000,1,COMPLETED_SUCCESSFULLY,1110392.013950,73911.000000,1184303.013950,182487.013950,256398.013950,3.469010,0-849,-1.000000,""
137_0_1,w0,profile_137,1041941.000000,253,34986.000000,1,COMPLETED_SUCCESSFULLY,1154024.020250,34985.000000,1189009.020250,112083.020250,147068.020250,4.203745,2978-3230,-1.000000,""
138_0_1,w0,profile_138,1060683.000000,1024,21715.000000,1,COMPLETED_SUCCESSFULLY,1174555.019650,21714.000000,1196269.019650,113872.019650,135586.019650,6.244175,3231-4254,-1.000000,""
121_0_1,w0,profile_121,976352.000000,1016,86526.000000,1,COMPLETED_SUCCESSFULLY,1110392.014550,86525.000000,1196917.014550,134040.014550,220565.014550,2.549148,850-1865,-1.000000,""
122_0_1,w0,profile_122,976370.000000,1112,86598.000000,1,COMPLETED_SUCCESSFULLY,1110392.015150,86597.000000,1196989.015150,134022.015150,220619.015150,2.547652,1866-2977,-1.000000,""
151_0_1,w0,profile_151,1101359.000000,256,21600.000000,1,COMPLETED_SUCCESSFULLY,1196272.022500,21599.000000,1217871.022500,94913.022500,116512.022500,5.394325,3880-4135,-1.000000,""
152_0_1,w0,profile_152,1101453.000000,256,21640.000000,1,COMPLETED_SUCCESSFULLY,1196920.016200,21639.000000,1218559.016200,95467.016200,117106.016200,5.411804,850-1105,-1.000000,""
153_0_1,w0,profile_153,1101458.000000,256,21656.000000,1,COMPLETED_SUCCESSFULLY,1196920.016800,21655.000000,1218575.016800,95462.016800,117117.016800,5.408313,1106-1361,-1.000000,""
147_0_1,w0,profile_147,1076313.000000,975,42788.000000,1,COMPLETED_SUCCESSFULLY,1184306.015600,42787.000000,1227093.015600,107993.015600,150780.015600,3.523968,0-849 4255-4379,-1.000000,""
150_0_1,w0,profile_150,1098398.000000,500,32560.000000,1,COMPLETED_SUCCESSFULLY,1196272.021900,32559.000000,1228831.021900,97874.021900,130433.021900,4.006051,3380-3879,-1.000000,""
148_0_1,w0,profile_148,1076783.000000,201,43320.000000,1,COMPLETED_SUCCESSFULLY,1189012.021900,43319.000000,1232331.021900,112229.021900,155548.021900,3.590757,2978-3178,-1.000000,""
149_0_1,w0,profile_149,1076824.000000,201,43346.000000,1,COMPLETED_SUCCESSFULLY,1196272.021300,43345.000000,1239617.021300,119448.021300,162793.021300,3.755751,3179-3379,-1.000000,""
155_0_1,w0,profile_155,1142132.000000,2863,20457.000000,1,COMPLETED_SUCCESSFULLY,1228834.023550,20456.000000,1249290.023550,86702.023550,107158.023550,5.238464,0-1361 2386-2977 3380-4288,-1.000000,""
154_0_1,w0,profile_154,1140544.000000,1024,85820.000000,1,COMPLETED_SUCCESSFULLY,1196992.016800,85819.000000,1282811.016800,56448.016800,142267.016800,1.657757,1362-2385,-1.000000,""
158_0_1,w0,profile_158,1303640.000000,256,21728.000000,1,COMPLETED_SUCCESSFULLY,1303640.001800,21727.000000,1325367.001800,0.001800,21727.001800,1.000000,0-255,-1.000000,""
159_0_1,w0,profile_159,1309679.000000,500,32408.000000,1,COMPLETED_SUCCESSFULLY,1309679.001800,32407.000000,1342086.001800,0.001800,32407.001800,1.000000,256-755,-1.000000,""
156_0_1,w0,profile_156,1170428.000000,201,130662.000000,1,COMPLETED_SUCCESSFULLY,1232334.023550,130661.000000,1362995.023550,61906.023550,192567.023550,1.473791,2978-3178,-1.000000,""
157_0_1,w0,profile_157,1171050.000000,201,132440.000000,1,COMPLETED_SUCCESSFULLY,1239620.022950,132439.000000,1372059.022950,68570.022950,201009.022950,1.517748,3179-3379,-1.000000,""
160_0_1,w0,profile_160,1319883.000000,804,52668.000000,1,COMPLETED_SUCCESSFULLY,1319883.001800,52667.000000,1372550.001800,0.001800,52667.001800,1.000000,756-1559,-1.000000,""
162_0_1,w0,profile_162,1390568.000000,256,21705.000000,1,COMPLETED_SUCCESSFULLY,1390568.001800,21704.000000,1412272.001800,0.001800,21704.001800,1.000000,1-256,-1.000000,""
161_0_1,w0,profile_161,1386987.000000,1,28603.000000,1,COMPLETED_SUCCESSFULLY,1386987.001800,28602.000000,1415589.001800,0.001800,28602.001800,1.000000,0,-1.000000,""
167_0_1,w0,profile_167,1407893.000000,2048,32483.000000,1,COMPLETED_SUCCESSFULLY,1407893.001800,32482.000000,1440375.001800,0.001800,32482.001800,1.000000,769-2816,-1.000000,""
168_0_1,w0,profile_168,1409746.000000,2048,22339.000000,1,COMPLETED_SUCCESSFULLY,1440378.003450,22338.000000,1462716.003450,30632.003450,52970.003450,2.371296,0-256 769-2559,-1.000000,""
165_0_1,w0,profile_165,1399476.000000,128,69642.000000,1,COMPLETED_SUCCESSFULLY,1399476.001800,69641.000000,1469117.001800,0.001800,69641.001800,1.000000,513-640,-1.000000,""
166_0_1,w0,profile_166,1399482.000000,128,69758.000000,1,COMPLETED_SUCCESSFULLY,1399482.001800,69757.000000,1469239.001800,0.001800,69757.001800,1.000000,641-768,-1.000000,""
163_0_1,w0,profile_163,1398422.000000,128,72132.000000,1,COMPLETED_SUCCESSFULLY,1398422.001800,72131.000000,1470553.001800,0.001800,72131.001800,1.000000,257-384,-1.000000,""
164_0_1,w0,profile_164,1398443.000000,128,72154.000000,1,COMPLETED_SUCCESSFULLY,1398443.001800,72153.000000,1470596.001800,0.001800,72153.001800,1.000000,385-512,-1.000000,""
169_0_1,w0,profile_169,1413755.000000,2048,21738.000000,1,COMPLETED_SUCCESSFULLY,1462719.005100,21737.000000,1484456.005100,48964.005100,70701.005100,3.252565,0-256 769-2559,-1.000000,""
172_0_1,w0,profile_172,1464136.000000,256,21688.000000,1,COMPLETED_SUCCESSFULLY,1464136.001800,21687.000000,1485823.001800,0.001800,21687.001800,1.000000,3411-3666,-1.000000,""
170_0_1,w0,profile_170,1415647.000000,1,28893.000000,1,COMPLETED_SUCCESSFULLY,1462719.005700,28892.000000,1491611.005700,47072.005700,75964.005700,2.629240,2560,-1.000000,""
171_0_1,w0,profile_171,1422766.000000,850,70286.000000,1,COMPLETED_SUCCESSFULLY,1462719.006300,70285.000000,1533004.006300,39953.006300,110238.006300,1.568443,2561-3410,-1.000000,""
174_0_1,w0,profile_174,1518078.000000,1024,28932.000000,1,COMPLETED_SUCCESSFULLY,1518078.001800,28931.000000,1547009.001800,0.001800,28931.001800,1.000000,802-1825,-1.000000,""
173_0_1,w0,profile_173,1496681.000000,802,86535.000000,1,COMPLETED_SUCCESSFULLY,1496681.001800,86534.000000,1583215.001800,0.001800,86534.001800,1.000000,0-801,-1.000000,""
176_0_1,w0,profile_176,1564828.000000,500,30297.000000,1,COMPLETED_SUCCESSFULLY,1564828.001800,30296.000000,1595124.001800,0.001800,30296.001800,1.000000,1826-2325,-1.000000,""
178_0_1,w0,profile_178,1567158.000000,201,28033.000000,1,COMPLETED_SUCCESSFULLY,1567158.001800,28032.000000,1595190.001800,0.001800,28032.001800,1.000000,2454-2654,-1.000000,""
177_0_1,w0,profile_177,1566210.000000,128,47693.000000,1,COMPLETED_SUCCESSFULLY,1566210.001800,47692.000000,1613902.001800,0.001800,47692.001800,1.000000,2326-2453,-1.000000,""
179_0_1,w0,profile_179,1587150.000000,1,28891.000000,1,COMPLETED_SUCCESSFULLY,1587150.001800,28890.000000,1616040.001800,0.001800,28890.001800,1.000000,0,-1.000000,""
175_0_1,w0,profile_175,1556724.000000,1024,74248.000000,1,COMPLETED_SUCCESSFULLY,1556724.001800,74247.000000,1630971.001800,0.001800,74247.001800,1.000000,802-1825,-1.000000,""
180_0_1,w0,profile_180,1619093.000000,500,31339.000000,1,COMPLETED_SUCCESSFULLY,1619093.001800,31338.000000,1650431.001800,0.001800,31338.001800,1.000000,0-499,-1.000000,""
181_0_1,w0,profile_181,1652142.000000,128,42789.000000,1,COMPLETED_SUCCESSFULLY,1652142.001800,42788.000000,1694930.001800,0.001800,42788.001800,1.000000,0-127,-1.000000,""
182_0_1,w0,profile_182,1652148.000000,128,42878.000000,1,COMPLETED_SUCCESSFULLY,1652148.001800,42877.000000,1695025.001800,0.001800,42877.001800,1.000000,128-255,-1.000000,""
183_0_1,w0,profile_183,1652180.000000,128,46790.000000,1,COMPLETED_SUCCESSFULLY,1652180.001800,46789.000000,1698969.001800,0.001800,46789.001800,1.000000,256-383,-1.000000,""
184_0_1,w0,profile_184,1677230.000000,201,129756.000000,1,COMPLETED_SUCCESSFULLY,1677230.001800,129755.000000,1806985.001800,0.001800,129755.001800,1.000000,384-584,-1.000000,""
186_0_1,w0,profile_186,1845835.000000,500,32527.000000,1,COMPLETED_SUCCESSFULLY,1845835.001800,32526.000000,1878361.001800,0.001800,32526.001800,1.000000,1112-1611,-1.000000,""
185_0_1,w0,profile_185,1817550.000000,1112,65695.000000,1,COMPLETED_SUCCESSFULLY,1817550.001800,65694.000000,1883244.001800,0.001800,65694.001800,1.000000,0-1111,-1.000000,""
187_0_1,w0,profile_187,1877123.000000,256,21925.000000,1,COMPLETED_SUCCESSFULLY,1877123.001800,21924.000000,1899047.001800,0.001800,21924.001800,1.000000,1612-1867,-1.000000,""
188_0_1,w0,profile_188,1882551.000000,955,42862.000000,1,COMPLETED_SUCCESSFULLY,1882551.001800,42861.000000,1925412.001800,0.001800,42861.001800,1.000000,1112-1611 1868-2322,-1.000000,""
189_0_1,w0,profile_189,1882749.000000,865,43581.000000,1,COMPLETED_SUCCESSFULLY,1882749.001800,43580.000000,1926329.001800,0.001800,43580.001800,1.000000,2323-3187,-1.000000,""
190_0_1,w0,profile_190,1882816.000000,865,43928.000000,1,COMPLETED_SUCCESSFULLY,1882816.001800,43927.000000,1926743.001800,0.001800,43927.001800,1.000000,3188-4052,-1.000000,""
191_0_1,w0,profile_191,1882929.000000,865,43559.000000,1,COMPLETED_SUCCESSFULLY,1883247.003450,43558.000000,1926805.003450,318.003450,43876.003450,1.007301,0-864,-1.000000,""
200_0_1,w0,profile_200,1926271.000000,256,21446.000000,1,COMPLETED_SUCCESSFULLY,1926808.005100,21445.000000,1948253.005100,537.005100,21982.005100,1.025041,0-255,-1.000000,""
198_0_1,w0,profile_198,1916290.000000,256,22942.000000,1,COMPLETED_SUCCESSFULLY,1926746.004050,22941.000000,1949687.004050,10456.004050,33397.004050,1.455778,3899-4154,-1.000000,""
201_0_1,w0,profile_201,1928701.000000,500,32525.000000,1,COMPLETED_SUCCESSFULLY,1928701.001800,32524.000000,1961225.001800,0.001800,32524.001800,1.000000,256-755,-1.000000,""
193_0_1,w0,profile_193,1901935.000000,201,59759.000000,1,COMPLETED_SUCCESSFULLY,1901935.001800,59758.000000,1961693.001800,0.001800,59758.001800,1.000000,1066-1111 1612-1766,-1.000000,""
194_0_1,w0,profile_194,1907058.000000,1024,43258.000000,1,COMPLETED_SUCCESSFULLY,1925415.003450,43257.000000,1968672.003450,18357.003450,61614.003450,1.424371,1112-1611 1767-2290,-1.000000,""
196_0_1,w0,profile_196,1913712.000000,804,61711.000000,1,COMPLETED_SUCCESSFULLY,1926746.003450,61710.000000,1988456.003450,13034.003450,74744.003450,1.211214,3095-3898,-1.000000,""
195_0_1,w0,profile_195,1913441.000000,804,72165.000000,1,COMPLETED_SUCCESSFULLY,1926332.003450,72164.000000,1998496.003450,12891.003450,85055.003450,1.178635,2291-3094,-1.000000,""
199_0_1,w0,profile_199,1920697.000000,1319,20077.000000,1,COMPLETED_SUCCESSFULLY,1998499.005100,20076.000000,2018575.005100,77802.005100,97878.005100,4.875374,2291-3609,-1.000000,""
206_0_1,w0,profile_206,1996233.000000,256,21719.000000,1,COMPLETED_SUCCESSFULLY,1998499.005700,21718.000000,2020217.005700,2266.005700,23984.005700,1.104338,3610-3865,-1.000000,""
192_0_1,w0,profile_192,1901619.000000,201,130961.000000,1,COMPLETED_SUCCESSFULLY,1901619.001800,130960.000000,2032579.001800,0.001800,130960.001800,1.000000,865-1065,-1.000000,""
207_0_1,w0,profile_207,2015933.000000,256,21728.000000,1,COMPLETED_SUCCESSFULLY,2018578.006750,21727.000000,2040305.006750,2645.006750,24372.006750,1.121738,2291-2546,-1.000000,""
197_0_1,w0,profile_197,1915948.000000,2560,79344.000000,1,COMPLETED_SUCCESSFULLY,1968675.005100,79343.000000,2048018.005100,52727.005100,132070.005100,1.664545,0-864 1066-2290 3899-4368,-1.000000,""
203_0_1,w0,profile_203,1964793.000000,2048,43288.000000,1,COMPLETED_SUCCESSFULLY,2048021.007350,43287.000000,2091308.007350,83228.007350,126515.007350,2.922702,2048-4095,-1.000000,""
202_0_1,w0,profile_202,1964589.000000,2048,84064.000000,1,COMPLETED_SUCCESSFULLY,2048021.006750,84063.000000,2132084.006750,83432.006750,167495.006750,1.992494,0-2047,-1.000000,""
204_0_1,w0,profile_204,1964851.000000,2048,43679.000000,1,COMPLETED_SUCCESSFULLY,2091311.009000,43678.000000,2134989.009000,126460.009000,170138.009000,3.895279,2048-4095,-1.000000,""
213_0_1,w0,profile_213,2113713.000000,256,21804.000000,1,COMPLETED_SUCCESSFULLY,2134992.011250,21803.000000,2156795.011250,21279.011250,43082.011250,1.975967,4096-4351,-1.000000,""
205_0_1,w0,profile_205,1964855.000000,2048,42702.000000,1,COMPLETED_SUCCESSFULLY,2132087.008400,42701.000000,2174788.008400,167232.008400,209933.008400,4.916349,0-2047,-1.000000,""
217_0_1,w0,profile_217,2134766.000000,256,21061.000000,1,COMPLETED_SUCCESSFULLY,2174791.012450,21060.000000,2195851.012450,40025.012450,61085.012450,2.900523,4096-4351,-1.000000,""
215_0_1,w0,profile_215,2129507.000000,256,21099.000000,1,COMPLETED_SUCCESSFULLY,2174791.011250,21098.000000,2195889.011250,45284.011250,66382.011250,3.146365,1536-1791,-1.000000,""
216_0_1,w0,profile_216,2129664.000000,256,21115.000000,1,COMPLETED_SUCCESSFULLY,2174791.011850,21114.000000,2195905.011850,45127.011850,66241.011850,3.137303,1792-2047,-1.000000,""
214_0_1,w0,profile_214,2127939.000000,512,33691.000000,1,COMPLETED_SUCCESSFULLY,2174791.010650,33690.000000,2208481.010650,46852.010650,80542.010650,2.390680,1024-1535,-1.000000,""
219_0_1,w0,profile_219,2186741.000000,256,21735.000000,1,COMPLETED_SUCCESSFULLY,2195892.012900,21734.000000,2217626.012900,9151.012900,30885.012900,1.421046,1536-1791,-1.000000,""
218_0_1,w0,profile_218,2135455.000000,256,21806.000000,1,COMPLETED_SUCCESSFULLY,2195854.014100,21805.000000,2217659.014100,60399.014100,82204.014100,3.769962,4096-4351,-1.000000,""
208_0_1,w0,profile_208,2060975.000000,2048,84474.000000,1,COMPLETED_SUCCESSFULLY,2134992.010650,84473.000000,2219465.010650,74017.010650,158490.010650,1.876221,2048-4095,-1.000000,""
209_0_1,w0,profile_209,2070038.000000,1024,85906.000000,1,COMPLETED_SUCCESSFULLY,2174791.010050,85905.000000,2260696.010050,104753.010050,190658.010050,2.219405,0-1023,-1.000000,""
221_0_1,w0,profile_221,2256223.000000,256,21803.000000,1,COMPLETED_SUCCESSFULLY,2256223.001800,21802.000000,2278025.001800,0.001800,21802.001800,1.000000,3764-4019,-1.000000,""
212_0_1,w0,profile_212,2093124.000000,201,61448.000000,1,COMPLETED_SUCCESSFULLY,2219468.013500,61447.000000,2280915.013500,126344.013500,187791.013500,3.056146,2761-2961,-1.000000,""
222_0_1,w0,profile_222,2268537.000000,256,21728.000000,1,COMPLETED_SUCCESSFULLY,2268537.001800,21727.000000,2290264.001800,0.001800,21727.001800,1.000000,0-255,-1.000000,""
210_0_1,w0,profile_210,2086166.000000,1536,86545.000000,1,COMPLETED_SUCCESSFULLY,2219468.012300,86544.000000,2306012.012300,133302.012300,219846.012300,2.540280,1024-2559,-1.000000,""
220_0_1,w0,profile_220,2195388.000000,802,86918.000000,1,COMPLETED_SUCCESSFULLY,2219468.014100,86917.000000,2306385.014100,24080.014100,110997.014100,1.277046,2962-3763,-1.000000,""
224_0_1,w0,profile_224,2283997.000000,201,49272.000000,1,COMPLETED_SUCCESSFULLY,2283997.001800,49271.000000,2333268.001800,0.001800,49271.001800,1.000000,457-657,-1.000000,""
211_0_1,w0,profile_211,2092745.000000,201,129720.000000,1,COMPLETED_SUCCESSFULLY,2219468.012900,129719.000000,2349187.012900,126723.012900,256442.012900,1.976904,2560-2760,-1.000000,""
226_0_1,w0,profile_226,2315832.000000,1024,36079.000000,1,COMPLETED_SUCCESSFULLY,2315832.001800,36078.000000,2351910.001800,0.001800,36078.001800,1.000000,1402-2425,-1.000000,""
225_0_1,w0,profile_225,2309069.000000,1000,43642.000000,1,COMPLETED_SUCCESSFULLY,2309069.001800,43641.000000,2352710.001800,0.001800,43641.001800,1.000000,0-255 658-1401,-1.000000,""
223_0_1,w0,profile_223,2283872.000000,201,119392.000000,1,COMPLETED_SUCCESSFULLY,2283872.001800,119391.000000,2403263.001800,0.001800,119391.001800,1.000000,256-456,-1.000000,""
228_0_1,w0,profile_228,2336465.000000,1112,59490.000000,1,COMPLETED_SUCCESSFULLY,2349190.014550,59489.000000,2408679.014550,12725.014550,72214.014550,1.213905,2560-2760 3442-4352,-1.000000,""
227_0_1,w0,profile_227,2336444.000000,1016,86511.000000,1,COMPLETED_SUCCESSFULLY,2336444.001800,86510.000000,2422954.001800,0.001800,86510.001800,1.000000,457-657 2426-2559 2761-3441,-1.000000,""
229_0_1,w0,profile_229,2486866.000000,500,28991.000000,1,COMPLETED_SUCCESSFULLY,2486866.001800,28990.000000,2515856.001800,0.001800,28990.001800,1.000000,0-499,-1.000000,""
230_0_1,w0,profile_230,2571541.000000,256,21150.000000,1,COMPLETED_SUCCESSFULLY,2571541.001800,21149.000000,2592690.001800,0.001800,21149.001800,1.000000,0-255,-1.000000,""
231_0_1,w0,profile_231,2579679.000000,480,30761.000000,1,COMPLETED_SUCCESSFULLY,2579679.001800,30760.000000,2610439.001800,0.001800,30760.001800,1.000000,256-735,-1.000000,""
233_0_1,w0,profile_233,2618322.000000,201,25359.000000,1,COMPLETED_SUCCESSFULLY,2618322.001800,25358.000000,2643680.001800,0.001800,25358.001800,1.000000,0-200,-1.000000,""
238_0_1,w0,profile_238,2624542.000000,256,21183.000000,1,COMPLETED_SUCCESSFULLY,2624542.001800,21182.000000,2645724.001800,0.001800,21182.001800,1.000000,457-712,-1.000000,""
240_0_1,w0,profile_240,2634600.000000,256,21110.000000,1,COMPLETED_SUCCESSFULLY,2634600.001800,21109.000000,2655709.001800,0.001800,21109.001800,1.000000,713-735 3736-3968,-1.000000,""
241_0_1,w0,profile_241,2634704.000000,201,25527.000000,1,COMPLETED_SUCCESSFULLY,2634704.001800,25526.000000,2660230.001800,0.001800,25526.001800,1.000000,3969-4169,-1.000000,""
232_0_1,w0,profile_232,2582320.000000,3000,86636.000000,1,COMPLETED_SUCCESSFULLY,2582320.001800,86635.000000,2668955.001800,0.001800,86635.001800,1.000000,736-3735,-1.000000,""
234_0_1,w0,profile_234,2619456.000000,256,54599.000000,1,COMPLETED_SUCCESSFULLY,2619456.001800,54598.000000,2674054.001800,0.001800,54598.001800,1.000000,201-456,-1.000000,""
236_0_1,w0,profile_236,2622638.000000,2048,28905.000000,1,COMPLETED_SUCCESSFULLY,2668958.004050,28904.000000,2697862.004050,46320.004050,75224.004050,2.602547,2304-4351,-1.000000,""
235_0_1,w0,profile_235,2622618.000000,2048,28929.000000,1,COMPLETED_SUCCESSFULLY,2668958.003450,28928.000000,2697886.003450,46340.003450,75268.003450,2.601908,0-200 457-2303,-1.000000,""
237_0_1,w0,profile_237,2622845.000000,2048,29019.000000,1,COMPLETED_SUCCESSFULLY,2697865.005700,29018.000000,2726883.005700,75020.005700,104038.005700,3.585292,201-456 2304-4095,-1.000000,""
252_0_1,w0,profile_252,2731377.000000,256,21152.000000,1,COMPLETED_SUCCESSFULLY,2731377.001800,21151.000000,2752528.001800,0.001800,21151.001800,1.000000,4096-4351,-1.000000,""
242_0_1,w0,profile_242,2649777.000000,2048,28954.000000,1,COMPLETED_SUCCESSFULLY,2726886.007350,28953.000000,2755839.007350,77109.007350,106062.007350,3.663248,201-456 2304-4095,-1.000000,""
243_0_1,w0,profile_243,2649802.000000,2048,28933.000000,1,COMPLETED_SUCCESSFULLY,2755842.009000,28932.000000,2784774.009000,106040.009000,134972.009000,4.665146,201-456 2304-4095,-1.000000,""
239_0_1,w0,profile_239,2624660.000000,2048,106907.000000,1,COMPLETED_SUCCESSFULLY,2697889.005100,106906.000000,2804795.005100,73229.005100,180135.005100,1.684985,0-200 457-2303,-1.000000,""
244_0_1,w0,profile_244,2649925.000000,2048,21729.000000,1,COMPLETED_SUCCESSFULLY,2784777.010650,21728.000000,2806505.010650,134852.010650,156580.010650,7.206370,201-456 2304-4095,-1.000000,""
253_0_1,w0,profile_253,2797529.000000,512,32578.000000,1,COMPLETED_SUCCESSFULLY,2806508.012300,32577.000000,2839085.012300,8979.012300,41556.012300,1.275624,201-456 2304-2559,-1.000000,""
255_0_1,w0,profile_255,2800802.000000,201,51399.000000,1,COMPLETED_SUCCESSFULLY,2806508.013500,51398.000000,2857906.013500,5706.013500,57104.013500,1.111016,3362-3562,-1.000000,""
245_0_1,w0,profile_245,2702365.000000,256,86497.000000,1,COMPLETED_SUCCESSFULLY,2784777.011250,86496.000000,2871273.011250,82412.011250,168908.011250,1.952784,4096-4351,-1.000000,""
250_0_1,w0,profile_250,2702553.000000,850,76887.000000,1,COMPLETED_SUCCESSFULLY,2804798.009150,76886.000000,2881684.009150,102245.009150,179131.009150,2.329826,1280-2129,-1.000000,""
247_0_1,w0,profile_247,2702369.000000,256,83033.000000,1,COMPLETED_SUCCESSFULLY,2804798.007350,83032.000000,2887830.007350,102429.007350,185461.007350,2.233609,512-767,-1.000000,""
249_0_1,w0,profile_249,2702404.000000,256,86518.000000,1,COMPLETED_SUCCESSFULLY,2804798.008550,86517.000000,2891315.008550,102394.008550,188911.008550,2.183513,1024-1279,-1.000000,""
246_0_1,w0,profile_246,2702367.000000,256,86549.000000,1,COMPLETED_SUCCESSFULLY,2804798.006750,86548.000000,2891346.006750,102431.006750,188979.006750,2.183517,0-200 457-511,-1.000000,""
248_0_1,w0,profile_248,2702374.000000,256,86550.000000,1,COMPLETED_SUCCESSFULLY,2804798.007950,86549.000000,2891347.007950,102424.007950,188973.007950,2.183422,768-1023,-1.000000,""
257_0_1,w0,profile_257,2860480.000000,256,21090.000000,1,COMPLETED_SUCCESSFULLY,2871276.012900,21089.000000,2892365.012900,10796.012900,31885.012900,1.511926,3362-3562 4075-4129,-1.000000,""
254_0_1,w0,profile_254,2798680.000000,802,86637.000000,1,COMPLETED_SUCCESSFULLY,2806508.012900,86636.000000,2893144.012900,7828.012900,94464.012900,1.090355,2560-3361,-1.000000,""
258_0_1,w0,profile_258,2860484.000000,256,21110.000000,1,COMPLETED_SUCCESSFULLY,2881687.010800,21109.000000,2902796.010800,21203.010800,42312.010800,2.004454,1280-1535,-1.000000,""
261_0_1,w0,profile_261,2861137.000000,256,21146.000000,1,COMPLETED_SUCCESSFULLY,2893147.015150,21145.000000,2914292.015150,32010.015150,53155.015150,2.513834,2904-3159,-1.000000,""
262_0_1,w0,profile_262,2861156.000000,256,21149.000000,1,COMPLETED_SUCCESSFULLY,2893147.015750,21148.000000,2914295.015750,31991.015750,53139.015750,2.512721,3160-3415,-1.000000,""
263_0_1,w0,profile_263,2861180.000000,256,21170.000000,1,COMPLETED_SUCCESSFULLY,2893147.016350,21169.000000,2914316.016350,31967.016350,53136.016350,2.510086,3416-3562 4075-4129 4296-4349,-1.000000,""
259_0_1,w0,profile_259,2860998.000000,1016,27021.000000,1,COMPLETED_SUCCESSFULLY,2887833.009000,27020.000000,2914853.009000,26835.009000,53855.009000,1.993154,512-767 1536-2129 4130-4295,-1.000000,""
251_0_1,w0,profile_251,2704946.000000,201,125035.000000,1,COMPLETED_SUCCESSFULLY,2804798.009750,125034.000000,2929832.009750,99852.009750,224886.009750,1.798599,2130-2303 4352-4378,-1.000000,""
256_0_1,w0,profile_256,2854256.000000,1024,85903.000000,1,COMPLETED_SUCCESSFULLY,2854256.001800,85902.000000,2940158.001800,0.001800,85902.001800,1.000000,201-456 2304-2559 3563-4074,-1.000000,""
265_0_1,w0,profile_265,2870991.000000,512,32549.000000,1,COMPLETED_SUCCESSFULLY,2914856.011250,32548.000000,2947404.011250,43865.011250,76413.011250,2.347702,3334-3562 4075-4351 4379-4384,-1.000000,""
260_0_1,w0,profile_260,2861013.000000,1112,80208.000000,1,COMPLETED_SUCCESSFULLY,2893147.014550,80207.000000,2973354.014550,32134.014550,112341.014550,1.400639,0-200 457-511 768-1279 2560-2903,-1.000000,""
264_0_1,w0,profile_264,2866758.000000,1536,86356.000000,1,COMPLETED_SUCCESSFULLY,2914856.010650,86355.000000,3001211.010650,48098.010650,134453.010650,1.556980,512-767 1280-2129 2904-3333,-1.000000,""
269_0_1,w0,profile_269,2991624.000000,2048,28911.000000,1,COMPLETED_SUCCESSFULLY,2991624.001800,28910.000000,3020534.001800,0.001800,28910.001800,1.000000,402-511 768-1279 2304-2903 3334-4159,-1.000000,""
268_0_1,w0,profile_268,2983428.000000,201,77208.000000,1,COMPLETED_SUCCESSFULLY,2983428.001800,77207.000000,3060635.001800,0.001800,77207.001800,1.000000,201-401,-1.000000,""
270_0_1,w0,profile_270,2991898.000000,2048,46900.000000,1,COMPLETED_SUCCESSFULLY,3020537.003450,46899.000000,3067436.003450,28639.003450,75538.003450,1.610653,402-2129 2304-2623,-1.000000,""
266_0_1,w0,profile_266,2882020.000000,201,144194.000000,1,COMPLETED_SUCCESSFULLY,2929835.011400,144193.000000,3074028.011400,47815.011400,192008.011400,1.331604,2130-2303 4352-4378,-1.000000,""
271_0_1,w0,profile_271,3063526.000000,896,31220.000000,1,COMPLETED_SUCCESSFULLY,3063526.001800,31219.000000,3094745.001800,0.001800,31219.001800,1.000000,201-401 2624-3318,-1.000000,""
275_0_1,w0,profile_275,3088019.000000,500,28918.000000,1,COMPLETED_SUCCESSFULLY,3088019.001800,28917.000000,3116936.001800,0.001800,28917.001800,1.000000,2277-2623 3319-3471,-1.000000,""
273_0_1,w0,profile_273,3087106.000000,500,31382.000000,1,COMPLETED_SUCCESSFULLY,3087106.001800,31381.000000,3118487.001800,0.001800,31381.001800,1.000000,1277-1776,-1.000000,""
276_0_1,w0,profile_276,3088426.000000,500,31329.000000,1,COMPLETED_SUCCESSFULLY,3088426.001800,31328.000000,3119754.001800,0.001800,31328.001800,1.000000,3472-3971,-1.000000,""
274_0_1,w0,profile_274,3087708.000000,500,32530.000000,1,COMPLETED_SUCCESSFULLY,3087708.001800,32529.000000,3120237.001800,0.001800,32529.001800,1.000000,1777-2276,-1.000000,""
277_0_1,w0,profile_277,3088549.000000,500,32496.000000,1,COMPLETED_SUCCESSFULLY,3094748.003450,32495.000000,3127243.003450,6199.003450,38694.003450,1.190768,201-401 2624-2922,-1.000000,""
267_0_1,w0,profile_267,2983388.000000,201,144154.000000,1,COMPLETED_SUCCESSFULLY,2983388.001800,144153.000000,3127541.001800,0.001800,144153.001800,1.000000,0-200,-1.000000,""
272_0_1,w0,profile_272,3086637.000000,875,80679.000000,1,COMPLETED_SUCCESSFULLY,3086637.001800,80678.000000,3167315.001800,0.001800,80678.001800,1.000000,402-1276,-1.000000,""
278_0_1,w0,profile_278,3151926.000000,402,32572.000000,1,COMPLETED_SUCCESSFULLY,3151926.001800,32571.000000,3184497.001800,0.001800,32571.001800,1.000000,0-401,-1.000000,""
279_0_1,w0,profile_279,3159486.000000,480,30735.000000,1,COMPLETED_SUCCESSFULLY,3159486.001800,30734.000000,3190220.001800,0.001800,30734.001800,1.000000,1277-1756,-1.000000,""
280_0_1,w0,profile_280,3217982.000000,1024,30711.000000,1,COMPLETED_SUCCESSFULLY,3217982.001800,30710.000000,3248692.001800,0.001800,30710.001800,1.000000,0-1023,-1.000000,""
282_0_1,w0,profile_282,3228074.000000,256,73375.000000,1,COMPLETED_SUCCESSFULLY,3228074.001800,73374.000000,3301448.001800,0.001800,73374.001800,1.000000,1826-2081,-1.000000,""
281_0_1,w0,profile_281,3226619.000000,802,86544.000000,1,COMPLETED_SUCCESSFULLY,3226619.001800,86543.000000,3313162.001800,0.001800,86543.001800,1.000000,1024-1825,-1.000000,""
285_0_1,w0,profile_285,3299215.000000,256,21785.000000,1,COMPLETED_SUCCESSFULLY,3299215.001800,21784.000000,3320999.001800,0.001800,21784.001800,1.000000,402-657,-1.000000,""
284_0_1,w0,profile_284,3287668.000000,201,77383.000000,1,COMPLETED_SUCCESSFULLY,3287668.001800,77382.000000,3365050.001800,0.001800,77382.001800,1.000000,201-401,-1.000000,""
287_0_1,w0,profile_287,3332455.000000,512,32597.000000,1,COMPLETED_SUCCESSFULLY,3332455.001800,32596.000000,3365051.001800,0.001800,32596.001800,1.000000,402-657 1658-1913,-1.000000,""
283_0_1,w0,profile_283,3287565.000000,201,87809.000000,1,COMPLETED_SUCCESSFULLY,3287565.001800,87808.000000,3375373.001800,0.001800,87808.001800,1.000000,0-200,-1.000000,""
289_0_1,w0,profile_289,3350261.000000,1024,30682.000000,1,COMPLETED_SUCCESSFULLY,3350261.001800,30681.000000,3380942.001800,0.001800,30681.001800,1.000000,2414-3437,-1.000000,""
288_0_1,w0,profile_288,3350201.000000,500,32558.000000,1,COMPLETED_SUCCESSFULLY,3350201.001800,32557.000000,3382758.001800,0.001800,32557.001800,1.000000,1914-2413,-1.000000,""
286_0_1,w0,profile_286,3314203.000000,1000,85720.000000,1,COMPLETED_SUCCESSFULLY,3314203.001800,85719.000000,3399922.001800,0.001800,85719.001800,1.000000,658-1657,-1.000000,""
290_0_1,w0,profile_290,3373006.000000,1,28897.000000,1,COMPLETED_SUCCESSFULLY,3373006.001800,28896.000000,3401902.001800,0.001800,28896.001800,1.000000,201,-1.000000,""
292_0_1,w0,profile_292,3381827.000000,1000,32698.000000,1,COMPLETED_SUCCESSFULLY,3381827.001800,32697.000000,3414524.001800,0.001800,32697.001800,1.000000,2414-3413,-1.000000,""
293_0_1,w0,profile_293,3385245.000000,2048,22741.000000,1,COMPLETED_SUCCESSFULLY,3399925.003450,22740.000000,3422665.003450,14680.003450,37420.003450,1.645559,658-1657 1914-2413 3414-3437 3549-4072,-1.000000,""
294_0_1,w0,profile_294,3385536.000000,1024,28818.000000,1,COMPLETED_SUCCESSFULLY,3414527.003450,28817.000000,3443344.003450,28991.003450,57808.003450,2.006038,201 2414-3413 4073-4095,-1.000000,""
298_0_1,w0,profile_298,3421148.000000,700,21764.000000,1,COMPLETED_SUCCESSFULLY,3422668.006300,21763.000000,3444431.006300,1520.006300,23283.006300,1.069844,1939-2413 3414-3437 3549-3749,-1.000000,""
296_0_1,w0,profile_296,3402771.000000,1024,24533.000000,1,COMPLETED_SUCCESSFULLY,3422668.005100,24532.000000,3447200.005100,19897.005100,44429.005100,1.811063,658-1657 1914-1937,-1.000000,""
297_0_1,w0,profile_297,3404318.000000,1,28906.000000,1,COMPLETED_SUCCESSFULLY,3422668.005700,28905.000000,3451573.005700,18350.005700,47255.005700,1.634838,1938,-1.000000,""
291_0_1,w0,profile_291,3379621.000000,1024,85784.000000,1,COMPLETED_SUCCESSFULLY,3379621.001800,85783.000000,3465404.001800,0.001800,85783.001800,1.000000,0-200 202-657 1658-1913 3438-3548,-1.000000,""
295_0_1,w0,profile_295,3397303.000000,201,77871.000000,1,COMPLETED_SUCCESSFULLY,3414527.004050,77870.000000,3492397.004050,17224.004050,95094.004050,1.221189,4096-4296,-1.000000,""
300_0_1,w0,profile_300,3480324.000000,640,43285.000000,1,COMPLETED_SUCCESSFULLY,3480324.001800,43284.000000,3523608.001800,0.001800,43284.001800,1.000000,0-200 202-640,-1.000000,""
302_0_1,w0,profile_302,3480330.000000,640,43293.000000,1,COMPLETED_SUCCESSFULLY,3480330.001800,43292.000000,3523622.001800,0.001800,43292.001800,1.000000,1281-1920,-1.000000,""
301_0_1,w0,profile_301,3480325.000000,640,43323.000000,1,COMPLETED_SUCCESSFULLY,3480325.001800,43322.000000,3523647.001800,0.001800,43322.001800,1.000000,641-1280,-1.000000,""
303_0_1,w0,profile_303,3480331.000000,640,43387.000000,1,COMPLETED_SUCCESSFULLY,3480331.001800,43386.000000,3523717.001800,0.001800,43386.001800,1.000000,1921-2413 3215-3361,-1.000000,""
299_0_1,w0,profile_299,3437037.000000,802,86573.000000,1,COMPLETED_SUCCESSFULLY,3443347.005100,86572.000000,3529919.005100,6310.005100,92882.005100,1.072887,201 2414-3214,-1.000000,""
304_0_1,w0,profile_304,3490686.000000,2048,27930.000000,1,COMPLETED_SUCCESSFULLY,3523625.003450,27929.000000,3551554.003450,32939.003450,60868.003450,2.179384,0-200 202-640 1281-1920 3362-4129,-1.000000,""
306_0_1,w0,profile_306,3544343.000000,2048,32677.000000,1,COMPLETED_SUCCESSFULLY,3551557.005100,32676.000000,3584233.005100,7214.005100,39890.005100,1.220774,0-200 202-640 1281-1920 3328-4095,-1.000000,""
307_0_1,w0,profile_307,3558721.000000,201,50553.000000,1,COMPLETED_SUCCESSFULLY,3558721.001800,50552.000000,3609273.001800,0.001800,50552.001800,1.000000,4096-4296,-1.000000,""
305_0_1,w0,profile_305,3490705.000000,2048,85463.000000,1,COMPLETED_SUCCESSFULLY,3529922.006750,85462.000000,3615384.006750,39217.006750,124679.006750,1.458882,201 641-1280 1921-3327,-1.000000,""
308_0_1,w0,profile_308,3559087.000000,201,50504.000000,1,COMPLETED_SUCCESSFULLY,3584236.006750,50503.000000,3634739.006750,25149.006750,75652.006750,1.497971,0-200,-1.000000,""
311_0_1,w0,profile_311,3580232.000000,14,36149.000000,1,COMPLETED_SUCCESSFULLY,3615387.009000,36148.000000,3651535.009000,35155.009000,71303.009000,1.972530,4297-4310,-1.000000,""
312_0_1,w0,profile_312,3633329.000000,201,27041.000000,1,COMPLETED_SUCCESSFULLY,3634742.008400,27040.000000,3661782.008400,1413.008400,28453.008400,1.052256,0-200,-1.000000,""
309_0_1,w0,profile_309,3566211.000000,2048,86508.000000,1,COMPLETED_SUCCESSFULLY,3609276.003450,86507.000000,3695783.003450,43065.003450,129572.003450,1.497821,202-640 1281-1920 3328-4296,-1.000000,""
310_0_1,w0,profile_310,3576696.000000,2048,86573.000000,1,COMPLETED_SUCCESSFULLY,3615387.008400,86572.000000,3701959.008400,38691.008400,125263.008400,1.446923,201 641-1280 1921-3327,-1.000000,""
313_0_1,w0,profile_313,3720240.000000,512,22949.000000,1,COMPLETED_SUCCESSFULLY,3720240.002400,22948.000000,3743188.002400,0.002400,22948.002400,1.000000,0-511,-1.000000,""
