time,nb_sleeping,nb_switching_on,nb_switching_off,nb_idle,nb_computing
0.00240003,0,0,0,3368,1024
0.00300004,0,0,0,3358,1034
0.00360005,0,0,0,3348,1044
0.00420006,0,0,0,3338,1054
0.00480006,0,0,0,3328,1064
0.00540007,0,0,0,3318,1074
0.00600008,0,0,0,3308,1084
0.00660009,0,0,0,3298,1094
0.0072001,0,0,0,3288,1104
0.0078001,0,0,0,3278,1114
0.00840011,0,0,0,3268,1124
0.00900012,0,0,0,2268,2124
0.00960013,0,0,0,2258,2134
0.0102001,0,0,0,2248,2144
0.0108001,0,0,0,2238,2154
0.0114002,0,0,0,2228,2164
0.0120002,0,0,0,2218,2174
0.0126002,0,0,0,2208,2184
0.0132002,0,0,0,2198,2194
0.0138002,0,0,0,2188,2204
0.0144002,0,0,0,2178,2214
0.0150002,0,0,0,2168,2224
0.0156002,0,0,0,2158,2234
0.0162002,0,0,0,2148,2244
0.0168002,0,0,0,2138,2254
0.0174002,0,0,0,2128,2264
0.0180002,0,0,0,2118,2274
0.0186002,0,0,0,2108,2284
0.0192003,0,0,0,2098,2294
0.0198003,0,0,0,2088,2304
0.0204003,0,0,0,2078,2314
0.0210003,0,0,0,2068,2324
7103,0,0,0,20,4372
20017,0,0,0,30,4362
20067,0,0,0,40,4352
20115,0,0,0,50,4342
20115,0,0,0,60,4332
20141,0,0,0,70,4322
20213,0,0,0,80,4312
20272,0,0,0,90,4302
20283,0,0,0,100,4292
20334,0,0,0,110,4282
20357,0,0,0,120,4272
20372,0,0,0,130,4262
20396,0,0,0,140,4252
20417,0,0,0,150,4242
20441,0,0,0,160,4232
20475,0,0,0,170,4222
21692,0,0,0,180,4212
21723,0,0,0,190,4202
21724,0,0,0,200,4192
21727,0,0,0,210,4182
21727,0,0,0,220,4172
21734,0,0,0,230,4162
21736,0,0,0,240,4152
21753,0,0,0,250,4142
21759,0,0,0,260,4132
21766,0,0,0,270,4122
21768,0,0,0,280,4112
21768,0,0,0,290,4102
21769,0,0,0,300,4092
21786,0,0,0,310,4082
21790,0,0,0,320,4072
85757,0,0,0,1320,3072
85760,0,0,0,304,4088
85929,0,0,0,1328,3064
85932,0,0,0,304,4088
93034,0,0,0,2352,2040
93037,0,0,0,1852,2540
93037,0,0,0,1352,3040
93037,0,0,0,852,3540
93037,0,0,0,352,4040
117504,0,0,0,1376,3016
117507,0,0,0,376,4016
120782,0,0,0,876,3516
120785,0,0,0,376,4016
121945,0,0,0,876,3516
121968,0,0,0,1376,3016
121971,0,0,0,352,4040
125587,0,0,0,852,3540
125590,0,0,0,212,4180
141719,0,0,0,1212,3180
147494,0,0,0,1852,2540
153389,0,0,0,2352,2040
153392,0,0,0,304,4088
165277,0,0,0,1328,3064
172297,0,0,0,2344,2048
172300,0,0,0,296,4096
194084,0,0,0,2344,2048
194087,0,0,0,296,4096
197923,0,0,0,2344,2048
197926,0,0,0,1344,3048
197926,0,0,0,479,3913
215903,0,0,0,2527,1865
215906,0,0,0,1503,2889
215906,0,0,0,503,3889
215906,0,0,0,302,4090
222131,0,0,0,1302,3090
222134,0,0,0,278,4114
241542,0,0,0,1143,3249
241545,0,0,0,168,4224
243896,0,0,0,1192,3200
243899,0,0,0,936,3456
265627,0,0,0,1192,3200
284467,0,0,0,2167,2225
284470,0,0,0,119,4273
301616,0,0,0,1119,3273
301861,0,0,0,2143,2249
301864,0,0,0,95,4297
306247,0,0,0,2143,2249
306250,0,0,0,1887,2505
306931,0,0,0,1631,2761
307015,0,0,0,1119,3273
310053,0,0,0,607,3785
310074,0,0,0,95,4297
324081,0,0,0,296,4096
327988,0,0,0,552,3840
327991,0,0,0,40,4352
328665,0,0,0,296,4096
328779,0,0,0,808,3584
328782,0,0,0,296,4096
342020,0,0,0,808,3584
342631,0,0,0,1320,3072
348793,0,0,0,3368,1024
350687,0,0,0,3367,1025
358127,0,0,0,3879,513
358858,0,0,0,4391,1
371168,0,0,0,4392,0
378823,0,0,0,3892,500
399232,0,0,0,3090,1302
399733,0,0,0,2288,2104
399937,0,0,0,1486,2906
401079,0,0,0,684,3708
407772,0,0,0,1184,3208
421015,0,0,0,1986,2406
421468,0,0,0,2788,1604
421677,0,0,0,3590,802
422821,0,0,0,4392,0
458254,0,0,0,4378,14
463526,0,0,0,3878,514
466958,0,0,0,3677,715
467201,0,0,0,3676,716
479930,0,0,0,3690,702
485355,0,0,0,4190,202
488664,0,0,0,4391,1
514830,0,0,0,3367,1025
514865,0,0,0,2367,2025
523339,0,0,0,2166,2226
533762,0,0,0,1654,2738
533778,0,0,0,1014,3378
539291,0,0,0,1015,3377
539340,0,0,0,615,3777
543401,0,0,0,816,3576
555191,0,0,0,316,4076
557085,0,0,0,115,4277
559933,0,0,0,755,3637
565794,0,0,0,1155,3237
567466,0,0,0,1667,2725
576171,0,0,0,865,3527
577018,0,0,0,63,4329
584115,0,0,0,563,3829
597965,0,0,0,1365,3027
598704,0,0,0,2167,2225
600636,0,0,0,3191,1201
601954,0,0,0,4191,201
618534,0,0,0,3389,1003
619484,0,0,0,2373,2019
619520,0,0,0,1261,3131
621509,0,0,0,761,3631
621510,0,0,0,261,4131
640373,0,0,0,1063,3329
650391,0,0,0,1563,2829
650453,0,0,0,2063,2329
659928,0,0,0,1563,2829
663950,0,0,0,713,3679
686847,0,0,0,914,3478
688889,0,0,0,1414,2978
691052,0,0,0,1030,3362
691055,0,0,0,646,3746
705977,0,0,0,1662,2730
707351,0,0,0,2774,1618
707354,0,0,0,214,4178
715181,0,0,0,598,3794
716135,0,0,0,982,3410
734823,0,0,0,3542,850
734826,0,0,0,2542,1850
734826,0,0,0,1518,2874
734826,0,0,0,1262,3130
734826,0,0,0,238,4154
749615,0,0,0,1088,3304
749618,0,0,0,64,4328
749618,0,0,0,63,4329
749618,0,0,0,62,4330
756434,0,0,0,318,4074
756437,0,0,0,62,4330
771304,0,0,0,63,4329
771354,0,0,0,64,4328
778184,0,0,0,320,4072
818953,0,0,0,1344,3048
818956,0,0,0,320,4072
820590,0,0,0,1320,3072
820593,0,0,0,296,4096
820611,0,0,0,1320,3072
820614,0,0,0,296,4096
833703,0,0,0,1320,3072
833706,0,0,0,296,4096
833706,0,0,0,295,4097
833706,0,0,0,294,4098
855296,0,0,0,295,4097
855456,0,0,0,296,4096
874426,0,0,0,40,4352
896136,0,0,0,296,4096
904402,0,0,0,1320,3072
904405,0,0,0,518,3874
904686,0,0,0,1542,2850
904689,0,0,0,518,3874
904689,0,0,0,317,4075
904700,0,0,0,1341,3051
904703,0,0,0,341,4051
917806,0,0,0,1365,3027
917809,0,0,0,341,4051
926406,0,0,0,1365,3027
926409,0,0,0,865,3527
926409,0,0,0,609,3783
926409,0,0,0,481,3911
926409,0,0,0,353,4039
947691,0,0,0,609,3783
958920,0,0,0,1109,3283
968621,0,0,0,1237,3155
968662,0,0,0,1365,3027
990458,0,0,0,2365,2027
990461,0,0,0,61,4331
990956,0,0,0,863,3529
990959,0,0,0,363,4029
1.00051e+06,0,0,0,33,4359
1.00383e+06,0,0,0,1057,3335
1.00384e+06,0,0,0,673,3719
1.00384e+06,0,0,0,289,4103
1.0199e+06,0,0,0,789,3603
1.02228e+06,0,0,0,1119,3273
1.02783e+06,0,0,0,1503,2889
1.02816e+06,0,0,0,1887,2505
1.03443e+06,0,0,0,2088,2304
1.03608e+06,0,0,0,4392,0
1.03608e+06,0,0,0,808,3584
1.03608e+06,0,0,0,478,3914
1.03608e+06,0,0,0,148,4244
1.05779e+06,0,0,0,478,3914
1.0578e+06,0,0,0,148,4244
1.05782e+06,0,0,0,478,3914
1.05782e+06,0,0,0,148,4244
1.06967e+06,0,0,0,138,4254
1.07053e+06,0,0,0,128,4264
1.0725e+06,0,0,0,118,4274
1.07251e+06,0,0,0,108,4284
1.07251e+06,0,0,0,98,4294
1.07251e+06,0,0,0,88,4304
1.07261e+06,0,0,0,78,4314
1.07429e+06,0,0,0,68,4324
1.07952e+06,0,0,0,398,3994
1.07953e+06,0,0,0,68,4324
1.0796e+06,0,0,0,398,3994
1.07961e+06,0,0,0,68,4324
1.09146e+06,0,0,0,78,4314
1.09235e+06,0,0,0,88,4304
1.09424e+06,0,0,0,98,4294
1.09428e+06,0,0,0,108,4284
1.09432e+06,0,0,0,118,4274
1.09433e+06,0,0,0,128,4264
1.09435e+06,0,0,0,138,4254
1.09602e+06,0,0,0,148,4244
1.10067e+06,0,0,0,478,3914
1.10128e+06,0,0,0,808,3584
1.11039e+06,0,0,0,4392,0
1.11039e+06,0,0,0,3542,850
1.11039e+06,0,0,0,2526,1866
1.11039e+06,0,0,0,1414,2978
1.11039e+06,0,0,0,1084,3308
1.11039e+06,0,0,0,831,3561
1.11039e+06,0,0,0,29,4363
1.13212e+06,0,0,0,359,4033
1.13215e+06,0,0,0,1161,3231
1.13215e+06,0,0,0,359,4033
1.14558e+06,0,0,0,612,3780
1.14558e+06,0,0,0,112,4280
1.15402e+06,0,0,0,914,3478
1.15402e+06,0,0,0,661,3731
1.17455e+06,0,0,0,1161,3231
1.17456e+06,0,0,0,137,4255
1.1843e+06,0,0,0,987,3405
1.18431e+06,0,0,0,12,4380
1.18901e+06,0,0,0,265,4127
1.18901e+06,0,0,0,64,4328
1.19627e+06,0,0,0,1088,3304
1.19627e+06,0,0,0,887,3505
1.19627e+06,0,0,0,387,4005
1.19627e+06,0,0,0,131,4261
1.19692e+06,0,0,0,1147,3245
1.19692e+06,0,0,0,891,3501
1.19692e+06,0,0,0,635,3757
1.19699e+06,0,0,0,1747,2645
1.19699e+06,0,0,0,723,3669
1.21787e+06,0,0,0,979,3413
1.21856e+06,0,0,0,1235,3157
1.21858e+06,0,0,0,1491,2901
1.22709e+06,0,0,0,2466,1926
1.22883e+06,0,0,0,2966,1426
1.22883e+06,0,0,0,103,4289
1.23233e+06,0,0,0,304,4088
1.23233e+06,0,0,0,103,4289
1.23962e+06,0,0,0,304,4088
1.23962e+06,0,0,0,103,4289
1.24929e+06,0,0,0,2966,1426
1.28281e+06,0,0,0,3990,402
1.30364e+06,0,0,0,3734,658
1.30968e+06,0,0,0,3234,1158
1.31988e+06,0,0,0,2430,1962
1.32537e+06,0,0,0,2686,1706
1.34209e+06,0,0,0,3186,1206
1.363e+06,0,0,0,3387,1005
1.37206e+06,0,0,0,3588,804
1.37255e+06,0,0,0,4392,0
1.38699e+06,0,0,0,4391,1
1.39057e+06,0,0,0,4135,257
1.39842e+06,0,0,0,4007,385
1.39844e+06,0,0,0,3879,513
1.39948e+06,0,0,0,3751,641
1.39948e+06,0,0,0,3623,769
1.40789e+06,0,0,0,1575,2817
1.41227e+06,0,0,0,1831,2561
1.41559e+06,0,0,0,1832,2560
1.44038e+06,0,0,0,3880,512
1.44038e+06,0,0,0,1832,2560
1.46272e+06,0,0,0,3880,512
1.46272e+06,0,0,0,1832,2560
1.46272e+06,0,0,0,1831,2561
1.46272e+06,0,0,0,981,3411
1.46414e+06,0,0,0,725,3667
1.46912e+06,0,0,0,853,3539
1.46924e+06,0,0,0,981,3411
1.47055e+06,0,0,0,1109,3283
1.4706e+06,0,0,0,1237,3155
1.48446e+06,0,0,0,3285,1107
1.48582e+06,0,0,0,3541,851
1.49161e+06,0,0,0,3542,850
1.49668e+06,0,0,0,2740,1652
1.51808e+06,0,0,0,1716,2676
1.533e+06,0,0,0,2566,1826
1.54701e+06,0,0,0,3590,802
1.55672e+06,0,0,0,2566,1826
1.56483e+06,0,0,0,2066,2326
1.56621e+06,0,0,0,1938,2454
1.56716e+06,0,0,0,1737,2655
1.58322e+06,0,0,0,2539,1853
1.58715e+06,0,0,0,2538,1854
1.59512e+06,0,0,0,3038,1354
1.59519e+06,0,0,0,3239,1153
1.6139e+06,0,0,0,3367,1025
1.61604e+06,0,0,0,3368,1024
1.61909e+06,0,0,0,2868,1524
1.63097e+06,0,0,0,3892,500
1.65043e+06,0,0,0,4392,0
1.65214e+06,0,0,0,4264,128
1.65215e+06,0,0,0,4136,256
1.65218e+06,0,0,0,4008,384
1.67723e+06,0,0,0,3807,585
1.69493e+06,0,0,0,3935,457
1.69503e+06,0,0,0,4063,329
1.69897e+06,0,0,0,4191,201
1.80699e+06,0,0,0,4392,0
1.81755e+06,0,0,0,3280,1112
1.84584e+06,0,0,0,2780,1612
1.87712e+06,0,0,0,2524,1868
1.87836e+06,0,0,0,3024,1368
1.88255e+06,0,0,0,2069,2323
1.88275e+06,0,0,0,1204,3188
1.88282e+06,0,0,0,339,4053
1.88324e+06,0,0,0,1451,2941
1.88325e+06,0,0,0,586,3806
1.89905e+06,0,0,0,842,3550
1.90162e+06,0,0,0,641,3751
1.90194e+06,0,0,0,440,3952
1.92541e+06,0,0,0,1395,2997
1.92542e+06,0,0,0,371,4021
1.92633e+06,0,0,0,1236,3156
1.92633e+06,0,0,0,432,3960
1.92674e+06,0,0,0,1297,3095
1.92675e+06,0,0,0,493,3899
1.92675e+06,0,0,0,237,4155
1.92681e+06,0,0,0,1102,3290
1.92681e+06,0,0,0,846,3546
1.9287e+06,0,0,0,346,4046
1.94825e+06,0,0,0,602,3790
1.94969e+06,0,0,0,858,3534
1.96123e+06,0,0,0,1358,3034
1.96169e+06,0,0,0,1559,2833
1.96867e+06,0,0,0,2583,1809
1.96868e+06,0,0,0,23,4369
1.98846e+06,0,0,0,827,3565
1.9985e+06,0,0,0,1631,2761
1.9985e+06,0,0,0,312,4080
1.9985e+06,0,0,0,56,4336
2.01858e+06,0,0,0,1375,3017
2.01858e+06,0,0,0,1119,3273
2.02022e+06,0,0,0,1375,3017
2.03258e+06,0,0,0,1576,2816
2.04031e+06,0,0,0,1832,2560
2.04802e+06,0,0,0,4392,0
2.04802e+06,0,0,0,2344,2048
2.04802e+06,0,0,0,296,4096
2.09131e+06,0,0,0,2344,2048
2.09131e+06,0,0,0,296,4096
2.13208e+06,0,0,0,2344,2048
2.13209e+06,0,0,0,296,4096
2.13499e+06,0,0,0,2344,2048
2.13499e+06,0,0,0,296,4096
2.13499e+06,0,0,0,40,4352
2.1568e+06,0,0,0,296,4096
2.17479e+06,0,0,0,2344,2048
2.17479e+06,0,0,0,1320,3072
2.17479e+06,0,0,0,808,3584
2.17479e+06,0,0,0,552,3840
2.17479e+06,0,0,0,296,4096
2.17479e+06,0,0,0,40,4352
2.19585e+06,0,0,0,296,4096
2.19585e+06,0,0,0,40,4352
2.19589e+06,0,0,0,296,4096
2.19589e+06,0,0,0,40,4352
2.19591e+06,0,0,0,296,4096
2.20848e+06,0,0,0,808,3584
2.21763e+06,0,0,0,1064,3328
2.21766e+06,0,0,0,1320,3072
2.21947e+06,0,0,0,3368,1024
2.21947e+06,0,0,0,1832,2560
2.21947e+06,0,0,0,1631,2761
2.21947e+06,0,0,0,1430,2962
2.21947e+06,0,0,0,628,3764
2.25622e+06,0,0,0,372,4020
2.2607e+06,0,0,0,1396,2996
2.26854e+06,0,0,0,1140,3252
2.27803e+06,0,0,0,1396,2996
2.28092e+06,0,0,0,1597,2795
2.28387e+06,0,0,0,1396,2996
2.284e+06,0,0,0,1195,3197
2.29026e+06,0,0,0,1451,2941
2.30601e+06,0,0,0,2987,1405
2.30639e+06,0,0,0,3789,603
2.30907e+06,0,0,0,2789,1603
2.31583e+06,0,0,0,1765,2627
2.33327e+06,0,0,0,1966,2426
2.33644e+06,0,0,0,950,3442
2.34919e+06,0,0,0,1151,3241
2.34919e+06,0,0,0,39,4353
2.35191e+06,0,0,0,1063,3329
2.35271e+06,0,0,0,2063,2329
2.40326e+06,0,0,0,2264,2128
2.40868e+06,0,0,0,3376,1016
2.42295e+06,0,0,0,4392,0
2.48687e+06,0,0,0,3892,500
2.51586e+06,0,0,0,4392,0
2.57154e+06,0,0,0,4136,256
2.57968e+06,0,0,0,3656,736
2.58232e+06,0,0,0,656,3736
2.59269e+06,0,0,0,912,3480
2.61044e+06,0,0,0,1392,3000
2.61832e+06,0,0,0,1191,3201
2.61946e+06,0,0,0,935,3457
2.62454e+06,0,0,0,679,3713
2.6346e+06,0,0,0,423,3969
2.6347e+06,0,0,0,222,4170
2.64368e+06,0,0,0,423,3969
2.64572e+06,0,0,0,679,3713
2.65571e+06,0,0,0,935,3457
2.66023e+06,0,0,0,1136,3256
2.66896e+06,0,0,0,4136,256
2.66896e+06,0,0,0,2088,2304
2.66896e+06,0,0,0,40,4352
2.67405e+06,0,0,0,296,4096
2.69786e+06,0,0,0,2344,2048
2.69787e+06,0,0,0,296,4096
2.69789e+06,0,0,0,2344,2048
2.69789e+06,0,0,0,296,4096
2.72688e+06,0,0,0,2344,2048
2.72689e+06,0,0,0,296,4096
2.73138e+06,0,0,0,40,4352
2.75253e+06,0,0,0,296,4096
2.75584e+06,0,0,0,2344,2048
2.75584e+06,0,0,0,296,4096
2.78477e+06,0,0,0,2344,2048
2.78478e+06,0,0,0,296,4096
2.78478e+06,0,0,0,40,4352
2.8048e+06,0,0,0,2088,2304
2.8048e+06,0,0,0,1832,2560
2.8048e+06,0,0,0,1576,2816
2.8048e+06,0,0,0,1320,3072
2.8048e+06,0,0,0,1064,3328
2.8048e+06,0,0,0,214,4178
2.8048e+06,0,0,0,13,4379
2.80651e+06,0,0,0,2061,2331
2.80651e+06,0,0,0,1549,2843
2.80651e+06,0,0,0,747,3645
2.80651e+06,0,0,0,546,3846
2.83909e+06,0,0,0,1058,3334
2.85426e+06,0,0,0,34,4358
2.85791e+06,0,0,0,235,4157
2.87127e+06,0,0,0,491,3901
2.87128e+06,0,0,0,235,4157
2.88168e+06,0,0,0,1085,3307
2.88169e+06,0,0,0,829,3563
2.88783e+06,0,0,0,1085,3307
2.88783e+06,0,0,0,69,4323
2.89132e+06,0,0,0,325,4067
2.89135e+06,0,0,0,581,3811
2.89135e+06,0,0,0,837,3555
2.89237e+06,0,0,0,1093,3299
2.89314e+06,0,0,0,1895,2497
2.89315e+06,0,0,0,783,3609
2.89315e+06,0,0,0,527,3865
2.89315e+06,0,0,0,271,4121
2.89315e+06,0,0,0,15,4377
2.9028e+06,0,0,0,271,4121
2.91429e+06,0,0,0,527,3865
2.9143e+06,0,0,0,783,3609
2.91432e+06,0,0,0,1039,3353
2.91485e+06,0,0,0,2055,2337
2.91486e+06,0,0,0,519,3873
2.91486e+06,0,0,0,7,4385
2.92983e+06,0,0,0,208,4184
2.92984e+06,0,0,0,7,4385
2.94016e+06,0,0,0,1031,3361
2.9474e+06,0,0,0,1543,2849
2.97335e+06,0,0,0,2655,1737
2.98339e+06,0,0,0,2454,1938
2.98343e+06,0,0,0,2253,2139
2.99162e+06,0,0,0,205,4187
3.00121e+06,0,0,0,1741,2651
3.02053e+06,0,0,0,3789,603
3.02054e+06,0,0,0,1741,2651
3.06064e+06,0,0,0,1942,2450
3.06353e+06,0,0,0,1046,3346
3.06744e+06,0,0,0,3094,1298
3.07403e+06,0,0,0,3295,1097
3.08664e+06,0,0,0,2420,1972
3.08711e+06,0,0,0,1920,2472
3.08771e+06,0,0,0,1420,2972
3.08802e+06,0,0,0,920,3472
3.08843e+06,0,0,0,420,3972
3.09475e+06,0,0,0,1316,3076
3.09475e+06,0,0,0,816,3576
3.11694e+06,0,0,0,1316,3076
3.11849e+06,0,0,0,1816,2576
3.11975e+06,0,0,0,2316,2076
3.12024e+06,0,0,0,2816,1576
3.12724e+06,0,0,0,3316,1076
3.12754e+06,0,0,0,3517,875
3.15193e+06,0,0,0,3115,1277
3.15949e+06,0,0,0,2635,1757
3.16732e+06,0,0,0,3510,882
3.1845e+06,0,0,0,3912,480
3.19022e+06,0,0,0,4392,0
3.21798e+06,0,0,0,3368,1024
3.22662e+06,0,0,0,2566,1826
3.22807e+06,0,0,0,2310,2082
3.24869e+06,0,0,0,3334,1058
3.28757e+06,0,0,0,3133,1259
3.28767e+06,0,0,0,2932,1460
3.29922e+06,0,0,0,2676,1716
3.30145e+06,0,0,0,2932,1460
3.31316e+06,0,0,0,3734,658
3.3142e+06,0,0,0,2734,1658
3.321e+06,0,0,0,2990,1402
3.33246e+06,0,0,0,2478,1914
3.3502e+06,0,0,0,1978,2414
3.35026e+06,0,0,0,954,3438
3.36505e+06,0,0,0,1155,3237
3.36505e+06,0,0,0,1667,2725
3.37301e+06,0,0,0,1666,2726
3.37537e+06,0,0,0,1867,2525
3.37962e+06,0,0,0,843,3549
3.38094e+06,0,0,0,1867,2525
3.38183e+06,0,0,0,867,3525
3.38276e+06,0,0,0,1367,3025
3.39992e+06,0,0,0,2367,2025
3.39993e+06,0,0,0,319,4073
3.4019e+06,0,0,0,320,4072
3.41452e+06,0,0,0,1320,3072
3.41453e+06,0,0,0,296,4096
3.41453e+06,0,0,0,95,4297
3.42267e+06,0,0,0,2143,2249
3.42267e+06,0,0,0,1119,3273
3.42267e+06,0,0,0,1118,3274
3.42267e+06,0,0,0,418,3974
3.44334e+06,0,0,0,1442,2950
3.44335e+06,0,0,0,640,3752
3.44443e+06,0,0,0,1340,3052
3.4472e+06,0,0,0,2364,2028
3.45157e+06,0,0,0,2365,2027
3.4654e+06,0,0,0,3389,1003
3.48032e+06,0,0,0,2749,1643
3.48033e+06,0,0,0,2109,2283
3.48033e+06,0,0,0,1469,2923
3.48033e+06,0,0,0,829,3563
3.4924e+06,0,0,0,1030,3362
3.52361e+06,0,0,0,1670,2722
3.52362e+06,0,0,0,2310,2082
3.52363e+06,0,0,0,262,4130
3.52365e+06,0,0,0,902,3490
3.52372e+06,0,0,0,1542,2850
3.52992e+06,0,0,0,2344,2048
3.52992e+06,0,0,0,296,4096
3.55155e+06,0,0,0,2344,2048
3.55156e+06,0,0,0,296,4096
3.55872e+06,0,0,0,95,4297
3.58423e+06,0,0,0,2143,2249
3.58424e+06,0,0,0,1942,2450
3.60927e+06,0,0,0,2143,2249
3.60928e+06,0,0,0,95,4297
3.61538e+06,0,0,0,2143,2249
3.61539e+06,0,0,0,95,4297
3.61539e+06,0,0,0,81,4311
3.63474e+06,0,0,0,282,4110
3.63474e+06,0,0,0,81,4311
3.65154e+06,0,0,0,95,4297
3.66178e+06,0,0,0,296,4096
3.69578e+06,0,0,0,2344,2048
3.70196e+06,0,0,0,4392,0
3.72024e+06,0,0,0,3880,512
3.74319e+06,0,0,0,4392,0
