time,nb_sleeping,nb_switching_on,nb_switching_off,nb_idle,nb_computing
0.00240003,0,0,0,4390,2
0.00300004,0,0,0,4375,17
0.00360005,0,0,0,4374,18
0.00420006,0,0,0,4355,37
0.00480006,0,0,0,4333,59
0.00540007,0,0,0,4322,70
0.00600008,0,0,0,4321,71
0.00660009,0,0,0,4301,91
0.0072001,0,0,0,4281,111
0.0078001,0,0,0,3641,751
0.00840011,0,0,0,3625,767
0.00900012,0,0,0,3369,1023
0.00960013,0,0,0,2544,1848
0.0102001,0,0,0,2542,1850
0.0108001,0,0,0,2526,1866
0.0114002,0,0,0,2524,1868
0.0120002,0,0,0,2504,1888
0.0126002,0,0,0,2248,2144
0.0132002,0,0,0,1992,2400
0.0138002,0,0,0,1736,2656
0.0144002,0,0,0,1716,2676
0.0150002,0,0,0,1460,2932
0.0156002,0,0,0,1445,2947
0.0162002,0,0,0,1189,3203
0.0168002,0,0,0,869,3523
0.0174002,0,0,0,867,3525
0.0180002,0,0,0,866,3526
0.0186002,0,0,0,864,3528
21286,0,0,0,865,3527
21303,0,0,0,885,3507
21304,0,0,0,907,3485
21306,0,0,0,927,3465
21322,0,0,0,929,3463
21329,0,0,0,944,3448
21329,0,0,0,946,3446
21332,0,0,0,947,3445
21341,0,0,0,967,3425
21348,0,0,0,983,3409
21356,0,0,0,994,3398
21358,0,0,0,996,3396
21366,0,0,0,1016,3376
21373,0,0,0,1035,3357
21674,0,0,0,1291,3101
21695,0,0,0,1547,2845
21695,0,0,0,1867,2525
21704,0,0,0,2123,2269
21706,0,0,0,2379,2013
21710,0,0,0,331,4061
21713,0,0,0,587,3805
21730,0,0,0,843,3549
21733,0,0,0,18,4374
22487,0,0,0,20,4372
22490,0,0,0,0,4392
22495,0,0,0,16,4376
22503,0,0,0,31,4361
22673,0,0,0,33,4359
43317,0,0,0,673,3719
44171,0,0,0,2721,1671
44174,0,0,0,1697,2695
44174,0,0,0,673,3719
44174,0,0,0,417,3975
44174,0,0,0,161,4231
45007,0,0,0,181,4211
65885,0,0,0,437,3955
67087,0,0,0,693,3699
73268,0,0,0,694,3698
82350,0,0,0,1519,2873
82353,0,0,0,495,3897
93361,0,0,0,1519,2873
93364,0,0,0,495,3897
94048,0,0,0,1519,2873
94051,0,0,0,694,3698
103210,0,0,0,1519,2873
103213,0,0,0,694,3698
103213,0,0,0,182,4210
124926,0,0,0,694,3698
133550,0,0,0,1718,2674
133553,0,0,0,893,3499
133553,0,0,0,68,4324
145232,0,0,0,1092,3300
145235,0,0,0,267,4125
145235,0,0,0,11,4381
166951,0,0,0,267,4125
177036,0,0,0,1092,3300
177039,0,0,0,267,4125
179560,0,0,0,1092,3300
179563,0,0,0,267,4125
179563,0,0,0,11,4381
201246,0,0,0,267,4125
215936,0,0,0,1092,3300
215939,0,0,0,580,3812
215939,0,0,0,68,4324
216447,0,0,0,893,3499
216450,0,0,0,381,4011
216450,0,0,0,125,4267
226137,0,0,0,950,3442
226140,0,0,0,694,3698
226140,0,0,0,438,3954
226140,0,0,0,182,4210
238159,0,0,0,438,3954
238162,0,0,0,182,4210
240222,0,0,0,694,3698
240225,0,0,0,438,3954
240225,0,0,0,182,4210
241911,0,0,0,694,3698
241914,0,0,0,438,3954
241914,0,0,0,182,4210
244627,0,0,0,694,3698
244630,0,0,0,438,3954
247854,0,0,0,694,3698
247857,0,0,0,54,4338
248112,0,0,0,310,4082
248115,0,0,0,54,4338
249067,0,0,0,310,4082
249070,0,0,0,54,4338
258547,0,0,0,310,4082
259911,0,0,0,1135,3257
259914,0,0,0,623,3769
260603,0,0,0,879,3513
260606,0,0,0,54,4338
260881,0,0,0,879,3513
260884,0,0,0,623,3769
260884,0,0,0,622,3770
261125,0,0,0,878,3514
261128,0,0,0,53,4339
262742,0,0,0,309,4083
262791,0,0,0,565,3827
266284,0,0,0,821,3571
270804,0,0,0,1077,3315
271055,0,0,0,1333,3059
277408,0,0,0,1973,2419
281643,0,0,0,2485,1907
281657,0,0,0,2229,2163
282484,0,0,0,1973,2419
283764,0,0,0,2229,2163
287002,0,0,0,1973,2419
287134,0,0,0,1717,2675
287236,0,0,0,1461,2931
287255,0,0,0,1205,3187
287317,0,0,0,949,3443
287335,0,0,0,693,3699
287415,0,0,0,437,3955
287441,0,0,0,181,4211
293550,0,0,0,180,4212
303365,0,0,0,436,3956
305329,0,0,0,692,3700
308717,0,0,0,948,3444
308720,0,0,0,123,4269
308875,0,0,0,379,4013
308954,0,0,0,635,3757
308987,0,0,0,891,3501
309004,0,0,0,1147,3245
309012,0,0,0,1403,2989
309105,0,0,0,1659,2733
309165,0,0,0,1915,2477
312680,0,0,0,1595,2797
324425,0,0,0,1596,2796
335564,0,0,0,1916,2476
343766,0,0,0,2741,1651
346800,0,0,0,3566,826
365624,0,0,0,3567,825
374497,0,0,0,3311,1081
374536,0,0,0,3055,1337
375179,0,0,0,3054,1338
388821,0,0,0,2791,1601
390591,0,0,0,3616,776
392330,0,0,0,2976,1416
396205,0,0,0,3232,1160
396255,0,0,0,3488,904
421654,0,0,0,2663,1729
421849,0,0,0,3303,1089
442388,0,0,0,2791,1601
442502,0,0,0,2279,2113
442710,0,0,0,1767,2625
448432,0,0,0,1768,2624
458466,0,0,0,1512,2880
458502,0,0,0,1256,3136
458542,0,0,0,1000,3392
458559,0,0,0,744,3648
458585,0,0,0,488,3904
458604,0,0,0,232,4160
474888,0,0,0,744,3648
474891,0,0,0,488,3904
474891,0,0,0,232,4160
475225,0,0,0,744,3648
475228,0,0,0,488,3904
476196,0,0,0,1000,3392
480167,0,0,0,1256,3136
480189,0,0,0,1512,2880
480237,0,0,0,1768,2624
480260,0,0,0,2024,2368
480318,0,0,0,2280,2112
480331,0,0,0,2536,1856
483686,0,0,0,1528,2864
496597,0,0,0,1784,2608
496628,0,0,0,2040,2352
496912,0,0,0,2296,2096
497651,0,0,0,1656,2736
501730,0,0,0,831,3561
503946,0,0,0,1656,2736
518138,0,0,0,831,3561
527060,0,0,0,1471,2921
547654,0,0,0,1195,3197
557697,0,0,0,370,4022
559282,0,0,0,114,4278
569342,0,0,0,390,4002
570159,0,0,0,1398,2994
570162,0,0,0,886,3506
570162,0,0,0,374,4018
575060,0,0,0,637,3755
575063,0,0,0,125,4267
580973,0,0,0,381,4011
582558,0,0,0,1206,3186
582561,0,0,0,694,3698
597149,0,0,0,1519,2873
602683,0,0,0,2031,2361
602713,0,0,0,2543,1849
605241,0,0,0,3368,1024
607571,0,0,0,3880,512
615090,0,0,0,4392,0
630076,0,0,0,4136,256
630100,0,0,0,3880,512
631035,0,0,0,3624,768
631053,0,0,0,3368,1024
631094,0,0,0,3112,1280
631111,0,0,0,2856,1536
631253,0,0,0,2600,1792
631275,0,0,0,2344,2048
631315,0,0,0,2088,2304
631343,0,0,0,1832,2560
633647,0,0,0,1007,3385
651801,0,0,0,1263,3129
651804,0,0,0,239,4153
651853,0,0,0,495,3897
652740,0,0,0,751,3641
652743,0,0,0,1007,3385
652746,0,0,0,182,4210
652814,0,0,0,438,3954
652825,0,0,0,694,3698
652935,0,0,0,950,3442
653021,0,0,0,1206,3186
653043,0,0,0,1462,2930
653045,0,0,0,1718,2674
654186,0,0,0,1717,2675
659531,0,0,0,892,3500
664419,0,0,0,380,4012
665286,0,0,0,124,4268
686966,0,0,0,380,4012
689717,0,0,0,892,3500
689720,0,0,0,380,4012
715030,0,0,0,892,3500
715033,0,0,0,380,4012
716501,0,0,0,1205,3187
716504,0,0,0,693,3699
716504,0,0,0,181,4211
716617,0,0,0,1205,3187
716620,0,0,0,949,3443
716620,0,0,0,693,3699
716620,0,0,0,437,3955
716620,0,0,0,181,4211
723874,0,0,0,182,4210
733621,0,0,0,1007,3385
738338,0,0,0,1263,3129
738359,0,0,0,1519,2873
738363,0,0,0,1775,2617
738363,0,0,0,2031,2361
740860,0,0,0,2856,1536
740863,0,0,0,808,3584
740863,0,0,0,552,3840
740863,0,0,0,296,4096
740863,0,0,0,40,4352
747563,0,0,0,552,3840
747566,0,0,0,296,4096
747566,0,0,0,40,4352
749007,0,0,0,552,3840
749010,0,0,0,296,4096
749010,0,0,0,20,4372
749053,0,0,0,532,3860
749056,0,0,0,276,4116
749056,0,0,0,275,4117
762592,0,0,0,531,3861
762616,0,0,0,787,3605
763701,0,0,0,1043,3349
763704,0,0,0,218,4174
769254,0,0,0,474,3918
769303,0,0,0,730,3662
770724,0,0,0,986,3406
770735,0,0,0,1262,3130
770738,0,0,0,238,4154
770769,0,0,0,494,3898
774847,0,0,0,238,4154
796530,0,0,0,494,3898
814198,0,0,0,2542,1850
814201,0,0,0,1518,2874
814201,0,0,0,494,3898
821059,0,0,0,1518,2874
821062,0,0,0,494,3898
821062,0,0,0,238,4154
836690,0,0,0,239,4153
842771,0,0,0,495,3897
845396,0,0,0,1320,3072
845399,0,0,0,808,3584
845399,0,0,0,296,4096
863926,0,0,0,1320,3072
863929,0,0,0,808,3584
863929,0,0,0,296,4096
865421,0,0,0,1320,3072
865424,0,0,0,296,4096
870733,0,0,0,808,3584
873414,0,0,0,1832,2560
873417,0,0,0,808,3584
879092,0,0,0,1320,3072
879095,0,0,0,296,4096
897640,0,0,0,808,3584
897648,0,0,0,1320,3072
897651,0,0,0,296,4096
897651,0,0,0,40,4352
919257,0,0,0,296,4096
920352,0,0,0,1320,3072
920355,0,0,0,312,4080
923837,0,0,0,1336,3056
923840,0,0,0,824,3568
923840,0,0,0,312,4080
923840,0,0,0,311,4081
923840,0,0,0,55,4337
934346,0,0,0,1079,3313
934349,0,0,0,759,3633
934349,0,0,0,247,4145
946724,0,0,0,503,3889
951497,0,0,0,1015,3377
951500,0,0,0,190,4202
953328,0,0,0,1214,3178
953331,0,0,0,389,4003
953957,0,0,0,901,3491
953960,0,0,0,389,4003
956067,0,0,0,709,3683
956070,0,0,0,197,4195
966868,0,0,0,709,3683
966871,0,0,0,197,4195
979254,0,0,0,709,3683
979257,0,0,0,453,3939
979257,0,0,0,197,4195
979735,0,0,0,709,3683
979738,0,0,0,453,3939
979738,0,0,0,197,4195
992191,0,0,0,709,3683
992194,0,0,0,453,3939
1.00083e+06,0,0,0,709,3683
1.00083e+06,0,0,0,965,3427
1.00084e+06,0,0,0,453,3939
1.00132e+06,0,0,0,709,3683
1.00132e+06,0,0,0,197,4195
1.00134e+06,0,0,0,453,3939
1.00686e+06,0,0,0,1461,2931
1.00686e+06,0,0,0,949,3443
1.00686e+06,0,0,0,437,3955
1.01037e+06,0,0,0,438,3954
1.01379e+06,0,0,0,694,3698
1.0138e+06,0,0,0,182,4210
1.02256e+06,0,0,0,694,3698
1.02256e+06,0,0,0,182,4210
1.02856e+06,0,0,0,694,3698
1.02857e+06,0,0,0,310,4082
1.0338e+06,0,0,0,822,3570
1.03381e+06,0,0,0,438,3954
1.03381e+06,0,0,0,54,4338
1.03433e+06,0,0,0,879,3513
1.03433e+06,0,0,0,623,3769
1.03433e+06,0,0,0,367,4025
1.03433e+06,0,0,0,47,4345
1.03487e+06,0,0,0,872,3520
1.03487e+06,0,0,0,616,3776
1.03487e+06,0,0,0,360,4032
1.03487e+06,0,0,0,104,4288
1.03548e+06,0,0,0,616,3776
1.03548e+06,0,0,0,360,4032
1.03548e+06,0,0,0,104,4288
1.0394e+06,0,0,0,616,3776
1.0394e+06,0,0,0,360,4032
1.04551e+06,0,0,0,872,3520
1.04552e+06,0,0,0,47,4345
1.05592e+06,0,0,0,303,4089
1.05594e+06,0,0,0,559,3833
1.05608e+06,0,0,0,879,3513
1.05608e+06,0,0,0,54,4338
1.05646e+06,0,0,0,310,4082
1.05648e+06,0,0,0,566,3826
1.05652e+06,0,0,0,822,3570
1.0571e+06,0,0,0,1078,3314
1.0571e+06,0,0,0,253,4139
1.05711e+06,0,0,0,509,3883
1.06101e+06,0,0,0,765,3627
1.06102e+06,0,0,0,253,4139
1.0611e+06,0,0,0,637,3755
1.06633e+06,0,0,0,1021,3371
1.06634e+06,0,0,0,1405,2987
1.07622e+06,0,0,0,580,3812
1.08215e+06,0,0,0,1405,2987
1.08215e+06,0,0,0,381,4011
1.09353e+06,0,0,0,893,3499
1.09754e+06,0,0,0,381,4011
1.1027e+06,0,0,0,1405,2987
1.11395e+06,0,0,0,1149,3243
1.12763e+06,0,0,0,1661,2731
1.13564e+06,0,0,0,1917,2475
1.14215e+06,0,0,0,2742,1650
1.1433e+06,0,0,0,3567,825
1.16116e+06,0,0,0,4392,0
1.16648e+06,0,0,0,3368,1024
1.1689e+06,0,0,0,2543,1849
1.16901e+06,0,0,0,1718,2674
1.17609e+06,0,0,0,1206,3186
1.17639e+06,0,0,0,694,3698
1.1768e+06,0,0,0,182,4210
1.18779e+06,0,0,0,1206,3186
1.18779e+06,0,0,0,886,3506
1.18779e+06,0,0,0,374,4018
1.20865e+06,0,0,0,886,3506
1.20866e+06,0,0,0,374,4018
1.20889e+06,0,0,0,886,3506
1.2093e+06,0,0,0,1398,2994
1.20948e+06,0,0,0,1910,2482
1.20951e+06,0,0,0,2230,2162
1.22356e+06,0,0,0,1910,2482
1.23038e+06,0,0,0,2422,1970
1.24131e+06,0,0,0,2166,2226
1.24132e+06,0,0,0,1910,2482
1.24134e+06,0,0,0,1654,2738
1.24134e+06,0,0,0,1398,2994
1.24135e+06,0,0,0,1142,3250
1.24135e+06,0,0,0,886,3506
1.24136e+06,0,0,0,630,3762
1.24528e+06,0,0,0,950,3442
1.25116e+06,0,0,0,1775,2617
1.25116e+06,0,0,0,751,3641
1.25116e+06,0,0,0,239,4153
1.25117e+06,0,0,0,1064,3328
1.26295e+06,0,0,0,552,3840
1.26296e+06,0,0,0,808,3584
1.26298e+06,0,0,0,1064,3328
1.26298e+06,0,0,0,1320,3072
1.263e+06,0,0,0,1576,2816
1.26305e+06,0,0,0,1832,2560
1.26416e+06,0,0,0,2088,2304
1.26422e+06,0,0,0,2344,2048
1.27295e+06,0,0,0,3368,1024
1.28125e+06,0,0,0,3880,512
1.28964e+06,0,0,0,3368,1024
1.2899e+06,0,0,0,2856,1536
1.29025e+06,0,0,0,2344,2048
1.29547e+06,0,0,0,2856,1536
1.31298e+06,0,0,0,2536,1856
1.32215e+06,0,0,0,3048,1344
1.32242e+06,0,0,0,3560,832
1.32274e+06,0,0,0,4072,320
1.33467e+06,0,0,0,4392,0
1.33604e+06,0,0,0,4008,384
1.34675e+06,0,0,0,3752,640
1.3475e+06,0,0,0,2927,1465
1.34827e+06,0,0,0,2287,2105
1.35059e+06,0,0,0,2031,2361
1.36539e+06,0,0,0,1775,2617
1.36679e+06,0,0,0,2031,2361
1.36867e+06,0,0,0,2415,1977
1.37343e+06,0,0,0,2671,1721
1.38032e+06,0,0,0,2159,2233
1.38054e+06,0,0,0,1647,2745
1.38117e+06,0,0,0,1135,3257
1.38684e+06,0,0,0,1391,3001
1.39159e+06,0,0,0,2031,2361
1.40941e+06,0,0,0,1007,3385
1.41285e+06,0,0,0,1519,2873
1.41307e+06,0,0,0,2031,2361
1.41371e+06,0,0,0,2543,1849
1.41833e+06,0,0,0,2031,2361
1.42948e+06,0,0,0,3055,1337
1.42972e+06,0,0,0,2543,1849
1.43287e+06,0,0,0,2542,1850
1.43372e+06,0,0,0,3367,1025
1.43636e+06,0,0,0,3047,1345
1.44845e+06,0,0,0,3559,833
1.45771e+06,0,0,0,3303,1089
1.45771e+06,0,0,0,3047,1345
1.45771e+06,0,0,0,2791,1601
1.45772e+06,0,0,0,2535,1857
1.45773e+06,0,0,0,2279,2113
1.45773e+06,0,0,0,2023,2369
1.45773e+06,0,0,0,1767,2625
1.45925e+06,0,0,0,2087,2305
1.46221e+06,0,0,0,2599,1793
1.47935e+06,0,0,0,2855,1537
1.47936e+06,0,0,0,3111,1281
1.4794e+06,0,0,0,3367,1025
1.47941e+06,0,0,0,3623,769
1.47942e+06,0,0,0,3879,513
1.47942e+06,0,0,0,4135,257
1.48065e+06,0,0,0,4391,1
1.4942e+06,0,0,0,3367,1025
1.49421e+06,0,0,0,2343,2049
1.49718e+06,0,0,0,1831,2561
1.50078e+06,0,0,0,807,3585
1.5022e+06,0,0,0,295,4097
1.50609e+06,0,0,0,296,4096
1.5158e+06,0,0,0,1320,3072
1.5158e+06,0,0,0,808,3584
1.51609e+06,0,0,0,552,3840
1.51794e+06,0,0,0,1576,2816
1.52174e+06,0,0,0,2600,1792
1.52762e+06,0,0,0,2088,2304
1.52972e+06,0,0,0,2600,1792
1.53475e+06,0,0,0,3112,1280
1.53778e+06,0,0,0,3368,1024
1.54005e+06,0,0,0,1762,2630
1.54838e+06,0,0,0,2274,2118
1.55315e+06,0,0,0,1954,2438
1.56018e+06,0,0,0,2466,1926
1.57486e+06,0,0,0,2786,1606
1.58009e+06,0,0,0,2530,1862
1.58488e+06,0,0,0,2274,2118
1.58507e+06,0,0,0,2018,2374
1.58625e+06,0,0,0,2017,2375
1.603e+06,0,0,0,2273,2119
1.603e+06,0,0,0,225,4167
1.60628e+06,0,0,0,481,3911
1.60814e+06,0,0,0,737,3655
1.62746e+06,0,0,0,2343,2049
1.62749e+06,0,0,0,4391,1
1.6596e+06,0,0,0,4392,0
1.90467e+06,0,0,0,4008,384
1.90469e+06,0,0,0,3624,768
1.90472e+06,0,0,0,3240,1152
1.92711e+06,0,0,0,2728,1664
1.9318e+06,0,0,0,2472,1920
1.93181e+06,0,0,0,2216,2176
1.93181e+06,0,0,0,1960,2432
1.93181e+06,0,0,0,1704,2688
1.93181e+06,0,0,0,1448,2944
1.93182e+06,0,0,0,1192,3200
1.93183e+06,0,0,0,936,3456
1.93717e+06,0,0,0,1320,3072
1.93717e+06,0,0,0,296,4096
1.93721e+06,0,0,0,680,3712
1.93724e+06,0,0,0,1064,3328
1.94948e+06,0,0,0,56,4336
1.9535e+06,0,0,0,312,4080
1.9535e+06,0,0,0,568,3824
1.95351e+06,0,0,0,824,3568
1.95352e+06,0,0,0,1080,3312
1.95353e+06,0,0,0,1336,3056
1.95364e+06,0,0,0,1592,2800
1.95465e+06,0,0,0,1848,2544
1.95608e+06,0,0,0,1592,2800
1.95888e+06,0,0,0,2616,1776
1.95963e+06,0,0,0,3128,1264
1.97907e+06,0,0,0,3384,1008
2.03598e+06,0,0,0,4392,0
2.10397e+06,0,0,0,3368,1024
2.10473e+06,0,0,0,2566,1826
2.10489e+06,0,0,0,1764,2628
2.11061e+06,0,0,0,740,3652
2.12561e+06,0,0,0,1764,2628
2.12562e+06,0,0,0,740,3652
2.12646e+06,0,0,0,1542,2850
2.12646e+06,0,0,0,518,3874
2.12663e+06,0,0,0,1320,3072
2.12663e+06,0,0,0,296,4096
2.13395e+06,0,0,0,1320,3072
2.13395e+06,0,0,0,296,4096
2.14905e+06,0,0,0,1320,3072
2.14905e+06,0,0,0,296,4096
2.15005e+06,0,0,0,1320,3072
2.15005e+06,0,0,0,296,4096
2.15631e+06,0,0,0,1320,3072
2.15631e+06,0,0,0,296,4096
2.1652e+06,0,0,0,1320,3072
2.1652e+06,0,0,0,296,4096
2.17564e+06,0,0,0,1320,3072
2.17564e+06,0,0,0,296,4096
2.18522e+06,0,0,0,1320,3072
2.18522e+06,0,0,0,296,4096
2.1952e+06,0,0,0,1320,3072
2.1952e+06,0,0,0,296,4096
2.20477e+06,0,0,0,1320,3072
2.20477e+06,0,0,0,296,4096
2.21811e+06,0,0,0,1320,3072
2.21811e+06,0,0,0,296,4096
2.2295e+06,0,0,0,1320,3072
2.2295e+06,0,0,0,296,4096
2.23655e+06,0,0,0,1320,3072
2.23655e+06,0,0,0,296,4096
2.23817e+06,0,0,0,1320,3072
2.23817e+06,0,0,0,296,4096
2.25346e+06,0,0,0,1320,3072
2.25346e+06,0,0,0,296,4096
2.264e+06,0,0,0,1320,3072
2.264e+06,0,0,0,518,3874
2.26825e+06,0,0,0,1542,2850
2.26826e+06,0,0,0,740,3652
2.28044e+06,0,0,0,1764,2628
2.28044e+06,0,0,0,962,3430
2.28044e+06,0,0,0,160,4232
2.29284e+06,0,0,0,962,3430
2.29284e+06,0,0,0,160,4232
2.29707e+06,0,0,0,962,3430
2.29708e+06,0,0,0,160,4232
2.30926e+06,0,0,0,962,3430
2.30926e+06,0,0,0,160,4232
2.30927e+06,0,0,0,962,3430
2.30927e+06,0,0,0,160,4232
2.32177e+06,0,0,0,962,3430
2.32177e+06,0,0,0,160,4232
2.32471e+06,0,0,0,1184,3208
2.32471e+06,0,0,0,160,4232
2.32595e+06,0,0,0,962,3430
2.3382e+06,0,0,0,1764,2628
2.3382e+06,0,0,0,740,3652
2.33828e+06,0,0,0,1542,2850
2.33828e+06,0,0,0,518,3874
2.33828e+06,0,0,0,262,4130
2.33828e+06,0,0,0,6,4386
2.35058e+06,0,0,0,808,3584
2.35828e+06,0,0,0,1064,3328
2.35829e+06,0,0,0,40,4352
2.35997e+06,0,0,0,296,4096
2.38054e+06,0,0,0,40,4352
2.39082e+06,0,0,0,1064,3328
2.39082e+06,0,0,0,40,4352
2.39685e+06,0,0,0,1064,3328
2.39685e+06,0,0,0,40,4352
2.4023e+06,0,0,0,296,4096
2.41733e+06,0,0,0,1320,3072
2.42456e+06,0,0,0,2344,2048
2.42476e+06,0,0,0,3368,1024
2.42476e+06,0,0,0,296,4096
2.42486e+06,0,0,0,1320,3072
2.42486e+06,0,0,0,296,4096
2.45738e+06,0,0,0,1320,3072
2.45738e+06,0,0,0,680,3712
2.45738e+06,0,0,0,296,4096
2.47005e+06,0,0,0,40,4352
2.48992e+06,0,0,0,424,3968
2.48993e+06,0,0,0,168,4224
2.49012e+06,0,0,0,424,3968
2.50068e+06,0,0,0,1064,3328
2.51024e+06,0,0,0,1320,3072
2.51125e+06,0,0,0,4392,0
2.51125e+06,0,0,0,1320,3072
2.51125e+06,0,0,0,296,4096
2.59183e+06,0,0,0,1320,3072
2.59779e+06,0,0,0,4392,0
2.59779e+06,0,0,0,2344,2048
2.59779e+06,0,0,0,1320,3072
2.59779e+06,0,0,0,296,4096
2.59779e+06,0,0,0,40,4352
2.61955e+06,0,0,0,296,4096
2.62382e+06,0,0,0,40,4352
2.64671e+06,0,0,0,296,4096
2.64791e+06,0,0,0,40,4352
2.67076e+06,0,0,0,296,4096
2.68429e+06,0,0,0,1320,3072
2.68431e+06,0,0,0,2344,2048
2.68433e+06,0,0,0,4392,0
2.68434e+06,0,0,0,296,4096
2.68434e+06,0,0,0,40,4352
2.70593e+06,0,0,0,296,4096
2.70593e+06,0,0,0,40,4352
2.72764e+06,0,0,0,296,4096
2.74923e+06,0,0,0,4392,0
2.74924e+06,0,0,0,296,4096
2.796e+06,0,0,0,40,4352
2.8177e+06,0,0,0,296,4096
2.82143e+06,0,0,0,4392,0
2.82143e+06,0,0,0,296,4096
2.82143e+06,0,0,0,295,4097
2.82143e+06,0,0,0,294,4098
2.82143e+06,0,0,0,38,4354
2.84318e+06,0,0,0,294,4098
2.84318e+06,0,0,0,38,4354
2.8649e+06,0,0,0,294,4098
2.8649e+06,0,0,0,38,4354
2.88655e+06,0,0,0,294,4098
2.89464e+06,0,0,0,295,4097
2.89469e+06,0,0,0,296,4096
2.8948e+06,0,0,0,4392,0
2.8948e+06,0,0,0,296,4096
2.98137e+06,0,0,0,4392,0
2.98137e+06,0,0,0,296,4096
3.04212e+06,0,0,0,4392,0
3.04213e+06,0,0,0,3368,1024
3.04213e+06,0,0,0,2344,2048
3.04213e+06,0,0,0,738,3654
3.04213e+06,0,0,0,226,4166
3.06247e+06,0,0,0,738,3654
3.08154e+06,0,0,0,2344,2048
3.08154e+06,0,0,0,1320,3072
3.08154e+06,0,0,0,296,4096
3.08154e+06,0,0,0,40,4352
3.10331e+06,0,0,0,296,4096
3.11405e+06,0,0,0,1320,3072
3.12865e+06,0,0,0,2344,2048
3.12866e+06,0,0,0,894,3498
3.12866e+06,0,0,0,382,4010
3.12997e+06,0,0,0,1406,2986
3.12997e+06,0,0,0,382,4010
3.15083e+06,0,0,0,1406,2986
3.15083e+06,0,0,0,894,3498
3.15083e+06,0,0,0,382,4010
3.15538e+06,0,0,0,894,3498
3.15538e+06,0,0,0,382,4010
3.15538e+06,0,0,0,62,4330
3.16814e+06,0,0,0,1086,3306
3.17834e+06,0,0,0,1406,2986
3.18335e+06,0,0,0,1918,2474
3.18453e+06,0,0,0,2430,1962
3.18454e+06,0,0,0,382,4010
3.18454e+06,0,0,0,62,4330
3.18791e+06,0,0,0,574,3818
3.18792e+06,0,0,0,62,4330
3.20626e+06,0,0,0,382,4010
3.21097e+06,0,0,0,894,3498
3.21517e+06,0,0,0,2344,2048
3.21518e+06,0,0,0,1008,3384
3.21518e+06,0,0,0,496,3896
3.21518e+06,0,0,0,240,4152
3.23689e+06,0,0,0,496,3896
3.23693e+06,0,0,0,1008,3384
3.23694e+06,0,0,0,496,3896
3.25868e+06,0,0,0,1008,3384
3.2712e+06,0,0,0,3056,1336
3.2712e+06,0,0,0,2032,2360
3.2712e+06,0,0,0,1008,3384
3.2712e+06,0,0,0,8,4384
3.29455e+06,0,0,0,1032,3360
3.29455e+06,0,0,0,8,4384
3.30167e+06,0,0,0,1344,3048
3.30168e+06,0,0,0,320,4072
3.30379e+06,0,0,0,1344,3048
3.30379e+06,0,0,0,704,3688
3.31633e+06,0,0,0,1728,2664
3.31633e+06,0,0,0,704,3688
3.31633e+06,0,0,0,192,4200
3.3236e+06,0,0,0,1216,3176
3.33775e+06,0,0,0,2240,2152
3.33775e+06,0,0,0,192,4200
3.33824e+06,0,0,0,704,3688
3.34336e+06,0,0,0,1704,2688
3.34847e+06,0,0,0,2344,2048
3.34847e+06,0,0,0,296,4096
3.34847e+06,0,0,0,40,4352
3.37155e+06,0,0,0,296,4096
3.42165e+06,0,0,0,2344,2048
3.42165e+06,0,0,0,296,4096
3.42556e+06,0,0,0,2344,2048
3.42557e+06,0,0,0,296,4096
3.42557e+06,0,0,0,40,4352
3.44729e+06,0,0,0,296,4096
3.50815e+06,0,0,0,2344,2048
3.50815e+06,0,0,0,1320,3072
3.50815e+06,0,0,0,680,3712
3.50815e+06,0,0,0,168,4224
3.51214e+06,0,0,0,2216,2176
3.51214e+06,0,0,0,1192,3200
3.51214e+06,0,0,0,168,4224
3.52843e+06,0,0,0,680,3712
3.52843e+06,0,0,0,380,4012
3.52843e+06,0,0,0,60,4332
3.52954e+06,0,0,0,1084,3308
3.53215e+06,0,0,0,2108,2284
3.54472e+06,0,0,0,3132,1260
3.55013e+06,0,0,0,3452,940
3.55026e+06,0,0,0,3752,640
3.55146e+06,0,0,0,4392,0
3.55146e+06,0,0,0,295,4097
3.62492e+06,0,0,0,4392,0
3.62493e+06,0,0,0,4092,300
3.62493e+06,0,0,0,2844,1548
3.62493e+06,0,0,0,1788,2604
3.62493e+06,0,0,0,1148,3244
3.62493e+06,0,0,0,508,3884
3.64669e+06,0,0,0,1148,3244
3.64726e+06,0,0,0,2204,2188
3.64785e+06,0,0,0,2844,1548
3.64804e+06,0,0,0,3144,1248
3.64804e+06,0,0,0,72,4320
3.67611e+06,0,0,0,3144,1248
3.67611e+06,0,0,0,2632,1760
3.67611e+06,0,0,0,2120,2272
3.67611e+06,0,0,0,1096,3296
3.67611e+06,0,0,0,72,4320
3.69659e+06,0,0,0,584,3808
3.69717e+06,0,0,0,1096,3296
3.69717e+06,0,0,0,72,4320
3.69872e+06,0,0,0,1096,3296
3.69872e+06,0,0,0,840,3552
3.69872e+06,0,0,0,584,3808
3.69872e+06,0,0,0,264,4128
3.71146e+06,0,0,0,1512,2880
3.71961e+06,0,0,0,2536,1856
3.72046e+06,0,0,0,2792,1600
3.72162e+06,0,0,0,3048,1344
3.72176e+06,0,0,0,3368,1024
3.76074e+06,0,0,0,2518,1874
3.76275e+06,0,0,0,3542,850
3.77078e+06,0,0,0,1494,2898
3.78908e+06,0,0,0,982,3410
3.80948e+06,0,0,0,1494,2898
3.83941e+06,0,0,0,470,3922
3.84727e+06,0,0,0,1320,3072
3.84728e+06,0,0,0,296,4096
3.85731e+06,0,0,0,2344,2048
3.85732e+06,0,0,0,1320,3072
3.86403e+06,0,0,0,2344,2048
3.86837e+06,0,0,0,1320,3072
3.87229e+06,0,0,0,2344,2048
3.87588e+06,0,0,0,1320,3072
3.88162e+06,0,0,0,1064,3328
3.88259e+06,0,0,0,2088,2304
3.88637e+06,0,0,0,1064,3328
3.89383e+06,0,0,0,2088,2304
3.9014e+06,0,0,0,1064,3328
3.90341e+06,0,0,0,1320,3072
3.91026e+06,0,0,0,296,4096
3.91249e+06,0,0,0,1320,3072
3.91918e+06,0,0,0,1064,3328
3.92189e+06,0,0,0,40,4352
3.92694e+06,0,0,0,1064,3328
3.92694e+06,0,0,0,40,4352
3.93389e+06,0,0,0,1064,3328
3.93389e+06,0,0,0,40,4352
3.94101e+06,0,0,0,296,4096
3.94101e+06,0,0,0,40,4352
3.94356e+06,0,0,0,1064,3328
3.94357e+06,0,0,0,808,3584
3.94861e+06,0,0,0,1832,2560
3.94861e+06,0,0,0,808,3584
3.94861e+06,0,0,0,552,3840
3.94861e+06,0,0,0,296,4096
3.94861e+06,0,0,0,40,4352
3.96236e+06,0,0,0,1064,3328
3.96236e+06,0,0,0,40,4352
3.96275e+06,0,0,0,296,4096
3.96275e+06,0,0,0,40,4352
3.96528e+06,0,0,0,296,4096
3.96528e+06,0,0,0,40,4352
3.97039e+06,0,0,0,296,4096
3.9704e+06,0,0,0,40,4352
3.97047e+06,0,0,0,296,4096
3.97047e+06,0,0,0,40,4352
3.97162e+06,0,0,0,296,4096
3.98198e+06,0,0,0,1320,3072
3.9848e+06,0,0,0,1576,2816
3.98703e+06,0,0,0,1832,2560
3.99233e+06,0,0,0,2088,2304
3.99242e+06,0,0,0,2344,2048
3.99866e+06,0,0,0,2088,2304
4.00421e+06,0,0,0,1832,2560
4.0068e+06,0,0,0,1576,2816
4.00698e+06,0,0,0,2600,1792
4.00743e+06,0,0,0,1576,2816
4.02041e+06,0,0,0,1832,2560
4.02446e+06,0,0,0,2088,2304
4.02852e+06,0,0,0,2344,2048
4.03103e+06,0,0,0,3368,1024
4.03643e+06,0,0,0,4392,0
4.04857e+06,0,0,0,4136,256
4.04864e+06,0,0,0,3624,768
4.06888e+06,0,0,0,3880,512
4.06961e+06,0,0,0,4392,0
4.10422e+06,0,0,0,3368,1024
4.12738e+06,0,0,0,4392,0
4.21335e+06,0,0,0,4136,256
4.21339e+06,0,0,0,3624,768
4.22445e+06,0,0,0,3240,1152
4.23336e+06,0,0,0,3496,896
4.2343e+06,0,0,0,4008,384
4.24399e+06,0,0,0,2952,1440
4.2572e+06,0,0,0,3336,1056
4.26068e+06,0,0,0,2824,1568
4.26859e+06,0,0,0,2312,2080
4.26893e+06,0,0,0,2056,2336
4.26902e+06,0,0,0,1544,2848
4.26912e+06,0,0,0,1288,3104
4.26923e+06,0,0,0,1032,3360
4.27674e+06,0,0,0,776,3616
4.27676e+06,0,0,0,264,4128
4.28224e+06,0,0,0,776,3616
4.28224e+06,0,0,0,8,4384
4.28577e+06,0,0,0,1064,3328
4.28577e+06,0,0,0,296,4096
4.29038e+06,0,0,0,808,3584
4.29065e+06,0,0,0,1064,3328
4.2908e+06,0,0,0,1320,3072
4.29092e+06,0,0,0,1576,2816
4.29553e+06,0,0,0,2088,2304
4.29778e+06,0,0,0,2600,1792
4.29829e+06,0,0,0,2856,1536
4.31171e+06,0,0,0,3624,768
4.31421e+06,0,0,0,4392,0
4.33735e+06,0,0,0,296,4096
4.37076e+06,0,0,0,4392,0
4.37076e+06,0,0,0,296,4096
4.37076e+06,0,0,0,40,4352
4.39367e+06,0,0,0,296,4096
4.4037e+06,0,0,0,4392,0
4.4037e+06,0,0,0,3880,512
4.4037e+06,0,0,0,3112,1280
4.4037e+06,0,0,0,2088,2304
4.4037e+06,0,0,0,1064,3328
4.42539e+06,0,0,0,2088,2304
4.42539e+06,0,0,0,40,4352
4.42546e+06,0,0,0,1064,3328
4.42546e+06,0,0,0,262,4130
4.42666e+06,0,0,0,1030,3362
4.42675e+06,0,0,0,1542,2850
4.45108e+06,0,0,0,1286,3106
4.47155e+06,0,0,0,1542,2850
4.49325e+06,0,0,0,2344,2048
4.51324e+06,0,0,0,4392,0
