time,nb_sleeping,nb_switching_on,nb_switching_off,nb_idle,nb_computing
0.00240003,0,0,0,4136,256
0.00300004,0,0,0,1500,2892
0.00360005,0,0,0,1244,3148
0.00420006,0,0,0,209,4183
0.00480006,0,0,0,81,4311
0.00540007,0,0,0,71,4321
0.00600008,0,0,0,61,4331
5133.01,0,0,0,71,4321
6219.01,0,0,0,81,4311
7216,0,0,0,209,4183
7221,0,0,0,2845,1547
7224,0,0,0,649,3743
7224.01,0,0,0,264,4128
7224.01,0,0,0,136,4256
7224.01,0,0,0,8,4384
7392,0,0,0,1043,3349
7395.01,0,0,0,911,3481
7395.01,0,0,0,655,3737
7395.01,0,0,0,399,3993
7395.01,0,0,0,271,4121
7395.01,0,0,0,143,4249
12251,0,0,0,271,4121
12703,0,0,0,403,3989
12944,0,0,0,531,3861
13001,0,0,0,659,3733
13282,0,0,0,915,3477
13427,0,0,0,1171,3221
13637,0,0,0,1556,2836
14377,0,0,0,1684,2708
14522,0,0,0,1940,2452
14525,0,0,0,4136,256
14528,0,0,0,1940,2452
14528,0,0,0,372,4020
14528,0,0,0,244,4148
14528,0,0,0,116,4276
21684,0,0,0,372,4020
21687,0,0,0,244,4148
21809,0,0,0,2440,1952
21812,0,0,0,2184,2208
21812,0,0,0,2056,2336
21812,0,0,0,1800,2592
21812,0,0,0,1672,2720
21812,0,0,0,1416,2976
21812,0,0,0,1160,3232
21812,0,0,0,776,3616
21812,0,0,0,648,3744
21812,0,0,0,520,3872
21812,0,0,0,392,4000
21812,0,0,0,136,4256
21887,0,0,0,1704,2688
21890,0,0,0,1448,2944
21890,0,0,0,1058,3334
21890,0,0,0,930,3462
21890,0,0,0,802,3590
21890,0,0,0,674,3718
21890,0,0,0,546,3846
21890,0,0,0,418,3974
21890,0,0,0,290,4102
21890,0,0,0,162,4230
21890,0,0,0,34,4358
21890,0,0,0,24,4368
21890,0,0,0,14,4378
21890,0,0,0,4,4388
25400,0,0,0,132,4260
25403,0,0,0,4,4388
25477,0,0,0,132,4260
25480,0,0,0,0,4392
29121,0,0,0,256,4136
29124,0,0,0,0,4392
29196,0,0,0,128,4264
29199,0,0,0,118,4274
29199,0,0,0,108,4284
29199,0,0,0,98,4294
29199,0,0,0,88,4304
29200,0,0,0,216,4176
29203,0,0,0,84,4308
31628,0,0,0,94,4298
31645,0,0,0,104,4288
31750,0,0,0,114,4278
32534,0,0,0,242,4150
32537,0,0,0,114,4278
32675,0,0,0,242,4150
32678,0,0,0,110,4282
32679,0,0,0,238,4154
32682,0,0,0,106,4286
32686,0,0,0,234,4158
32689,0,0,0,106,4286
32705,0,0,0,234,4158
32708,0,0,0,102,4290
32733,0,0,0,230,4162
32736,0,0,0,102,4290
32762,0,0,0,230,4162
32766,0,0,0,358,4034
32769,0,0,0,76,4316
32774,0,0,0,204,4188
32791,0,0,0,332,4060
32794,0,0,0,50,4342
32811,0,0,0,178,4214
32827,0,0,0,306,4086
32830,0,0,0,50,4342
33719,0,0,0,182,4210
34325,0,0,0,438,3954
34328,0,0,0,182,4210
36300,0,0,0,310,4082
36467,0,0,0,320,4072
38175,0,0,0,448,3944
39042,0,0,0,458,3934
39485,0,0,0,714,3678
39984,0,0,0,970,3422
40011,0,0,0,1252,3140
40071,0,0,0,1508,2884
40085,0,0,0,1518,2874
40103,0,0,0,1650,2742
40210,0,0,0,1778,2614
40212,0,0,0,1788,2604
40608,0,0,0,1920,2472
40698,0,0,0,2052,2340
40705,0,0,0,2334,2058
40725,0,0,0,2466,1926
41906,0,0,0,2722,1670
42331,0,0,0,2978,1414
43401,0,0,0,3106,1286
43414,0,0,0,3362,1030
43417,0,0,0,178,4214
43417,0,0,0,50,4342
43622,0,0,0,306,4086
43625,0,0,0,24,4368
49152,0,0,0,408,3984
54304,0,0,0,536,3856
54444,0,0,0,926,3466
54502,0,0,0,1208,3184
54797,0,0,0,4392,0
54800,0,0,0,2344,2048
54800,0,0,0,296,4096
54800,0,0,0,168,4224
54800,0,0,0,40,4352
55700,0,0,0,30,4362
65726,0,0,0,158,4234
65729,0,0,0,30,4362
65744,0,0,0,158,4234
70189,0,0,0,168,4224
71174,0,0,0,296,4096
74292,0,0,0,2344,2048
74295,0,0,0,296,4096
74295,0,0,0,168,4224
74295,0,0,0,40,4352
85212,0,0,0,168,4224
85215,0,0,0,40,4352
85229,0,0,0,168,4224
85232,0,0,0,36,4356
92476,0,0,0,164,4228
93284,0,0,0,296,4096
93735,0,0,0,2344,2048
93738,0,0,0,296,4096
93738,0,0,0,168,4224
93738,0,0,0,40,4352
104626,0,0,0,168,4224
104629,0,0,0,40,4352
104669,0,0,0,168,4224
112015,0,0,0,296,4096
112509,0,0,0,2344,2048
112512,0,0,0,296,4096
113411,0,0,0,2344,2048
113414,0,0,0,296,4096
113414,0,0,0,168,4224
113414,0,0,0,40,4352
124339,0,0,0,168,4224
124400,0,0,0,296,4096
132004,0,0,0,2344,2048
132007,0,0,0,296,4096
132911,0,0,0,2344,2048
132914,0,0,0,296,4096
132914,0,0,0,168,4224
132914,0,0,0,40,4352
143742,0,0,0,168,4224
143820,0,0,0,296,4096
151360,0,0,0,2344,2048
151363,0,0,0,296,4096
152390,0,0,0,2344,2048
152393,0,0,0,296,4096
152393,0,0,0,40,4352
171005,0,0,0,2088,2304
171008,0,0,0,1832,2560
171008,0,0,0,1576,2816
171008,0,0,0,1320,3072
171008,0,0,0,1064,3328
171861,0,0,0,3112,1280
174138,0,0,0,3368,1024
174141,0,0,0,188,4204
174141,0,0,0,60,4332
174141,0,0,0,50,4342
174141,0,0,0,40,4352
174141,0,0,0,30,4362
174141,0,0,0,20,4372
174141,0,0,0,10,4382
174141,0,0,0,0,4392
184973,0,0,0,128,4264
184976,0,0,0,0,4392
192641,0,0,0,256,4136
192643,0,0,0,512,3880
192687,0,0,0,768,3624
192710,0,0,0,1024,3368
194084,0,0,0,1034,3358
194175,0,0,0,1044,3348
194691,0,0,0,1054,3338
194727,0,0,0,1064,3328
194749,0,0,0,1074,3318
194794,0,0,0,1084,3308
195726,0,0,0,1212,3180
195834,0,0,0,4392,0
195837,0,0,0,1212,3180
195837,0,0,0,956,3436
195837,0,0,0,566,3826
195837,0,0,0,176,4216
195837,0,0,0,166,4226
195837,0,0,0,156,4236
195837,0,0,0,146,4246
195837,0,0,0,136,4256
195837,0,0,0,8,4384
206619,0,0,0,136,4256
206622,0,0,0,8,4384
215977,0,0,0,136,4256
216977,0,0,0,3316,1076
216980,0,0,0,2804,1588
216980,0,0,0,1847,2545
216980,0,0,0,890,3502
217528,0,0,0,1146,3246
217531,0,0,0,189,4203
217538,0,0,0,199,4193
217569,0,0,0,209,4183
217586,0,0,0,219,4173
217614,0,0,0,229,4163
219013,0,0,0,85,4307
226315,0,0,0,229,4163
226486,0,0,0,741,3651
226489,0,0,0,485,3907
226489,0,0,0,229,4163
228307,0,0,0,619,3773
228310,0,0,0,363,4029
228310,0,0,0,107,4285
228375,0,0,0,497,3895
228378,0,0,0,241,4151
231102,0,0,0,1198,3194
231105,0,0,0,174,4218
231105,0,0,0,46,4346
231392,0,0,0,1003,3389
231395,0,0,0,301,4091
231395,0,0,0,173,4219
231395,0,0,0,45,4347
231486,0,0,0,1002,3390
231489,0,0,0,746,3646
231489,0,0,0,618,3774
231489,0,0,0,486,3906
231489,0,0,0,358,4034
231489,0,0,0,43,4349
238764,0,0,0,745,3647
239519,0,0,0,1001,3391
241924,0,0,0,1133,3259
241984,0,0,0,1261,3131
242287,0,0,0,1389,3003
242295,0,0,0,1517,2875
242340,0,0,0,1645,2747
242372,0,0,0,1773,2619
242407,0,0,0,2088,2304
245370,0,0,0,3112,1280
245373,0,0,0,932,3460
248160,0,0,0,1188,3204
248185,0,0,0,1444,2948
249941,0,0,0,1700,2692
249962,0,0,0,1956,2436
250064,0,0,0,2212,2180
250067,0,0,0,32,4360
252597,0,0,0,2212,2180
252600,0,0,0,32,4360
257316,0,0,0,2212,2180
257319,0,0,0,32,4360
259874,0,0,0,2212,2180
259877,0,0,0,32,4360
264622,0,0,0,2212,2180
264625,0,0,0,32,4360
267142,0,0,0,2212,2180
267145,0,0,0,32,4360
271893,0,0,0,2212,2180
271896,0,0,0,32,4360
274438,0,0,0,2212,2180
274441,0,0,0,1956,2436
274441,0,0,0,1700,2692
274441,0,0,0,1444,2948
274441,0,0,0,1188,3204
274441,0,0,0,420,3972
274441,0,0,0,164,4228
274441,0,0,0,154,4238
274441,0,0,0,144,4248
274441,0,0,0,16,4376
279133,0,0,0,2196,2196
279136,0,0,0,136,4256
279136,0,0,0,8,4384
285246,0,0,0,136,4256
285249,0,0,0,8,4384
286497,0,0,0,2068,2324
286500,0,0,0,1018,3374
286500,0,0,0,890,3502
289956,0,0,0,1018,3374
292328,0,0,0,1146,3246
293780,0,0,0,2196,2196
294356,0,0,0,2206,2186
294459,0,0,0,2216,2176
294986,0,0,0,2984,1408
296108,0,0,0,3112,1280
296122,0,0,0,3368,1024
296139,0,0,0,3624,768
296142,0,0,0,110,4282
296153,0,0,0,366,4026
303397,0,0,0,3880,512
303400,0,0,0,366,4026
310626,0,0,0,3880,512
310629,0,0,0,3496,896
310629,0,0,0,238,4154
310629,0,0,0,110,4282
317865,0,0,0,3368,1024
317868,0,0,0,732,3660
321499,0,0,0,860,3532
325167,0,0,0,3496,896
328403,0,0,0,3752,640
328406,0,0,0,238,4154
334242,0,0,0,622,3770
335673,0,0,0,4136,256
335676,0,0,0,622,3770
335676,0,0,0,366,4026
343015,0,0,0,3880,512
343018,0,0,0,3496,896
343018,0,0,0,2728,1664
343018,0,0,0,2344,2048
343018,0,0,0,1960,2432
343018,0,0,0,1704,2688
343018,0,0,0,1448,2944
343018,0,0,0,1192,3200
343018,0,0,0,936,3456
343018,0,0,0,680,3712
343018,0,0,0,424,3968
343018,0,0,0,168,4224
343018,0,0,0,40,4352
353895,0,0,0,168,4224
353898,0,0,0,40,4352
357380,0,0,0,296,4096
358784,0,0,0,552,3840
361058,0,0,0,808,3584
361064,0,0,0,1064,3328
361070,0,0,0,1320,3072
361089,0,0,0,1576,2816
361143,0,0,0,1832,2560
361150,0,0,0,2088,2304
361153,0,0,0,2344,2048
361615,0,0,0,3112,1280
364759,0,0,0,3240,1152
366497,0,0,0,3624,768
366500,0,0,0,110,4282
366664,0,0,0,494,3898
366814,0,0,0,878,3514
373739,0,0,0,4392,0
373742,0,0,0,878,3514
380969,0,0,0,4392,0
380972,0,0,0,1756,2636
380972,0,0,0,706,3686
388232,0,0,0,1756,2636
388264,0,0,0,4392,0
388267,0,0,0,1756,2636
388267,0,0,0,706,3686
395533,0,0,0,1756,2636
395591,0,0,0,4392,0
395594,0,0,0,1756,2636
395594,0,0,0,714,3678
402840,0,0,0,1756,2636
402930,0,0,0,4392,0
402933,0,0,0,1756,2636
402933,0,0,0,598,3794
402933,0,0,0,213,4179
408528,0,0,0,598,3794
410164,0,0,0,1756,2636
410217,0,0,0,4392,0
410220,0,0,0,1756,2636
417501,0,0,0,4392,0
417504,0,0,0,1756,2636
424750,0,0,0,4392,0
424753,0,0,0,1756,2636
432022,0,0,0,4392,0
432025,0,0,0,1756,2636
432025,0,0,0,1500,2892
432025,0,0,0,476,3916
432025,0,0,0,220,4172
439277,0,0,0,2856,1536
439280,0,0,0,2600,1792
439280,0,0,0,2216,2176
439280,0,0,0,36,4356
445867,0,0,0,1060,3332
446593,0,0,0,3240,1152
446596,0,0,0,1060,3332
450203,0,0,0,1316,3076
453609,0,0,0,1572,2820
453842,0,0,0,3752,640
453845,0,0,0,1572,2820
453845,0,0,0,1188,3204
461023,0,0,0,1444,2948
461092,0,0,0,3624,768
461095,0,0,0,110,4282
468337,0,0,0,3624,768
468340,0,0,0,110,4282
471715,0,0,0,494,3898
473380,0,0,0,4008,384
473383,0,0,0,494,3898
473383,0,0,0,110,4282
477459,0,0,0,494,3898
477462,0,0,0,110,4282
478666,0,0,0,3624,768
478669,0,0,0,3240,1152
478669,0,0,0,2856,1536
478669,0,0,0,2472,1920
478669,0,0,0,2088,2304
478669,0,0,0,1704,2688
478669,0,0,0,1320,3072
478669,0,0,0,936,3456
478669,0,0,0,680,3712
478669,0,0,0,424,3968
478669,0,0,0,168,4224
478669,0,0,0,40,4352
489524,0,0,0,168,4224
489527,0,0,0,40,4352
498632,0,0,0,424,3968
500271,0,0,0,680,3712
500305,0,0,0,936,3456
500367,0,0,0,1192,3200
500371,0,0,0,1320,3072
502773,0,0,0,1704,2688
503891,0,0,0,2088,2304
503921,0,0,0,2472,1920
503925,0,0,0,2856,1536
503949,0,0,0,3240,1152
503967,0,0,0,3624,768
503970,0,0,0,110,4282
504027,0,0,0,494,3898
504052,0,0,0,878,3514
511270,0,0,0,4392,0
511273,0,0,0,878,3514
511273,0,0,0,494,3898
518519,0,0,0,4008,384
518522,0,0,0,494,3898
518522,0,0,0,104,4288
525828,0,0,0,3618,774
525831,0,0,0,1494,2898
531761,0,0,0,3618,774
531764,0,0,0,104,4288
535502,0,0,0,488,3904
539026,0,0,0,4002,390
539029,0,0,0,488,3904
546289,0,0,0,4002,390
546292,0,0,0,488,3904
550878,0,0,0,878,3514
553551,0,0,0,4392,0
553554,0,0,0,878,3514
560798,0,0,0,4392,0
560801,0,0,0,878,3514
567386,0,0,0,4392,0
567389,0,0,0,878,3514
572437,0,0,0,4392,0
572440,0,0,0,878,3514
579687,0,0,0,4392,0
579690,0,0,0,878,3514
586910,0,0,0,4392,0
586913,0,0,0,878,3514
594182,0,0,0,4392,0
594185,0,0,0,878,3514
599255,0,0,0,4392,0
599258,0,0,0,878,3514
599258,0,0,0,494,3898
599258,0,0,0,349,4043
599258,0,0,0,339,4053
606099,0,0,0,484,3908
606513,0,0,0,494,3898
606572,0,0,0,4008,384
606575,0,0,0,494,3898
613902,0,0,0,4008,384
613905,0,0,0,494,3898
613905,0,0,0,366,4026
621099,0,0,0,494,3898
621147,0,0,0,4008,384
621150,0,0,0,494,3898
623067,0,0,0,878,3514
628426,0,0,0,4392,0
628429,0,0,0,878,3514
635651,0,0,0,4392,0
635654,0,0,0,878,3514
642917,0,0,0,4392,0
642920,0,0,0,1995,2397
642920,0,0,0,1155,3237
642920,0,0,0,353,4039
642920,0,0,0,38,4354
650175,0,0,0,2435,1957
650178,0,0,0,1560,2832
650178,0,0,0,1368,3024
650178,0,0,0,1176,3216
650178,0,0,0,920,3472
650178,0,0,0,664,3728
650178,0,0,0,408,3984
650178,0,0,0,152,4240
653744,0,0,0,467,3925
653747,0,0,0,211,4181
661043,0,0,0,403,3989
661046,0,0,0,147,4245
661185,0,0,0,339,4053
661188,0,0,0,83,4309
668228,0,0,0,339,4053
668231,0,0,0,83,4309
668252,0,0,0,339,4053
668255,0,0,0,83,4309
668263,0,0,0,339,4053
668266,0,0,0,83,4309
668287,0,0,0,339,4053
668290,0,0,0,83,4309
671895,0,0,0,339,4053
671898,0,0,0,211,4181
671898,0,0,0,83,4309
679131,0,0,0,339,4053
679210,0,0,0,595,3797
679213,0,0,0,147,4245
682717,0,0,0,275,4117
682719,0,0,0,403,3989
686334,0,0,0,659,3733
686337,0,0,0,211,4181
686343,0,0,0,467,3925
686356,0,0,0,723,3669
686369,0,0,0,979,3413
686372,0,0,0,22,4370
693167,0,0,0,470,3922
693170,0,0,0,342,4050
693170,0,0,0,86,4306
693170,0,0,0,76,4316
693170,0,0,0,66,4326
693170,0,0,0,56,4336
693170,0,0,0,46,4346
700182,0,0,0,494,3898
700185,0,0,0,110,4282
702287,0,0,0,1067,3325
702290,0,0,0,555,3837
702290,0,0,0,171,4221
702290,0,0,0,43,4349
702640,0,0,0,171,4221
702643,0,0,0,43,4349
703493,0,0,0,53,4339
704057,0,0,0,63,4329
704093,0,0,0,73,4319
704114,0,0,0,83,4309
713229,0,0,0,211,4181
713232,0,0,0,83,4309
713505,0,0,0,211,4181
713508,0,0,0,83,4309
714844,0,0,0,339,4053
714847,0,0,0,24,4368
720326,0,0,0,152,4240
720329,0,0,0,24,4368
720721,0,0,0,536,3856
720724,0,0,0,293,4099
720724,0,0,0,165,4227
720724,0,0,0,37,4355
723913,0,0,0,421,3971
724250,0,0,0,549,3843
725763,0,0,0,864,3528
725949,0,0,0,1248,3144
727076,0,0,0,1376,3016
727170,0,0,0,1504,2888
727703,0,0,0,1632,2760
728003,0,0,0,1875,2517
728540,0,0,0,2715,1677
728543,0,0,0,667,3725
728543,0,0,0,155,4237
729501,0,0,0,957,3435
729504,0,0,0,445,3947
729504,0,0,0,61,4331
729891,0,0,0,936,3456
729894,0,0,0,552,3840
729894,0,0,0,237,4155
729894,0,0,0,109,4283
739304,0,0,0,237,4155
739307,0,0,0,109,4283
740769,0,0,0,424,3968
740772,0,0,0,168,4224
741051,0,0,0,40,4352
745701,0,0,0,168,4224
751930,0,0,0,296,4096
752950,0,0,0,552,3840
753141,0,0,0,936,3456
754890,0,0,0,1320,3072
759433,0,0,0,1832,2560
760261,0,0,0,2344,2048
760264,0,0,0,148,4244
767534,0,0,0,2344,2048
767537,0,0,0,208,4184
771824,0,0,0,80,4312
774782,0,0,0,2216,2176
774785,0,0,0,1704,2688
774785,0,0,0,1192,3200
774785,0,0,0,802,3590
774785,0,0,0,546,3846
774785,0,0,0,290,4102
774785,0,0,0,34,4358
782599,0,0,0,24,4368
782798,0,0,0,152,4240
782801,0,0,0,24,4368
784598,0,0,0,280,4112
784601,0,0,0,24,4368
785152,0,0,0,280,4112
785155,0,0,0,24,4368
785644,0,0,0,280,4112
785647,0,0,0,24,4368
788382,0,0,0,536,3856
788385,0,0,0,24,4368
792076,0,0,0,536,3856
792079,0,0,0,280,4112
792079,0,0,0,24,4368
793533,0,0,0,34,4358
793657,0,0,0,162,4230
794924,0,0,0,418,3974
794927,0,0,0,162,4230
795013,0,0,0,418,3974
795016,0,0,0,162,4230
795661,0,0,0,418,3974
795664,0,0,0,238,4154
800816,0,0,0,494,3898
801144,0,0,0,750,3642
801572,0,0,0,1262,3130
803665,0,0,0,1518,2874
806099,0,0,0,1774,2618
806219,0,0,0,1954,2438
807185,0,0,0,2344,2048
813861,0,0,0,4392,0
813864,0,0,0,878,3514
821124,0,0,0,4392,0
821127,0,0,0,1206,3186
821127,0,0,0,965,3427
821127,0,0,0,163,4229
828394,0,0,0,3349,1043
828397,0,0,0,2547,1845
828397,0,0,0,1745,2647
828397,0,0,0,943,3449
828397,0,0,0,141,4251
828397,0,0,0,13,4379
830773,0,0,0,3,4389
836273,0,0,0,13,4379
837325,0,0,0,3,4389
839318,0,0,0,131,4261
844938,0,0,0,141,4251
849442,0,0,0,13,4379
853964,0,0,0,3,4389
856694,0,0,0,131,4261
859979,0,0,0,141,4251
860855,0,0,0,943,3449
860858,0,0,0,141,4251
860867,0,0,0,943,3449
860870,0,0,0,687,3705
860870,0,0,0,431,3961
860870,0,0,0,175,4217
860932,0,0,0,977,3415
860935,0,0,0,721,3671
860935,0,0,0,465,3927
860935,0,0,0,81,4311
860958,0,0,0,883,3509
860961,0,0,0,627,3765
860961,0,0,0,371,4021
860961,0,0,0,115,4277
861074,0,0,0,105,4287
870127,0,0,0,361,4031
870130,0,0,0,105,4287
875584,0,0,0,115,4277
878402,0,0,0,371,4021
878405,0,0,0,115,4277
880772,0,0,0,371,4021
882526,0,0,0,627,3765
882547,0,0,0,883,3509
882576,0,0,0,1139,3253
882610,0,0,0,1395,2997
882626,0,0,0,1651,2741
882660,0,0,0,1907,2485
885763,0,0,0,2291,2101
887617,0,0,0,2547,1845
893303,0,0,0,3349,1043
893306,0,0,0,713,3679
898595,0,0,0,1515,2877
900548,0,0,0,4151,241
900551,0,0,0,1558,2834
907785,0,0,0,4151,241
907788,0,0,0,637,3755
907788,0,0,0,633,3759
914731,0,0,0,637,3755
915029,0,0,0,4151,241
915032,0,0,0,637,3755
915032,0,0,0,388,4004
922339,0,0,0,3902,490
922342,0,0,0,388,4004
922342,0,0,0,378,4014
927351,0,0,0,388,4004
929689,0,0,0,3902,490
929692,0,0,0,388,4004
929692,0,0,0,243,4149
936531,0,0,0,388,4004
936919,0,0,0,3902,490
936922,0,0,0,388,4004
944198,0,0,0,3902,490
944201,0,0,0,388,4004
944201,0,0,0,139,4253
944201,0,0,0,11,4381
950809,0,0,0,139,4253
950892,0,0,0,380,4012
951490,0,0,0,3894,498
951493,0,0,0,2614,1778
951493,0,0,0,1334,3058
951493,0,0,0,822,3570
951493,0,0,0,310,4082
951493,0,0,0,306,4086
951493,0,0,0,65,4327
960113,0,0,0,306,4086
962335,0,0,0,310,4082
965065,0,0,0,822,3570
965068,0,0,0,310,4082
965091,0,0,0,822,3570
965094,0,0,0,310,4082
965094,0,0,0,182,4210
965094,0,0,0,54,4338
971735,0,0,0,182,4210
975939,0,0,0,310,4082
978645,0,0,0,822,3570
978666,0,0,0,1334,3058
978669,0,0,0,310,4082
984396,0,0,0,1590,2802
984399,0,0,0,566,3826
984399,0,0,0,325,4067
984399,0,0,0,84,4308
984399,0,0,0,74,4318
985852,0,0,0,1354,3038
985855,0,0,0,714,3678
985855,0,0,0,202,4190
995254,0,0,0,451,3941
998883,0,0,0,461,3931
999443,0,0,0,973,3419
1.001e+06,0,0,0,1214,3178
1.00101e+06,0,0,0,14,4378
1.00101e+06,0,0,0,4,4388
1.01553e+06,0,0,0,14,4378
1.02368e+06,0,0,0,1038,3354
1.02368e+06,0,0,0,526,3866
1.02368e+06,0,0,0,14,4378
1.02915e+06,0,0,0,654,3738
1.02915e+06,0,0,0,398,3994
1.02915e+06,0,0,0,157,4235
1.0322e+06,0,0,0,406,3986
1.03719e+06,0,0,0,1430,2962
1.0372e+06,0,0,0,406,3986
1.03722e+06,0,0,0,918,3474
1.03722e+06,0,0,0,1430,2962
1.03723e+06,0,0,0,406,3986
1.0402e+06,0,0,0,662,3730
1.04071e+06,0,0,0,1862,2530
1.04071e+06,0,0,0,838,3554
1.04071e+06,0,0,0,326,4066
1.04796e+06,0,0,0,838,3554
1.05674e+06,0,0,0,710,3682
1.05749e+06,0,0,0,582,3810
1.05809e+06,0,0,0,454,3938
1.05824e+06,0,0,0,326,4066
1.06279e+06,0,0,0,454,3938
1.06582e+06,0,0,0,582,3810
1.06831e+06,0,0,0,710,3682
1.06913e+06,0,0,0,838,3554
1.07719e+06,0,0,0,597,3795
1.08752e+06,0,0,0,838,3554
1.09216e+06,0,0,0,1862,2530
1.09216e+06,0,0,0,838,3554
1.09729e+06,0,0,0,1862,2530
1.0973e+06,0,0,0,1022,3370
1.0973e+06,0,0,0,382,4010
1.0973e+06,0,0,0,254,4138
1.0973e+06,0,0,0,244,4148
1.09988e+06,0,0,0,234,4158
1.10275e+06,0,0,0,1258,3134
1.10346e+06,0,0,0,1268,3124
1.1039e+06,0,0,0,1396,2996
1.10445e+06,0,0,0,1637,2755
1.10801e+06,0,0,0,2477,1915
1.1116e+06,0,0,0,2487,1905
1.11195e+06,0,0,0,2477,1915
1.11566e+06,0,0,0,2718,1674
1.12016e+06,0,0,0,2462,1930
1.12077e+06,0,0,0,2334,2058
1.12316e+06,0,0,0,2344,2048
1.12937e+06,0,0,0,2216,2176
1.12938e+06,0,0,0,2088,2304
1.13169e+06,0,0,0,2216,2176
1.13244e+06,0,0,0,2856,1536
1.13622e+06,0,0,0,2728,1664
1.13999e+06,0,0,0,2856,1536
1.14003e+06,0,0,0,2984,1408
1.14179e+06,0,0,0,3240,1152
1.14337e+06,0,0,0,4264,128
1.1443e+06,0,0,0,4392,0
1.16141e+06,0,0,0,4151,241
1.17218e+06,0,0,0,4392,0
1.19908e+06,0,0,0,4264,128
1.20396e+06,0,0,0,4008,384
1.20648e+06,0,0,0,2808,1584
1.20784e+06,0,0,0,2936,1456
1.21023e+06,0,0,0,2680,1712
1.21032e+06,0,0,0,2424,1968
1.21038e+06,0,0,0,2040,2352
1.21479e+06,0,0,0,2296,2096
1.21484e+06,0,0,0,2168,2224
1.21486e+06,0,0,0,2040,2352
1.21486e+06,0,0,0,1912,2480
1.21488e+06,0,0,0,1784,2608
1.21488e+06,0,0,0,1656,2736
1.21496e+06,0,0,0,1528,2864
1.21826e+06,0,0,0,1784,2608
1.21853e+06,0,0,0,1656,2736
1.21865e+06,0,0,0,1528,2864
1.22135e+06,0,0,0,1383,3009
1.22305e+06,0,0,0,1127,3265
1.22513e+06,0,0,0,1255,3137
1.22519e+06,0,0,0,1383,3009
1.22561e+06,0,0,0,1511,2881
1.22573e+06,0,0,0,1639,2753
1.22575e+06,0,0,0,1767,2625
1.2258e+06,0,0,0,1895,2497
1.22721e+06,0,0,0,2040,2352
1.22872e+06,0,0,0,2296,2096
1.22899e+06,0,0,0,2424,1968
1.22951e+06,0,0,0,2552,1840
1.22982e+06,0,0,0,2424,1968
1.22982e+06,0,0,0,2296,2096
1.22982e+06,0,0,0,2168,2224
1.22983e+06,0,0,0,2040,2352
1.22983e+06,0,0,0,1912,2480
1.22983e+06,0,0,0,1784,2608
1.22983e+06,0,0,0,1656,2736
1.22983e+06,0,0,0,1528,2864
1.2334e+06,0,0,0,1912,2480
1.23706e+06,0,0,0,2040,2352
1.23707e+06,0,0,0,2168,2224
1.23707e+06,0,0,0,2296,2096
1.23707e+06,0,0,0,2424,1968
1.23707e+06,0,0,0,2552,1840
1.23709e+06,0,0,0,2680,1712
1.23709e+06,0,0,0,2808,1584
1.23716e+06,0,0,0,2936,1456
1.23993e+06,0,0,0,2808,1584
1.23996e+06,0,0,0,2680,1712
1.23998e+06,0,0,0,2552,1840
1.24e+06,0,0,0,2424,1968
1.24003e+06,0,0,0,2296,2096
1.24004e+06,0,0,0,2168,2224
1.24006e+06,0,0,0,2040,2352
1.24009e+06,0,0,0,1912,2480
1.24013e+06,0,0,0,1784,2608
1.24467e+06,0,0,0,2040,2352
1.24615e+06,0,0,0,3240,1152
1.24826e+06,0,0,0,2999,1393
1.24913e+06,0,0,0,3127,1265
1.24916e+06,0,0,0,3255,1137
1.24916e+06,0,0,0,3383,1009
1.24925e+06,0,0,0,3511,881
1.24929e+06,0,0,0,3639,753
1.24933e+06,0,0,0,3767,625
1.2494e+06,0,0,0,3895,497
1.2508e+06,0,0,0,4023,369
1.25083e+06,0,0,0,4151,241
1.25401e+06,0,0,0,3895,497
1.26124e+06,0,0,0,3639,753
1.26138e+06,0,0,0,3511,881
1.26138e+06,0,0,0,3383,1009
1.26267e+06,0,0,0,3255,1137
1.26449e+06,0,0,0,2999,1393
1.26464e+06,0,0,0,2743,1649
1.26485e+06,0,0,0,2999,1393
1.2654e+06,0,0,0,2231,2161
1.26624e+06,0,0,0,2103,2289
1.268e+06,0,0,0,1975,2417
1.268e+06,0,0,0,1847,2545
1.268e+06,0,0,0,1719,2673
1.268e+06,0,0,0,1591,2801
1.26801e+06,0,0,0,1463,2929
1.26801e+06,0,0,0,1335,3057
1.26801e+06,0,0,0,1207,3185
1.26802e+06,0,0,0,1079,3313
1.2687e+06,0,0,0,1207,3185
1.26871e+06,0,0,0,1335,3057
1.26882e+06,0,0,0,823,3569
1.26884e+06,0,0,0,567,3825
1.26884e+06,0,0,0,55,4337
1.27175e+06,0,0,0,183,4209
1.27349e+06,0,0,0,311,4081
1.27426e+06,0,0,0,567,3825
1.27487e+06,0,0,0,823,3569
1.27523e+06,0,0,0,951,3441
1.27523e+06,0,0,0,1079,3313
1.27523e+06,0,0,0,55,4337
1.27525e+06,0,0,0,183,4209
1.27525e+06,0,0,0,55,4337
1.27526e+06,0,0,0,183,4209
1.27529e+06,0,0,0,311,4081
1.27532e+06,0,0,0,439,3953
1.27532e+06,0,0,0,55,4337
1.27534e+06,0,0,0,183,4209
1.27534e+06,0,0,0,55,4337
1.27534e+06,0,0,0,183,4209
1.27971e+06,0,0,0,439,3953
1.27971e+06,0,0,0,183,4209
1.27971e+06,0,0,0,55,4337
1.27972e+06,0,0,0,567,3825
1.27974e+06,0,0,0,1079,3313
1.27974e+06,0,0,0,277,4115
1.27984e+06,0,0,0,1045,3347
1.28253e+06,0,0,0,1173,3219
1.2831e+06,0,0,0,1301,3091
1.28615e+06,0,0,0,2325,2067
1.28615e+06,0,0,0,2197,2195
1.28622e+06,0,0,0,2453,1939
1.28694e+06,0,0,0,2709,1683
1.28746e+06,0,0,0,2581,1811
1.28869e+06,0,0,0,2709,1683
1.29211e+06,0,0,0,2453,1939
1.29341e+06,0,0,0,2581,1811
1.29829e+06,0,0,0,2709,1683
1.29833e+06,0,0,0,2699,1693
1.30297e+06,0,0,0,2955,1437
1.30432e+06,0,0,0,2965,1427
1.30685e+06,0,0,0,3349,1043
1.31387e+06,0,0,0,3093,1299
1.32384e+06,0,0,0,2709,1683
1.33479e+06,0,0,0,2950,1442
1.33551e+06,0,0,0,3206,1186
1.33619e+06,0,0,0,2965,1427
1.34424e+06,0,0,0,3206,1186
1.34824e+06,0,0,0,3196,1196
1.35031e+06,0,0,0,3068,1324
1.35627e+06,0,0,0,3452,940
1.36113e+06,0,0,0,3580,812
1.36147e+06,0,0,0,3590,802
1.36628e+06,0,0,0,4392,0
1.36628e+06,0,0,0,296,4096
1.36628e+06,0,0,0,55,4337
1.36628e+06,0,0,0,45,4347
1.37918e+06,0,0,0,35,4357
1.38707e+06,0,0,0,45,4347
1.40093e+06,0,0,0,55,4337
1.45278e+06,0,0,0,4151,241
1.45279e+06,0,0,0,3767,625
1.45279e+06,0,0,0,3383,1009
1.45279e+06,0,0,0,3251,1141
1.45279e+06,0,0,0,3123,1269
1.45279e+06,0,0,0,2995,1397
1.45279e+06,0,0,0,2867,1525
1.45279e+06,0,0,0,2853,1539
1.45279e+06,0,0,0,2597,1795
1.45279e+06,0,0,0,2341,2051
1.45279e+06,0,0,0,2085,2307
1.45279e+06,0,0,0,1829,2563
1.46079e+06,0,0,0,1961,2431
1.46087e+06,0,0,0,1705,2687
1.46361e+06,0,0,0,1961,2431
1.46362e+06,0,0,0,2089,2303
1.46363e+06,0,0,0,2345,2047
1.46363e+06,0,0,0,2473,1919
1.46364e+06,0,0,0,2729,1663
1.46365e+06,0,0,0,2857,1535
1.465e+06,0,0,0,2843,1549
1.46585e+06,0,0,0,3099,1293
1.46968e+06,0,0,0,2587,1805
1.46968e+06,0,0,0,1563,2829
1.46968e+06,0,0,0,1307,3085
1.47287e+06,0,0,0,1116,3276
1.47443e+06,0,0,0,1130,3262
1.47469e+06,0,0,0,1002,3390
1.4747e+06,0,0,0,874,3518
1.4747e+06,0,0,0,746,3646
1.4747e+06,0,0,0,618,3774
1.4747e+06,0,0,0,490,3902
1.4747e+06,0,0,0,362,4030
1.47471e+06,0,0,0,234,4158
1.47472e+06,0,0,0,106,4286
1.48011e+06,0,0,0,297,4095
1.48052e+06,0,0,0,553,3839
1.48052e+06,0,0,0,1065,3327
1.48057e+06,0,0,0,2089,2303
1.48098e+06,0,0,0,2345,2047
1.48193e+06,0,0,0,2473,1919
1.48194e+06,0,0,0,2601,1791
1.48195e+06,0,0,0,2729,1663
1.48196e+06,0,0,0,2857,1535
1.48196e+06,0,0,0,2985,1407
1.48196e+06,0,0,0,3113,1279
1.48196e+06,0,0,0,3241,1151
1.48197e+06,0,0,0,3369,1023
1.48263e+06,0,0,0,3383,1009
1.48342e+06,0,0,0,3767,625
1.48431e+06,0,0,0,4151,241
1.48431e+06,0,0,0,55,4337
1.49599e+06,0,0,0,296,4096
1.49599e+06,0,0,0,168,4224
1.49885e+06,0,0,0,40,4352
1.50608e+06,0,0,0,168,4224
1.50608e+06,0,0,0,40,4352
1.50678e+06,0,0,0,168,4224
1.50678e+06,0,0,0,40,4352
1.50928e+06,0,0,0,26,4366
1.51339e+06,0,0,0,154,4238
1.51339e+06,0,0,0,26,4366
1.51403e+06,0,0,0,154,4238
1.51403e+06,0,0,0,26,4366
1.52063e+06,0,0,0,154,4238
1.52063e+06,0,0,0,26,4366
1.52127e+06,0,0,0,154,4238
1.52127e+06,0,0,0,26,4366
1.5279e+06,0,0,0,154,4238
1.5279e+06,0,0,0,26,4366
1.52854e+06,0,0,0,154,4238
1.52855e+06,0,0,0,26,4366
1.53093e+06,0,0,0,40,4352
1.53189e+06,0,0,0,26,4366
1.53515e+06,0,0,0,154,4238
1.53515e+06,0,0,0,26,4366
1.5358e+06,0,0,0,154,4238
1.5358e+06,0,0,0,26,4366
1.54169e+06,0,0,0,40,4352
1.54237e+06,0,0,0,168,4224
1.54238e+06,0,0,0,40,4352
1.54309e+06,0,0,0,168,4224
1.54309e+06,0,0,0,40,4352
1.54968e+06,0,0,0,168,4224
1.54969e+06,0,0,0,40,4352
1.55031e+06,0,0,0,168,4224
1.55031e+06,0,0,0,40,4352
1.55692e+06,0,0,0,168,4224
1.55693e+06,0,0,0,40,4352
1.55755e+06,0,0,0,168,4224
1.55755e+06,0,0,0,40,4352
1.5678e+06,0,0,0,168,4224
1.56846e+06,0,0,0,296,4096
1.57083e+06,0,0,0,4392,0
1.57083e+06,0,0,0,3552,840
1.57083e+06,0,0,0,2528,1864
1.57083e+06,0,0,0,2016,2376
1.57083e+06,0,0,0,1632,2760
1.57083e+06,0,0,0,1376,3016
1.57083e+06,0,0,0,1120,3272
1.57083e+06,0,0,0,864,3528
1.57083e+06,0,0,0,608,3784
1.57083e+06,0,0,0,352,4040
1.57083e+06,0,0,0,96,4296
1.58169e+06,0,0,0,352,4040
1.5817e+06,0,0,0,224,4168
1.5817e+06,0,0,0,96,4296
1.58172e+06,0,0,0,352,4040
1.58172e+06,0,0,0,608,3784
1.58172e+06,0,0,0,293,4099
1.58172e+06,0,0,0,37,4355
1.58381e+06,0,0,0,293,4099
1.58381e+06,0,0,0,37,4355
1.584e+06,0,0,0,293,4099
1.584e+06,0,0,0,37,4355
1.58567e+06,0,0,0,549,3843
1.58568e+06,0,0,0,165,4227
1.59067e+06,0,0,0,293,4099
1.59067e+06,0,0,0,37,4355
1.59093e+06,0,0,0,293,4099
1.5925e+06,0,0,0,549,3843
1.59261e+06,0,0,0,864,3528
1.59264e+06,0,0,0,992,3400
1.5933e+06,0,0,0,224,4168
1.59999e+06,0,0,0,210,4182
1.60194e+06,0,0,0,594,3798
1.60207e+06,0,0,0,850,3542
1.60334e+06,0,0,0,1106,3286
1.60334e+06,0,0,0,82,4310
1.60871e+06,0,0,0,338,4054
1.60873e+06,0,0,0,722,3670
1.60894e+06,0,0,0,1562,2830
1.6127e+06,0,0,0,2586,1806
1.61432e+06,0,0,0,3354,1038
1.62007e+06,0,0,0,3368,1024
1.62393e+06,0,0,0,3354,1038
1.62685e+06,0,0,0,3098,1294
1.62849e+06,0,0,0,2966,1426
1.63364e+06,0,0,0,2838,1554
1.63364e+06,0,0,0,2710,1682
1.63364e+06,0,0,0,2582,1810
1.63365e+06,0,0,0,2454,1938
1.63365e+06,0,0,0,2326,2066
1.63365e+06,0,0,0,2198,2194
1.63365e+06,0,0,0,2070,2322
1.63365e+06,0,0,0,1942,2450
1.63382e+06,0,0,0,2074,2318
1.63626e+06,0,0,0,1946,2446
1.63627e+06,0,0,0,1818,2574
1.63627e+06,0,0,0,1690,2702
1.63627e+06,0,0,0,1562,2830
1.63627e+06,0,0,0,1434,2958
1.63627e+06,0,0,0,1306,3086
1.63628e+06,0,0,0,1178,3214
1.63628e+06,0,0,0,1050,3342
1.63684e+06,0,0,0,1064,3328
1.64024e+06,0,0,0,1192,3200
1.64052e+06,0,0,0,1448,2944
1.64093e+06,0,0,0,1576,2816
1.64093e+06,0,0,0,1704,2688
1.64094e+06,0,0,0,1832,2560
1.64095e+06,0,0,0,1960,2432
1.64096e+06,0,0,0,2088,2304
1.64096e+06,0,0,0,2216,2176
1.64097e+06,0,0,0,2344,2048
1.64349e+06,0,0,0,2472,1920
1.6435e+06,0,0,0,2600,1792
1.6435e+06,0,0,0,2728,1664
1.6435e+06,0,0,0,2856,1536
1.64354e+06,0,0,0,2984,1408
1.64354e+06,0,0,0,3112,1280
1.64357e+06,0,0,0,3240,1152
1.64358e+06,0,0,0,3368,1024
1.65363e+06,0,0,0,4392,0
1.65364e+06,0,0,0,878,3514
1.6606e+06,0,0,0,4392,0
1.66061e+06,0,0,0,878,3514
1.66061e+06,0,0,0,637,3755
1.66678e+06,0,0,0,4151,241
1.66678e+06,0,0,0,637,3755
1.67186e+06,0,0,0,4151,241
1.67186e+06,0,0,0,637,3755
1.67186e+06,0,0,0,509,3883
1.67186e+06,0,0,0,381,4011
1.67186e+06,0,0,0,253,4139
1.67186e+06,0,0,0,125,4267
1.6791e+06,0,0,0,253,4139
1.6791e+06,0,0,0,381,4011
1.6791e+06,0,0,0,509,3883
1.67912e+06,0,0,0,637,3755
1.67914e+06,0,0,0,4151,241
1.67915e+06,0,0,0,55,4337
1.68453e+06,0,0,0,4151,241
1.68454e+06,0,0,0,3910,482
1.68454e+06,0,0,0,3526,866
1.68454e+06,0,0,0,3142,1250
1.68454e+06,0,0,0,2758,1634
1.68454e+06,0,0,0,1734,2658
1.68454e+06,0,0,0,1350,3042
1.68454e+06,0,0,0,1222,3170
1.68454e+06,0,0,0,966,3426
1.68454e+06,0,0,0,838,3554
1.68454e+06,0,0,0,710,3682
1.68454e+06,0,0,0,582,3810
1.68454e+06,0,0,0,454,3938
1.68454e+06,0,0,0,326,4066
1.68454e+06,0,0,0,198,4194
1.68454e+06,0,0,0,70,4322
1.69176e+06,0,0,0,198,4194
1.69176e+06,0,0,0,70,4322
1.69177e+06,0,0,0,198,4194
1.69177e+06,0,0,0,326,4066
1.69177e+06,0,0,0,198,4194
1.69177e+06,0,0,0,70,4322
1.69178e+06,0,0,0,198,4194
1.69179e+06,0,0,0,70,4322
1.69179e+06,0,0,0,198,4194
1.6918e+06,0,0,0,70,4322
1.6918e+06,0,0,0,198,4194
1.6918e+06,0,0,0,70,4322
1.6918e+06,0,0,0,198,4194
1.6918e+06,0,0,0,70,4322
1.69539e+06,0,0,0,198,4194
1.69746e+06,0,0,0,326,4066
1.69901e+06,0,0,0,454,3938
1.69901e+06,0,0,0,582,3810
1.69901e+06,0,0,0,198,4194
1.69901e+06,0,0,0,70,4322
1.69902e+06,0,0,0,198,4194
1.69903e+06,0,0,0,70,4322
1.69903e+06,0,0,0,198,4194
1.69903e+06,0,0,0,70,4322
1.69903e+06,0,0,0,198,4194
1.69904e+06,0,0,0,70,4322
1.69905e+06,0,0,0,198,4194
1.69905e+06,0,0,0,70,4322
1.7046e+06,0,0,0,198,4194
1.70461e+06,0,0,0,70,4322
1.70616e+06,0,0,0,326,4066
1.70617e+06,0,0,0,198,4194
1.70617e+06,0,0,0,70,4322
1.70629e+06,0,0,0,198,4194
1.70629e+06,0,0,0,70,4322
1.70629e+06,0,0,0,198,4194
1.70629e+06,0,0,0,70,4322
1.7063e+06,0,0,0,198,4194
1.7063e+06,0,0,0,70,4322
1.70631e+06,0,0,0,198,4194
1.70631e+06,0,0,0,70,4322
1.71193e+06,0,0,0,198,4194
1.71218e+06,0,0,0,326,4066
1.71343e+06,0,0,0,454,3938
1.71355e+06,0,0,0,582,3810
1.71355e+06,0,0,0,710,3682
1.71356e+06,0,0,0,838,3554
1.71356e+06,0,0,0,966,3426
1.71518e+06,0,0,0,1350,3042
1.71539e+06,0,0,0,1734,2658
1.71539e+06,0,0,0,198,4194
1.71539e+06,0,0,0,70,4322
1.71613e+06,0,0,0,454,3938
1.71614e+06,0,0,0,326,4066
1.71614e+06,0,0,0,194,4198
1.71614e+06,0,0,0,66,4326
1.71625e+06,0,0,0,450,3942
1.71626e+06,0,0,0,322,4070
1.71626e+06,0,0,0,194,4198
1.71626e+06,0,0,0,66,4326
1.72263e+06,0,0,0,194,4198
1.72336e+06,0,0,0,322,4070
1.72336e+06,0,0,0,450,3942
1.72348e+06,0,0,0,578,3814
1.72354e+06,0,0,0,706,3686
1.72356e+06,0,0,0,834,3558
1.72398e+06,0,0,0,966,3426
1.72484e+06,0,0,0,2502,1890
1.72485e+06,0,0,0,1478,2914
1.72485e+06,0,0,0,1350,3042
1.72485e+06,0,0,0,1094,3298
1.72485e+06,0,0,0,838,3554
1.72485e+06,0,0,0,582,3810
1.72485e+06,0,0,0,326,4066
1.72958e+06,0,0,0,710,3682
1.72958e+06,0,0,0,198,4194
1.72958e+06,0,0,0,70,4322
1.73571e+06,0,0,0,198,4194
1.73571e+06,0,0,0,70,4322
1.73575e+06,0,0,0,326,4066
1.73575e+06,0,0,0,582,3810
1.73576e+06,0,0,0,454,3938
1.73576e+06,0,0,0,326,4066
1.73576e+06,0,0,0,198,4194
1.73576e+06,0,0,0,70,4322
1.73576e+06,0,0,0,326,4066
1.73577e+06,0,0,0,198,4194
1.73577e+06,0,0,0,70,4322
1.73577e+06,0,0,0,326,4066
1.73866e+06,0,0,0,1350,3042
1.73867e+06,0,0,0,960,3432
1.73867e+06,0,0,0,832,3560
1.73867e+06,0,0,0,704,3688
1.73867e+06,0,0,0,576,3816
1.73867e+06,0,0,0,448,3944
1.73867e+06,0,0,0,320,4072
1.73867e+06,0,0,0,192,4200
1.73867e+06,0,0,0,64,4328
1.74045e+06,0,0,0,192,4200
1.74046e+06,0,0,0,64,4328
1.74189e+06,0,0,0,576,3816
1.74189e+06,0,0,0,448,3944
1.74189e+06,0,0,0,320,4072
1.74189e+06,0,0,0,192,4200
1.74189e+06,0,0,0,64,4328
1.74593e+06,0,0,0,192,4200
1.74593e+06,0,0,0,60,4332
1.74594e+06,0,0,0,188,4204
1.74594e+06,0,0,0,316,4076
1.74594e+06,0,0,0,444,3948
1.74594e+06,0,0,0,572,3820
1.74595e+06,0,0,0,188,4204
1.74597e+06,0,0,0,316,4076
1.74599e+06,0,0,0,444,3948
1.74599e+06,0,0,0,60,4332
1.74659e+06,0,0,0,188,4204
1.74661e+06,0,0,0,316,4076
1.74661e+06,0,0,0,444,3948
1.74661e+06,0,0,0,572,3820
1.74662e+06,0,0,0,60,4332
1.74663e+06,0,0,0,188,4204
1.74663e+06,0,0,0,316,4076
1.74664e+06,0,0,0,444,3948
1.74771e+06,0,0,0,572,3820
1.74914e+06,0,0,0,700,3692
1.74915e+06,0,0,0,828,3564
1.74916e+06,0,0,0,956,3436
1.7511e+06,0,0,0,1088,3304
1.75216e+06,0,0,0,1600,2792
1.75279e+06,0,0,0,1728,2664
1.76479e+06,0,0,0,1600,2792
1.76479e+06,0,0,0,1472,2920
1.76479e+06,0,0,0,1344,3048
1.76479e+06,0,0,0,1216,3176
1.76479e+06,0,0,0,1088,3304
1.76479e+06,0,0,0,960,3432
1.76479e+06,0,0,0,832,3560
1.76479e+06,0,0,0,704,3688
1.7648e+06,0,0,0,576,3816
1.76481e+06,0,0,0,448,3944
1.76483e+06,0,0,0,320,4072
1.76485e+06,0,0,0,192,4200
1.77011e+06,0,0,0,320,4072
1.77011e+06,0,0,0,79,4313
1.77093e+06,0,0,0,207,4185
1.77105e+06,0,0,0,597,3795
1.77105e+06,0,0,0,341,4051
1.77105e+06,0,0,0,85,4307
1.77107e+06,0,0,0,1109,3283
1.77107e+06,0,0,0,853,3539
1.77107e+06,0,0,0,469,3923
1.77107e+06,0,0,0,85,4307
1.77201e+06,0,0,0,213,4179
1.77201e+06,0,0,0,341,4051
1.77205e+06,0,0,0,469,3923
1.77206e+06,0,0,0,85,4307
1.77207e+06,0,0,0,213,4179
1.77208e+06,0,0,0,341,4051
1.77209e+06,0,0,0,469,3923
1.77209e+06,0,0,0,597,3795
1.77211e+06,0,0,0,725,3667
1.77211e+06,0,0,0,853,3539
1.77214e+06,0,0,0,981,3411
1.77285e+06,0,0,0,725,3667
1.77632e+06,0,0,0,1109,3283
1.77665e+06,0,0,0,1493,2899
1.77943e+06,0,0,0,1749,2643
1.7819e+06,0,0,0,2005,2387
1.78195e+06,0,0,0,2261,2131
1.78195e+06,0,0,0,2517,1875
1.78196e+06,0,0,0,469,3923
1.78196e+06,0,0,0,341,4051
1.78196e+06,0,0,0,85,4307
1.79033e+06,0,0,0,326,4066
1.79034e+06,0,0,0,70,4322
1.79131e+06,0,0,0,2118,2274
1.79132e+06,0,0,0,1862,2530
1.79132e+06,0,0,0,1606,2786
1.79132e+06,0,0,0,1478,2914
1.79132e+06,0,0,0,1350,3042
1.79132e+06,0,0,0,1222,3170
1.79132e+06,0,0,0,966,3426
1.79132e+06,0,0,0,838,3554
1.79132e+06,0,0,0,694,3698
1.7915e+06,0,0,0,566,3826
1.79284e+06,0,0,0,694,3698
1.79294e+06,0,0,0,310,4082
1.79421e+06,0,0,0,182,4210
1.79872e+06,0,0,0,310,4082
1.80039e+06,0,0,0,438,3954
1.80138e+06,0,0,0,582,3810
1.80165e+06,0,0,0,966,3426
1.80169e+06,0,0,0,1350,3042
1.8017e+06,0,0,0,326,4066
1.8017e+06,0,0,0,198,4194
1.8017e+06,0,0,0,70,4322
1.80219e+06,0,0,0,198,4194
1.8022e+06,0,0,0,326,4066
1.80221e+06,0,0,0,454,3938
1.80221e+06,0,0,0,582,3810
1.80222e+06,0,0,0,132,4260
1.80262e+06,0,0,0,516,3876
1.80262e+06,0,0,0,260,4132
1.80262e+06,0,0,0,4,4388
1.80364e+06,0,0,0,260,4132
1.80365e+06,0,0,0,4,4388
1.80739e+06,0,0,0,245,4147
1.80894e+06,0,0,0,373,4019
1.80894e+06,0,0,0,117,4275
1.80938e+06,0,0,0,373,4019
1.80942e+06,0,0,0,629,3763
1.80942e+06,0,0,0,245,4147
1.81036e+06,0,0,0,501,3891
1.81036e+06,0,0,0,186,4206
1.81055e+06,0,0,0,636,3756
1.81055e+06,0,0,0,380,4012
1.81055e+06,0,0,0,124,4268
1.81141e+06,0,0,0,380,4012
1.81202e+06,0,0,0,636,3756
1.81255e+06,0,0,0,764,3628
1.81298e+06,0,0,0,1020,3372
1.81301e+06,0,0,0,1276,3116
1.81573e+06,0,0,0,1532,2860
1.8212e+06,0,0,0,1847,2545
1.82346e+06,0,0,0,2103,2289
1.82361e+06,0,0,0,2359,2033
1.82362e+06,0,0,0,2743,1649
1.84003e+06,0,0,0,3127,1265
1.84641e+06,0,0,0,4151,241
1.86058e+06,0,0,0,4023,369
1.86058e+06,0,0,0,3895,497
1.86058e+06,0,0,0,3767,625
1.86153e+06,0,0,0,3639,753
1.86496e+06,0,0,0,3511,881
1.86784e+06,0,0,0,3639,753
1.8688e+06,0,0,0,3767,625
1.87047e+06,0,0,0,3895,497
1.87143e+06,0,0,0,4023,369
1.87143e+06,0,0,0,4151,241
1.87143e+06,0,0,0,55,4337
1.87761e+06,0,0,0,296,4096
1.87762e+06,0,0,0,168,4224
1.87762e+06,0,0,0,40,4352
1.88487e+06,0,0,0,168,4224
1.88487e+06,0,0,0,40,4352
1.88846e+06,0,0,0,168,4224
1.88994e+06,0,0,0,296,4096
1.88998e+06,0,0,0,4392,0
1.88999e+06,0,0,0,4008,384
1.88999e+06,0,0,0,3624,768
1.88999e+06,0,0,0,3240,1152
1.88999e+06,0,0,0,1192,3200
1.88999e+06,0,0,0,808,3584
1.88999e+06,0,0,0,6,4386
1.92013e+06,0,0,0,390,4002
1.92014e+06,0,0,0,134,4258
1.92021e+06,0,0,0,518,3874
1.92021e+06,0,0,0,262,4130
1.92021e+06,0,0,0,6,4386
1.92025e+06,0,0,0,390,4002
1.92025e+06,0,0,0,134,4258
1.92082e+06,0,0,0,518,3874
1.92082e+06,0,0,0,262,4130
1.92082e+06,0,0,0,6,4386
1.93128e+06,0,0,0,2054,2338
1.93128e+06,0,0,0,1798,2594
1.93128e+06,0,0,0,1542,2850
1.93128e+06,0,0,0,1286,3106
1.93128e+06,0,0,0,1030,3362
1.93128e+06,0,0,0,774,3618
1.93128e+06,0,0,0,518,3874
1.93128e+06,0,0,0,262,4130
1.93128e+06,0,0,0,6,4386
1.94178e+06,0,0,0,262,4130
1.94179e+06,0,0,0,6,4386
1.94188e+06,0,0,0,262,4130
1.94188e+06,0,0,0,6,4386
1.94193e+06,0,0,0,262,4130
1.94193e+06,0,0,0,6,4386
1.94196e+06,0,0,0,262,4130
1.94196e+06,0,0,0,6,4386
1.94247e+06,0,0,0,262,4130
1.94247e+06,0,0,0,6,4386
1.94258e+06,0,0,0,262,4130
1.94258e+06,0,0,0,134,4258
1.94258e+06,0,0,0,6,4386
1.95141e+06,0,0,0,134,4258
1.95142e+06,0,0,0,6,4386
1.95292e+06,0,0,0,262,4130
1.95293e+06,0,0,0,518,3874
1.95293e+06,0,0,0,390,4002
1.95293e+06,0,0,0,262,4130
1.95293e+06,0,0,0,134,4258
1.95293e+06,0,0,0,6,4386
1.95294e+06,0,0,0,262,4130
1.95294e+06,0,0,0,518,3874
1.95294e+06,0,0,0,390,4002
1.95294e+06,0,0,0,262,4130
1.95294e+06,0,0,0,134,4258
1.95294e+06,0,0,0,6,4386
1.95295e+06,0,0,0,262,4130
1.95295e+06,0,0,0,134,4258
1.95295e+06,0,0,0,6,4386
1.95295e+06,0,0,0,262,4130
1.95296e+06,0,0,0,134,4258
1.95296e+06,0,0,0,6,4386
1.95299e+06,0,0,0,262,4130
1.95299e+06,0,0,0,134,4258
1.95299e+06,0,0,0,6,4386
1.953e+06,0,0,0,262,4130
1.953e+06,0,0,0,134,4258
1.953e+06,0,0,0,6,4386
1.95345e+06,0,0,0,134,4258
1.95345e+06,0,0,0,6,4386
1.96199e+06,0,0,0,134,4258
1.962e+06,0,0,0,6,4386
1.96295e+06,0,0,0,134,4258
1.96295e+06,0,0,0,6,4386
1.96325e+06,0,0,0,134,4258
1.96329e+06,0,0,0,262,4130
1.9633e+06,0,0,0,390,4002
1.96343e+06,0,0,0,646,3746
1.96345e+06,0,0,0,774,3618
1.96348e+06,0,0,0,902,3490
1.96349e+06,0,0,0,100,4292
1.9635e+06,0,0,0,228,4164
1.96351e+06,0,0,0,356,4036
1.96351e+06,0,0,0,484,3908
1.96352e+06,0,0,0,612,3780
1.96354e+06,0,0,0,740,3652
1.96354e+06,0,0,0,868,3524
1.96356e+06,0,0,0,996,3396
1.96361e+06,0,0,0,1252,3140
1.96361e+06,0,0,0,228,4164
1.96362e+06,0,0,0,484,3908
1.96362e+06,0,0,0,612,3780
1.96364e+06,0,0,0,868,3524
1.96379e+06,0,0,0,996,3396
1.96384e+06,0,0,0,1124,3268
1.96414e+06,0,0,0,1380,3012
1.96428e+06,0,0,0,1508,2884
1.96743e+06,0,0,0,1636,2756
1.96888e+06,0,0,0,2438,1954
1.97011e+06,0,0,0,3462,930
1.97021e+06,0,0,0,3590,802
1.97053e+06,0,0,0,4392,0
1.97054e+06,0,0,0,296,4096
1.97054e+06,0,0,0,168,4224
1.97054e+06,0,0,0,40,4352
1.98088e+06,0,0,0,168,4224
1.98088e+06,0,0,0,40,4352
1.9814e+06,0,0,0,168,4224
1.9814e+06,0,0,0,40,4352
1.99142e+06,0,0,0,168,4224
1.99191e+06,0,0,0,296,4096
1.99219e+06,0,0,0,4392,0
1.99219e+06,0,0,0,3368,1024
1.99219e+06,0,0,0,3112,1280
1.99219e+06,0,0,0,2810,1582
1.99219e+06,0,0,0,2008,2384
1.99219e+06,0,0,0,1206,3186
1.99219e+06,0,0,0,404,3988
1.99219e+06,0,0,0,14,4378
1.9995e+06,0,0,0,316,4076
2.00272e+06,0,0,0,1340,3052
2.00272e+06,0,0,0,828,3564
2.00272e+06,0,0,0,587,3805
2.00272e+06,0,0,0,459,3933
2.00272e+06,0,0,0,331,4061
2.00272e+06,0,0,0,203,4189
2.00272e+06,0,0,0,75,4317
2.01174e+06,0,0,0,203,4189
2.01329e+06,0,0,0,331,4061
2.0133e+06,0,0,0,459,3933
2.01365e+06,0,0,0,587,3805
2.01392e+06,0,0,0,843,3549
2.01503e+06,0,0,0,1355,3037
2.01503e+06,0,0,0,75,4317
2.02467e+06,0,0,0,465,3927
2.02468e+06,0,0,0,81,4311
2.05722e+06,0,0,0,465,3927
2.05723e+06,0,0,0,337,4055
2.05723e+06,0,0,0,209,4183
2.05723e+06,0,0,0,81,4311
2.06755e+06,0,0,0,209,4183
2.06755e+06,0,0,0,81,4311
2.06807e+06,0,0,0,209,4183
2.06807e+06,0,0,0,81,4311
2.06812e+06,0,0,0,209,4183
2.06812e+06,0,0,0,81,4311
2.07467e+06,0,0,0,209,4183
2.07486e+06,0,0,0,337,4055
2.07537e+06,0,0,0,465,3927
2.07545e+06,0,0,0,1267,3125
2.07545e+06,0,0,0,465,3927
2.07546e+06,0,0,0,1267,3125
2.07547e+06,0,0,0,465,3927
2.07547e+06,0,0,0,15,4377
2.07553e+06,0,0,0,817,3575
2.07553e+06,0,0,0,305,4087
2.07553e+06,0,0,0,177,4215
2.07553e+06,0,0,0,49,4343
2.08272e+06,0,0,0,499,3893
2.08274e+06,0,0,0,1301,3091
2.08275e+06,0,0,0,2103,2289
2.08282e+06,0,0,0,2231,2161
2.08367e+06,0,0,0,2359,2033
2.08452e+06,0,0,0,2871,1521
2.08546e+06,0,0,0,4151,241
2.08547e+06,0,0,0,55,4337
2.11757e+06,0,0,0,4151,241
2.11758e+06,0,0,0,3127,1265
2.11758e+06,0,0,0,2103,2289
2.11758e+06,0,0,0,1079,3313
2.11758e+06,0,0,0,55,4337
2.13962e+06,0,0,0,296,4096
2.13962e+06,0,0,0,168,4224
2.13962e+06,0,0,0,40,4352
2.15057e+06,0,0,0,168,4224
2.15057e+06,0,0,0,296,4096
2.15057e+06,0,0,0,40,4352
2.16367e+06,0,0,0,296,4096
2.16367e+06,0,0,0,40,4352
2.18542e+06,0,0,0,296,4096
2.18542e+06,0,0,0,168,4224
2.18542e+06,0,0,0,40,4352
2.196e+06,0,0,0,168,4224
2.19607e+06,0,0,0,296,4096
2.20028e+06,0,0,0,1320,3072
2.20029e+06,0,0,0,296,4096
2.20029e+06,0,0,0,168,4224
2.20029e+06,0,0,0,40,4352
2.20059e+06,0,0,0,1064,3328
2.2006e+06,0,0,0,820,3572
2.2006e+06,0,0,0,692,3700
2.2006e+06,0,0,0,564,3828
2.2013e+06,0,0,0,1588,2804
2.2013e+06,0,0,0,564,3828
2.2013e+06,0,0,0,52,4340
2.20303e+06,0,0,0,1076,3316
2.20303e+06,0,0,0,564,3828
2.20303e+06,0,0,0,52,4340
2.21085e+06,0,0,0,180,4212
2.21086e+06,0,0,0,308,4084
2.2114e+06,0,0,0,436,3956
2.2114e+06,0,0,0,564,3828
2.21141e+06,0,0,0,52,4340
2.21147e+06,0,0,0,296,4096
2.21147e+06,0,0,0,40,4352
2.21373e+06,0,0,0,552,3840
2.21373e+06,0,0,0,168,4224
2.21373e+06,0,0,0,40,4352
2.22168e+06,0,0,0,1064,3328
2.22168e+06,0,0,0,936,3456
2.22168e+06,0,0,0,680,3712
2.22168e+06,0,0,0,296,4096
2.22168e+06,0,0,0,168,4224
2.22168e+06,0,0,0,40,4352
2.22435e+06,0,0,0,552,3840
2.22436e+06,0,0,0,168,4224
2.22445e+06,0,0,0,424,3968
2.22445e+06,0,0,0,40,4352
2.22455e+06,0,0,0,168,4224
2.22865e+06,0,0,0,680,3712
2.22865e+06,0,0,0,296,4096
2.22865e+06,0,0,0,168,4224
2.22865e+06,0,0,0,40,4352
2.23205e+06,0,0,0,168,4224
2.23205e+06,0,0,0,40,4352
2.23234e+06,0,0,0,168,4224
2.23252e+06,0,0,0,296,4096
2.23253e+06,0,0,0,40,4352
2.23375e+06,0,0,0,552,3840
2.23375e+06,0,0,0,424,3968
2.23375e+06,0,0,0,219,4173
2.23375e+06,0,0,0,91,4301
2.23923e+06,0,0,0,219,4173
2.23928e+06,0,0,0,424,3968
2.23929e+06,0,0,0,552,3840
2.24265e+06,0,0,0,680,3712
2.24267e+06,0,0,0,808,3584
2.24267e+06,0,0,0,6,4386
2.24339e+06,0,0,0,262,4130
2.24411e+06,0,0,0,390,4002
2.24417e+06,0,0,0,774,3618
2.24418e+06,0,0,0,262,4130
2.24418e+06,0,0,0,134,4258
2.24418e+06,0,0,0,6,4386
2.24932e+06,0,0,0,262,4130
2.24932e+06,0,0,0,134,4258
2.24932e+06,0,0,0,6,4386
2.2541e+06,0,0,0,390,4002
2.2541e+06,0,0,0,262,4130
2.2541e+06,0,0,0,134,4258
2.25416e+06,0,0,0,518,3874
2.25416e+06,0,0,0,262,4130
2.25416e+06,0,0,0,6,4386
2.25467e+06,0,0,0,134,4258
2.25474e+06,0,0,0,518,3874
2.25475e+06,0,0,0,262,4130
2.25475e+06,0,0,0,6,4386
2.25504e+06,0,0,0,134,4258
2.25504e+06,0,0,0,6,4386
2.25904e+06,0,0,0,390,4002
2.25904e+06,0,0,0,262,4130
2.25904e+06,0,0,0,134,4258
2.26015e+06,0,0,0,262,4130
2.26022e+06,0,0,0,390,4002
2.26459e+06,0,0,0,518,3874
2.26465e+06,0,0,0,646,3746
2.26523e+06,0,0,0,774,3618
2.26557e+06,0,0,0,902,3490
2.26577e+06,0,0,0,1414,2978
2.26577e+06,0,0,0,214,4178
2.26577e+06,0,0,0,86,4306
2.26934e+06,0,0,0,214,4178
2.26934e+06,0,0,0,86,4306
2.27581e+06,0,0,0,342,4050
2.27591e+06,0,0,0,598,3794
2.27634e+06,0,0,0,726,3666
2.27638e+06,0,0,0,982,3410
2.27646e+06,0,0,0,1110,3282
2.27646e+06,0,0,0,1366,3026
2.27647e+06,0,0,0,166,4226
2.28378e+06,0,0,0,1190,3202
2.28378e+06,0,0,0,853,3539
2.28378e+06,0,0,0,597,3795
2.28378e+06,0,0,0,213,4179
2.28378e+06,0,0,0,85,4307
2.29464e+06,0,0,0,213,4179
2.29465e+06,0,0,0,85,4307
2.30544e+06,0,0,0,341,4051
2.30545e+06,0,0,0,678,3714
2.30545e+06,0,0,0,228,4164
2.30549e+06,0,0,0,356,4036
2.30549e+06,0,0,0,1556,2836
2.30549e+06,0,0,0,1315,3077
2.30549e+06,0,0,0,1187,3205
2.30549e+06,0,0,0,931,3461
2.30549e+06,0,0,0,803,3589
2.30549e+06,0,0,0,675,3717
2.30549e+06,0,0,0,547,3845
2.30549e+06,0,0,0,419,3973
2.30549e+06,0,0,0,163,4229
2.30549e+06,0,0,0,35,4357
2.31386e+06,0,0,0,163,4229
2.31416e+06,0,0,0,547,3845
2.31416e+06,0,0,0,291,4101
2.31585e+06,0,0,0,419,3973
2.31585e+06,0,0,0,35,4357
2.31606e+06,0,0,0,163,4229
2.31607e+06,0,0,0,35,4357
2.31608e+06,0,0,0,163,4229
2.31608e+06,0,0,0,35,4357
2.31611e+06,0,0,0,163,4229
2.31611e+06,0,0,0,35,4357
2.31627e+06,0,0,0,1235,3157
2.31627e+06,0,0,0,1107,3285
2.31627e+06,0,0,0,851,3541
2.31627e+06,0,0,0,723,3669
2.31627e+06,0,0,0,595,3797
2.31627e+06,0,0,0,467,3925
2.31627e+06,0,0,0,83,4309
2.31639e+06,0,0,0,211,4181
2.31814e+06,0,0,0,467,3925
2.31814e+06,0,0,0,83,4309
2.31989e+06,0,0,0,533,3859
2.31989e+06,0,0,0,405,3987
2.31989e+06,0,0,0,149,4243
2.31989e+06,0,0,0,21,4371
2.32146e+06,0,0,0,823,3569
2.32636e+06,0,0,0,1079,3313
2.32654e+06,0,0,0,1207,3185
2.32661e+06,0,0,0,1335,3057
2.32663e+06,0,0,0,1463,2929
2.32681e+06,0,0,0,1591,2801
2.32682e+06,0,0,0,1719,2673
2.32682e+06,0,0,0,1847,2545
2.32691e+06,0,0,0,1975,2417
2.32694e+06,0,0,0,2103,2289
2.32694e+06,0,0,0,55,4337
2.32711e+06,0,0,0,183,4209
2.3272e+06,0,0,0,439,3953
2.3272e+06,0,0,0,183,4209
2.33241e+06,0,0,0,439,3953
2.33242e+06,0,0,0,183,4209
2.33242e+06,0,0,0,55,4337
2.33253e+06,0,0,0,2103,2289
2.33253e+06,0,0,0,1975,2417
2.33253e+06,0,0,0,1847,2545
2.33253e+06,0,0,0,1719,2673
2.33253e+06,0,0,0,1591,2801
2.33253e+06,0,0,0,1463,2929
2.33253e+06,0,0,0,1335,3057
2.33253e+06,0,0,0,1207,3185
2.33253e+06,0,0,0,1079,3313
2.33253e+06,0,0,0,951,3441
2.33253e+06,0,0,0,823,3569
2.33253e+06,0,0,0,439,3953
2.33253e+06,0,0,0,311,4081
2.33253e+06,0,0,0,55,4337
2.33559e+06,0,0,0,311,4081
2.33559e+06,0,0,0,55,4337
2.34002e+06,0,0,0,311,4081
2.34118e+06,0,0,0,567,3825
2.34262e+06,0,0,0,823,3569
2.34289e+06,0,0,0,951,3441
2.34295e+06,0,0,0,1079,3313
2.34296e+06,0,0,0,55,4337
2.343e+06,0,0,0,183,4209
2.34309e+06,0,0,0,311,4081
2.34319e+06,0,0,0,439,3953
2.34336e+06,0,0,0,567,3825
2.34338e+06,0,0,0,695,3697
2.34339e+06,0,0,0,823,3569
2.34339e+06,0,0,0,951,3441
2.34343e+06,0,0,0,1079,3313
2.34343e+06,0,0,0,1207,3185
2.34343e+06,0,0,0,183,4209
2.34344e+06,0,0,0,311,4081
2.34598e+06,0,0,0,695,3697
2.34849e+06,0,0,0,1079,3313
2.34849e+06,0,0,0,55,4337
2.34872e+06,0,0,0,439,3953
2.35022e+06,0,0,0,1463,2929
2.35022e+06,0,0,0,183,4209
2.35077e+06,0,0,0,1207,3185
2.35077e+06,0,0,0,892,3500
2.35077e+06,0,0,0,764,3628
2.35077e+06,0,0,0,636,3756
2.3541e+06,0,0,0,892,3500
2.35573e+06,0,0,0,1916,2476
2.35574e+06,0,0,0,892,3500
2.35574e+06,0,0,0,764,3628
2.35574e+06,0,0,0,508,3884
2.35574e+06,0,0,0,252,4140
2.35574e+06,0,0,0,11,4381
2.36139e+06,0,0,0,139,4253
2.36164e+06,0,0,0,454,3938
2.36164e+06,0,0,0,198,4194
2.36169e+06,0,0,0,326,4066
2.36169e+06,0,0,0,70,4322
2.3631e+06,0,0,0,454,3938
2.3631e+06,0,0,0,198,4194
2.36635e+06,0,0,0,326,4066
2.36635e+06,0,0,0,70,4322
2.36638e+06,0,0,0,311,4081
2.36638e+06,0,0,0,55,4337
2.3666e+06,0,0,0,1079,3313
2.3666e+06,0,0,0,823,3569
2.3666e+06,0,0,0,567,3825
2.3666e+06,0,0,0,311,4081
2.3666e+06,0,0,0,55,4337
2.37559e+06,0,0,0,296,4096
2.37559e+06,0,0,0,40,4352
2.37741e+06,0,0,0,296,4096
2.37742e+06,0,0,0,40,4352
2.37742e+06,0,0,0,296,4096
2.37743e+06,0,0,0,40,4352
2.37814e+06,0,0,0,296,4096
2.37814e+06,0,0,0,40,4352
2.38141e+06,0,0,0,296,4096
2.38146e+06,0,0,0,552,3840
2.38146e+06,0,0,0,40,4352
2.38167e+06,0,0,0,296,4096
2.38167e+06,0,0,0,552,3840
2.38167e+06,0,0,0,808,3584
2.38168e+06,0,0,0,6,4386
2.38168e+06,0,0,0,262,4130
2.38333e+06,0,0,0,518,3874
2.38342e+06,0,0,0,774,3618
2.38627e+06,0,0,0,2054,2338
2.38628e+06,0,0,0,1252,3140
2.38628e+06,0,0,0,450,3942
2.38628e+06,0,0,0,322,4070
2.38628e+06,0,0,0,66,4326
2.39067e+06,0,0,0,322,4070
2.39152e+06,0,0,0,578,3814
2.39167e+06,0,0,0,706,3686
2.39248e+06,0,0,0,962,3430
2.39249e+06,0,0,0,160,4232
2.39249e+06,0,0,0,416,3976
2.39249e+06,0,0,0,32,4360
2.39322e+06,0,0,0,288,4104
2.39323e+06,0,0,0,160,4232
2.39323e+06,0,0,0,32,4360
2.4038e+06,0,0,0,160,4232
2.4038e+06,0,0,0,32,4360
2.40409e+06,0,0,0,160,4232
2.40409e+06,0,0,0,32,4360
2.41401e+06,0,0,0,544,3848
2.41401e+06,0,0,0,288,4104
2.41401e+06,0,0,0,32,4360
2.41464e+06,0,0,0,160,4232
2.41464e+06,0,0,0,32,4360
2.41495e+06,0,0,0,160,4232
2.41495e+06,0,0,0,32,4360
2.42246e+06,0,0,0,160,4232
2.42279e+06,0,0,0,416,3976
2.42304e+06,0,0,0,672,3720
2.42318e+06,0,0,0,800,3592
2.42324e+06,0,0,0,1184,3208
2.42325e+06,0,0,0,382,4010
2.42325e+06,0,0,0,126,4266
2.43299e+06,0,0,0,382,4010
2.433e+06,0,0,0,126,4266
2.4429e+06,0,0,0,382,4010
2.4429e+06,0,0,0,126,4266
2.45361e+06,0,0,0,382,4010
2.45361e+06,0,0,0,126,4266
2.46447e+06,0,0,0,382,4010
2.46819e+06,0,0,0,1184,3208
2.46819e+06,0,0,0,672,3720
2.46968e+06,0,0,0,1474,2918
2.46969e+06,0,0,0,450,3942
2.46969e+06,0,0,0,194,4198
2.46972e+06,0,0,0,996,3396
2.46972e+06,0,0,0,484,3908
2.47506e+06,0,0,0,740,3652
2.47526e+06,0,0,0,1252,3140
2.47583e+06,0,0,0,2054,2338
2.47583e+06,0,0,0,6,4386
2.47937e+06,0,0,0,1030,3362
2.47938e+06,0,0,0,774,3618
2.47938e+06,0,0,0,518,3874
2.47938e+06,0,0,0,262,4130
2.47938e+06,0,0,0,21,4371
2.4854e+06,0,0,0,533,3859
2.4854e+06,0,0,0,277,4115
2.4854e+06,0,0,0,149,4243
2.48895e+06,0,0,0,405,3987
2.48895e+06,0,0,0,149,4243
2.48895e+06,0,0,0,21,4371
2.49024e+06,0,0,0,277,4115
2.49025e+06,0,0,0,149,4243
2.49025e+06,0,0,0,21,4371
2.49027e+06,0,0,0,277,4115
2.49028e+06,0,0,0,21,4371
2.49105e+06,0,0,0,2069,2323
2.49105e+06,0,0,0,1813,2579
2.49105e+06,0,0,0,1685,2707
2.49105e+06,0,0,0,1429,2963
2.49105e+06,0,0,0,1173,3219
2.49105e+06,0,0,0,917,3475
2.49105e+06,0,0,0,661,3731
2.49105e+06,0,0,0,149,4243
2.49105e+06,0,0,0,21,4371
2.49625e+06,0,0,0,149,4243
2.49626e+06,0,0,0,21,4371
2.49709e+06,0,0,0,277,4115
2.49709e+06,0,0,0,21,4371
2.49832e+06,0,0,0,533,3859
2.49832e+06,0,0,0,277,4115
2.49832e+06,0,0,0,149,4243
2.49832e+06,0,0,0,21,4371
2.49976e+06,0,0,0,149,4243
2.49977e+06,0,0,0,21,4371
2.50104e+06,0,0,0,149,4243
2.50104e+06,0,0,0,21,4371
2.50105e+06,0,0,0,149,4243
2.50105e+06,0,0,0,21,4371
2.5018e+06,0,0,0,823,3569
2.5018e+06,0,0,0,695,3697
2.5018e+06,0,0,0,567,3825
2.5018e+06,0,0,0,439,3953
2.5018e+06,0,0,0,311,4081
2.5018e+06,0,0,0,183,4209
2.5018e+06,0,0,0,55,4337
2.50188e+06,0,0,0,183,4209
2.50189e+06,0,0,0,55,4337
2.5019e+06,0,0,0,183,4209
2.5019e+06,0,0,0,55,4337
2.50406e+06,0,0,0,311,4081
2.50407e+06,0,0,0,183,4209
2.507e+06,0,0,0,439,3953
2.50701e+06,0,0,0,183,4209
2.50701e+06,0,0,0,55,4337
2.50706e+06,0,0,0,183,4209
2.50707e+06,0,0,0,55,4337
2.50916e+06,0,0,0,183,4209
2.50916e+06,0,0,0,55,4337
2.50917e+06,0,0,0,183,4209
2.50917e+06,0,0,0,55,4337
2.51064e+06,0,0,0,183,4209
2.51065e+06,0,0,0,55,4337
2.5119e+06,0,0,0,183,4209
2.5119e+06,0,0,0,55,4337
2.51192e+06,0,0,0,183,4209
2.51193e+06,0,0,0,55,4337
2.51196e+06,0,0,0,311,4081
2.51197e+06,0,0,0,183,4209
2.51197e+06,0,0,0,55,4337
2.51227e+06,0,0,0,311,4081
2.51227e+06,0,0,0,183,4209
2.51227e+06,0,0,0,55,4337
2.51262e+06,0,0,0,183,4209
2.51263e+06,0,0,0,55,4337
2.51264e+06,0,0,0,183,4209
2.51264e+06,0,0,0,311,4081
2.51264e+06,0,0,0,55,4337
2.51265e+06,0,0,0,183,4209
2.51265e+06,0,0,0,55,4337
2.51266e+06,0,0,0,183,4209
2.51266e+06,0,0,0,311,4081
2.5127e+06,0,0,0,567,3825
2.5127e+06,0,0,0,55,4337
2.51271e+06,0,0,0,183,4209
2.51271e+06,0,0,0,55,4337
2.51272e+06,0,0,0,311,4081
2.51272e+06,0,0,0,567,3825
2.51272e+06,0,0,0,823,3569
2.51273e+06,0,0,0,567,3825
2.51273e+06,0,0,0,55,4337
2.51273e+06,0,0,0,183,4209
2.51492e+06,0,0,0,311,4081
2.51493e+06,0,0,0,55,4337
2.51782e+06,0,0,0,183,4209
2.51788e+06,0,0,0,311,4081
2.51788e+06,0,0,0,55,4337
2.51864e+06,0,0,0,311,4081
2.51864e+06,0,0,0,55,4337
2.51876e+06,0,0,0,311,4081
2.51876e+06,0,0,0,55,4337
2.52006e+06,0,0,0,183,4209
2.5201e+06,0,0,0,311,4081
2.5201e+06,0,0,0,55,4337
2.52101e+06,0,0,0,311,4081
2.52101e+06,0,0,0,55,4337
2.52159e+06,0,0,0,183,4209
2.5228e+06,0,0,0,311,4081
2.52281e+06,0,0,0,55,4337
2.52283e+06,0,0,0,183,4209
2.52287e+06,0,0,0,311,4081
2.52287e+06,0,0,0,55,4337
2.52295e+06,0,0,0,183,4209
2.52298e+06,0,0,0,311,4081
2.52298e+06,0,0,0,55,4337
2.52314e+06,0,0,0,567,3825
2.52315e+06,0,0,0,311,4081
2.52315e+06,0,0,0,183,4209
2.52315e+06,0,0,0,39,4353
2.52318e+06,0,0,0,167,4225
2.52318e+06,0,0,0,39,4353
2.5232e+06,0,0,0,167,4225
2.52353e+06,0,0,0,295,4097
2.52353e+06,0,0,0,52,4340
2.52357e+06,0,0,0,564,3828
2.52357e+06,0,0,0,308,4084
2.52357e+06,0,0,0,52,4340
2.52363e+06,0,0,0,180,4212
2.52363e+06,0,0,0,52,4340
2.52424e+06,0,0,0,308,4084
2.52425e+06,0,0,0,180,4212
2.52425e+06,0,0,0,52,4340
2.52657e+06,0,0,0,308,4084
2.52658e+06,0,0,0,180,4212
2.52729e+06,0,0,0,436,3956
2.52729e+06,0,0,0,180,4212
2.52962e+06,0,0,0,436,3956
2.52963e+06,0,0,0,180,4212
2.52987e+06,0,0,0,436,3956
2.52987e+06,0,0,0,52,4340
2.53095e+06,0,0,0,308,4084
2.53095e+06,0,0,0,67,4325
2.53183e+06,0,0,0,323,4069
2.53183e+06,0,0,0,67,4325
2.53215e+06,0,0,0,323,4069
2.53215e+06,0,0,0,67,4325
2.53363e+06,0,0,0,323,4069
2.53363e+06,0,0,0,195,4197
2.53363e+06,0,0,0,67,4325
2.53372e+06,0,0,0,323,4069
2.53372e+06,0,0,0,80,4312
2.53393e+06,0,0,0,208,4184
2.53399e+06,0,0,0,336,4056
2.53399e+06,0,0,0,80,4312
2.534e+06,0,0,0,224,4168
2.534e+06,0,0,0,64,4328
2.53401e+06,0,0,0,320,4072
2.53401e+06,0,0,0,64,4328
2.53438e+06,0,0,0,307,4085
2.53439e+06,0,0,0,179,4213
2.53447e+06,0,0,0,307,4085
2.53508e+06,0,0,0,435,3957
2.53508e+06,0,0,0,51,4341
2.5351e+06,0,0,0,179,4213
2.5351e+06,0,0,0,51,4341
2.5374e+06,0,0,0,179,4213
2.54047e+06,0,0,0,435,3957
2.54052e+06,0,0,0,691,3701
2.5419e+06,0,0,0,819,3573
2.54324e+06,0,0,0,1075,3317
2.54366e+06,0,0,0,1331,3061
2.54366e+06,0,0,0,11,4381
2.54443e+06,0,0,0,139,4253
2.54443e+06,0,0,0,267,4125
2.54454e+06,0,0,0,510,3882
2.54484e+06,0,0,0,670,3722
2.54525e+06,0,0,0,798,3594
2.547e+06,0,0,0,1054,3338
2.54897e+06,0,0,0,1310,3082
2.55135e+06,0,0,0,1566,2826
2.55135e+06,0,0,0,246,4146
2.55135e+06,0,0,0,118,4274
2.55346e+06,0,0,0,374,4018
2.55879e+06,0,0,0,502,3890
2.55991e+06,0,0,0,1822,2570
2.55991e+06,0,0,0,502,3890
2.55991e+06,0,0,0,374,4018
2.56239e+06,0,0,0,758,3634
2.56535e+06,0,0,0,1142,3250
2.56676e+06,0,0,0,1270,3122
2.56765e+06,0,0,0,2590,1802
2.56765e+06,0,0,0,1270,3122
2.56765e+06,0,0,0,1269,3123
2.57488e+06,0,0,0,1270,3122
2.57617e+06,0,0,0,2590,1802
2.57617e+06,0,0,0,1270,3122
2.57617e+06,0,0,0,1014,3378
2.57617e+06,0,0,0,758,3634
2.57617e+06,0,0,0,502,3890
2.57617e+06,0,0,0,246,4146
2.58394e+06,0,0,0,1566,2826
2.58394e+06,0,0,0,1310,3082
2.58394e+06,0,0,0,1054,3338
2.58394e+06,0,0,0,798,3594
2.58394e+06,0,0,0,542,3850
2.58394e+06,0,0,0,286,4106
2.58394e+06,0,0,0,30,4362
2.58579e+06,0,0,0,286,4106
2.59248e+06,0,0,0,1606,2786
2.59249e+06,0,0,0,1094,3298
2.59249e+06,0,0,0,582,3810
2.59249e+06,0,0,0,70,4322
2.59606e+06,0,0,0,326,4066
2.5961e+06,0,0,0,582,3810
2.5961e+06,0,0,0,70,4322
2.5961e+06,0,0,0,69,4323
2.59611e+06,0,0,0,325,4067
2.6019e+06,0,0,0,326,4066
2.60383e+06,0,0,0,582,3810
2.60386e+06,0,0,0,838,3554
2.60389e+06,0,0,0,1094,3298
2.6039e+06,0,0,0,1350,3042
2.6039e+06,0,0,0,70,4322
2.6039e+06,0,0,0,326,4066
2.60557e+06,0,0,0,838,3554
2.6056e+06,0,0,0,1350,3042
2.6056e+06,0,0,0,70,4322
2.60561e+06,0,0,0,582,3810
2.60561e+06,0,0,0,198,4194
2.60561e+06,0,0,0,70,4322
2.60562e+06,0,0,0,326,4066
2.60562e+06,0,0,0,82,4310
2.60906e+06,0,0,0,323,4069
2.60907e+06,0,0,0,67,4325
2.60927e+06,0,0,0,579,3813
2.60927e+06,0,0,0,323,4069
2.60927e+06,0,0,0,195,4197
2.60927e+06,0,0,0,67,4325
2.61619e+06,0,0,0,195,4197
2.61645e+06,0,0,0,439,3953
2.61979e+06,0,0,0,567,3825
2.61984e+06,0,0,0,695,3697
2.62022e+06,0,0,0,951,3441
2.62148e+06,0,0,0,1207,3185
2.62593e+06,0,0,0,2487,1905
2.62594e+06,0,0,0,1207,3185
2.63613e+06,0,0,0,1591,2801
2.63613e+06,0,0,0,311,4081
2.63619e+06,0,0,0,1591,2801
2.63619e+06,0,0,0,1207,3185
2.63619e+06,0,0,0,823,3569
2.63619e+06,0,0,0,695,3697
2.63619e+06,0,0,0,567,3825
2.63619e+06,0,0,0,439,3953
2.63619e+06,0,0,0,311,4081
2.63619e+06,0,0,0,183,4209
2.63619e+06,0,0,0,55,4337
2.6415e+06,0,0,0,1335,3057
2.6415e+06,0,0,0,1207,3185
2.6415e+06,0,0,0,1079,3313
2.6415e+06,0,0,0,951,3441
2.6415e+06,0,0,0,823,3569
2.6415e+06,0,0,0,695,3697
2.6415e+06,0,0,0,567,3825
2.6415e+06,0,0,0,311,4081
2.6415e+06,0,0,0,55,4337
2.64655e+06,0,0,0,183,4209
2.64655e+06,0,0,0,311,4081
2.64656e+06,0,0,0,55,4337
2.64657e+06,0,0,0,183,4209
2.6467e+06,0,0,0,311,4081
2.64671e+06,0,0,0,55,4337
2.64671e+06,0,0,0,183,4209
2.64671e+06,0,0,0,11,4381
2.64672e+06,0,0,0,139,4253
2.65172e+06,0,0,0,311,4081
2.65204e+06,0,0,0,439,3953
2.65205e+06,0,0,0,55,4337
2.65206e+06,0,0,0,183,4209
2.65207e+06,0,0,0,55,4337
2.65207e+06,0,0,0,183,4209
2.65207e+06,0,0,0,55,4337
2.65208e+06,0,0,0,183,4209
2.65208e+06,0,0,0,55,4337
2.6521e+06,0,0,0,183,4209
2.65223e+06,0,0,0,311,4081
2.65852e+06,0,0,0,439,3953
2.65855e+06,0,0,0,567,3825
2.65862e+06,0,0,0,695,3697
2.65865e+06,0,0,0,951,3441
2.65865e+06,0,0,0,149,4243
2.65865e+06,0,0,0,21,4371
2.65919e+06,0,0,0,277,4115
2.6592e+06,0,0,0,149,4243
2.6592e+06,0,0,0,21,4371
2.66031e+06,0,0,0,1301,3091
2.66031e+06,0,0,0,1173,3219
2.66031e+06,0,0,0,1045,3347
2.66031e+06,0,0,0,917,3475
2.66031e+06,0,0,0,661,3731
2.66031e+06,0,0,0,405,3987
2.66031e+06,0,0,0,162,4230
2.66069e+06,0,0,0,403,3989
2.66228e+06,0,0,0,659,3733
2.66229e+06,0,0,0,74,4318
2.66239e+06,0,0,0,330,4062
2.66669e+06,0,0,0,714,3678
2.66669e+06,0,0,0,192,4200
2.66669e+06,0,0,0,32,4360
2.66867e+06,0,0,0,416,3976
2.66868e+06,0,0,0,160,4232
2.66923e+06,0,0,0,288,4104
2.66923e+06,0,0,0,32,4360
2.66948e+06,0,0,0,160,4232
2.66974e+06,0,0,0,288,4104
2.66975e+06,0,0,0,32,4360
2.67087e+06,0,0,0,160,4232
2.67087e+06,0,0,0,288,4104
2.67088e+06,0,0,0,32,4360
2.67119e+06,0,0,0,160,4232
2.67121e+06,0,0,0,403,3989
2.67122e+06,0,0,0,147,4245
2.67353e+06,0,0,0,403,3989
2.67353e+06,0,0,0,147,4245
2.67448e+06,0,0,0,403,3989
2.67449e+06,0,0,0,147,4245
2.67761e+06,0,0,0,307,4085
2.67762e+06,0,0,0,51,4341
2.68072e+06,0,0,0,307,4085
2.68072e+06,0,0,0,179,4213
2.68072e+06,0,0,0,51,4341
2.6828e+06,0,0,0,307,4085
2.6828e+06,0,0,0,51,4341
2.68291e+06,0,0,0,307,4085
2.68292e+06,0,0,0,51,4341
2.68322e+06,0,0,0,435,3957
2.68322e+06,0,0,0,179,4213
2.68323e+06,0,0,0,435,3957
2.68323e+06,0,0,0,179,4213
2.68323e+06,0,0,0,51,4341
2.68492e+06,0,0,0,307,4085
2.68493e+06,0,0,0,179,4213
2.68493e+06,0,0,0,51,4341
2.68754e+06,0,0,0,307,4085
2.68754e+06,0,0,0,179,4213
2.68754e+06,0,0,0,51,4341
2.68861e+06,0,0,0,307,4085
2.68861e+06,0,0,0,179,4213
2.68861e+06,0,0,0,51,4341
2.69127e+06,0,0,0,179,4213
2.69128e+06,0,0,0,307,4085
2.69128e+06,0,0,0,66,4326
2.69249e+06,0,0,0,322,4070
2.69358e+06,0,0,0,450,3942
2.69474e+06,0,0,0,1035,3357
2.69475e+06,0,0,0,523,3869
2.69475e+06,0,0,0,395,3997
2.69475e+06,0,0,0,267,4125
2.69579e+06,0,0,0,395,3997
2.69582e+06,0,0,0,523,3869
2.69583e+06,0,0,0,11,4381
2.69839e+06,0,0,0,139,4253
2.69846e+06,0,0,0,267,4125
2.69847e+06,0,0,0,11,4381
2.69917e+06,0,0,0,533,3859
2.69917e+06,0,0,0,405,3987
2.69917e+06,0,0,0,149,4243
2.69917e+06,0,0,0,21,4371
2.69946e+06,0,0,0,149,4243
2.69953e+06,0,0,0,277,4115
2.69953e+06,0,0,0,36,4356
2.70444e+06,0,0,0,292,4100
2.70444e+06,0,0,0,36,4356
2.70458e+06,0,0,0,292,4100
2.70488e+06,0,0,0,548,3844
2.70488e+06,0,0,0,36,4356
2.70489e+06,0,0,0,292,4100
2.70559e+06,0,0,0,420,3972
2.70561e+06,0,0,0,548,3844
2.70561e+06,0,0,0,36,4356
2.70849e+06,0,0,0,277,4115
2.70973e+06,0,0,0,405,3987
2.70991e+06,0,0,0,533,3859
2.70992e+06,0,0,0,21,4371
2.71516e+06,0,0,0,533,3859
2.71516e+06,0,0,0,21,4371
2.71575e+06,0,0,0,533,3859
2.71576e+06,0,0,0,405,3987
2.71576e+06,0,0,0,277,4115
2.718e+06,0,0,0,789,3603
2.71874e+06,0,0,0,1301,3091
2.71874e+06,0,0,0,21,4371
2.72009e+06,0,0,0,277,4115
2.72086e+06,0,0,0,533,3859
2.72307e+06,0,0,0,1045,3347
2.72527e+06,0,0,0,1301,3091
2.72527e+06,0,0,0,21,4371
2.7266e+06,0,0,0,149,4243
2.7266e+06,0,0,0,21,4371
2.72664e+06,0,0,0,149,4243
2.72664e+06,0,0,0,21,4371
2.72824e+06,0,0,0,533,3859
2.72824e+06,0,0,0,405,3987
2.72824e+06,0,0,0,277,4115
2.72824e+06,0,0,0,149,4243
2.72824e+06,0,0,0,21,4371
2.73722e+06,0,0,0,149,4243
2.73749e+06,0,0,0,277,4115
2.73907e+06,0,0,0,405,3987
2.73907e+06,0,0,0,533,3859
2.73909e+06,0,0,0,661,3731
2.7391e+06,0,0,0,789,3603
2.73921e+06,0,0,0,1591,2801
2.73921e+06,0,0,0,567,3825
2.73921e+06,0,0,0,407,3985
2.73921e+06,0,0,0,164,4228
2.73921e+06,0,0,0,36,4356
2.74955e+06,0,0,0,164,4228
2.74978e+06,0,0,0,1188,3204
2.74978e+06,0,0,0,947,3445
2.74978e+06,0,0,0,819,3573
2.74978e+06,0,0,0,476,3916
2.74978e+06,0,0,0,159,4233
2.75008e+06,0,0,0,402,3990
2.75008e+06,0,0,0,562,3830
2.75009e+06,0,0,0,112,4280
2.75151e+06,0,0,0,1392,3000
2.75152e+06,0,0,0,942,3450
2.75613e+06,0,0,0,1285,3107
2.75613e+06,0,0,0,261,4131
2.75955e+06,0,0,0,1541,2851
2.75955e+06,0,0,0,517,3875
2.75955e+06,0,0,0,389,4003
2.75955e+06,0,0,0,261,4131
2.75955e+06,0,0,0,133,4259
2.75955e+06,0,0,0,5,4387
2.76037e+06,0,0,0,133,4259
2.76037e+06,0,0,0,5,4387
2.76566e+06,0,0,0,133,4259
2.77029e+06,0,0,0,261,4131
2.77031e+06,0,0,0,389,4003
2.77038e+06,0,0,0,517,3875
2.77123e+06,0,0,0,645,3747
2.77144e+06,0,0,0,962,3430
2.77174e+06,0,0,0,1412,2980
2.77175e+06,0,0,0,388,4004
2.77279e+06,0,0,0,629,3763
2.77321e+06,0,0,0,1079,3313
2.77321e+06,0,0,0,55,4337
2.83869e+06,0,0,0,1079,3313
2.83869e+06,0,0,0,55,4337
2.84224e+06,0,0,0,1079,3313
2.84224e+06,0,0,0,823,3569
2.84224e+06,0,0,0,567,3825
2.84224e+06,0,0,0,311,4081
2.84224e+06,0,0,0,183,4209
2.84224e+06,0,0,0,55,4337
2.85284e+06,0,0,0,183,4209
2.85307e+06,0,0,0,311,4081
2.85546e+06,0,0,0,1335,3057
2.85546e+06,0,0,0,15,4377
2.85573e+06,0,0,0,1039,3353
2.85647e+06,0,0,0,1295,3097
2.85814e+06,0,0,0,1551,2841
2.85814e+06,0,0,0,231,4161
2.85814e+06,0,0,0,103,4289
2.86381e+06,0,0,0,359,4033
2.86523e+06,0,0,0,487,3905
2.86767e+06,0,0,0,1807,2585
2.86767e+06,0,0,0,487,3905
2.87062e+06,0,0,0,1807,2585
2.87062e+06,0,0,0,487,3905
2.87062e+06,0,0,0,359,4033
2.87793e+06,0,0,0,487,3905
2.87991e+06,0,0,0,1807,2585
2.87992e+06,0,0,0,487,3905
2.87992e+06,0,0,0,359,4033
2.87992e+06,0,0,0,199,4193
2.87992e+06,0,0,0,71,4321
2.88292e+06,0,0,0,1391,3001
2.89076e+06,0,0,0,1551,2841
2.89079e+06,0,0,0,1679,2713
2.8908e+06,0,0,0,1807,2585
2.89246e+06,0,0,0,3127,1265
2.89247e+06,0,0,0,1079,3313
2.89247e+06,0,0,0,695,3697
2.89247e+06,0,0,0,311,4081
2.89247e+06,0,0,0,55,4337
2.91334e+06,0,0,0,311,4081
2.92307e+06,0,0,0,1335,3057
2.92308e+06,0,0,0,951,3441
2.92308e+06,0,0,0,451,3941
2.9234e+06,0,0,0,835,3557
2.9234e+06,0,0,0,335,4057
2.92361e+06,0,0,0,719,3673
2.92361e+06,0,0,0,335,4057
2.92361e+06,0,0,0,79,4313
2.92788e+06,0,0,0,320,4072
2.92788e+06,0,0,0,192,4200
2.92788e+06,0,0,0,64,4328
2.93872e+06,0,0,0,192,4200
2.93874e+06,0,0,0,320,4072
2.93875e+06,0,0,0,64,4328
2.9417e+06,0,0,0,320,4072
2.9417e+06,0,0,0,64,4328
2.95319e+06,0,0,0,448,3944
2.9532e+06,0,0,0,320,4072
2.9532e+06,0,0,0,64,4328
2.95381e+06,0,0,0,564,3828
2.95408e+06,0,0,0,1064,3328
2.95409e+06,0,0,0,262,4130
2.95409e+06,0,0,0,6,4386
2.9542e+06,0,0,0,390,4002
2.9542e+06,0,0,0,262,4130
2.9542e+06,0,0,0,134,4258
2.9542e+06,0,0,0,6,4386
2.96043e+06,0,0,0,262,4130
2.96043e+06,0,0,0,134,4258
2.96043e+06,0,0,0,6,4386
2.96335e+06,0,0,0,262,4130
2.96335e+06,0,0,0,102,4290
2.96409e+06,0,0,0,230,4162
2.96409e+06,0,0,0,23,4369
2.96477e+06,0,0,0,151,4241
2.96477e+06,0,0,0,23,4369
2.96479e+06,0,0,0,151,4241
2.96479e+06,0,0,0,23,4369
2.96483e+06,0,0,0,151,4241
2.96484e+06,0,0,0,23,4369
2.96641e+06,0,0,0,279,4113
2.96641e+06,0,0,0,23,4369
2.97073e+06,0,0,0,151,4241
2.9713e+06,0,0,0,279,4113
2.97418e+06,0,0,0,439,3953
2.97493e+06,0,0,0,646,3746
2.97534e+06,0,0,0,774,3618
2.9756e+06,0,0,0,902,3490
2.9757e+06,0,0,0,1158,3234
2.97572e+06,0,0,0,1286,3106
2.97752e+06,0,0,0,1542,2850
2.97765e+06,0,0,0,3590,802
2.97765e+06,0,0,0,76,4316
2.9843e+06,0,0,0,3590,802
2.98431e+06,0,0,0,76,4316
2.99156e+06,0,0,0,3590,802
2.99156e+06,0,0,0,76,4316
2.9988e+06,0,0,0,3590,802
2.9988e+06,0,0,0,76,4316
3.00555e+06,0,0,0,3590,802
3.00555e+06,0,0,0,76,4316
3.01279e+06,0,0,0,3590,802
3.01279e+06,0,0,0,76,4316
3.02018e+06,0,0,0,3590,802
3.02019e+06,0,0,0,76,4316
3.02743e+06,0,0,0,3590,802
3.02743e+06,0,0,0,3206,1186
3.02743e+06,0,0,0,2182,2210
3.02743e+06,0,0,0,1615,2777
3.02743e+06,0,0,0,1327,3065
3.02743e+06,0,0,0,1086,3306
3.02743e+06,0,0,0,958,3434
3.02743e+06,0,0,0,830,3562
3.02743e+06,0,0,0,670,3722
3.02743e+06,0,0,0,490,3902
3.02743e+06,0,0,0,362,4030
3.02743e+06,0,0,0,234,4158
3.02743e+06,0,0,0,106,4286
3.03725e+06,0,0,0,234,4158
3.03726e+06,0,0,0,106,4286
3.03797e+06,0,0,0,234,4158
3.03797e+06,0,0,0,106,4286
3.03798e+06,0,0,0,234,4158
3.03799e+06,0,0,0,106,4286
3.03801e+06,0,0,0,234,4158
3.03801e+06,0,0,0,106,4286
3.03821e+06,0,0,0,234,4158
3.03822e+06,0,0,0,106,4286
3.03826e+06,0,0,0,286,4106
3.03826e+06,0,0,0,158,4234
3.03826e+06,0,0,0,30,4362
3.0383e+06,0,0,0,190,4202
3.03831e+06,0,0,0,62,4330
3.03834e+06,0,0,0,864,3528
3.03834e+06,0,0,0,736,3656
3.03834e+06,0,0,0,608,3784
3.03834e+06,0,0,0,480,3912
3.03834e+06,0,0,0,352,4040
3.03834e+06,0,0,0,224,4168
3.03834e+06,0,0,0,96,4296
3.04581e+06,0,0,0,224,4168
3.04758e+06,0,0,0,352,4040
3.04852e+06,0,0,0,480,3912
3.04855e+06,0,0,0,608,3784
3.04863e+06,0,0,0,736,3656
3.04868e+06,0,0,0,864,3528
3.04872e+06,0,0,0,992,3400
3.04878e+06,0,0,0,1120,3272
3.04879e+06,0,0,0,1248,3144
3.04888e+06,0,0,0,1376,3016
3.04888e+06,0,0,0,1504,2888
3.04888e+06,0,0,0,1632,2760
3.04891e+06,0,0,0,1760,2632
3.04895e+06,0,0,0,1888,2504
3.04912e+06,0,0,0,2176,2216
3.04912e+06,0,0,0,128,4264
3.04912e+06,0,0,0,0,4392
3.05115e+06,0,0,0,1024,3368
3.0564e+06,0,0,0,1152,3240
3.05772e+06,0,0,0,1536,2856
3.05772e+06,0,0,0,336,4056
3.05772e+06,0,0,0,80,4312
3.05985e+06,0,0,0,647,3745
3.05986e+06,0,0,0,263,4129
3.05986e+06,0,0,0,135,4257
3.05986e+06,0,0,0,7,4385
3.07052e+06,0,0,0,135,4257
3.07052e+06,0,0,0,7,4385
3.07072e+06,0,0,0,135,4257
3.07072e+06,0,0,0,1,4391
3.07799e+06,0,0,0,135,4257
3.078e+06,0,0,0,7,4385
3.07937e+06,0,0,0,263,4129
3.07937e+06,0,0,0,7,4385
3.08104e+06,0,0,0,135,4257
3.08104e+06,0,0,0,7,4385
3.08868e+06,0,0,0,135,4257
3.08868e+06,0,0,0,7,4385
3.09013e+06,0,0,0,391,4001
3.09013e+06,0,0,0,7,4385
3.09149e+06,0,0,0,135,4257
3.09149e+06,0,0,0,7,4385
3.09743e+06,0,0,0,1207,3185
3.09743e+06,0,0,0,823,3569
3.09743e+06,0,0,0,439,3953
3.09743e+06,0,0,0,55,4337
3.09743e+06,0,0,0,39,4353
3.09928e+06,0,0,0,167,4225
3.09929e+06,0,0,0,39,4353
3.10002e+06,0,0,0,38,4354
3.10104e+06,0,0,0,294,4098
3.10104e+06,0,0,0,98,4294
3.10204e+06,0,0,0,97,4295
3.1021e+06,0,0,0,225,4167
3.1021e+06,0,0,0,97,4295
3.10252e+06,0,0,0,96,4296
3.10279e+06,0,0,0,95,4297
3.10285e+06,0,0,0,94,4298
3.10379e+06,0,0,0,110,4282
3.1083e+06,0,0,0,306,4086
3.1083e+06,0,0,0,0,4392
3.10883e+06,0,0,0,1,4391
3.10883e+06,0,0,0,2,4390
3.10883e+06,0,0,0,3,4389
3.10883e+06,0,0,0,4,4388
3.10883e+06,0,0,0,5,4387
3.10986e+06,0,0,0,133,4259
3.10986e+06,0,0,0,5,4387
3.11298e+06,0,0,0,133,4259
3.11298e+06,0,0,0,5,4387
3.11558e+06,0,0,0,311,4081
3.11558e+06,0,0,0,55,4337
3.12047e+06,0,0,0,439,3953
3.12047e+06,0,0,0,311,4081
3.12047e+06,0,0,0,183,4209
3.12047e+06,0,0,0,55,4337
3.1207e+06,0,0,0,183,4209
3.1207e+06,0,0,0,55,4337
3.12363e+06,0,0,0,183,4209
3.12363e+06,0,0,0,55,4337
3.12668e+06,0,0,0,311,4081
3.12669e+06,0,0,0,183,4209
3.12669e+06,0,0,0,55,4337
3.12773e+06,0,0,0,439,3953
3.12773e+06,0,0,0,311,4081
3.12773e+06,0,0,0,183,4209
3.12773e+06,0,0,0,55,4337
3.12805e+06,0,0,0,439,3953
3.12805e+06,0,0,0,311,4081
3.12805e+06,0,0,0,183,4209
3.12805e+06,0,0,0,55,4337
3.12911e+06,0,0,0,183,4209
3.1299e+06,0,0,0,567,3825
3.13088e+06,0,0,0,695,3697
3.1313e+06,0,0,0,823,3569
3.1313e+06,0,0,0,951,3441
3.13152e+06,0,0,0,1079,3313
3.13212e+06,0,0,0,1207,3185
3.13214e+06,0,0,0,1335,3057
3.13317e+06,0,0,0,1463,2929
3.13321e+06,0,0,0,1591,2801
3.13321e+06,0,0,0,1719,2673
3.13349e+06,0,0,0,1847,2545
3.13352e+06,0,0,0,1975,2417
3.13354e+06,0,0,0,2103,2289
3.13419e+06,0,0,0,4151,241
3.13419e+06,0,0,0,637,3755
3.13419e+06,0,0,0,509,3883
3.13419e+06,0,0,0,381,4011
3.13419e+06,0,0,0,253,4139
3.13963e+06,0,0,0,381,4011
3.13965e+06,0,0,0,509,3883
3.13965e+06,0,0,0,637,3755
3.13966e+06,0,0,0,4151,241
3.13967e+06,0,0,0,637,3755
3.13967e+06,0,0,0,509,3883
3.13967e+06,0,0,0,381,4011
3.14517e+06,0,0,0,509,3883
3.1452e+06,0,0,0,637,3755
3.14696e+06,0,0,0,4151,241
3.14696e+06,0,0,0,2103,2289
3.14696e+06,0,0,0,1719,2673
3.14696e+06,0,0,0,1335,3057
3.14696e+06,0,0,0,951,3441
3.14696e+06,0,0,0,567,3825
3.14696e+06,0,0,0,183,4209
3.14696e+06,0,0,0,55,4337
3.1578e+06,0,0,0,183,4209
3.1578e+06,0,0,0,23,4369
3.16868e+06,0,0,0,183,4209
3.17712e+06,0,0,0,567,3825
3.17712e+06,0,0,0,183,4209
3.1772e+06,0,0,0,567,3825
3.1772e+06,0,0,0,183,4209
3.17722e+06,0,0,0,567,3825
3.17722e+06,0,0,0,183,4209
3.1774e+06,0,0,0,567,3825
3.1774e+06,0,0,0,951,3441
3.1774e+06,0,0,0,561,3831
3.1774e+06,0,0,0,399,3993
3.1774e+06,0,0,0,237,4155
3.1774e+06,0,0,0,109,4283
3.18822e+06,0,0,0,271,4121
3.18824e+06,0,0,0,399,3993
3.18826e+06,0,0,0,561,3831
3.19027e+06,0,0,0,2609,1783
3.19028e+06,0,0,0,1807,2585
3.19028e+06,0,0,0,1005,3387
3.19028e+06,0,0,0,203,4189
3.19028e+06,0,0,0,75,4317
3.20112e+06,0,0,0,203,4189
3.20748e+06,0,0,0,587,3805
3.20773e+06,0,0,0,1389,3003
3.20774e+06,0,0,0,1773,2619
3.20774e+06,0,0,0,237,4155
3.2078e+06,0,0,0,621,3771
3.2078e+06,0,0,0,365,4027
3.2078e+06,0,0,0,124,4268
3.20903e+06,0,0,0,926,3466
3.20903e+06,0,0,0,670,3722
3.20903e+06,0,0,0,414,3978
3.2098e+06,0,0,0,804,3588
3.2098e+06,0,0,0,246,4146
3.2098e+06,0,0,0,118,4274
3.22071e+06,0,0,0,246,4146
3.22071e+06,0,0,0,118,4274
3.22953e+06,0,0,0,374,4018
3.23061e+06,0,0,0,630,3762
3.23062e+06,0,0,0,886,3506
3.23063e+06,0,0,0,86,4306
3.2316e+06,0,0,0,214,4178
3.2316e+06,0,0,0,86,4306
3.23779e+06,0,0,0,327,4065
3.2378e+06,0,0,0,86,4306
3.23788e+06,0,0,0,886,3506
3.23789e+06,0,0,0,645,3747
3.23789e+06,0,0,0,145,4247
3.23789e+06,0,0,0,17,4375
3.24228e+06,0,0,0,575,3817
3.24228e+06,0,0,0,245,4147
3.24228e+06,0,0,0,111,4281
3.24253e+06,0,0,0,239,4153
3.24253e+06,0,0,0,111,4281
3.24353e+06,0,0,0,352,4040
3.24353e+06,0,0,0,192,4200
3.24353e+06,0,0,0,64,4328
3.24875e+06,0,0,0,192,4200
3.24875e+06,0,0,0,64,4328
3.2533e+06,0,0,0,564,3828
3.25331e+06,0,0,0,698,3694
3.25345e+06,0,0,0,826,3566
3.25427e+06,0,0,0,954,3438
3.25437e+06,0,0,0,1114,3278
3.25439e+06,0,0,0,1444,2948
3.25443e+06,0,0,0,1572,2820
3.25822e+06,0,0,0,3108,1284
3.25822e+06,0,0,0,1060,3332
3.25822e+06,0,0,0,624,3768
3.25822e+06,0,0,0,240,4152
3.25822e+06,0,0,0,41,4351
3.26907e+06,0,0,0,240,4152
3.27133e+06,0,0,0,1042,3350
3.27133e+06,0,0,0,658,3734
3.27133e+06,0,0,0,274,4118
3.27133e+06,0,0,0,18,4374
3.28352e+06,0,0,0,274,4118
3.28352e+06,0,0,0,146,4246
3.28352e+06,0,0,0,18,4374
3.28905e+06,0,0,0,146,4246
3.28905e+06,0,0,0,274,4118
3.29065e+06,0,0,0,710,3682
3.29065e+06,0,0,0,326,4066
3.29065e+06,0,0,0,70,4322
3.29066e+06,0,0,0,454,3938
3.29066e+06,0,0,0,57,4335
3.30149e+06,0,0,0,441,3951
3.30149e+06,0,0,0,57,4335
3.30209e+06,0,0,0,441,3951
3.30209e+06,0,0,0,313,4079
3.30209e+06,0,0,0,185,4207
3.30209e+06,0,0,0,57,4335
3.30812e+06,0,0,0,185,4207
3.30827e+06,0,0,0,426,3966
3.30941e+06,0,0,0,554,3838
3.31178e+06,0,0,0,682,3710
3.31232e+06,0,0,0,938,3454
3.31233e+06,0,0,0,138,4254
3.31236e+06,0,0,0,535,3857
3.31236e+06,0,0,0,364,4028
3.31236e+06,0,0,0,236,4156
3.31236e+06,0,0,0,108,4284
3.32066e+06,0,0,0,492,3900
3.32066e+06,0,0,0,364,4028
3.32066e+06,0,0,0,236,4156
3.32066e+06,0,0,0,108,4284
3.32322e+06,0,0,0,279,4113
3.32322e+06,0,0,0,151,4241
3.32322e+06,0,0,0,23,4369
3.32323e+06,0,0,0,151,4241
3.32323e+06,0,0,0,23,4369
3.32325e+06,0,0,0,151,4241
3.32325e+06,0,0,0,23,4369
3.32953e+06,0,0,0,151,4241
3.3312e+06,0,0,0,279,4113
3.3314e+06,0,0,0,407,3985
3.3314e+06,0,0,0,535,3857
3.33152e+06,0,0,0,663,3729
3.33195e+06,0,0,0,1047,3345
3.33396e+06,0,0,0,1175,3217
3.33397e+06,0,0,0,1303,3089
3.33401e+06,0,0,0,2103,2289
3.33402e+06,0,0,0,55,4337
3.34322e+06,0,0,0,2103,2289
3.34322e+06,0,0,0,1862,2530
3.34322e+06,0,0,0,1362,3030
3.34322e+06,0,0,0,912,3480
3.34322e+06,0,0,0,784,3608
3.34322e+06,0,0,0,656,3736
3.34322e+06,0,0,0,528,3864
3.34322e+06,0,0,0,400,3992
3.34322e+06,0,0,0,272,4120
3.34322e+06,0,0,0,144,4248
3.34322e+06,0,0,0,16,4376
3.35403e+06,0,0,0,144,4248
3.35403e+06,0,0,0,16,4376
3.35407e+06,0,0,0,144,4248
3.35407e+06,0,0,0,16,4376
3.35407e+06,0,0,0,144,4248
3.35407e+06,0,0,0,16,4376
3.3541e+06,0,0,0,144,4248
3.3541e+06,0,0,0,272,4120
3.3541e+06,0,0,0,144,4248
3.35411e+06,0,0,0,272,4120
3.35414e+06,0,0,0,400,3992
3.35414e+06,0,0,0,16,4376
3.3577e+06,0,0,0,257,4135
3.35949e+06,0,0,0,385,4007
3.35954e+06,0,0,0,513,3879
3.36126e+06,0,0,0,641,3751
3.36133e+06,0,0,0,769,3623
3.36162e+06,0,0,0,1153,3239
3.36488e+06,0,0,0,1603,2789
3.36488e+06,0,0,0,2103,2289
3.36489e+06,0,0,0,55,4337
3.41535e+06,0,0,0,2103,2289
3.41535e+06,0,0,0,1719,2673
3.41535e+06,0,0,0,1463,2929
3.41535e+06,0,0,0,1079,3313
3.41535e+06,0,0,0,695,3697
3.41931e+06,0,0,0,2743,1649
3.41932e+06,0,0,0,1941,2451
3.41932e+06,0,0,0,1139,3253
3.41932e+06,0,0,0,337,4055
3.41932e+06,0,0,0,156,4236
3.41932e+06,0,0,0,28,4364
3.43015e+06,0,0,0,209,4183
3.43017e+06,0,0,0,337,4055
3.43706e+06,0,0,0,593,3799
3.43707e+06,0,0,0,209,4183
3.43707e+06,0,0,0,81,4311
3.44435e+06,0,0,0,209,4183
3.44575e+06,0,0,0,593,3799
3.44575e+06,0,0,0,209,4183
3.44575e+06,0,0,0,38,4354
3.44604e+06,0,0,0,422,3970
3.44623e+06,0,0,0,806,3586
3.44623e+06,0,0,0,248,4144
3.4508e+06,0,0,0,489,3903
3.4508e+06,0,0,0,105,4287
3.45658e+06,0,0,0,276,4116
3.45659e+06,0,0,0,148,4244
3.45659e+06,0,0,0,20,4372
3.46742e+06,0,0,0,148,4244
3.46748e+06,0,0,0,276,4116
3.46749e+06,0,0,0,20,4372
3.46858e+06,0,0,0,404,3988
3.47467e+06,0,0,0,660,3732
3.47628e+06,0,0,0,1044,3348
3.47628e+06,0,0,0,20,4372
3.47868e+06,0,0,0,578,3814
3.47868e+06,0,0,0,194,4198
3.48107e+06,0,0,0,578,3814
3.48107e+06,0,0,0,178,4214
3.48107e+06,0,0,0,7,4385
3.49195e+06,0,0,0,178,4214
3.49195e+06,0,0,0,50,4342
3.49542e+06,0,0,0,852,3540
3.50271e+06,0,0,0,980,3412
3.50275e+06,0,0,0,1782,2610
3.50276e+06,0,0,0,582,3810
3.50516e+06,0,0,0,982,3410
3.50586e+06,0,0,0,1784,2608
3.50586e+06,0,0,0,584,3808
3.50699e+06,0,0,0,1608,2784
3.507e+06,0,0,0,806,3586
3.507e+06,0,0,0,447,3945
3.507e+06,0,0,0,143,4249
3.50987e+06,0,0,0,527,3865
3.50987e+06,0,0,0,271,4121
3.50987e+06,0,0,0,15,4377
3.52866e+06,0,0,0,319,4073
3.52868e+06,0,0,0,678,3714
3.53151e+06,0,0,0,934,3458
3.53151e+06,0,0,0,34,4358
3.53154e+06,0,0,0,290,4102
3.53155e+06,0,0,0,162,4230
3.53155e+06,0,0,0,34,4358
3.54229e+06,0,0,0,162,4230
3.54239e+06,0,0,0,290,4102
3.54554e+06,0,0,0,1490,2902
3.54555e+06,0,0,0,1106,3286
3.54555e+06,0,0,0,466,3926
3.546e+06,0,0,0,1666,2726
3.54601e+06,0,0,0,1026,3366
3.54601e+06,0,0,0,2,4390
3.55694e+06,0,0,0,386,4006
3.56165e+06,0,0,0,1188,3204
3.56165e+06,0,0,0,164,4228
3.56165e+06,0,0,0,36,4356
3.57248e+06,0,0,0,164,4228
3.57249e+06,0,0,0,36,4356
3.58113e+06,0,0,0,676,3716
3.58113e+06,0,0,0,420,3972
3.58113e+06,0,0,0,292,4100
3.58113e+06,0,0,0,164,4228
3.58113e+06,0,0,0,36,4356
3.58318e+06,0,0,0,164,4228
3.58318e+06,0,0,0,36,4356
3.58928e+06,0,0,0,676,3716
3.59131e+06,0,0,0,804,3588
3.59132e+06,0,0,0,2,4390
3.59168e+06,0,0,0,130,4262
3.59185e+06,0,0,0,258,4134
3.594e+06,0,0,0,386,4006
3.59722e+06,0,0,0,642,3750
3.59875e+06,0,0,0,1444,2948
3.59927e+06,0,0,0,2344,2048
3.59927e+06,0,0,0,296,4096
3.59927e+06,0,0,0,115,4277
3.61014e+06,0,0,0,296,4096
3.6125e+06,0,0,0,2344,2048
3.6125e+06,0,0,0,1320,3072
3.6125e+06,0,0,0,808,3584
3.6125e+06,0,0,0,6,4386
3.62391e+06,0,0,0,808,3584
3.62695e+06,0,0,0,1320,3072
3.63255e+06,0,0,0,2344,2048
3.63255e+06,0,0,0,808,3584
3.63255e+06,0,0,0,6,4386
3.63747e+06,0,0,0,1030,3362
3.63748e+06,0,0,0,902,3490
3.63748e+06,0,0,0,774,3618
3.63748e+06,0,0,0,646,3746
3.63748e+06,0,0,0,518,3874
3.63748e+06,0,0,0,390,4002
3.63748e+06,0,0,0,262,4130
3.64394e+06,0,0,0,1064,3328
3.64818e+06,0,0,0,2088,2304
3.64818e+06,0,0,0,2216,2176
3.6482e+06,0,0,0,2344,2048
3.64822e+06,0,0,0,2472,1920
3.64826e+06,0,0,0,2600,1792
3.64832e+06,0,0,0,2728,1664
3.64839e+06,0,0,0,2856,1536
3.64943e+06,0,0,0,4392,0
3.64944e+06,0,0,0,1320,3072
3.64944e+06,0,0,0,1079,3313
3.64944e+06,0,0,0,1074,3318
3.65931e+06,0,0,0,4146,246
3.65931e+06,0,0,0,50,4342
3.66807e+06,0,0,0,4146,246
3.66807e+06,0,0,0,3344,1048
3.66807e+06,0,0,0,3088,1304
3.66807e+06,0,0,0,2088,2304
3.66807e+06,0,0,0,40,4352
3.68971e+06,0,0,0,842,3550
3.68972e+06,0,0,0,586,3806
3.68972e+06,0,0,0,330,4062
3.68972e+06,0,0,0,26,4366
3.68978e+06,0,0,0,282,4110
3.68978e+06,0,0,0,26,4366
3.7e+06,0,0,0,31,4361
3.70459e+06,0,0,0,287,4105
3.7113e+06,0,0,0,543,3849
3.7113e+06,0,0,0,193,4199
3.71133e+06,0,0,0,1193,3199
3.71134e+06,0,0,0,952,3440
3.71134e+06,0,0,0,696,3696
3.71134e+06,0,0,0,440,3952
3.71134e+06,0,0,0,184,4208
3.71136e+06,0,0,0,488,3904
3.71136e+06,0,0,0,744,3648
3.71136e+06,0,0,0,488,3904
3.71136e+06,0,0,0,232,4160
3.71136e+06,0,0,0,104,4288
3.7186e+06,0,0,0,232,4160
3.7186e+06,0,0,0,104,4288
3.72381e+06,0,0,0,232,4160
3.72461e+06,0,0,0,488,3904
3.72461e+06,0,0,0,232,4160
3.72476e+06,0,0,0,488,3904
3.72477e+06,0,0,0,232,4160
3.72487e+06,0,0,0,488,3904
3.72487e+06,0,0,0,232,4160
3.72487e+06,0,0,0,104,4288
3.73214e+06,0,0,0,232,4160
3.73297e+06,0,0,0,582,3810
3.73297e+06,0,0,0,326,4066
3.73297e+06,0,0,0,70,4322
3.73302e+06,0,0,0,326,4066
3.73302e+06,0,0,0,582,3810
3.73302e+06,0,0,0,326,4066
3.73302e+06,0,0,0,85,4307
3.74414e+06,0,0,0,341,4051
3.74415e+06,0,0,0,213,4179
3.74415e+06,0,0,0,85,4307
3.74454e+06,0,0,0,341,4051
3.74454e+06,0,0,0,213,4179
3.74454e+06,0,0,0,85,4307
3.74465e+06,0,0,0,341,4051
3.75037e+06,0,0,0,582,3810
3.75093e+06,0,0,0,710,3682
3.75144e+06,0,0,0,838,3554
3.75145e+06,0,0,0,966,3426
3.75186e+06,0,0,0,1094,3298
3.75222e+06,0,0,0,1350,3042
3.75222e+06,0,0,0,1606,2786
3.75222e+06,0,0,0,70,4322
3.75228e+06,0,0,0,326,4066
3.75307e+06,0,0,0,2374,2018
3.75307e+06,0,0,0,1862,2530
3.75307e+06,0,0,0,1478,2914
3.75307e+06,0,0,0,1094,3298
3.75307e+06,0,0,0,710,3682
3.75307e+06,0,0,0,326,4066
3.75307e+06,0,0,0,11,4381
3.76397e+06,0,0,0,326,4066
3.76765e+06,0,0,0,1862,2530
3.76765e+06,0,0,0,1478,2914
3.76765e+06,0,0,0,1094,3298
3.76765e+06,0,0,0,710,3682
3.76765e+06,0,0,0,326,4066
3.76765e+06,0,0,0,198,4194
3.76765e+06,0,0,0,70,4322
3.77839e+06,0,0,0,198,4194
3.77855e+06,0,0,0,326,4066
3.78355e+06,0,0,0,710,3682
3.78355e+06,0,0,0,326,4066
3.78359e+06,0,0,0,710,3682
3.7836e+06,0,0,0,326,4066
3.7838e+06,0,0,0,710,3682
3.7838e+06,0,0,0,326,4066
3.78555e+06,0,0,0,838,3554
3.78555e+06,0,0,0,454,3938
3.78555e+06,0,0,0,70,4322
3.7856e+06,0,0,0,454,3938
3.7856e+06,0,0,0,326,4066
3.7856e+06,0,0,0,198,4194
3.7856e+06,0,0,0,70,4322
3.79063e+06,0,0,0,311,4081
3.79132e+06,0,0,0,695,3697
3.79646e+06,0,0,0,823,3569
3.79648e+06,0,0,0,951,3441
3.7965e+06,0,0,0,1079,3313
3.79784e+06,0,0,0,1463,2929
3.79784e+06,0,0,0,143,4249
3.79784e+06,0,0,0,15,4377
3.79793e+06,0,0,0,399,3993
3.79793e+06,0,0,0,271,4121
3.79793e+06,0,0,0,143,4249
3.79793e+06,0,0,0,15,4377
3.79833e+06,0,0,0,399,3993
3.79835e+06,0,0,0,783,3609
3.80526e+06,0,0,0,911,3481
3.80875e+06,0,0,0,1039,3353
3.80885e+06,0,0,0,1167,3225
3.80888e+06,0,0,0,1295,3097
3.80903e+06,0,0,0,2615,1777
3.80904e+06,0,0,0,1295,3097
3.81394e+06,0,0,0,1679,2713
3.81395e+06,0,0,0,359,4033
3.81413e+06,0,0,0,743,3649
3.81568e+06,0,0,0,1127,3265
3.81627e+06,0,0,0,1511,2881
3.81627e+06,0,0,0,191,4201
3.82011e+06,0,0,0,1511,2881
3.82011e+06,0,0,0,191,4201
3.82509e+06,0,0,0,1511,2881
3.8251e+06,0,0,0,1127,3265
3.8251e+06,0,0,0,871,3521
3.8251e+06,0,0,0,615,3777
3.82726e+06,0,0,0,1935,2457
3.82727e+06,0,0,0,399,3993
3.83151e+06,0,0,0,1719,2673
3.83151e+06,0,0,0,917,3475
3.83151e+06,0,0,0,277,4115
3.83151e+06,0,0,0,149,4243
3.83151e+06,0,0,0,21,4371
3.84242e+06,0,0,0,149,4243
3.84245e+06,0,0,0,277,4115
3.84645e+06,0,0,0,1813,2579
3.84645e+06,0,0,0,1173,3219
3.84645e+06,0,0,0,773,3619
3.84645e+06,0,0,0,261,4131
3.84645e+06,0,0,0,133,4259
3.84645e+06,0,0,0,5,4387
3.84672e+06,0,0,0,261,4131
3.84672e+06,0,0,0,90,4302
3.84672e+06,0,0,0,58,4334
3.84683e+06,0,0,0,314,4078
3.84683e+06,0,0,0,186,4206
3.84683e+06,0,0,0,58,4334
3.8478e+06,0,0,0,698,3694
3.8478e+06,0,0,0,570,3822
3.8478e+06,0,0,0,442,3950
3.8478e+06,0,0,0,314,4078
3.8478e+06,0,0,0,58,4334
3.85219e+06,0,0,0,860,3532
3.85219e+06,0,0,0,58,4334
3.85331e+06,0,0,0,186,4206
3.85331e+06,0,0,0,58,4334
3.85339e+06,0,0,0,186,4206
3.85339e+06,0,0,0,58,4334
3.8558e+06,0,0,0,442,3950
3.8558e+06,0,0,0,186,4206
3.8558e+06,0,0,0,58,4334
3.85729e+06,0,0,0,186,4206
3.8573e+06,0,0,0,58,4334
3.85739e+06,0,0,0,186,4206
3.8574e+06,0,0,0,58,4334
3.8576e+06,0,0,0,90,4302
3.85762e+06,0,0,0,261,4131
3.85762e+06,0,0,0,133,4259
3.85762e+06,0,0,0,5,4387
3.85776e+06,0,0,0,133,4259
3.85776e+06,0,0,0,261,4131
3.85777e+06,0,0,0,133,4259
3.85777e+06,0,0,0,5,4387
3.85788e+06,0,0,0,517,3875
3.85789e+06,0,0,0,389,4003
3.85789e+06,0,0,0,261,4131
3.85789e+06,0,0,0,133,4259
3.85789e+06,0,0,0,5,4387
3.85871e+06,0,0,0,133,4259
3.85871e+06,0,0,0,5,4387
3.86064e+06,0,0,0,133,4259
3.86065e+06,0,0,0,5,4387
3.86322e+06,0,0,0,133,4259
3.86323e+06,0,0,0,5,4387
3.86329e+06,0,0,0,133,4259
3.8633e+06,0,0,0,5,4387
3.86338e+06,0,0,0,133,4259
3.86339e+06,0,0,0,5,4387
3.8634e+06,0,0,0,133,4259
3.8634e+06,0,0,0,5,4387
3.86341e+06,0,0,0,133,4259
3.86342e+06,0,0,0,261,4131
3.86342e+06,0,0,0,133,4259
3.86342e+06,0,0,0,5,4387
3.86413e+06,0,0,0,133,4259
3.86413e+06,0,0,0,5,4387
3.86415e+06,0,0,0,133,4259
3.86499e+06,0,0,0,261,4131
3.86613e+06,0,0,0,389,4003
3.86651e+06,0,0,0,517,3875
3.86674e+06,0,0,0,773,3619
3.86674e+06,0,0,0,901,3491
3.86675e+06,0,0,0,1029,3363
3.86696e+06,0,0,0,1157,3235
3.86861e+06,0,0,0,1285,3107
3.86869e+06,0,0,0,1413,2979
3.86872e+06,0,0,0,1541,2851
3.86884e+06,0,0,0,1669,2723
3.86952e+06,0,0,0,1925,2467
3.86955e+06,0,0,0,2053,2339
3.87049e+06,0,0,0,2453,1939
3.87065e+06,0,0,0,2581,1811
3.87066e+06,0,0,0,2709,1683
3.87119e+06,0,0,0,3511,881
3.87394e+06,0,0,0,4151,241
3.87394e+06,0,0,0,637,3755
3.87394e+06,0,0,0,253,4139
3.88118e+06,0,0,0,3767,625
3.88118e+06,0,0,0,737,3655
3.88689e+06,0,0,0,3767,625
3.88689e+06,0,0,0,1719,2673
3.88689e+06,0,0,0,1335,3057
3.88689e+06,0,0,0,951,3441
3.88689e+06,0,0,0,695,3697
3.88689e+06,0,0,0,183,4209
3.89774e+06,0,0,0,695,3697
3.89775e+06,0,0,0,951,3441
3.89822e+06,0,0,0,2999,1393
3.89822e+06,0,0,0,951,3441
3.89822e+06,0,0,0,149,4243
3.90419e+06,0,0,0,533,3859
3.91709e+06,0,0,0,917,3475
3.91709e+06,0,0,0,115,4277
3.9172e+06,0,0,0,917,3475
3.9172e+06,0,0,0,405,3987
3.91932e+06,0,0,0,789,3603
3.91932e+06,0,0,0,277,4115
3.93217e+06,0,0,0,789,3603
3.93491e+06,0,0,0,1301,3091
3.937e+06,0,0,0,2103,2289
3.93701e+06,0,0,0,55,4337
3.94847e+06,0,0,0,296,4096
3.94847e+06,0,0,0,55,4337
3.98336e+06,0,0,0,2103,2289
3.98337e+06,0,0,0,1667,2725
3.98337e+06,0,0,0,1277,3115
3.98337e+06,0,0,0,1021,3371
3.98337e+06,0,0,0,765,3627
3.98337e+06,0,0,0,509,3883
3.98337e+06,0,0,0,253,4139
3.98745e+06,0,0,0,2301,2091
3.98746e+06,0,0,0,2045,2347
3.98746e+06,0,0,0,1789,2603
3.98746e+06,0,0,0,1277,3115
3.98746e+06,0,0,0,253,4139
3.98746e+06,0,0,0,12,4380
3.99834e+06,0,0,0,1036,3356
3.99835e+06,0,0,0,234,4158
4.00499e+06,0,0,0,490,3902
4.00503e+06,0,0,0,746,3646
4.00503e+06,0,0,0,1002,3390
4.00504e+06,0,0,0,200,4192
4.00509e+06,0,0,0,456,3936
4.00909e+06,0,0,0,712,3680
4.00911e+06,0,0,0,968,3424
4.01575e+06,0,0,0,1358,3034
4.01582e+06,0,0,0,1794,2598
4.01765e+06,0,0,0,2596,1796
4.01813e+06,0,0,0,3108,1284
4.02067e+06,0,0,0,3349,1043
4.02441e+06,0,0,0,4151,241
4.03571e+06,0,0,0,4392,0
