time,nb_sleeping,nb_switching_on,nb_switching_off,nb_idle,nb_computing
0.00240003,0,0,0,4264,128
0.00300004,0,0,0,4072,320
0.00360005,0,0,0,3880,512
0.00420006,0,0,0,3752,640
0.00480006,0,0,0,3624,768
0.00540007,0,0,0,3112,1280
0.00600008,0,0,0,2600,1792
0.00660009,0,0,0,2344,2048
0.0072001,0,0,0,2216,2176
0.0078001,0,0,0,1960,2432
0.00840011,0,0,0,1828,2564
0.00900012,0,0,0,804,3588
0.00960013,0,0,0,672,3720
0.0102001,0,0,0,671,3721
0.0108001,0,0,0,415,3977
0.0114002,0,0,0,159,4233
0.0120002,0,0,0,31,4361
6472,0,0,0,223,4169
6475,0,0,0,95,4297
7137.01,0,0,0,351,4041
7140.01,0,0,0,223,4169
7140.01,0,0,0,95,4297
7235,0,0,0,223,4169
7238.01,0,0,0,91,4301
7270.01,0,0,0,347,4045
7273.01,0,0,0,91,4301
7291.01,0,0,0,603,3789
7294.01,0,0,0,288,4104
7294.01,0,0,0,160,4232
7294.01,0,0,0,28,4364
7330.01,0,0,0,156,4236
7333.01,0,0,0,28,4364
7336.01,0,0,0,284,4108
7339.01,0,0,0,156,4236
7339.01,0,0,0,24,4368
8536.01,0,0,0,152,4240
8539.01,0,0,0,24,4368
8734,0,0,0,216,4176
8737.01,0,0,0,88,4304
9781.01,0,0,0,220,4172
9784.01,0,0,0,92,4300
10836,0,0,0,220,4172
10839,0,0,0,28,4364
10843,0,0,0,156,4236
10846,0,0,0,24,4368
10849,0,0,0,156,4236
10852,0,0,0,28,4364
13121,0,0,0,156,4236
13124,0,0,0,28,4364
13160,0,0,0,156,4236
13163,0,0,0,11,4381
13959,0,0,0,139,4253
13962,0,0,0,11,4381
15538,0,0,0,12,4380
16649,0,0,0,204,4188
17230,0,0,0,336,4056
17297,0,0,0,468,3924
17537,0,0,0,596,3796
17948,0,0,0,728,3664
18070,0,0,0,984,3408
18149,0,0,0,1299,3093
18173,0,0,0,1427,2965
18191,0,0,0,1572,2820
18296,0,0,0,1700,2692
18369,0,0,0,1828,2564
19454,0,0,0,1956,2436
19659,0,0,0,2084,2308
20368,0,0,0,2212,2180
20638,0,0,0,2340,2052
20837,0,0,0,2472,1920
21216,0,0,0,2600,1792
21618,0,0,0,3112,1280
21627,0,0,0,3368,1024
21650,0,0,0,4392,0
21653,0,0,0,542,3850
21653,0,0,0,158,4234
21653,0,0,0,30,4362
30914,0,0,0,414,3978
30917,0,0,0,30,4362
32485,0,0,0,158,4234
32622,0,0,0,4008,384
32625,0,0,0,3752,640
32625,0,0,0,3496,896
32625,0,0,0,3240,1152
32625,0,0,0,2728,1664
32625,0,0,0,2472,1920
32625,0,0,0,2216,2176
32625,0,0,0,1832,2560
32625,0,0,0,1415,2977
32625,0,0,0,391,4001
32625,0,0,0,135,4257
32625,0,0,0,7,4385
35997,0,0,0,391,4001
36000,0,0,0,263,4129
36000,0,0,0,135,4257
36000,0,0,0,7,4385
38841,0,0,0,263,4129
38844,0,0,0,135,4257
38844,0,0,0,3,4389
39044,0,0,0,259,4133
39047,0,0,0,131,4261
39047,0,0,0,3,4389
39624,0,0,0,259,4133
39627,0,0,0,127,4265
43461,0,0,0,255,4137
43464,0,0,0,127,4265
44506,0,0,0,383,4009
44509,0,0,0,127,4265
46844,0,0,0,255,4137
46847,0,0,0,127,4265
46857,0,0,0,255,4137
46860,0,0,0,127,4265
46884,0,0,0,255,4137
46887,0,0,0,127,4265
48458,0,0,0,639,3753
48461,0,0,0,127,4265
49360,0,0,0,259,4133
49722,0,0,0,387,4005
49906,0,0,0,515,3877
49925,0,0,0,643,3749
50097,0,0,0,775,3617
51732,0,0,0,1031,3361
51735,0,0,0,7,4385
51896,0,0,0,135,4257
52069,0,0,0,263,4129
52133,0,0,0,391,4001
52136,0,0,0,43,4349
54126,0,0,0,171,4221
54291,0,0,0,427,3965
54294,0,0,0,171,4221
54319,0,0,0,427,3965
54322,0,0,0,171,4221
60038,0,0,0,555,3837
61434,0,0,0,811,3581
61491,0,0,0,1067,3325
61494,0,0,0,43,4349
61533,0,0,0,460,3932
61536,0,0,0,204,4188
64106,0,0,0,716,3676
64109,0,0,0,76,4316
64109,0,0,0,75,4317
69275,0,0,0,1099,3293
69278,0,0,0,587,3805
69278,0,0,0,331,4061
69278,0,0,0,203,4189
69278,0,0,0,75,4317
73876,0,0,0,423,3969
73879,0,0,0,39,4353
77315,0,0,0,1063,3329
77318,0,0,0,935,3457
77318,0,0,0,807,3585
77318,0,0,0,679,3713
77318,0,0,0,551,3841
77318,0,0,0,423,3969
77318,0,0,0,295,4097
77318,0,0,0,163,4229
77318,0,0,0,31,4361
80114,0,0,0,159,4233
80117,0,0,0,31,4361
80138,0,0,0,159,4233
80141,0,0,0,31,4361
81021,0,0,0,287,4105
81024,0,0,0,31,4361
83184,0,0,0,287,4105
83187,0,0,0,31,4361
83198,0,0,0,1055,3337
83201,0,0,0,707,3685
83201,0,0,0,451,3941
83201,0,0,0,195,4197
83201,0,0,0,59,4333
86891,0,0,0,315,4077
86894,0,0,0,179,4213
86894,0,0,0,51,4341
87870,0,0,0,183,4209
87873,0,0,0,47,4345
88164,0,0,0,179,4213
88167,0,0,0,43,4349
88176,0,0,0,171,4221
88176,0,0,0,299,4093
88182,0,0,0,163,4229
88182,0,0,0,27,4365
88189,0,0,0,155,4237
88192,0,0,0,19,4373
88194,0,0,0,147,4245
88197,0,0,0,11,4381
88199,0,0,0,139,4253
88202,0,0,0,3,4389
88206,0,0,0,131,4261
88209,0,0,0,3,4389
90938,0,0,0,131,4261
90941,0,0,0,3,4389
90960,0,0,0,131,4261
90963,0,0,0,3,4389
92949,0,0,0,4,4388
93991,0,0,0,140,4252
93994,0,0,0,4,4388
94067,0,0,0,352,4040
94068,0,0,0,608,3784
94073,0,0,0,472,3920
94073,0,0,0,344,4048
94073,0,0,0,216,4176
94073,0,0,0,88,4304
94283,0,0,0,600,3792
94286,0,0,0,472,3920
94286,0,0,0,344,4048
94286,0,0,0,216,4176
94286,0,0,0,88,4304
96304,0,0,0,472,3920
96307,0,0,0,216,4176
96307,0,0,0,88,4304
97681,0,0,0,216,4176
97705,0,0,0,352,4040
97708,0,0,0,96,4296
97773,0,0,0,224,4168
98663,0,0,0,360,4032
98967,0,0,0,496,3896
99014,0,0,0,632,3760
99015,0,0,0,768,3624
99027,0,0,0,904,3488
99032,0,0,0,1040,3352
99035,0,0,0,1168,3224
99067,0,0,0,1304,3088
101272,0,0,0,1560,2832
101317,0,0,0,1816,2576
101392,0,0,0,2072,2320
101395,0,0,0,24,4368
101811,0,0,0,152,4240
101814,0,0,0,24,4368
102886,0,0,0,280,4112
102889,0,0,0,152,4240
103456,0,0,0,280,4112
104043,0,0,0,920,3472
104786,0,0,0,1056,3336
104789,0,0,0,32,4360
104813,0,0,0,160,4232
104816,0,0,0,32,4360
104896,0,0,0,168,4224
104899,0,0,0,36,4356
104932,0,0,0,164,4228
104935,0,0,0,32,4360
105110,0,0,0,160,4232
105113,0,0,0,32,4360
105151,0,0,0,160,4232
105154,0,0,0,32,4360
105156,0,0,0,160,4232
105159,0,0,0,32,4360
105187,0,0,0,160,4232
105190,0,0,0,32,4360
106347,0,0,0,160,4232
106350,0,0,0,32,4360
112025,0,0,0,160,4232
112028,0,0,0,32,4360
112226,0,0,0,160,4232
112229,0,0,0,28,4364
115285,0,0,0,160,4232
115288,0,0,0,32,4360
115385,0,0,0,164,4228
115388,0,0,0,36,4356
115654,0,0,0,164,4228
115657,0,0,0,36,4356
116019,0,0,0,164,4228
116022,0,0,0,36,4356
116038,0,0,0,164,4228
116041,0,0,0,36,4356
117199,0,0,0,164,4228
117202,0,0,0,36,4356
122172,0,0,0,168,4224
122175,0,0,0,40,4352
122888,0,0,0,168,4224
122891,0,0,0,40,4352
126111,0,0,0,168,4224
126114,0,0,0,40,4352
126124,0,0,0,168,4224
126127,0,0,0,40,4352
126149,0,0,0,168,4224
126152,0,0,0,40,4352
126337,0,0,0,168,4224
126340,0,0,0,40,4352
126564,0,0,0,168,4224
126567,0,0,0,40,4352
127255,0,0,0,168,4224
127258,0,0,0,40,4352
132287,0,0,0,168,4224
132290,0,0,0,40,4352
132748,0,0,0,1064,3328
132751,0,0,0,40,4352
132949,0,0,0,168,4224
132952,0,0,0,40,4352
136171,0,0,0,168,4224
136174,0,0,0,40,4352
136188,0,0,0,168,4224
136191,0,0,0,40,4352
137099,0,0,0,168,4224
137102,0,0,0,40,4352
137210,0,0,0,168,4224
137213,0,0,0,40,4352
137514,0,0,0,168,4224
137517,0,0,0,32,4360
138136,0,0,0,160,4232
138139,0,0,0,24,4368
141418,0,0,0,152,4240
141421,0,0,0,16,4376
143113,0,0,0,144,4248
143116,0,0,0,8,4384
143795,0,0,0,136,4256
143798,0,0,0,0,4392
144439,0,0,0,128,4264
144442,0,0,0,0,4392
147123,0,0,0,128,4264
147964,0,0,0,256,4136
147967,0,0,0,0,4392
148351,0,0,0,136,4256
148354,0,0,0,0,4392
148939,0,0,0,136,4256
148942,0,0,0,0,4392
150469,0,0,0,1024,3368
150472,0,0,0,640,3752
150472,0,0,0,256,4136
150472,0,0,0,0,4392
152227,0,0,0,136,4256
152230,0,0,0,0,4392
153956,0,0,0,136,4256
153959,0,0,0,8,4384
154603,0,0,0,144,4248
154668,0,0,0,16,4376
155403,0,0,0,144,4248
155406,0,0,0,16,4376
159167,0,0,0,152,4240
159634,0,0,0,408,3984
159637,0,0,0,152,4240
159753,0,0,0,288,4104
159756,0,0,0,32,4360
160452,0,0,0,416,3976
160455,0,0,0,224,4168
160455,0,0,0,32,4360
162106,0,0,0,288,4104
162109,0,0,0,96,4296
163087,0,0,0,232,4160
163090,0,0,0,40,4352
164857,0,0,0,168,4224
165499,0,0,0,296,4096
165502,0,0,0,104,4288
166293,0,0,0,232,4160
166296,0,0,0,40,4352
168468,0,0,0,232,4160
168471,0,0,0,40,4352
168778,0,0,0,232,4160
168781,0,0,0,40,4352
170415,0,0,0,232,4160
170418,0,0,0,40,4352
172011,0,0,0,232,4160
172014,0,0,0,40,4352
173974,0,0,0,296,4096
173977,0,0,0,104,4288
174203,0,0,0,360,4032
174206,0,0,0,168,4224
174206,0,0,0,40,4352
175714,0,0,0,232,4160
175717,0,0,0,6,4386
176364,0,0,0,198,4194
176367,0,0,0,70,4322
179344,0,0,0,262,4130
179539,0,0,0,454,3938
179657,0,0,0,646,3746
181180,0,0,0,838,3554
182846,0,0,0,1222,3170
183331,0,0,0,1414,2978
184112,0,0,0,1606,2786
185064,0,0,0,1734,2658
186477,0,0,0,3782,610
186480,0,0,0,1208,3184
186480,0,0,0,568,3824
186524,0,0,0,794,3598
186527,0,0,0,154,4238
187216,0,0,0,282,4110
187795,0,0,0,90,4302
189454,0,0,0,218,4174
189616,0,0,0,346,4046
191764,0,0,0,986,3406
191804,0,0,0,1626,2766
193021,0,0,0,1818,2574
193803,0,0,0,4392,0
193806,0,0,0,2344,2048
193806,0,0,0,296,4096
193806,0,0,0,40,4352
193806,0,0,0,39,4353
199811,0,0,0,295,4097
199814,0,0,0,39,4353
214292,0,0,0,295,4097
214295,0,0,0,39,4353
235972,0,0,0,295,4097
235975,0,0,0,39,4353
247581,0,0,0,295,4097
247584,0,0,0,39,4353
260832,0,0,0,295,4097
260835,0,0,0,167,4225
260835,0,0,0,35,4357
271728,0,0,0,163,4229
271731,0,0,0,18,4374
271851,0,0,0,150,4242
272367,0,0,0,151,4241
277018,0,0,0,296,4096
278823,0,0,0,2344,2048
278826,0,0,0,1320,3072
278826,0,0,0,808,3584
278826,0,0,0,296,4096
278826,0,0,0,40,4352
278847,0,0,0,2088,2304
278850,0,0,0,1576,2816
278850,0,0,0,1064,3328
278850,0,0,0,552,3840
278850,0,0,0,168,4224
278850,0,0,0,36,4356
286866,0,0,0,420,3972
286869,0,0,0,292,4100
286869,0,0,0,164,4228
286869,0,0,0,36,4356
289694,0,0,0,168,4224
289697,0,0,0,36,4356
293800,0,0,0,548,3844
293803,0,0,0,36,4356
294321,0,0,0,548,3844
294324,0,0,0,356,4036
294324,0,0,0,228,4164
294324,0,0,0,100,4292
294986,0,0,0,612,3780
294989,0,0,0,484,3908
294989,0,0,0,356,4036
294989,0,0,0,228,4164
294989,0,0,0,96,4296
295338,0,0,0,608,3784
295341,0,0,0,480,3912
295341,0,0,0,352,4040
295341,0,0,0,224,4168
295341,0,0,0,96,4296
295983,0,0,0,352,4040
295986,0,0,0,224,4168
295986,0,0,0,96,4296
297748,0,0,0,224,4168
297798,0,0,0,352,4040
297800,0,0,0,480,3912
299547,0,0,0,612,3780
299644,0,0,0,804,3588
301441,0,0,0,932,3460
302878,0,0,0,1444,2948
303115,0,0,0,1572,2820
303188,0,0,0,2596,1796
304694,0,0,0,3108,1284
305191,0,0,0,3236,1156
305214,0,0,0,3364,1028
305812,0,0,0,3492,900
305819,0,0,0,3624,768
305889,0,0,0,3752,640
305891,0,0,0,3880,512
305895,0,0,0,30,4362
306167,0,0,0,158,4234
306218,0,0,0,286,4106
306223,0,0,0,414,3978
306226,0,0,0,30,4362
306892,0,0,0,158,4234
306895,0,0,0,30,4362
313953,0,0,0,158,4234
316744,0,0,0,4008,384
316747,0,0,0,3624,768
316747,0,0,0,1624,2768
316747,0,0,0,1112,3280
316747,0,0,0,600,3792
316747,0,0,0,88,4304
330226,0,0,0,472,3920
330229,0,0,0,344,4048
331697,0,0,0,856,3536
332003,0,0,0,1368,3024
332686,0,0,0,1880,2512
336903,0,0,0,2008,2384
336906,0,0,0,8,4384
338673,0,0,0,392,4000
338676,0,0,0,264,4128
338676,0,0,0,136,4256
338676,0,0,0,8,4384
349511,0,0,0,136,4256
349514,0,0,0,8,4384
349527,0,0,0,136,4256
349530,0,0,0,8,4384
349567,0,0,0,136,4256
354549,0,0,0,264,4128
354578,0,0,0,392,4000
360080,0,0,0,2392,2000
360083,0,0,0,392,4000
360083,0,0,0,264,4128
360083,0,0,0,72,4320
370935,0,0,0,200,4192
370985,0,0,0,392,4000
380215,0,0,0,2392,2000
380218,0,0,0,392,4000
380218,0,0,0,136,4256
380218,0,0,0,8,4384
391069,0,0,0,136,4256
391072,0,0,0,8,4384
397415,0,0,0,264,4128
401923,0,0,0,392,4000
403312,0,0,0,2392,2000
403315,0,0,0,392,4000
403315,0,0,0,136,4256
403315,0,0,0,8,4384
410245,0,0,0,264,4128
410248,0,0,0,136,4256
410248,0,0,0,4,4388
414156,0,0,0,132,4260
414159,0,0,0,4,4388
420717,0,0,0,136,4256
420720,0,0,0,8,4384
421157,0,0,0,136,4256
421160,0,0,0,8,4384
423485,0,0,0,2008,2384
423488,0,0,0,1496,2896
423488,0,0,0,984,3408
423488,0,0,0,344,4048
423488,0,0,0,216,4176
423488,0,0,0,88,4304
424982,0,0,0,216,4176
424985,0,0,0,88,4304
428788,0,0,0,728,3664
428791,0,0,0,88,4304
430366,0,0,0,216,4176
430369,0,0,0,56,4336
431589,0,0,0,184,4208
431592,0,0,0,24,4368
432063,0,0,0,152,4240
432066,0,0,0,24,4368
434131,0,0,0,664,3728
434134,0,0,0,24,4368
434359,0,0,0,152,4240
434362,0,0,0,20,4372
434367,0,0,0,148,4244
434370,0,0,0,20,4372
438951,0,0,0,180,4212
438954,0,0,0,52,4340
439468,0,0,0,692,3700
440418,0,0,0,852,3540
441846,0,0,0,1364,3028
441866,0,0,0,1876,2516
442940,0,0,0,2004,2388
445193,0,0,0,2136,2256
445218,0,0,0,2264,2128
446213,0,0,0,2392,2000
446630,0,0,0,4392,0
446633,0,0,0,1818,2574
446633,0,0,0,442,3950
456945,0,0,0,3016,1376
456948,0,0,0,1960,2432
456948,0,0,0,1320,3072
456948,0,0,0,645,3747
456948,0,0,0,5,4387
462655,0,0,0,3,4389
462694,0,0,0,1,4391
465052,0,0,0,641,3751
465055,0,0,0,1,4391
471461,0,0,0,3,4389
471464,0,0,0,1,4391
471481,0,0,0,3,4389
471484,0,0,0,1,4391
473134,0,0,0,641,3751
473137,0,0,0,1,4391
480062,0,0,0,3,4389
480119,0,0,0,5,4387
481164,0,0,0,645,3747
481167,0,0,0,5,4387
489155,0,0,0,645,3747
489158,0,0,0,485,3907
489158,0,0,0,325,4067
489158,0,0,0,165,4227
489158,0,0,0,37,4355
492704,0,0,0,712,3680
497911,0,0,0,872,3520
497967,0,0,0,1032,3360
497970,0,0,0,8,4384
498098,0,0,0,168,4224
500005,0,0,0,296,4096
500233,0,0,0,936,3456
500236,0,0,0,296,4096
500236,0,0,0,168,4224
500236,0,0,0,40,4352
508274,0,0,0,680,3712
508277,0,0,0,40,4352
511079,0,0,0,168,4224
511082,0,0,0,40,4352
511143,0,0,0,168,4224
511146,0,0,0,40,4352
516401,0,0,0,1064,3328
516404,0,0,0,424,3968
520540,0,0,0,1064,3328
520543,0,0,0,424,3968
521941,0,0,0,552,3840
522011,0,0,0,680,3712
522014,0,0,0,40,4352
528675,0,0,0,680,3712
528678,0,0,0,40,4352
532786,0,0,0,680,3712
533119,0,0,0,2056,2336
533122,0,0,0,1256,3136
533122,0,0,0,456,3936
533122,0,0,0,328,4064
534233,0,0,0,968,3424
534236,0,0,0,168,4224
540912,0,0,0,808,3584
540915,0,0,0,8,4384
541803,0,0,0,136,4256
543510,0,0,0,1192,3200
543513,0,0,0,392,4000
543513,0,0,0,264,4128
543513,0,0,0,136,4256
543513,0,0,0,8,4384
548738,0,0,0,808,3584
548741,0,0,0,296,4096
548741,0,0,0,40,4352
548893,0,0,0,840,3552
548896,0,0,0,584,3808
548896,0,0,0,328,4064
548896,0,0,0,200,4192
548896,0,0,0,72,4320
549915,0,0,0,872,3520
549918,0,0,0,360,4032
549918,0,0,0,232,4160
549918,0,0,0,104,4288
553127,0,0,0,232,4160
553130,0,0,0,104,4288
554092,0,0,0,232,4160
554095,0,0,0,104,4288
554380,0,0,0,232,4160
554383,0,0,0,100,4292
554398,0,0,0,228,4164
554401,0,0,0,96,4296
556611,0,0,0,896,3496
556614,0,0,0,768,3624
556614,0,0,0,640,3752
556614,0,0,0,512,3880
556614,0,0,0,384,4008
556614,0,0,0,256,4136
556614,0,0,0,128,4264
556614,0,0,0,0,4392
558369,0,0,0,128,4264
558372,0,0,0,0,4392
559221,0,0,0,800,3592
559224,0,0,0,672,3720
559224,0,0,0,544,3848
559224,0,0,0,416,3976
559224,0,0,0,288,4104
559224,0,0,0,160,4232
559224,0,0,0,32,4360
559790,0,0,0,544,3848
559793,0,0,0,416,3976
559793,0,0,0,288,4104
559793,0,0,0,160,4232
559793,0,0,0,32,4360
560775,0,0,0,160,4232
560778,0,0,0,32,4360
560781,0,0,0,160,4232
560784,0,0,0,32,4360
563716,0,0,0,160,4232
563719,0,0,0,32,4360
563956,0,0,0,160,4232
563959,0,0,0,32,4360
564111,0,0,0,164,4228
564114,0,0,0,36,4356
564950,0,0,0,164,4228
564953,0,0,0,36,4356
564991,0,0,0,164,4228
564994,0,0,0,36,4356
565222,0,0,0,168,4224
565225,0,0,0,40,4352
566117,0,0,0,168,4224
566120,0,0,0,40,4352
566249,0,0,0,168,4224
566252,0,0,0,40,4352
567373,0,0,0,168,4224
567390,0,0,0,296,4096
567486,0,0,0,424,3968
567495,0,0,0,552,3840
567509,0,0,0,680,3712
567539,0,0,0,808,3584
567562,0,0,0,936,3456
569195,0,0,0,1064,3328
570058,0,0,0,1192,3200
570068,0,0,0,1320,3072
570069,0,0,0,1448,2944
570075,0,0,0,1576,2816
570094,0,0,0,1704,2688
570598,0,0,0,1960,2432
570631,0,0,0,2088,2304
570709,0,0,0,2344,2048
571696,0,0,0,2472,1920
571787,0,0,0,2728,1664
572549,0,0,0,2856,1536
572676,0,0,0,3368,1024
573076,0,0,0,3496,896
574605,0,0,0,3624,768
574888,0,0,0,3752,640
575848,0,0,0,3880,512
576104,0,0,0,4008,384
576383,0,0,0,4136,256
576386,0,0,0,40,4352
577021,0,0,0,168,4224
577024,0,0,0,40,4352
577201,0,0,0,168,4224
577204,0,0,0,40,4352
587902,0,0,0,168,4224
587905,0,0,0,40,4352
588054,0,0,0,168,4224
588057,0,0,0,40,4352
598769,0,0,0,168,4224
598772,0,0,0,40,4352
599016,0,0,0,168,4224
599019,0,0,0,36,4356
606266,0,0,0,164,4228
606269,0,0,0,32,4360
609897,0,0,0,164,4228
609900,0,0,0,36,4356
616280,0,0,0,168,4224
616283,0,0,0,40,4352
617990,0,0,0,168,4224
618742,0,0,0,40,4352
627124,0,0,0,168,4224
629579,0,0,0,296,4096
629582,0,0,0,40,4352
639081,0,0,0,4136,256
639084,0,0,0,40,4352
651224,0,0,0,296,4096
651227,0,0,0,40,4352
672876,0,0,0,296,4096
672879,0,0,0,40,4352
694574,0,0,0,296,4096
694577,0,0,0,40,4352
703061,0,0,0,296,4096
703064,0,0,0,40,4352
704893,0,0,0,4136,256
704896,0,0,0,3496,896
704896,0,0,0,922,3470
704896,0,0,0,666,3726
704896,0,0,0,538,3854
704896,0,0,0,378,4014
704896,0,0,0,250,4142
704896,0,0,0,122,4270
710332,0,0,0,250,4142
711854,0,0,0,506,3886
712145,0,0,0,634,3758
713585,0,0,0,794,3598
714630,0,0,0,3368,1024
714633,0,0,0,794,3598
714633,0,0,0,154,4238
714633,0,0,0,26,4366
715756,0,0,0,154,4238
719798,0,0,0,282,4110
719801,0,0,0,26,4366
720324,0,0,0,666,3726
720327,0,0,0,154,4238
724693,0,0,0,410,3982
728343,0,0,0,666,3726
730950,0,0,0,3240,1152
730953,0,0,0,666,3726
734872,0,0,0,1306,3086
736162,0,0,0,1818,2574
736165,0,0,0,442,3950
736165,0,0,0,314,4078
736165,0,0,0,58,4334
739139,0,0,0,2632,1760
739142,0,0,0,1608,2784
739142,0,0,0,1096,3296
739142,0,0,0,456,3936
739142,0,0,0,200,4192
757429,0,0,0,1224,3168
757432,0,0,0,200,4192
757806,0,0,0,456,3936
757809,0,0,0,200,4192
760769,0,0,0,456,3936
760772,0,0,0,200,4192
764019,0,0,0,712,3680
764022,0,0,0,172,4220
779123,0,0,0,1196,3196
779126,0,0,0,172,4220
779448,0,0,0,428,3964
779451,0,0,0,172,4220
782403,0,0,0,428,3964
782406,0,0,0,172,4220
782424,0,0,0,812,3580
782427,0,0,0,300,4092
782427,0,0,0,44,4348
792863,0,0,0,584,3808
792866,0,0,0,72,4320
794035,0,0,0,328,4064
794038,0,0,0,72,4320
794056,0,0,0,328,4064
794059,0,0,0,72,4320
801104,0,0,0,328,4064
805178,0,0,0,1352,3040
805181,0,0,0,328,4064
806218,0,0,0,584,3808
806362,0,0,0,1096,3296
811692,0,0,0,2120,2272
815639,0,0,0,2376,2016
817218,0,0,0,2888,1504
822664,0,0,0,3016,1376
822684,0,0,0,4392,0
822687,0,0,0,542,3850
838104,0,0,0,4392,0
838107,0,0,0,542,3850
848551,0,0,0,4392,0
848554,0,0,0,542,3850
859257,0,0,0,4392,0
859260,0,0,0,542,3850
880422,0,0,0,4392,0
880425,0,0,0,1818,2574
896192,0,0,0,4392,0
896195,0,0,0,542,3850
911324,0,0,0,4392,0
911327,0,0,0,542,3850
924537,0,0,0,4392,0
924540,0,0,0,542,3850
924540,0,0,0,30,4362
952762,0,0,0,3880,512
952765,0,0,0,30,4362
954558,0,0,0,542,3850
966164,0,0,0,4392,0
966167,0,0,0,542,3850
972213,0,0,0,414,3978
975197,0,0,0,286,4106
977214,0,0,0,30,4362
983045,0,0,0,158,4234
986035,0,0,0,286,4106
988172,0,0,0,4136,256
988175,0,0,0,286,4106
998689,0,0,0,4136,256
998692,0,0,0,286,4106
998859,0,0,0,542,3850
1.01019e+06,0,0,0,4392,0
1.01019e+06,0,0,0,542,3850
1.01019e+06,0,0,0,286,4106
1.01019e+06,0,0,0,30,4362
1.0295e+06,0,0,0,3880,512
1.0295e+06,0,0,0,30,4362
1.03182e+06,0,0,0,286,4106
1.03182e+06,0,0,0,158,4234
1.03182e+06,0,0,0,30,4362
1.03183e+06,0,0,0,286,4106
1.03184e+06,0,0,0,158,4234
1.03184e+06,0,0,0,30,4362
1.0373e+06,0,0,0,158,4234
1.03767e+06,0,0,0,286,4106
1.03925e+06,0,0,0,4136,256
1.03925e+06,0,0,0,286,4106
1.03925e+06,0,0,0,30,4362
1.0404e+06,0,0,0,158,4234
1.0404e+06,0,0,0,26,4366
1.04267e+06,0,0,0,154,4238
1.04267e+06,0,0,0,22,4370
1.05133e+06,0,0,0,154,4238
1.05133e+06,0,0,0,26,4366
1.0528e+06,0,0,0,158,4234
1.05281e+06,0,0,0,30,4362
1.05667e+06,0,0,0,3880,512
1.05667e+06,0,0,0,3005,1387
1.05667e+06,0,0,0,2877,1515
1.05667e+06,0,0,0,2749,1643
1.05667e+06,0,0,0,1725,2667
1.05667e+06,0,0,0,701,3691
1.05841e+06,0,0,0,829,3563
1.06088e+06,0,0,0,1085,3307
1.06217e+06,0,0,0,1213,3179
1.06217e+06,0,0,0,13,4379
1.07524e+06,0,0,0,888,3504
1.07524e+06,0,0,0,248,4144
1.07524e+06,0,0,0,112,4280
1.07773e+06,0,0,0,1136,3256
1.07773e+06,0,0,0,112,4280
1.0861e+06,0,0,0,248,4144
1.0861e+06,0,0,0,112,4280
1.0969e+06,0,0,0,752,3640
1.0969e+06,0,0,0,616,3776
1.0969e+06,0,0,0,480,3912
1.0969e+06,0,0,0,344,4048
1.0969e+06,0,0,0,208,4184
1.0969e+06,0,0,0,72,4320
1.09696e+06,0,0,0,208,4184
1.09696e+06,0,0,0,72,4320
1.0994e+06,0,0,0,1096,3296
1.0994e+06,0,0,0,72,4320
1.10118e+06,0,0,0,1096,3296
1.10119e+06,0,0,0,960,3432
1.10119e+06,0,0,0,824,3568
1.10119e+06,0,0,0,688,3704
1.10119e+06,0,0,0,560,3832
1.10457e+06,0,0,0,428,3964
1.10457e+06,0,0,0,1452,2940
1.10458e+06,0,0,0,252,4140
1.1077e+06,0,0,0,388,4004
1.1077e+06,0,0,0,524,3868
1.1077e+06,0,0,0,660,3732
1.10773e+06,0,0,0,796,3596
1.10774e+06,0,0,0,932,3460
1.10775e+06,0,0,0,1068,3324
1.11199e+06,0,0,0,1204,3188
1.112e+06,0,0,0,4,4388
1.11201e+06,0,0,0,140,4252
1.11201e+06,0,0,0,8,4384
1.11206e+06,0,0,0,144,4248
1.11206e+06,0,0,0,272,4120
1.11207e+06,0,0,0,16,4376
1.11546e+06,0,0,0,148,4244
1.11547e+06,0,0,0,20,4372
1.11623e+06,0,0,0,1220,3172
1.11624e+06,0,0,0,418,3974
1.11624e+06,0,0,0,162,4230
1.12098e+06,0,0,0,418,3974
1.12098e+06,0,0,0,162,4230
1.12203e+06,0,0,0,294,4098
1.12204e+06,0,0,0,38,4354
1.12631e+06,0,0,0,166,4226
1.12875e+06,0,0,0,422,3970
1.12876e+06,0,0,0,166,4226
1.13141e+06,0,0,0,422,3970
1.13141e+06,0,0,0,166,4226
1.13195e+06,0,0,0,422,3970
1.13195e+06,0,0,0,166,4226
1.1388e+06,0,0,0,422,3970
1.14081e+06,0,0,0,678,3714
1.14322e+06,0,0,0,806,3586
1.14327e+06,0,0,0,934,3458
1.14866e+06,0,0,0,1736,2656
1.14969e+06,0,0,0,1992,2400
1.1557e+06,0,0,0,3192,1200
1.1557e+06,0,0,0,1144,3248
1.16607e+06,0,0,0,2344,2048
1.16607e+06,0,0,0,296,4096
1.16607e+06,0,0,0,40,4352
1.18914e+06,0,0,0,296,4096
1.18914e+06,0,0,0,40,4352
1.21224e+06,0,0,0,296,4096
1.21225e+06,0,0,0,40,4352
1.23393e+06,0,0,0,296,4096
1.23393e+06,0,0,0,40,4352
1.24101e+06,0,0,0,2088,2304
1.24101e+06,0,0,0,40,4352
1.24115e+06,0,0,0,296,4096
1.24115e+06,0,0,0,40,4352
1.25108e+06,0,0,0,2088,2304
1.25109e+06,0,0,0,1384,3008
1.25109e+06,0,0,0,360,4032
1.25109e+06,0,0,0,104,4288
1.25201e+06,0,0,0,360,4032
1.25202e+06,0,0,0,104,4288
1.27274e+06,0,0,0,360,4032
1.27275e+06,0,0,0,228,4164
1.27275e+06,0,0,0,96,4296
1.27366e+06,0,0,0,352,4040
1.27366e+06,0,0,0,220,4172
1.27366e+06,0,0,0,88,4304
1.27635e+06,0,0,0,1112,3280
1.27635e+06,0,0,0,310,4082
1.27635e+06,0,0,0,54,4338
1.28277e+06,0,0,0,186,4206
1.28277e+06,0,0,0,58,4334
1.28359e+06,0,0,0,190,4202
1.28359e+06,0,0,0,58,4334
1.28371e+06,0,0,0,190,4202
1.28371e+06,0,0,0,62,4330
1.28455e+06,0,0,0,194,4198
1.28455e+06,0,0,0,66,4326
1.29103e+06,0,0,0,194,4198
1.29103e+06,0,0,0,66,4326
1.29371e+06,0,0,0,194,4198
1.29371e+06,0,0,0,66,4326
1.29376e+06,0,0,0,198,4194
1.29376e+06,0,0,0,70,4322
1.29436e+06,0,0,0,774,3618
1.29436e+06,0,0,0,286,4106
1.29436e+06,0,0,0,30,4362
1.29541e+06,0,0,0,158,4234
1.29541e+06,0,0,0,30,4362
1.29802e+06,0,0,0,286,4106
1.29802e+06,0,0,0,30,4362
1.30106e+06,0,0,0,158,4234
1.30107e+06,0,0,0,26,4366
1.30109e+06,0,0,0,154,4238
1.3011e+06,0,0,0,22,4370
1.30158e+06,0,0,0,278,4114
1.30158e+06,0,0,0,146,4246
1.30158e+06,0,0,0,14,4378
1.30188e+06,0,0,0,142,4250
1.30189e+06,0,0,0,10,4382
1.30521e+06,0,0,0,266,4126
1.30628e+06,0,0,0,394,3998
1.30881e+06,0,0,0,1196,3196
1.31097e+06,0,0,0,1328,3064
1.31137e+06,0,0,0,1460,2932
1.31161e+06,0,0,0,1268,3124
1.31184e+06,0,0,0,1076,3316
1.31195e+06,0,0,0,1208,3184
1.312e+06,0,0,0,1340,3052
1.31253e+06,0,0,0,1472,2920
1.31459e+06,0,0,0,1344,3048
1.31559e+06,0,0,0,1216,3176
1.31906e+06,0,0,0,1408,2984
1.32011e+06,0,0,0,896,3496
1.32012e+06,0,0,0,640,3752
1.32164e+06,0,0,0,832,3560
1.3218e+06,0,0,0,960,3432
1.32277e+06,0,0,0,1088,3304
1.32322e+06,0,0,0,1576,2816
1.32602e+06,0,0,0,3624,768
1.32602e+06,0,0,0,552,3840
1.32602e+06,0,0,0,40,4352
1.32729e+06,0,0,0,296,4096
1.32729e+06,0,0,0,164,4228
1.32729e+06,0,0,0,36,4356
1.32732e+06,0,0,0,548,3844
1.32822e+06,0,0,0,416,3976
1.3302e+06,0,0,0,288,4104
1.3353e+06,0,0,0,156,4236
1.33532e+06,0,0,0,24,4368
1.33742e+06,0,0,0,152,4240
1.33806e+06,0,0,0,284,4108
1.33811e+06,0,0,0,416,3976
1.33815e+06,0,0,0,544,3848
1.34547e+06,0,0,0,676,3716
1.34618e+06,0,0,0,808,3584
1.35061e+06,0,0,0,3880,512
1.35061e+06,0,0,0,808,3584
1.35061e+06,0,0,0,6,4386
1.35842e+06,0,0,0,518,3874
1.35842e+06,0,0,0,262,4130
1.37174e+06,0,0,0,130,4262
1.37174e+06,0,0,0,386,4006
1.37475e+06,0,0,0,241,4151
1.37607e+06,0,0,0,3313,1079
1.37608e+06,0,0,0,241,4151
1.37995e+06,0,0,0,386,4006
1.37995e+06,0,0,0,130,4262
1.38172e+06,0,0,0,262,4130
1.38172e+06,0,0,0,6,4386
1.38309e+06,0,0,0,808,3584
1.38309e+06,0,0,0,168,4224
1.39886e+06,0,0,0,424,3968
1.39886e+06,0,0,0,232,4160
1.40043e+06,0,0,0,3304,1088
1.40043e+06,0,0,0,1128,3264
1.40043e+06,0,0,0,228,4164
1.40087e+06,0,0,0,484,3908
1.40433e+06,0,0,0,676,3716
1.40478e+06,0,0,0,1316,3076
1.40478e+06,0,0,0,416,3976
1.41137e+06,0,0,0,2592,1800
1.41137e+06,0,0,0,1568,2824
1.41137e+06,0,0,0,544,3848
1.41137e+06,0,0,0,288,4104
1.41137e+06,0,0,0,32,4360
1.41658e+06,0,0,0,1056,3336
1.41658e+06,0,0,0,32,4360
1.41912e+06,0,0,0,1056,3336
1.41912e+06,0,0,0,32,4360
1.4305e+06,0,0,0,288,4104
1.43106e+06,0,0,0,544,3848
1.43547e+06,0,0,0,1568,2824
1.43547e+06,0,0,0,544,3848
1.4383e+06,0,0,0,1568,2824
1.4383e+06,0,0,0,544,3848
1.4383e+06,0,0,0,352,4040
1.4383e+06,0,0,0,160,4232
1.44809e+06,0,0,0,352,4040
1.44917e+06,0,0,0,544,3848
1.45038e+06,0,0,0,1568,2824
1.45039e+06,0,0,0,544,3848
1.45524e+06,0,0,0,1568,2824
1.45524e+06,0,0,0,544,3848
1.45524e+06,0,0,0,352,4040
1.45524e+06,0,0,0,160,4232
1.46503e+06,0,0,0,352,4040
1.46527e+06,0,0,0,1376,3016
1.46527e+06,0,0,0,352,4040
1.46527e+06,0,0,0,160,4232
1.46533e+06,0,0,0,352,4040
1.46533e+06,0,0,0,160,4232
1.47075e+06,0,0,0,1184,3208
1.47075e+06,0,0,0,160,4232
1.47075e+06,0,0,0,28,4364
1.47565e+06,0,0,0,220,4172
1.47565e+06,0,0,0,28,4364
1.47613e+06,0,0,0,220,4172
1.47614e+06,0,0,0,92,4300
1.48103e+06,0,0,0,224,4168
1.48162e+06,0,0,0,352,4040
1.48212e+06,0,0,0,1376,3016
1.48212e+06,0,0,0,352,4040
1.48212e+06,0,0,0,96,4296
1.48539e+06,0,0,0,996,3396
1.4854e+06,0,0,0,804,3588
1.4854e+06,0,0,0,612,3780
1.4854e+06,0,0,0,420,3972
1.4854e+06,0,0,0,228,4164
1.4854e+06,0,0,0,36,4356
1.48565e+06,0,0,0,1060,3332
1.48565e+06,0,0,0,868,3524
1.48565e+06,0,0,0,736,3656
1.48566e+06,0,0,0,928,3464
1.49043e+06,0,0,0,1828,2564
1.49255e+06,0,0,0,1664,2728
1.49275e+06,0,0,0,1472,2920
1.49286e+06,0,0,0,1344,3048
1.49287e+06,0,0,0,1216,3176
1.49288e+06,0,0,0,1088,3304
1.49371e+06,0,0,0,960,3432
1.49522e+06,0,0,0,1152,3240
1.49528e+06,0,0,0,1344,3048
1.49532e+06,0,0,0,1536,2856
1.49534e+06,0,0,0,1728,2664
1.49623e+06,0,0,0,1920,2472
1.49651e+06,0,0,0,2052,2340
1.49652e+06,0,0,0,2244,2148
1.49778e+06,0,0,0,2436,1956
1.49863e+06,0,0,0,3460,932
1.50093e+06,0,0,0,3588,804
1.50141e+06,0,0,0,3844,548
1.50293e+06,0,0,0,3972,420
1.50294e+06,0,0,0,4100,292
1.50294e+06,0,0,0,4,4388
1.503e+06,0,0,0,132,4260
1.503e+06,0,0,0,4,4388
1.50343e+06,0,0,0,168,4224
1.50343e+06,0,0,0,40,4352
1.53484e+06,0,0,0,168,4224
1.53485e+06,0,0,0,40,4352
1.53489e+06,0,0,0,168,4224
1.53489e+06,0,0,0,40,4352
1.54496e+06,0,0,0,168,4224
1.54496e+06,0,0,0,40,4352
1.54502e+06,0,0,0,168,4224
1.54502e+06,0,0,0,40,4352
1.55503e+06,0,0,0,168,4224
1.55504e+06,0,0,0,40,4352
1.55508e+06,0,0,0,168,4224
1.55508e+06,0,0,0,40,4352
1.55608e+06,0,0,0,39,4353
1.55637e+06,0,0,0,38,4354
1.55801e+06,0,0,0,37,4355
1.56332e+06,0,0,0,38,4354
1.56366e+06,0,0,0,39,4353
1.56512e+06,0,0,0,167,4225
1.56512e+06,0,0,0,39,4353
1.56516e+06,0,0,0,167,4225
1.56517e+06,0,0,0,39,4353
1.56526e+06,0,0,0,40,4352
1.5752e+06,0,0,0,168,4224
1.5752e+06,0,0,0,40,4352
1.57525e+06,0,0,0,168,4224
1.57525e+06,0,0,0,40,4352
1.58528e+06,0,0,0,168,4224
1.58536e+06,0,0,0,296,4096
1.58943e+06,0,0,0,4392,0
1.58944e+06,0,0,0,296,4096
1.58944e+06,0,0,0,40,4352
1.61246e+06,0,0,0,296,4096
1.61246e+06,0,0,0,40,4352
1.62899e+06,0,0,0,296,4096
1.62899e+06,0,0,0,40,4352
1.63317e+06,0,0,0,38,4354
1.63326e+06,0,0,0,36,4356
1.63326e+06,0,0,0,34,4358
1.65064e+06,0,0,0,290,4102
1.65064e+06,0,0,0,34,4358
1.65485e+06,0,0,0,36,4356
1.6549e+06,0,0,0,38,4354
1.65491e+06,0,0,0,40,4352
1.6723e+06,0,0,0,296,4096
1.67596e+06,0,0,0,4392,0
1.67596e+06,0,0,0,3368,1024
1.67596e+06,0,0,0,2566,1826
1.67596e+06,0,0,0,1764,2628
1.67596e+06,0,0,0,864,3528
1.67596e+06,0,0,0,352,4040
1.67596e+06,0,0,0,96,4296
1.68578e+06,0,0,0,88,4304
1.69764e+06,0,0,0,344,4048
1.69764e+06,0,0,0,216,4176
1.69764e+06,0,0,0,34,4358
1.69964e+06,0,0,0,546,3846
1.69965e+06,0,0,0,162,4230
1.70493e+06,0,0,0,290,4102
1.70493e+06,0,0,0,34,4358
1.70584e+06,0,0,0,42,4350
1.70698e+06,0,0,0,426,3966
1.70698e+06,0,0,0,170,4222
1.70825e+06,0,0,0,352,4040
1.70826e+06,0,0,0,96,4296
1.71852e+06,0,0,0,352,4040
1.71852e+06,0,0,0,96,4296
1.72086e+06,0,0,0,1120,3272
1.72086e+06,0,0,0,864,3528
1.72086e+06,0,0,0,608,3784
1.72086e+06,0,0,0,352,4040
1.72086e+06,0,0,0,96,4296
1.72102e+06,0,0,0,352,4040
1.72103e+06,0,0,0,96,4296
1.72176e+06,0,0,0,352,4040
1.72176e+06,0,0,0,96,4296
1.73231e+06,0,0,0,352,4040
1.73231e+06,0,0,0,224,4168
1.73425e+06,0,0,0,480,3912
1.73443e+06,0,0,0,736,3656
1.73446e+06,0,0,0,992,3400
1.73507e+06,0,0,0,1248,3144
1.73538e+06,0,0,0,1504,2888
1.73538e+06,0,0,0,128,4264
1.74045e+06,0,0,0,256,4136
1.74045e+06,0,0,0,64,4328
1.74342e+06,0,0,0,320,4072
1.74342e+06,0,0,0,128,4264
1.75022e+06,0,0,0,320,4072
1.75022e+06,0,0,0,128,4264
1.75344e+06,0,0,0,320,4072
1.75345e+06,0,0,0,128,4264
1.75704e+06,0,0,0,1504,2888
1.75704e+06,0,0,0,1312,3080
1.75704e+06,0,0,0,1184,3208
1.75704e+06,0,0,0,1056,3336
1.75704e+06,0,0,0,928,3464
1.75704e+06,0,0,0,800,3592
1.75704e+06,0,0,0,668,3724
1.75704e+06,0,0,0,412,3980
1.75704e+06,0,0,0,156,4236
1.76038e+06,0,0,0,348,4044
1.76038e+06,0,0,0,156,4236
1.76159e+06,0,0,0,1056,3336
1.76159e+06,0,0,0,864,3528
1.76159e+06,0,0,0,672,3720
1.76159e+06,0,0,0,416,3976
1.76159e+06,0,0,0,160,4232
1.76247e+06,0,0,0,962,3430
1.76248e+06,0,0,0,706,3686
1.76248e+06,0,0,0,450,3942
1.76248e+06,0,0,0,194,4198
1.76249e+06,0,0,0,996,3396
1.76249e+06,0,0,0,740,3652
1.76249e+06,0,0,0,484,3908
1.76249e+06,0,0,0,228,4164
1.76336e+06,0,0,0,420,3972
1.76336e+06,0,0,0,164,4228
1.76711e+06,0,0,0,292,4100
1.76711e+06,0,0,0,36,4356
1.76712e+06,0,0,0,164,4228
1.76712e+06,0,0,0,36,4356
1.76713e+06,0,0,0,164,4228
1.76714e+06,0,0,0,292,4100
1.76714e+06,0,0,0,164,4228
1.76715e+06,0,0,0,296,4096
1.76715e+06,0,0,0,40,4352
1.76763e+06,0,0,0,232,4160
1.77094e+06,0,0,0,424,3968
1.77094e+06,0,0,0,168,4224
1.77153e+06,0,0,0,360,4032
1.77153e+06,0,0,0,104,4288
1.77252e+06,0,0,0,296,4096
1.77266e+06,0,0,0,424,3968
1.77515e+06,0,0,0,680,3712
1.77515e+06,0,0,0,168,4224
1.77515e+06,0,0,0,40,4352
1.7762e+06,0,0,0,296,4096
1.77621e+06,0,0,0,168,4224
1.77621e+06,0,0,0,40,4352
1.77631e+06,0,0,0,296,4096
1.77631e+06,0,0,0,168,4224
1.77631e+06,0,0,0,40,4352
1.77636e+06,0,0,0,296,4096
1.77636e+06,0,0,0,168,4224
1.77636e+06,0,0,0,40,4352
1.77644e+06,0,0,0,296,4096
1.77644e+06,0,0,0,168,4224
1.77644e+06,0,0,0,40,4352
1.7765e+06,0,0,0,296,4096
1.7765e+06,0,0,0,168,4224
1.7765e+06,0,0,0,40,4352
1.77677e+06,0,0,0,296,4096
1.77677e+06,0,0,0,168,4224
1.77677e+06,0,0,0,40,4352
1.77702e+06,0,0,0,296,4096
1.77702e+06,0,0,0,168,4224
1.77777e+06,0,0,0,424,3968
1.77777e+06,0,0,0,168,4224
1.77798e+06,0,0,0,296,4096
1.77803e+06,0,0,0,552,3840
1.7787e+06,0,0,0,808,3584
1.7787e+06,0,0,0,168,4224
1.78155e+06,0,0,0,424,3968
1.78155e+06,0,0,0,168,4224
1.7818e+06,0,0,0,296,4096
1.78183e+06,0,0,0,424,3968
1.78201e+06,0,0,0,552,3840
1.78206e+06,0,0,0,680,3712
1.78208e+06,0,0,0,808,3584
1.78254e+06,0,0,0,936,3456
1.78254e+06,0,0,0,40,4352
1.78328e+06,0,0,0,168,4224
1.78422e+06,0,0,0,296,4096
1.78422e+06,0,0,0,104,4288
1.78434e+06,0,0,0,232,4160
1.7846e+06,0,0,0,360,4032
1.7846e+06,0,0,0,104,4288
1.78732e+06,0,0,0,232,4160
1.78734e+06,0,0,0,360,4032
1.78734e+06,0,0,0,104,4288
1.7874e+06,0,0,0,232,4160
1.78741e+06,0,0,0,68,4324
1.78762e+06,0,0,0,196,4196
1.78881e+06,0,0,0,452,3940
1.78881e+06,0,0,0,196,4196
1.78953e+06,0,0,0,836,3556
1.79272e+06,0,0,0,1092,3300
1.79272e+06,0,0,0,230,4162
1.79272e+06,0,0,0,98,4294
1.79328e+06,0,0,0,354,4038
1.79506e+06,0,0,0,546,3846
1.79557e+06,0,0,0,802,3590
1.79702e+06,0,0,0,1698,2694
1.79702e+06,0,0,0,674,3718
1.79827e+06,0,0,0,838,3554
1.79872e+06,0,0,0,1350,3042
1.79872e+06,0,0,0,326,4066
1.79946e+06,0,0,0,582,3810
1.80295e+06,0,0,0,714,3678
1.80414e+06,0,0,0,970,3422
1.80666e+06,0,0,0,1226,3166
1.80667e+06,0,0,0,202,4190
1.80667e+06,0,0,0,74,4318
1.81249e+06,0,0,0,330,4062
1.81301e+06,0,0,0,1354,3038
1.81301e+06,0,0,0,330,4062
1.81301e+06,0,0,0,74,4318
1.81537e+06,0,0,0,1098,3294
1.81537e+06,0,0,0,842,3550
1.81537e+06,0,0,0,586,3806
1.81537e+06,0,0,0,330,4062
1.81537e+06,0,0,0,74,4318
1.81757e+06,0,0,0,202,4190
1.81757e+06,0,0,0,74,4318
1.8232e+06,0,0,0,1098,3294
1.8232e+06,0,0,0,842,3550
1.8232e+06,0,0,0,714,3678
1.8232e+06,0,0,0,586,3806
1.8232e+06,0,0,0,330,4062
1.8232e+06,0,0,0,202,4190
1.8232e+06,0,0,0,74,4318
1.82795e+06,0,0,0,1098,3294
1.82795e+06,0,0,0,586,3806
1.82852e+06,0,0,0,714,3678
1.82987e+06,0,0,0,970,3422
1.83324e+06,0,0,0,1098,3294
1.83324e+06,0,0,0,74,4318
1.83325e+06,0,0,0,202,4190
1.83419e+06,0,0,0,330,4062
1.83477e+06,0,0,0,586,3806
1.83539e+06,0,0,0,714,3678
1.83702e+06,0,0,0,970,3422
1.83704e+06,0,0,0,1226,3166
1.83707e+06,0,0,0,1482,2910
1.83708e+06,0,0,0,202,4190
1.83708e+06,0,0,0,74,4318
1.83714e+06,0,0,0,330,4062
1.83714e+06,0,0,0,202,4190
1.83714e+06,0,0,0,74,4318
1.84656e+06,0,0,0,1354,3038
1.84656e+06,0,0,0,1226,3166
1.84656e+06,0,0,0,202,4190
1.84656e+06,0,0,0,74,4318
1.84722e+06,0,0,0,202,4190
1.85067e+06,0,0,0,714,3678
1.85067e+06,0,0,0,458,3934
1.85067e+06,0,0,0,202,4190
1.85497e+06,0,0,0,1226,3166
1.85497e+06,0,0,0,970,3422
1.85497e+06,0,0,0,842,3550
1.85497e+06,0,0,0,714,3678
1.85497e+06,0,0,0,712,3680
1.85497e+06,0,0,0,710,3682
1.85497e+06,0,0,0,70,4322
1.85565e+06,0,0,0,326,4066
1.85664e+06,0,0,0,454,3938
1.85747e+06,0,0,0,582,3810
1.85747e+06,0,0,0,70,4322
1.86126e+06,0,0,0,198,4194
1.86126e+06,0,0,0,70,4322
1.8623e+06,0,0,0,198,4194
1.8623e+06,0,0,0,70,4322
1.86273e+06,0,0,0,198,4194
1.86273e+06,0,0,0,70,4322
1.86462e+06,0,0,0,582,3810
1.86462e+06,0,0,0,326,4066
1.86588e+06,0,0,0,454,3938
1.86589e+06,0,0,0,70,4322
1.86591e+06,0,0,0,710,3682
1.86592e+06,0,0,0,454,3938
1.86592e+06,0,0,0,198,4194
1.866e+06,0,0,0,200,4192
1.87212e+06,0,0,0,328,4064
1.87212e+06,0,0,0,72,4320
1.87231e+06,0,0,0,328,4064
1.87231e+06,0,0,0,72,4320
1.87233e+06,0,0,0,328,4064
1.87234e+06,0,0,0,72,4320
1.87315e+06,0,0,0,200,4192
1.87356e+06,0,0,0,328,4064
1.87357e+06,0,0,0,72,4320
1.87661e+06,0,0,0,74,4318
1.87662e+06,0,0,0,330,4062
1.87663e+06,0,0,0,202,4190
1.87663e+06,0,0,0,74,4318
1.87881e+06,0,0,0,936,3456
1.87881e+06,0,0,0,680,3712
1.87881e+06,0,0,0,552,3840
1.87881e+06,0,0,0,296,4096
1.87881e+06,0,0,0,40,4352
1.88014e+06,0,0,0,296,4096
1.88014e+06,0,0,0,104,4288
1.88096e+06,0,0,0,360,4032
1.88096e+06,0,0,0,168,4224
1.88113e+06,0,0,0,424,3968
1.88113e+06,0,0,0,232,4160
1.88113e+06,0,0,0,40,4352
1.88195e+06,0,0,0,168,4224
1.8821e+06,0,0,0,296,4096
1.88454e+06,0,0,0,40,4352
1.88622e+06,0,0,0,296,4096
1.88678e+06,0,0,0,424,3968
1.88744e+06,0,0,0,680,3712
1.88795e+06,0,0,0,872,3520
1.888e+06,0,0,0,1128,3264
1.88801e+06,0,0,0,228,4164
1.88855e+06,0,0,0,484,3908
1.88855e+06,0,0,0,162,4230
1.89012e+06,0,0,0,354,4038
1.89013e+06,0,0,0,98,4294
1.89018e+06,0,0,0,290,4102
1.89098e+06,0,0,0,482,3910
1.89171e+06,0,0,0,738,3654
1.89404e+06,0,0,0,1122,3270
1.89404e+06,0,0,0,320,4072
1.89404e+06,0,0,0,156,4236
1.90045e+06,0,0,0,412,3980
1.90047e+06,0,0,0,668,3724
1.90047e+06,0,0,0,28,4364
1.90049e+06,0,0,0,284,4108
1.90049e+06,0,0,0,92,4300
1.90489e+06,0,0,0,256,4136
1.90714e+06,0,0,0,578,3814
1.90714e+06,0,0,0,66,4326
1.9078e+06,0,0,0,258,4134
1.90794e+06,0,0,0,1282,3110
1.90795e+06,0,0,0,642,3750
1.90795e+06,0,0,0,386,4006
1.90795e+06,0,0,0,130,4262
1.91159e+06,0,0,0,770,3622
1.9116e+06,0,0,0,514,3878
1.9116e+06,0,0,0,386,4006
1.9116e+06,0,0,0,130,4262
1.9116e+06,0,0,0,2,4390
1.91184e+06,0,0,0,258,4134
1.91184e+06,0,0,0,130,4262
1.917e+06,0,0,0,770,3622
1.917e+06,0,0,0,578,3814
1.917e+06,0,0,0,386,4006
1.917e+06,0,0,0,194,4198
1.917e+06,0,0,0,2,4390
1.92246e+06,0,0,0,130,4262
1.92252e+06,0,0,0,258,4134
1.9227e+06,0,0,0,386,4006
1.92315e+06,0,0,0,898,3494
1.92682e+06,0,0,0,1090,3302
1.92684e+06,0,0,0,1282,3110
1.92696e+06,0,0,0,1474,2918
1.92754e+06,0,0,0,1666,2726
1.92957e+06,0,0,0,1922,2470
1.92961e+06,0,0,0,2178,2214
1.93319e+06,0,0,0,2434,1958
1.93329e+06,0,0,0,2690,1702
1.9695e+06,0,0,0,2526,1866
1.97362e+06,0,0,0,3426,966
1.98034e+06,0,0,0,3590,802
1.98055e+06,0,0,0,4392,0
2.0156e+06,0,0,0,4136,256
2.01698e+06,0,0,0,3880,512
2.017e+06,0,0,0,3624,768
2.02163e+06,0,0,0,2784,1608
2.03675e+06,0,0,0,2639,1753
2.03723e+06,0,0,0,2895,1497
2.03863e+06,0,0,0,3151,1241
2.03865e+06,0,0,0,3407,985
2.04182e+06,0,0,0,3552,840
2.05122e+06,0,0,0,2652,1740
2.06035e+06,0,0,0,2524,1868
2.0659e+06,0,0,0,2652,1740
2.07146e+06,0,0,0,2524,1868
2.07156e+06,0,0,0,2396,1996
2.07247e+06,0,0,0,2268,2124
2.07272e+06,0,0,0,1884,2508
2.07468e+06,0,0,0,1044,3348
2.07766e+06,0,0,0,1172,3220
2.07938e+06,0,0,0,916,3476
2.08247e+06,0,0,0,1044,3348
2.08334e+06,0,0,0,1172,3220
2.08422e+06,0,0,0,1556,2836
2.08492e+06,0,0,0,1364,3028
2.08555e+06,0,0,0,1172,3220
2.0861e+06,0,0,0,1428,2964
2.08663e+06,0,0,0,1264,3128
2.09296e+06,0,0,0,1136,3256
2.09484e+06,0,0,0,1328,3064
2.0951e+06,0,0,0,1072,3320
2.09515e+06,0,0,0,816,3576
2.09646e+06,0,0,0,1008,3384
2.09754e+06,0,0,0,1172,3220
2.09768e+06,0,0,0,916,3476
2.10387e+06,0,0,0,1044,3348
2.10563e+06,0,0,0,472,3920
2.10677e+06,0,0,0,1312,3080
2.10743e+06,0,0,0,1184,3208
2.10955e+06,0,0,0,1440,2952
2.11676e+06,0,0,0,1696,2696
2.11677e+06,0,0,0,1952,2440
2.11828e+06,0,0,0,2080,2312
2.11923e+06,0,0,0,2920,1472
2.1201e+06,0,0,0,3492,900
2.1362e+06,0,0,0,2468,1924
2.13717e+06,0,0,0,2332,2060
2.13725e+06,0,0,0,2076,2316
2.13861e+06,0,0,0,2976,1416
2.14794e+06,0,0,0,3232,1160
2.14797e+06,0,0,0,3368,1024
2.15078e+06,0,0,0,4392,0
2.1869e+06,0,0,0,3530,862
2.18712e+06,0,0,0,3338,1054
2.18713e+06,0,0,0,3146,1246
2.18848e+06,0,0,0,2954,1438
2.19148e+06,0,0,0,2698,1694
2.1915e+06,0,0,0,2442,1950
2.19701e+06,0,0,0,2634,1758
2.19702e+06,0,0,0,2826,1566
2.19823e+06,0,0,0,3018,1374
2.21313e+06,0,0,0,3274,1118
2.21314e+06,0,0,0,3530,862
2.21375e+06,0,0,0,3018,1374
2.21934e+06,0,0,0,2882,1510
2.21936e+06,0,0,0,2746,1646
2.21936e+06,0,0,0,2610,1782
2.21937e+06,0,0,0,2474,1918
2.21938e+06,0,0,0,2338,2054
2.2194e+06,0,0,0,2202,2190
2.2194e+06,0,0,0,2066,2326
2.21941e+06,0,0,0,1930,2462
2.21942e+06,0,0,0,1794,2598
2.21942e+06,0,0,0,1658,2734
2.22313e+06,0,0,0,818,3574
2.22616e+06,0,0,0,518,3874
2.22617e+06,0,0,0,390,4002
2.22632e+06,0,0,0,134,4258
2.23014e+06,0,0,0,270,4122
2.23015e+06,0,0,0,70,4322
2.23015e+06,0,0,0,206,4186
2.23016e+06,0,0,0,6,4386
2.23019e+06,0,0,0,142,4250
2.23019e+06,0,0,0,278,4114
2.2302e+06,0,0,0,22,4370
2.2302e+06,0,0,0,158,4234
2.23021e+06,0,0,0,294,4098
2.23021e+06,0,0,0,38,4354
2.23023e+06,0,0,0,174,4218
2.23023e+06,0,0,0,310,4082
2.23023e+06,0,0,0,446,3946
2.23024e+06,0,0,0,582,3810
2.23024e+06,0,0,0,326,4066
2.23121e+06,0,0,0,626,3766
2.23477e+06,0,0,0,754,3638
2.23532e+06,0,0,0,954,3438
2.23537e+06,0,0,0,1154,3238
2.23537e+06,0,0,0,130,4262
2.23573e+06,0,0,0,642,3750
2.23573e+06,0,0,0,2,4390
2.24177e+06,0,0,0,1026,3366
2.24177e+06,0,0,0,2,4390
2.24369e+06,0,0,0,258,4134
2.24563e+06,0,0,0,898,3494
2.24564e+06,0,0,0,258,4134
2.24564e+06,0,0,0,66,4326
2.2519e+06,0,0,0,322,4070
2.2519e+06,0,0,0,66,4326
2.25191e+06,0,0,0,322,4070
2.25191e+06,0,0,0,66,4326
2.25197e+06,0,0,0,322,4070
2.25198e+06,0,0,0,66,4326
2.25198e+06,0,0,0,906,3486
2.25198e+06,0,0,0,650,3742
2.2531e+06,0,0,0,842,3550
2.25651e+06,0,0,0,1482,2910
2.25651e+06,0,0,0,458,3934
2.25692e+06,0,0,0,1482,2910
2.25693e+06,0,0,0,458,3934
2.25693e+06,0,0,0,330,4062
2.25693e+06,0,0,0,202,4190
2.26364e+06,0,0,0,1226,3166
2.26364e+06,0,0,0,586,3806
2.26456e+06,0,0,0,1610,2782
2.26457e+06,0,0,0,586,3806
2.26772e+06,0,0,0,714,3678
2.26778e+06,0,0,0,842,3550
2.27284e+06,0,0,0,1704,2688
2.27284e+06,0,0,0,680,3712
2.27284e+06,0,0,0,424,3968
2.27284e+06,0,0,0,40,4352
2.27353e+06,0,0,0,296,4096
2.27357e+06,0,0,0,552,3840
2.27364e+06,0,0,0,808,3584
2.27368e+06,0,0,0,1064,3328
2.27368e+06,0,0,0,40,4352
2.28092e+06,0,0,0,1064,3328
2.28092e+06,0,0,0,936,3456
2.28092e+06,0,0,0,808,3584
2.28092e+06,0,0,0,552,3840
2.28092e+06,0,0,0,424,3968
2.28092e+06,0,0,0,296,4096
2.2811e+06,0,0,0,40,4352
2.28627e+06,0,0,0,1064,3328
2.28701e+06,0,0,0,1192,3200
2.2882e+06,0,0,0,1320,3072
2.29175e+06,0,0,0,1448,2944
2.29177e+06,0,0,0,1576,2816
2.29443e+06,0,0,0,1832,2560
2.29688e+06,0,0,0,932,3460
2.30256e+06,0,0,0,1188,3204
2.30256e+06,0,0,0,164,4228
2.30267e+06,0,0,0,420,3972
2.30522e+06,0,0,0,804,3588
2.3069e+06,0,0,0,1444,2948
2.30884e+06,0,0,0,2468,1924
2.31068e+06,0,0,0,1628,2764
2.3112e+06,0,0,0,1436,2956
2.31122e+06,0,0,0,1244,3148
2.31122e+06,0,0,0,1052,3340
2.31231e+06,0,0,0,2076,2316
2.31275e+06,0,0,0,1884,2508
2.31707e+06,0,0,0,1628,2764
2.31708e+06,0,0,0,1372,3020
2.31708e+06,0,0,0,1116,3276
2.31778e+06,0,0,0,92,4300
2.31865e+06,0,0,0,284,4108
2.31866e+06,0,0,0,148,4244
2.32003e+06,0,0,0,340,4052
2.32014e+06,0,0,0,532,3860
2.32117e+06,0,0,0,724,3668
2.32357e+06,0,0,0,596,3796
2.32751e+06,0,0,0,468,3924
2.32944e+06,0,0,0,604,3788
2.33279e+06,0,0,0,476,3916
2.3328e+06,0,0,0,348,4044
2.33281e+06,0,0,0,220,4172
2.33284e+06,0,0,0,92,4300
2.33359e+06,0,0,0,932,3460
2.33448e+06,0,0,0,1060,3332
2.33835e+06,0,0,0,1188,3204
2.3387e+06,0,0,0,1444,2948
2.33875e+06,0,0,0,1700,2692
2.33876e+06,0,0,0,1956,2436
2.33924e+06,0,0,0,1700,2692
2.33925e+06,0,0,0,1444,2948
2.34352e+06,0,0,0,1572,2820
2.34356e+06,0,0,0,1700,2692
2.3436e+06,0,0,0,1828,2564
2.34362e+06,0,0,0,1956,2436
2.34593e+06,0,0,0,1764,2628
2.35639e+06,0,0,0,1956,2436
2.3609e+06,0,0,0,2212,2180
2.36091e+06,0,0,0,2468,1924
2.36633e+06,0,0,0,1628,2764
2.36634e+06,0,0,0,788,3604
2.37023e+06,0,0,0,1812,2580
2.37023e+06,0,0,0,972,3420
2.38017e+06,0,0,0,1812,2580
2.3839e+06,0,0,0,2712,1680
2.38718e+06,0,0,0,3552,840
2.38884e+06,0,0,0,4392,0
2.39578e+06,0,0,0,4136,256
2.39712e+06,0,0,0,2885,1507
2.39832e+06,0,0,0,2757,1635
2.4009e+06,0,0,0,2185,2207
2.40347e+06,0,0,0,1993,2399
2.40349e+06,0,0,0,1801,2591
2.4035e+06,0,0,0,1609,2783
2.40351e+06,0,0,0,1417,2975
2.40356e+06,0,0,0,1545,2847
2.40438e+06,0,0,0,1033,3359
2.40517e+06,0,0,0,9,4383
2.40646e+06,0,0,0,265,4127
2.41152e+06,0,0,0,1516,2876
2.41152e+06,0,0,0,1004,3388
2.41152e+06,0,0,0,492,3900
2.41152e+06,0,0,0,364,4028
2.41152e+06,0,0,0,236,4156
2.41152e+06,0,0,0,108,4284
2.41327e+06,0,0,0,300,4092
2.41327e+06,0,0,0,172,4220
2.41332e+06,0,0,0,364,4028
2.41336e+06,0,0,0,556,3836
2.41336e+06,0,0,0,748,3644
2.41537e+06,0,0,0,1320,3072
2.41665e+06,0,0,0,936,3456
2.41665e+06,0,0,0,680,3712
2.41769e+06,0,0,0,808,3584
2.41788e+06,0,0,0,168,4224
2.41891e+06,0,0,0,296,4096
2.42235e+06,0,0,0,424,3968
2.42412e+06,0,0,0,552,3840
2.42684e+06,0,0,0,1576,2816
2.42684e+06,0,0,0,936,3456
2.42684e+06,0,0,0,808,3584
2.42684e+06,0,0,0,552,3840
2.42684e+06,0,0,0,296,4096
2.4287e+06,0,0,0,936,3456
2.43442e+06,0,0,0,1448,2944
2.4377e+06,0,0,0,1576,2816
2.43773e+06,0,0,0,2216,2176
2.43825e+06,0,0,0,2088,2304
2.43829e+06,0,0,0,2344,2048
2.43916e+06,0,0,0,2856,1536
2.43974e+06,0,0,0,3368,1024
2.44365e+06,0,0,0,3112,1280
2.44369e+06,0,0,0,3240,1152
2.44518e+06,0,0,0,3112,1280
2.44518e+06,0,0,0,2984,1408
2.44519e+06,0,0,0,2856,1536
2.4452e+06,0,0,0,2728,1664
2.44585e+06,0,0,0,2600,1792
2.44904e+06,0,0,0,2984,1408
2.44991e+06,0,0,0,3240,1152
2.45002e+06,0,0,0,3496,896
2.45116e+06,0,0,0,3624,768
2.45501e+06,0,0,0,3496,896
2.45502e+06,0,0,0,3368,1024
2.45591e+06,0,0,0,3496,896
2.45592e+06,0,0,0,3624,768
2.45593e+06,0,0,0,3752,640
2.45596e+06,0,0,0,3880,512
2.45918e+06,0,0,0,3752,640
2.45966e+06,0,0,0,3624,768
2.46016e+06,0,0,0,3464,928
2.4607e+06,0,0,0,3304,1088
2.46112e+06,0,0,0,3144,1248
2.4645e+06,0,0,0,3272,1120
2.46497e+06,0,0,0,3400,992
2.46508e+06,0,0,0,3528,864
2.4651e+06,0,0,0,3656,736
2.46521e+06,0,0,0,3912,480
2.4687e+06,0,0,0,4072,320
2.46923e+06,0,0,0,4232,160
2.47196e+06,0,0,0,4392,0
2.47711e+06,0,0,0,4264,128
2.48671e+06,0,0,0,4072,320
2.48758e+06,0,0,0,3936,456
2.4876e+06,0,0,0,3800,592
2.4876e+06,0,0,0,3664,728
2.48761e+06,0,0,0,3528,864
2.48798e+06,0,0,0,3656,736
2.48979e+06,0,0,0,3400,992
2.4898e+06,0,0,0,3144,1248
2.49123e+06,0,0,0,3016,1376
2.49277e+06,0,0,0,2888,1504
2.49328e+06,0,0,0,2632,1760
2.49369e+06,0,0,0,2504,1888
2.49497e+06,0,0,0,1864,2528
2.49631e+06,0,0,0,488,3904
2.49643e+06,0,0,0,680,3712
2.49801e+06,0,0,0,808,3584
2.49843e+06,0,0,0,944,3448
2.49844e+06,0,0,0,1080,3312
2.49845e+06,0,0,0,1216,3176
2.49847e+06,0,0,0,1352,3040
2.49913e+06,0,0,0,968,3424
2.49947e+06,0,0,0,840,3552
2.49947e+06,0,0,0,712,3680
2.50206e+06,0,0,0,840,3552
2.50454e+06,0,0,0,968,3424
2.50547e+06,0,0,0,1096,3296
2.50547e+06,0,0,0,72,4320
2.50586e+06,0,0,0,712,3680
2.50586e+06,0,0,0,584,3808
2.50586e+06,0,0,0,72,4320
2.51031e+06,0,0,0,200,4192
2.51146e+06,0,0,0,456,3936
2.5115e+06,0,0,0,712,3680
2.51458e+06,0,0,0,1736,2656
2.51491e+06,0,0,0,1992,2400
2.51509e+06,0,0,0,1736,2656
2.51519e+06,0,0,0,1480,2912
2.51669e+06,0,0,0,1608,2784
2.51801e+06,0,0,0,2984,1408
2.51801e+06,0,0,0,936,3456
2.52847e+06,0,0,0,1448,2944
2.52848e+06,0,0,0,424,3968
2.52982e+06,0,0,0,168,4224
2.53157e+06,0,0,0,552,3840
2.53157e+06,0,0,0,296,4096
2.53157e+06,0,0,0,40,4352
2.53256e+06,0,0,0,296,4096
2.53257e+06,0,0,0,40,4352
2.53566e+06,0,0,0,1064,3328
2.53567e+06,0,0,0,808,3584
2.53567e+06,0,0,0,552,3840
2.53567e+06,0,0,0,296,4096
2.53567e+06,0,0,0,40,4352
2.53686e+06,0,0,0,296,4096
2.55104e+06,0,0,0,552,3840
2.55104e+06,0,0,0,164,4228
2.55245e+06,0,0,0,420,3972
2.55245e+06,0,0,0,32,4360
2.55301e+06,0,0,0,288,4104
2.55323e+06,0,0,0,544,3848
2.55323e+06,0,0,0,156,4236
2.5546e+06,0,0,0,412,3980
2.5546e+06,0,0,0,24,4368
2.55464e+06,0,0,0,280,4112
2.55465e+06,0,0,0,536,3856
2.55466e+06,0,0,0,148,4244
2.55497e+06,0,0,0,404,3988
2.55497e+06,0,0,0,16,4376
2.5575e+06,0,0,0,2064,2328
2.55751e+06,0,0,0,1676,2716
2.55751e+06,0,0,0,1288,3104
2.55751e+06,0,0,0,900,3492
2.55751e+06,0,0,0,512,3880
2.55751e+06,0,0,0,124,4268
2.55942e+06,0,0,0,512,3880
2.55942e+06,0,0,0,124,4268
2.56144e+06,0,0,0,512,3880
2.56144e+06,0,0,0,124,4268
2.56166e+06,0,0,0,512,3880
2.56166e+06,0,0,0,124,4268
2.56283e+06,0,0,0,512,3880
2.56283e+06,0,0,0,124,4268
2.56286e+06,0,0,0,512,3880
2.56286e+06,0,0,0,124,4268
2.56533e+06,0,0,0,512,3880
2.56534e+06,0,0,0,124,4268
2.56556e+06,0,0,0,512,3880
2.56556e+06,0,0,0,124,4268
2.56563e+06,0,0,0,512,3880
2.56569e+06,0,0,0,900,3492
2.56593e+06,0,0,0,1288,3104
2.56593e+06,0,0,0,264,4128
2.56762e+06,0,0,0,652,3740
2.56789e+06,0,0,0,460,3932
2.56791e+06,0,0,0,268,4124
2.56793e+06,0,0,0,76,4316
2.56993e+06,0,0,0,464,3928
2.56994e+06,0,0,0,272,4120
2.56994e+06,0,0,0,80,4312
2.57361e+06,0,0,0,468,3924
2.57433e+06,0,0,0,856,3536
2.57539e+06,0,0,0,1244,3148
2.57542e+06,0,0,0,1632,2760
2.57573e+06,0,0,0,1440,2952
2.57777e+06,0,0,0,1632,2760
2.57778e+06,0,0,0,1824,2568
2.57778e+06,0,0,0,2016,2376
2.57809e+06,0,0,0,2404,1988
2.57814e+06,0,0,0,2792,1600
2.57978e+06,0,0,0,2984,1408
2.57978e+06,0,0,0,3176,1216
2.58026e+06,0,0,0,3048,1344
2.58187e+06,0,0,0,3240,1152
2.59117e+06,0,0,0,3368,1024
2.5922e+06,0,0,0,3240,1152
2.5922e+06,0,0,0,3112,1280
2.59255e+06,0,0,0,2856,1536
2.59432e+06,0,0,0,2600,1792
2.60307e+06,0,0,0,2728,1664
2.60308e+06,0,0,0,2856,1536
2.61054e+06,0,0,0,3112,1280
2.61571e+06,0,0,0,4136,256
2.61599e+06,0,0,0,4392,0
2.6223e+06,0,0,0,4247,145
2.62733e+06,0,0,0,4392,0
2.66191e+06,0,0,0,3368,1024
2.66201e+06,0,0,0,3112,1280
2.66304e+06,0,0,0,2856,1536
2.66416e+06,0,0,0,426,3966
2.66436e+06,0,0,0,170,4222
2.6741e+06,0,0,0,426,3966
2.6741e+06,0,0,0,170,4222
2.67619e+06,0,0,0,426,3966
2.6762e+06,0,0,0,170,4222
2.67694e+06,0,0,0,2600,1792
2.67695e+06,0,0,0,2344,2048
2.67695e+06,0,0,0,2088,2304
2.67695e+06,0,0,0,1832,2560
2.67695e+06,0,0,0,1576,2816
2.67695e+06,0,0,0,1320,3072
2.67695e+06,0,0,0,1064,3328
2.67695e+06,0,0,0,808,3584
2.67695e+06,0,0,0,552,3840
2.67695e+06,0,0,0,296,4096
2.67695e+06,0,0,0,40,4352
2.67713e+06,0,0,0,1064,3328
2.67713e+06,0,0,0,808,3584
2.67713e+06,0,0,0,552,3840
2.67713e+06,0,0,0,296,4096
2.67713e+06,0,0,0,40,4352
2.68077e+06,0,0,0,296,4096
2.68077e+06,0,0,0,40,4352
2.68903e+06,0,0,0,296,4096
2.68903e+06,0,0,0,40,4352
2.69155e+06,0,0,0,296,4096
2.69156e+06,0,0,0,40,4352
2.69167e+06,0,0,0,296,4096
2.69167e+06,0,0,0,40,4352
2.69196e+06,0,0,0,296,4096
2.69198e+06,0,0,0,552,3840
2.69202e+06,0,0,0,808,3584
2.69208e+06,0,0,0,1064,3328
2.69225e+06,0,0,0,1320,3072
2.69227e+06,0,0,0,1576,2816
2.69243e+06,0,0,0,1832,2560
2.69245e+06,0,0,0,2088,2304
2.69247e+06,0,0,0,2344,2048
2.69251e+06,0,0,0,2600,1792
2.69267e+06,0,0,0,2856,1536
2.69289e+06,0,0,0,3112,1280
2.69292e+06,0,0,0,3368,1024
2.69402e+06,0,0,0,2468,1924
2.69641e+06,0,0,0,2724,1668
2.69663e+06,0,0,0,2980,1412
2.70428e+06,0,0,0,3236,1156
2.70636e+06,0,0,0,3108,1284
2.70985e+06,0,0,0,2980,1412
2.71333e+06,0,0,0,3236,1156
2.71721e+06,0,0,0,3364,1028
2.72068e+06,0,0,0,3492,900
2.73328e+06,0,0,0,2468,1924
2.73857e+06,0,0,0,2320,2072
2.74112e+06,0,0,0,3344,1048
2.74203e+06,0,0,0,3208,1184
2.74205e+06,0,0,0,3072,1320
2.74205e+06,0,0,0,2936,1456
2.74207e+06,0,0,0,2800,1592
2.74208e+06,0,0,0,2664,1728
2.7491e+06,0,0,0,2812,1580
2.75286e+06,0,0,0,2948,1444
2.75287e+06,0,0,0,3084,1308
2.75287e+06,0,0,0,3220,1172
2.7529e+06,0,0,0,3356,1036
2.7529e+06,0,0,0,3492,900
2.77114e+06,0,0,0,3364,1028
2.77714e+06,0,0,0,2564,1828
2.77963e+06,0,0,0,3464,928
2.77999e+06,0,0,0,3304,1088
2.78004e+06,0,0,0,3176,1216
2.78205e+06,0,0,0,3304,1088
2.78249e+06,0,0,0,4104,288
2.7836e+06,0,0,0,3976,416
2.78864e+06,0,0,0,4136,256
2.78876e+06,0,0,0,4264,128
2.79448e+06,0,0,0,4392,0
2.79816e+06,0,0,0,4136,256
2.79817e+06,0,0,0,3880,512
2.79818e+06,0,0,0,3624,768
2.81984e+06,0,0,0,3880,512
2.81984e+06,0,0,0,4136,256
2.81989e+06,0,0,0,4392,0
2.82597e+06,0,0,0,4256,136
2.83104e+06,0,0,0,3232,1160
2.83585e+06,0,0,0,1184,3208
2.83684e+06,0,0,0,1320,3072
2.84876e+06,0,0,0,3368,1024
2.84877e+06,0,0,0,1320,3072
2.85271e+06,0,0,0,2344,2048
2.85271e+06,0,0,0,296,4096
2.85271e+06,0,0,0,124,4268
2.86016e+06,0,0,0,2172,2220
2.86016e+06,0,0,0,124,4268
2.86144e+06,0,0,0,296,4096
2.86144e+06,0,0,0,40,4352
2.86177e+06,0,0,0,2088,2304
2.86178e+06,0,0,0,1064,3328
2.86178e+06,0,0,0,936,3456
2.867e+06,0,0,0,424,3968
2.86759e+06,0,0,0,2472,1920
2.87257e+06,0,0,0,2600,1792
2.87453e+06,0,0,0,3624,768
2.88178e+06,0,0,0,3880,512
2.88977e+06,0,0,0,4392,0
2.91049e+06,0,0,0,3592,800
2.9114e+06,0,0,0,3336,1056
2.91142e+06,0,0,0,3080,1312
2.91143e+06,0,0,0,2824,1568
2.91269e+06,0,0,0,2688,1704
2.91271e+06,0,0,0,2552,1840
2.91272e+06,0,0,0,2416,1976
2.91273e+06,0,0,0,1844,2548
2.91273e+06,0,0,0,1708,2684
2.91579e+06,0,0,0,2508,1884
2.91759e+06,0,0,0,2380,2012
2.91769e+06,0,0,0,2252,2140
2.92277e+06,0,0,0,2116,2276
2.92353e+06,0,0,0,2252,2140
2.92353e+06,0,0,0,2388,2004
2.92355e+06,0,0,0,2524,1868
2.92357e+06,0,0,0,2660,1732
2.92441e+06,0,0,0,2272,2120
2.92544e+06,0,0,0,2016,2376
2.92547e+06,0,0,0,2144,2248
2.92559e+06,0,0,0,1888,2504
2.92638e+06,0,0,0,864,3528
2.9294e+06,0,0,0,992,3400
2.92949e+06,0,0,0,1248,3144
2.92986e+06,0,0,0,1636,2756
2.93033e+06,0,0,0,1892,2500
2.93041e+06,0,0,0,2148,2244
2.93282e+06,0,0,0,3172,1220
2.93357e+06,0,0,0,3044,1348
2.93365e+06,0,0,0,3180,1212
2.93366e+06,0,0,0,3436,956
2.93395e+06,0,0,0,3692,700
2.93572e+06,0,0,0,3564,828
2.93615e+06,0,0,0,3428,964
2.93617e+06,0,0,0,3292,1100
2.93618e+06,0,0,0,3156,1236
2.93619e+06,0,0,0,3020,1372
2.9362e+06,0,0,0,2884,1508
2.93621e+06,0,0,0,2748,1644
2.93625e+06,0,0,0,2612,1780
2.93627e+06,0,0,0,2476,1916
2.93628e+06,0,0,0,2340,2052
2.93629e+06,0,0,0,2204,2188
2.93631e+06,0,0,0,2068,2324
2.93633e+06,0,0,0,1932,2460
2.93633e+06,0,0,0,1796,2596
2.93639e+06,0,0,0,1660,2732
2.93645e+06,0,0,0,1524,2868
2.93922e+06,0,0,0,1388,3004
2.93923e+06,0,0,0,1252,3140
2.94046e+06,0,0,0,1124,3268
2.9406e+06,0,0,0,996,3396
2.94202e+06,0,0,0,1124,3268
2.94341e+06,0,0,0,868,3524
2.94411e+06,0,0,0,996,3396
2.94425e+06,0,0,0,740,3652
2.94425e+06,0,0,0,484,3908
2.94426e+06,0,0,0,228,4164
2.94519e+06,0,0,0,800,3592
2.94519e+06,0,0,0,544,3848
2.94519e+06,0,0,0,288,4104
2.94696e+06,0,0,0,424,3968
2.94697e+06,0,0,0,560,3832
2.94698e+06,0,0,0,696,3696
2.947e+06,0,0,0,832,3560
2.94702e+06,0,0,0,968,3424
2.94704e+06,0,0,0,1104,3288
2.94707e+06,0,0,0,1240,3152
2.94709e+06,0,0,0,1376,3016
2.94711e+06,0,0,0,1512,2880
2.94712e+06,0,0,0,1648,2744
2.94713e+06,0,0,0,1784,2608
2.94714e+06,0,0,0,1920,2472
2.94715e+06,0,0,0,2056,2336
2.94721e+06,0,0,0,2192,2200
2.9473e+06,0,0,0,2328,2064
2.94733e+06,0,0,0,2088,2304
2.94735e+06,0,0,0,1688,2704
2.94735e+06,0,0,0,1288,3104
2.94736e+06,0,0,0,888,3504
2.94737e+06,0,0,0,488,3904
2.94741e+06,0,0,0,88,4304
2.94924e+06,0,0,0,216,4176
2.94925e+06,0,0,0,344,4048
2.95008e+06,0,0,0,480,3912
2.95008e+06,0,0,0,80,4312
2.9501e+06,0,0,0,216,4176
2.95325e+06,0,0,0,456,3936
2.95325e+06,0,0,0,56,4336
2.95828e+06,0,0,0,456,3936
2.95829e+06,0,0,0,56,4336
2.96085e+06,0,0,0,456,3936
2.96085e+06,0,0,0,56,4336
2.96211e+06,0,0,0,456,3936
2.96212e+06,0,0,0,56,4336
2.96403e+06,0,0,0,456,3936
2.96403e+06,0,0,0,56,4336
2.96591e+06,0,0,0,312,4080
2.96591e+06,0,0,0,568,3824
2.96591e+06,0,0,0,168,4224
2.96596e+06,0,0,0,424,3968
2.96597e+06,0,0,0,24,4368
2.96646e+06,0,0,0,280,4112
2.96684e+06,0,0,0,536,3856
2.96684e+06,0,0,0,792,3600
2.96685e+06,0,0,0,152,4240
2.96912e+06,0,0,0,552,3840
2.97184e+06,0,0,0,952,3440
2.97205e+06,0,0,0,1352,3040
2.97206e+06,0,0,0,72,4320
2.97356e+06,0,0,0,472,3920
2.97856e+06,0,0,0,1112,3280
2.97856e+06,0,0,0,88,4304
2.97922e+06,0,0,0,488,3904
2.97986e+06,0,0,0,888,3504
2.98067e+06,0,0,0,1288,3104
2.98273e+06,0,0,0,1688,2704
2.9829e+06,0,0,0,2088,2304
2.98687e+06,0,0,0,3112,1280
3.01253e+06,0,0,0,2984,1408
3.01289e+06,0,0,0,2856,1536
3.01334e+06,0,0,0,2728,1664
3.01336e+06,0,0,0,2600,1792
3.01353e+06,0,0,0,2344,2048
3.01444e+06,0,0,0,1320,3072
3.01517e+06,0,0,0,1192,3200
3.02115e+06,0,0,0,1320,3072
3.02147e+06,0,0,0,1448,2944
3.02218e+06,0,0,0,1576,2816
3.02224e+06,0,0,0,1704,2688
3.02262e+06,0,0,0,1448,2944
3.02264e+06,0,0,0,1192,3200
3.02608e+06,0,0,0,1320,3072
3.02768e+06,0,0,0,1576,2816
3.03608e+06,0,0,0,2600,1792
3.03609e+06,0,0,0,552,3840
3.03609e+06,0,0,0,424,3968
3.03609e+06,0,0,0,40,4352
3.03657e+06,0,0,0,296,4096
3.03823e+06,0,0,0,552,3840
3.04698e+06,0,0,0,680,3712
3.04698e+06,0,0,0,80,4312
3.05854e+06,0,0,0,1360,3032
3.05855e+06,0,0,0,558,3834
3.05855e+06,0,0,0,430,3962
3.05855e+06,0,0,0,302,4090
3.06679e+06,0,0,0,686,3706
3.06679e+06,0,0,0,302,4090
3.06679e+06,0,0,0,174,4218
3.06679e+06,0,0,0,46,4346
3.06705e+06,0,0,0,174,4218
3.06705e+06,0,0,0,302,4090
3.06706e+06,0,0,0,46,4346
3.07551e+06,0,0,0,174,4218
3.07551e+06,0,0,0,46,4346
3.07562e+06,0,0,0,174,4218
3.07562e+06,0,0,0,46,4346
3.07945e+06,0,0,0,646,3746
3.07946e+06,0,0,0,518,3874
3.07946e+06,0,0,0,6,4386
3.08402e+06,0,0,0,262,4130
3.08403e+06,0,0,0,6,4386
3.0841e+06,0,0,0,134,4258
3.0841e+06,0,0,0,6,4386
3.08413e+06,0,0,0,134,4258
3.08414e+06,0,0,0,6,4386
3.08827e+06,0,0,0,134,4258
3.09291e+06,0,0,0,262,4130
3.09341e+06,0,0,0,1064,3328
3.09341e+06,0,0,0,552,3840
3.09341e+06,0,0,0,40,4352
3.09486e+06,0,0,0,296,4096
3.09493e+06,0,0,0,424,3968
3.09887e+06,0,0,0,936,3456
3.09888e+06,0,0,0,424,3968
3.09888e+06,0,0,0,168,4224
3.09929e+06,0,0,0,552,3840
3.0993e+06,0,0,0,296,4096
3.0993e+06,0,0,0,40,4352
3.10499e+06,0,0,0,552,3840
3.10499e+06,0,0,0,296,4096
3.10499e+06,0,0,0,40,4352
3.11191e+06,0,0,0,552,3840
3.11191e+06,0,0,0,296,4096
3.11191e+06,0,0,0,40,4352
3.11656e+06,0,0,0,296,4096
3.11656e+06,0,0,0,168,4224
3.1182e+06,0,0,0,424,3968
3.11996e+06,0,0,0,680,3712
3.12084e+06,0,0,0,936,3456
3.12095e+06,0,0,0,1192,3200
3.12095e+06,0,0,0,168,4224
3.12095e+06,0,0,0,40,4352
3.12201e+06,0,0,0,168,4224
3.12259e+06,0,0,0,2216,2176
3.1226e+06,0,0,0,1960,2432
3.1226e+06,0,0,0,936,3456
3.1226e+06,0,0,0,808,3584
3.1226e+06,0,0,0,680,3712
3.1226e+06,0,0,0,424,3968
3.12305e+06,0,0,0,936,3456
3.12347e+06,0,0,0,1192,3200
3.12347e+06,0,0,0,168,4224
3.12492e+06,0,0,0,424,3968
3.12492e+06,0,0,0,232,4160
3.12841e+06,0,0,0,360,4032
3.12842e+06,0,0,0,104,4288
3.12843e+06,0,0,0,360,4032
3.12843e+06,0,0,0,104,4288
3.12898e+06,0,0,0,1128,3264
3.12899e+06,0,0,0,872,3520
3.12899e+06,0,0,0,616,3776
3.12899e+06,0,0,0,104,4288
3.13004e+06,0,0,0,232,4160
3.13162e+06,0,0,0,360,4032
3.13346e+06,0,0,0,616,3776
3.13346e+06,0,0,0,104,4288
3.13398e+06,0,0,0,296,4096
3.13398e+06,0,0,0,168,4224
3.13583e+06,0,0,0,680,3712
3.13584e+06,0,0,0,180,4212
3.14113e+06,0,0,0,692,3700
3.14113e+06,0,0,0,436,3956
3.14129e+06,0,0,0,564,3828
3.14216e+06,0,0,0,1064,3328
3.14216e+06,0,0,0,424,3968
3.14255e+06,0,0,0,1448,2944
3.14255e+06,0,0,0,808,3584
3.14255e+06,0,0,0,296,4096
3.14255e+06,0,0,0,168,4224
3.14255e+06,0,0,0,40,4352
3.14425e+06,0,0,0,1064,3328
3.14425e+06,0,0,0,936,3456
3.14425e+06,0,0,0,808,3584
3.14425e+06,0,0,0,552,3840
3.14425e+06,0,0,0,296,4096
3.14425e+06,0,0,0,168,4224
3.14425e+06,0,0,0,40,4352
3.14831e+06,0,0,0,296,4096
3.14831e+06,0,0,0,168,4224
3.14896e+06,0,0,0,808,3584
3.14896e+06,0,0,0,616,3776
3.14896e+06,0,0,0,424,3968
3.14896e+06,0,0,0,232,4160
3.14896e+06,0,0,0,40,4352
3.14937e+06,0,0,0,680,3712
3.14937e+06,0,0,0,488,3904
3.14937e+06,0,0,0,360,4032
3.14937e+06,0,0,0,232,4160
3.14937e+06,0,0,0,104,4288
3.15011e+06,0,0,0,360,4032
3.15012e+06,0,0,0,232,4160
3.15012e+06,0,0,0,104,4288
3.15063e+06,0,0,0,360,4032
3.15065e+06,0,0,0,616,3776
3.15095e+06,0,0,0,744,3648
3.15119e+06,0,0,0,872,3520
3.15141e+06,0,0,0,1128,3264
3.15275e+06,0,0,0,1256,3136
3.1528e+06,0,0,0,1384,3008
3.15299e+06,0,0,0,1512,2880
3.15315e+06,0,0,0,1640,2752
3.15606e+06,0,0,0,2152,2240
3.15693e+06,0,0,0,2344,2048
3.15716e+06,0,0,0,2472,1920
3.15735e+06,0,0,0,2600,1792
3.15793e+06,0,0,0,2728,1664
3.15803e+06,0,0,0,2856,1536
3.15838e+06,0,0,0,2984,1408
3.15875e+06,0,0,0,3176,1216
3.15878e+06,0,0,0,3368,1024
3.1588e+06,0,0,0,3560,832
3.15892e+06,0,0,0,3752,640
3.15907e+06,0,0,0,3880,512
3.16154e+06,0,0,0,4136,256
3.16307e+06,0,0,0,4008,384
3.16317e+06,0,0,0,3880,512
3.16349e+06,0,0,0,3752,640
3.16354e+06,0,0,0,3624,768
3.1639e+06,0,0,0,3880,512
3.17165e+06,0,0,0,4008,384
3.17167e+06,0,0,0,4136,256
3.17204e+06,0,0,0,3880,512
3.17257e+06,0,0,0,4008,384
3.17266e+06,0,0,0,4136,256
3.17269e+06,0,0,0,3944,448
3.1727e+06,0,0,0,3752,640
3.18193e+06,0,0,0,3944,448
3.18278e+06,0,0,0,4136,256
3.18971e+06,0,0,0,2088,2304
3.18973e+06,0,0,0,40,4352
3.19231e+06,0,0,0,296,4096
3.19232e+06,0,0,0,40,4352
3.21394e+06,0,0,0,296,4096
3.21941e+06,0,0,0,40,4352
3.24106e+06,0,0,0,296,4096
3.24107e+06,0,0,0,40,4352
3.26274e+06,0,0,0,296,4096
3.26275e+06,0,0,0,168,4224
3.26275e+06,0,0,0,23,4369
3.26802e+06,0,0,0,168,4224
3.2736e+06,0,0,0,296,4096
3.27559e+06,0,0,0,2344,2048
3.2756e+06,0,0,0,296,4096
3.27628e+06,0,0,0,2344,2048
3.27628e+06,0,0,0,1344,3048
3.27628e+06,0,0,0,1216,3176
3.27628e+06,0,0,0,704,3688
3.27628e+06,0,0,0,448,3944
3.27628e+06,0,0,0,256,4136
3.27628e+06,0,0,0,0,4392
3.28489e+06,0,0,0,128,4264
3.2849e+06,0,0,0,0,4392
3.28612e+06,0,0,0,192,4200
3.28612e+06,0,0,0,64,4328
3.28712e+06,0,0,0,1064,3328
3.28751e+06,0,0,0,64,4328
3.29171e+06,0,0,0,320,4072
3.29572e+06,0,0,0,448,3944
3.29603e+06,0,0,0,704,3688
3.29694e+06,0,0,0,832,3560
3.29833e+06,0,0,0,1832,2560
3.29949e+06,0,0,0,2344,2048
3.29949e+06,0,0,0,296,4096
3.29949e+06,0,0,0,40,4352
3.31822e+06,0,0,0,296,4096
3.31823e+06,0,0,0,168,4224
3.31823e+06,0,0,0,40,4352
3.32907e+06,0,0,0,168,4224
3.3291e+06,0,0,0,296,4096
3.32911e+06,0,0,0,40,4352
3.34919e+06,0,0,0,296,4096
3.34919e+06,0,0,0,168,4224
3.36004e+06,0,0,0,296,4096
3.36355e+06,0,0,0,2344,2048
3.36355e+06,0,0,0,1344,3048
3.36355e+06,0,0,0,832,3560
3.36355e+06,0,0,0,576,3816
3.36355e+06,0,0,0,64,4328
3.37728e+06,0,0,0,1064,3328
3.37729e+06,0,0,0,808,3584
3.38373e+06,0,0,0,1064,3328
3.38374e+06,0,0,0,40,4352
3.38605e+06,0,0,0,2088,2304
3.38605e+06,0,0,0,1064,3328
3.38605e+06,0,0,0,552,3840
3.38717e+06,0,0,0,1064,3328
3.38717e+06,0,0,0,40,4352
3.38853e+06,0,0,0,552,3840
3.38854e+06,0,0,0,296,4096
3.39173e+06,0,0,0,1320,3072
3.39173e+06,0,0,0,296,4096
3.39173e+06,0,0,0,168,4224
3.39173e+06,0,0,0,40,4352
3.39893e+06,0,0,0,296,4096
3.39952e+06,0,0,0,808,3584
3.39983e+06,0,0,0,1832,2560
3.39983e+06,0,0,0,808,3584
3.39983e+06,0,0,0,616,3776
3.39983e+06,0,0,0,424,3968
3.39983e+06,0,0,0,232,4160
3.39983e+06,0,0,0,40,4352
3.40257e+06,0,0,0,168,4224
3.40258e+06,0,0,0,296,4096
3.40849e+06,0,0,0,1320,3072
3.40964e+06,0,0,0,1512,2880
3.40964e+06,0,0,0,1704,2688
3.40965e+06,0,0,0,328,4064
3.40966e+06,0,0,0,520,3872
3.40966e+06,0,0,0,8,4384
3.40968e+06,0,0,0,200,4192
3.41011e+06,0,0,0,456,3936
3.41011e+06,0,0,0,200,4192
3.41011e+06,0,0,0,8,4384
3.41332e+06,0,0,0,1032,3360
3.41332e+06,0,0,0,840,3552
3.41332e+06,0,0,0,648,3744
3.41332e+06,0,0,0,456,3936
3.41332e+06,0,0,0,264,4128
3.41332e+06,0,0,0,72,4320
3.41641e+06,0,0,0,584,3808
3.41995e+06,0,0,0,776,3616
3.4215e+06,0,0,0,1800,2592
3.4215e+06,0,0,0,776,3616
3.4215e+06,0,0,0,520,3872
3.4215e+06,0,0,0,8,4384
3.42311e+06,0,0,0,200,4192
3.42311e+06,0,0,0,392,4000
3.42327e+06,0,0,0,584,3808
3.42328e+06,0,0,0,72,4320
3.42337e+06,0,0,0,264,4128
3.42337e+06,0,0,0,136,4256
3.42344e+06,0,0,0,328,4064
3.42344e+06,0,0,0,72,4320
3.42746e+06,0,0,0,1096,3296
3.42747e+06,0,0,0,840,3552
3.42747e+06,0,0,0,584,3808
3.42747e+06,0,0,0,328,4064
3.43022e+06,0,0,0,840,3552
3.43022e+06,0,0,0,38,4354
3.43133e+06,0,0,0,1414,2978
3.43133e+06,0,0,0,1014,3378
3.43133e+06,0,0,0,614,3778
3.43133e+06,0,0,0,214,4178
3.43175e+06,0,0,0,470,3922
3.43176e+06,0,0,0,70,4322
3.43425e+06,0,0,0,198,4194
3.43855e+06,0,0,0,598,3794
3.43856e+06,0,0,0,198,4194
3.44131e+06,0,0,0,454,3938
3.44131e+06,0,0,0,54,4338
3.44362e+06,0,0,0,454,3938
3.44362e+06,0,0,0,54,4338
3.44407e+06,0,0,0,454,3938
3.44408e+06,0,0,0,54,4338
3.44486e+06,0,0,0,566,3826
3.44486e+06,0,0,0,166,4226
3.44509e+06,0,0,0,422,3970
3.44509e+06,0,0,0,22,4370
3.44853e+06,0,0,0,422,3970
3.44853e+06,0,0,0,22,4370
3.4491e+06,0,0,0,278,4114
3.44912e+06,0,0,0,534,3858
3.44913e+06,0,0,0,134,4258
3.44919e+06,0,0,0,390,4002
3.45084e+06,0,0,0,790,3602
3.45084e+06,0,0,0,390,4002
3.45201e+06,0,0,0,790,3602
3.45201e+06,0,0,0,390,4002
3.45201e+06,0,0,0,134,4258
3.45201e+06,0,0,0,6,4386
3.4528e+06,0,0,0,406,3986
3.45281e+06,0,0,0,150,4242
3.45305e+06,0,0,0,550,3842
3.45305e+06,0,0,0,38,4354
3.45356e+06,0,0,0,438,3954
3.45357e+06,0,0,0,310,4082
3.45357e+06,0,0,0,118,4274
3.45585e+06,0,0,0,518,3874
3.45586e+06,0,0,0,326,4066
3.45586e+06,0,0,0,134,4258
3.45648e+06,0,0,0,534,3858
3.45649e+06,0,0,0,342,4050
3.45649e+06,0,0,0,150,4242
3.45708e+06,0,0,0,550,3842
3.45708e+06,0,0,0,358,4034
3.45708e+06,0,0,0,166,4226
3.45949e+06,0,0,0,294,4098
3.4595e+06,0,0,0,102,4290
3.4625e+06,0,0,0,358,4034
3.4625e+06,0,0,0,166,4226
3.46264e+06,0,0,0,566,3826
3.46264e+06,0,0,0,374,4018
3.46353e+06,0,0,0,566,3826
3.46442e+06,0,0,0,694,3698
3.46609e+06,0,0,0,886,3506
3.46609e+06,0,0,0,84,4308
3.46639e+06,0,0,0,276,4116
3.4664e+06,0,0,0,148,4244
3.4664e+06,0,0,0,20,4372
3.46657e+06,0,0,0,212,4180
3.46662e+06,0,0,0,612,3780
3.46662e+06,0,0,0,356,4036
3.46662e+06,0,0,0,228,4164
3.46666e+06,0,0,0,420,3972
3.46666e+06,0,0,0,164,4228
3.46666e+06,0,0,0,36,4356
3.46739e+06,0,0,0,228,4164
3.4679e+06,0,0,0,420,3972
3.4679e+06,0,0,0,164,4228
3.46962e+06,0,0,0,356,4036
3.46962e+06,0,0,0,100,4292
3.47215e+06,0,0,0,356,4036
3.47215e+06,0,0,0,100,4292
3.47235e+06,0,0,0,292,4100
3.47235e+06,0,0,0,36,4356
3.47251e+06,0,0,0,228,4164
3.47372e+06,0,0,0,356,4036
3.47372e+06,0,0,0,100,4292
3.47523e+06,0,0,0,228,4164
3.47545e+06,0,0,0,356,4036
3.47545e+06,0,0,0,100,4292
3.47642e+06,0,0,0,612,3780
3.47642e+06,0,0,0,356,4036
3.47642e+06,0,0,0,100,4292
3.47725e+06,0,0,0,902,3490
3.47725e+06,0,0,0,646,3746
3.47725e+06,0,0,0,390,4002
3.47725e+06,0,0,0,198,4194
3.47731e+06,0,0,0,326,4066
3.47732e+06,0,0,0,70,4322
3.47857e+06,0,0,0,326,4066
3.47857e+06,0,0,0,134,4258
3.48106e+06,0,0,0,390,4002
3.48107e+06,0,0,0,198,4194
3.48107e+06,0,0,0,6,4386
3.48315e+06,0,0,0,262,4130
3.48315e+06,0,0,0,134,4258
3.48315e+06,0,0,0,6,4386
3.48358e+06,0,0,0,198,4194
3.48359e+06,0,0,0,70,4322
3.4848e+06,0,0,0,326,4066
3.48693e+06,0,0,0,582,3810
3.48733e+06,0,0,0,774,3618
3.4881e+06,0,0,0,1030,3362
3.48811e+06,0,0,0,228,4164
3.48833e+06,0,0,0,484,3908
3.48841e+06,0,0,0,740,3652
3.48841e+06,0,0,0,228,4164
3.48861e+06,0,0,0,484,3908
3.48862e+06,0,0,0,228,4164
3.48862e+06,0,0,0,100,4292
3.48895e+06,0,0,0,356,4036
3.48896e+06,0,0,0,100,4292
3.48926e+06,0,0,0,356,4036
3.48926e+06,0,0,0,100,4292
3.49028e+06,0,0,0,228,4164
3.49042e+06,0,0,0,356,4036
3.49072e+06,0,0,0,484,3908
3.49105e+06,0,0,0,676,3716
3.49106e+06,0,0,0,164,4228
3.49112e+06,0,0,0,356,4036
3.49127e+06,0,0,0,612,3780
3.49128e+06,0,0,0,100,4292
3.49381e+06,0,0,0,356,4036
3.4961e+06,0,0,0,612,3780
3.4964e+06,0,0,0,868,3524
3.49711e+06,0,0,0,996,3396
3.49821e+06,0,0,0,1508,2884
3.4984e+06,0,0,0,2020,2372
3.49947e+06,0,0,0,2276,2116
3.49947e+06,0,0,0,228,4164
3.49947e+06,0,0,0,100,4292
3.50127e+06,0,0,0,902,3490
3.50128e+06,0,0,0,646,3746
3.50128e+06,0,0,0,454,3938
3.50128e+06,0,0,0,326,4066
3.50802e+06,0,0,0,454,3938
3.51179e+06,0,0,0,646,3746
3.51216e+06,0,0,0,774,3618
3.51298e+06,0,0,0,1286,3106
3.51298e+06,0,0,0,484,3908
3.51921e+06,0,0,0,356,4036
3.52072e+06,0,0,0,612,3780
3.52119e+06,0,0,0,476,3916
3.52206e+06,0,0,0,340,4052
3.52207e+06,0,0,0,204,4188
3.52351e+06,0,0,0,12,4380
3.52797e+06,0,0,0,140,4252
3.52902e+06,0,0,0,276,4116
3.52987e+06,0,0,0,412,3980
3.52992e+06,0,0,0,548,3844
3.52992e+06,0,0,0,36,4356
3.5336e+06,0,0,0,228,4164
3.53542e+06,0,0,0,1030,3362
3.53543e+06,0,0,0,228,4164
3.53709e+06,0,0,0,740,3652
3.53709e+06,0,0,0,484,3908
3.53709e+06,0,0,0,228,4164
3.53709e+06,0,0,0,100,4292
3.54605e+06,0,0,0,228,4164
3.54605e+06,0,0,0,100,4292
3.55473e+06,0,0,0,902,3490
3.55474e+06,0,0,0,774,3618
3.55474e+06,0,0,0,646,3746
3.55474e+06,0,0,0,518,3874
3.55474e+06,0,0,0,262,4130
3.55474e+06,0,0,0,134,4258
3.55689e+06,0,0,0,262,4130
3.55689e+06,0,0,0,70,4322
3.55878e+06,0,0,0,326,4066
3.55878e+06,0,0,0,30,4362
3.5601e+06,0,0,0,286,4106
3.5601e+06,0,0,0,158,4234
3.56032e+06,0,0,0,30,4362
3.56196e+06,0,0,0,158,4234
3.56196e+06,0,0,0,286,4106
3.56197e+06,0,0,0,30,4362
3.56339e+06,0,0,0,158,4234
3.56359e+06,0,0,0,286,4106
3.56594e+06,0,0,0,542,3850
3.56594e+06,0,0,0,246,4146
3.56673e+06,0,0,0,438,3954
3.5675e+06,0,0,0,566,3826
3.56787e+06,0,0,0,438,3954
3.56941e+06,0,0,0,310,4082
3.56961e+06,0,0,0,606,3786
3.57099e+06,0,0,0,734,3658
3.57652e+06,0,0,0,862,3530
3.57681e+06,0,0,0,1158,3234
3.57986e+06,0,0,0,1286,3106
3.58073e+06,0,0,0,1542,2850
3.58599e+06,0,0,0,3590,802
3.586e+06,0,0,0,1542,2850
3.586e+06,0,0,0,1158,3234
3.586e+06,0,0,0,902,3490
3.586e+06,0,0,0,774,3618
3.58794e+06,0,0,0,262,4130
3.59485e+06,0,0,0,390,4002
3.59973e+06,0,0,0,134,4258
3.59991e+06,0,0,0,6,4386
3.60566e+06,0,0,0,808,3584
3.60566e+06,0,0,0,680,3712
3.60773e+06,0,0,0,936,3456
3.60995e+06,0,0,0,1448,2944
3.60995e+06,0,0,0,197,4195
3.61075e+06,0,0,0,325,4067
3.61075e+06,0,0,0,69,4323
3.61427e+06,0,0,0,2117,2275
3.61428e+06,0,0,0,1861,2531
3.61428e+06,0,0,0,1605,2787
3.61428e+06,0,0,0,1349,3043
3.61428e+06,0,0,0,1093,3299
3.61428e+06,0,0,0,837,3555
3.61428e+06,0,0,0,581,3811
3.61428e+06,0,0,0,325,4067
3.61428e+06,0,0,0,69,4323
3.61653e+06,0,0,0,197,4195
3.61833e+06,0,0,0,581,3811
3.61834e+06,0,0,0,325,4067
3.61834e+06,0,0,0,69,4323
3.62142e+06,0,0,0,325,4067
3.62142e+06,0,0,0,69,4323
3.62492e+06,0,0,0,1320,3072
3.62492e+06,0,0,0,480,3912
3.62492e+06,0,0,0,224,4168
3.62564e+06,0,0,0,480,3912
3.62564e+06,0,0,0,224,4168
3.62595e+06,0,0,0,480,3912
3.62596e+06,0,0,0,224,4168
3.62599e+06,0,0,0,480,3912
3.62599e+06,0,0,0,192,4200
3.6262e+06,0,0,0,448,3944
3.62621e+06,0,0,0,160,4232
3.62622e+06,0,0,0,416,3976
3.62622e+06,0,0,0,160,4232
3.62637e+06,0,0,0,416,3976
3.6264e+06,0,0,0,672,3720
3.62646e+06,0,0,0,928,3464
3.62987e+06,0,0,0,1184,3208
3.63014e+06,0,0,0,1440,2952
3.63027e+06,0,0,0,1696,2696
3.63311e+06,0,0,0,1568,2824
3.63319e+06,0,0,0,288,4104
3.63344e+06,0,0,0,544,3848
3.63473e+06,0,0,0,1384,3008
3.63638e+06,0,0,0,1256,3136
3.63689e+06,0,0,0,1544,2848
3.6371e+06,0,0,0,1832,2560
3.63883e+06,0,0,0,1640,2752
3.63885e+06,0,0,0,1448,2944
3.63886e+06,0,0,0,1256,3136
3.63886e+06,0,0,0,1000,3392
3.63887e+06,0,0,0,808,3584
3.63888e+06,0,0,0,616,3776
3.63889e+06,0,0,0,424,3968
3.64269e+06,0,0,0,680,3712
3.6427e+06,0,0,0,168,4224
3.64363e+06,0,0,0,296,4096
3.64396e+06,0,0,0,488,3904
3.64476e+06,0,0,0,616,3776
3.64724e+06,0,0,0,1896,2496
3.64727e+06,0,0,0,2152,2240
3.64758e+06,0,0,0,2408,1984
3.64765e+06,0,0,0,2280,2112
3.64792e+06,0,0,0,2536,1856
3.64878e+06,0,0,0,2728,1664
3.64882e+06,0,0,0,2920,1472
3.64885e+06,0,0,0,3112,1280
3.64887e+06,0,0,0,3304,1088
3.64897e+06,0,0,0,3496,896
3.65218e+06,0,0,0,3368,1024
3.6563e+06,0,0,0,3496,896
3.65768e+06,0,0,0,3304,1088
3.65859e+06,0,0,0,3560,832
3.66016e+06,0,0,0,1130,3262
3.6608e+06,0,0,0,1258,3134
3.66543e+06,0,0,0,1770,2622
3.66763e+06,0,0,0,1962,2430
3.66779e+06,0,0,0,1834,2558
3.66979e+06,0,0,0,1706,2686
3.67628e+06,0,0,0,1834,2558
3.67875e+06,0,0,0,1962,2430
3.68138e+06,0,0,0,4392,0
3.68138e+06,0,0,0,1962,2430
3.68138e+06,0,0,0,1706,2686
3.68138e+06,0,0,0,1578,2814
3.68138e+06,0,0,0,1450,2942
3.68138e+06,0,0,0,1322,3070
3.68856e+06,0,0,0,1578,2814
3.68858e+06,0,0,0,1706,2686
3.68996e+06,0,0,0,1834,2558
3.69009e+06,0,0,0,1962,2430
3.69089e+06,0,0,0,1834,2558
3.70176e+06,0,0,0,1962,2430
3.70285e+06,0,0,0,4392,0
3.70285e+06,0,0,0,1962,2430
3.70285e+06,0,0,0,1706,2686
3.70285e+06,0,0,0,682,3710
3.70285e+06,0,0,0,554,3838
3.70285e+06,0,0,0,426,3966
3.70285e+06,0,0,0,298,4094
3.70285e+06,0,0,0,170,4222
3.70285e+06,0,0,0,42,4350
3.71035e+06,0,0,0,1066,3326
3.71035e+06,0,0,0,874,3518
3.71035e+06,0,0,0,682,3710
3.71035e+06,0,0,0,490,3902
3.71035e+06,0,0,0,298,4094
3.71035e+06,0,0,0,106,4286
3.71168e+06,0,0,0,234,4158
3.71168e+06,0,0,0,42,4350
3.7137e+06,0,0,0,170,4222
3.71371e+06,0,0,0,42,4350
3.71372e+06,0,0,0,170,4222
3.71372e+06,0,0,0,298,4094
3.71376e+06,0,0,0,426,3966
3.71539e+06,0,0,0,618,3774
3.72015e+06,0,0,0,810,3582
3.72017e+06,0,0,0,1002,3390
3.72021e+06,0,0,0,1194,3198
3.72024e+06,0,0,0,1386,3006
3.72093e+06,0,0,0,1514,2878
3.72151e+06,0,0,0,1706,2686
3.7226e+06,0,0,0,1962,2430
3.72342e+06,0,0,0,4392,0
3.72342e+06,0,0,0,1962,2430
3.72342e+06,0,0,0,1762,2630
3.72342e+06,0,0,0,1538,2854
3.72342e+06,0,0,0,1410,2982
3.72342e+06,0,0,0,1154,3238
3.72562e+06,0,0,0,1026,3366
3.72792e+06,0,0,0,834,3558
3.72793e+06,0,0,0,642,3750
3.72794e+06,0,0,0,450,3942
3.72795e+06,0,0,0,258,4134
3.72796e+06,0,0,0,66,4326
3.73059e+06,0,0,0,322,4070
3.73275e+06,0,0,0,450,3942
3.73428e+06,0,0,0,650,3742
3.73429e+06,0,0,0,874,3518
3.7343e+06,0,0,0,1002,3390
3.73776e+06,0,0,0,1194,3198
3.73777e+06,0,0,0,1386,3006
3.73779e+06,0,0,0,1578,2814
3.73782e+06,0,0,0,1770,2622
3.73915e+06,0,0,0,1962,2430
3.74462e+06,0,0,0,4392,0
3.74463e+06,0,0,0,1962,2430
3.74463e+06,0,0,0,1770,2622
3.74463e+06,0,0,0,1578,2814
3.74463e+06,0,0,0,1322,3070
3.74463e+06,0,0,0,1194,3198
3.74475e+06,0,0,0,1002,3390
3.74477e+06,0,0,0,810,3582
3.75441e+06,0,0,0,1002,3390
3.75442e+06,0,0,0,1194,3198
3.75453e+06,0,0,0,1386,3006
3.75454e+06,0,0,0,1578,2814
3.75468e+06,0,0,0,1450,2942
3.75552e+06,0,0,0,1578,2814
3.76182e+06,0,0,0,1706,2686
3.76438e+06,0,0,0,1962,2430
3.76625e+06,0,0,0,4392,0
3.76625e+06,0,0,0,1962,2430
3.76625e+06,0,0,0,1706,2686
3.78646e+06,0,0,0,1962,2430
3.78772e+06,0,0,0,4392,0
3.78772e+06,0,0,0,1962,2430
3.78772e+06,0,0,0,1706,2686
3.78772e+06,0,0,0,1578,2814
3.79278e+06,0,0,0,1450,2942
3.79812e+06,0,0,0,1578,2814
3.79993e+06,0,0,0,1706,2686
3.80935e+06,0,0,0,1962,2430
3.8094e+06,0,0,0,4392,0
3.8094e+06,0,0,0,1962,2430
3.8094e+06,0,0,0,1706,2686
3.8094e+06,0,0,0,1450,2942
3.8094e+06,0,0,0,1322,3070
3.8094e+06,0,0,0,1194,3198
3.8094e+06,0,0,0,1066,3326
3.81793e+06,0,0,0,1194,3198
3.81947e+06,0,0,0,1322,3070
3.81963e+06,0,0,0,1450,2942
3.82095e+06,0,0,0,1706,2686
3.82122e+06,0,0,0,1962,2430
3.83077e+06,0,0,0,4392,0
3.83078e+06,0,0,0,1962,2430
3.83078e+06,0,0,0,1706,2686
3.84994e+06,0,0,0,1962,2430
3.85194e+06,0,0,0,4392,0
3.85194e+06,0,0,0,1962,2430
3.87312e+06,0,0,0,4392,0
3.87312e+06,0,0,0,1962,2430
3.87312e+06,0,0,0,938,3454
3.87312e+06,0,0,0,426,3966
3.87312e+06,0,0,0,170,4222
3.87396e+06,0,0,0,42,4350
3.8811e+06,0,0,0,170,4222
3.8811e+06,0,0,0,42,4350
3.88824e+06,0,0,0,170,4222
3.89482e+06,0,0,0,426,3966
3.89642e+06,0,0,0,938,3454
3.89878e+06,0,0,0,1962,2430
3.89879e+06,0,0,0,938,3454
3.89879e+06,0,0,0,682,3710
3.89879e+06,0,0,0,426,3966
3.89879e+06,0,0,0,170,4222
3.89967e+06,0,0,0,42,4350
3.91052e+06,0,0,0,170,4222
3.91053e+06,0,0,0,42,4350
3.91788e+06,0,0,0,170,4222
3.91788e+06,0,0,0,42,4350
3.92046e+06,0,0,0,298,4094
3.92047e+06,0,0,0,170,4222
3.92047e+06,0,0,0,42,4350
3.92047e+06,0,0,0,298,4094
3.92047e+06,0,0,0,170,4222
3.92186e+06,0,0,0,426,3966
3.92412e+06,0,0,0,170,4222
3.92507e+06,0,0,0,298,4094
3.92878e+06,0,0,0,426,3966
3.9292e+06,0,0,0,554,3838
3.93131e+06,0,0,0,810,3582
3.93134e+06,0,0,0,938,3454
3.93486e+06,0,0,0,1962,2430
3.93486e+06,0,0,0,938,3454
3.93486e+06,0,0,0,682,3710
3.93486e+06,0,0,0,426,3966
3.93486e+06,0,0,0,170,4222
3.93486e+06,0,0,0,42,4350
3.94372e+06,0,0,0,170,4222
3.94372e+06,0,0,0,42,4350
3.95236e+06,0,0,0,170,4222
3.95236e+06,0,0,0,42,4350
3.95438e+06,0,0,0,298,4094
3.95652e+06,0,0,0,554,3838
3.95653e+06,0,0,0,810,3582
3.95831e+06,0,0,0,1834,2558
3.95831e+06,0,0,0,810,3582
3.95953e+06,0,0,0,938,3454
3.95965e+06,0,0,0,3368,1024
3.95965e+06,0,0,0,2344,2048
3.95965e+06,0,0,0,2088,2304
3.95965e+06,0,0,0,1832,2560
3.95965e+06,0,0,0,1576,2816
3.95965e+06,0,0,0,1320,3072
3.95965e+06,0,0,0,1064,3328
3.95965e+06,0,0,0,808,3584
3.95965e+06,0,0,0,552,3840
3.95965e+06,0,0,0,296,4096
3.95965e+06,0,0,0,40,4352
3.96935e+06,0,0,0,296,4096
3.96936e+06,0,0,0,40,4352
3.97123e+06,0,0,0,296,4096
3.97124e+06,0,0,0,40,4352
3.97129e+06,0,0,0,296,4096
3.97129e+06,0,0,0,40,4352
3.97148e+06,0,0,0,296,4096
3.97148e+06,0,0,0,168,4224
3.97148e+06,0,0,0,40,4352
3.97179e+06,0,0,0,296,4096
3.97179e+06,0,0,0,168,4224
3.97179e+06,0,0,0,40,4352
3.97181e+06,0,0,0,296,4096
3.97181e+06,0,0,0,40,4352
3.97186e+06,0,0,0,296,4096
3.97186e+06,0,0,0,168,4224
3.97186e+06,0,0,0,40,4352
3.97213e+06,0,0,0,296,4096
3.97214e+06,0,0,0,40,4352
3.97221e+06,0,0,0,296,4096
3.97222e+06,0,0,0,168,4224
3.97222e+06,0,0,0,40,4352
3.97934e+06,0,0,0,168,4224
3.97935e+06,0,0,0,40,4352
3.97937e+06,0,0,0,168,4224
3.97937e+06,0,0,0,32,4360
3.97993e+06,0,0,0,160,4232
3.97993e+06,0,0,0,24,4368
3.98016e+06,0,0,0,152,4240
3.98017e+06,0,0,0,16,4376
3.98017e+06,0,0,0,144,4248
3.98017e+06,0,0,0,8,4384
3.98045e+06,0,0,0,136,4256
3.98046e+06,0,0,0,0,4392
3.98073e+06,0,0,0,128,4264
3.98073e+06,0,0,0,0,4392
3.98095e+06,0,0,0,256,4136
3.98095e+06,0,0,0,120,4272
3.98269e+06,0,0,0,248,4144
3.98269e+06,0,0,0,112,4280
3.98276e+06,0,0,0,368,4024
3.98276e+06,0,0,0,232,4160
3.98276e+06,0,0,0,96,4296
3.98791e+06,0,0,0,224,4168
3.98792e+06,0,0,0,96,4296
3.99016e+06,0,0,0,232,4160
3.9902e+06,0,0,0,360,4032
3.99073e+06,0,0,0,1384,3008
3.99073e+06,0,0,0,1520,2872
3.99097e+06,0,0,0,1656,2736
3.99105e+06,0,0,0,1792,2600
3.99127e+06,0,0,0,1928,2464
3.99134e+06,0,0,0,2184,2208
3.99145e+06,0,0,0,3208,1184
3.99159e+06,0,0,0,3464,928
3.9918e+06,0,0,0,3600,792
3.99353e+06,0,0,0,3736,656
3.99354e+06,0,0,0,3872,520
3.9936e+06,0,0,0,4008,384
3.99377e+06,0,0,0,4264,128
3.99377e+06,0,0,0,168,4224
3.99377e+06,0,0,0,32,4360
3.9952e+06,0,0,0,160,4232
3.99521e+06,0,0,0,24,4368
4.0046e+06,0,0,0,160,4232
4.00461e+06,0,0,0,24,4368
4.00602e+06,0,0,0,160,4232
4.00602e+06,0,0,0,24,4368
4.01541e+06,0,0,0,160,4232
4.01541e+06,0,0,0,24,4368
4.01686e+06,0,0,0,160,4232
4.01686e+06,0,0,0,24,4368
4.02623e+06,0,0,0,160,4232
4.02623e+06,0,0,0,24,4368
4.02775e+06,0,0,0,160,4232
4.02776e+06,0,0,0,24,4368
4.03704e+06,0,0,0,160,4232
4.03705e+06,0,0,0,32,4360
4.03858e+06,0,0,0,168,4224
4.03858e+06,0,0,0,40,4352
4.04751e+06,0,0,0,168,4224
4.04751e+06,0,0,0,40,4352
4.04895e+06,0,0,0,168,4224
4.04896e+06,0,0,0,40,4352
4.05578e+06,0,0,0,168,4224
4.05579e+06,0,0,0,40,4352
4.05768e+06,0,0,0,168,4224
4.05769e+06,0,0,0,40,4352
4.06667e+06,0,0,0,168,4224
4.06667e+06,0,0,0,40,4352
4.06802e+06,0,0,0,168,4224
4.06802e+06,0,0,0,40,4352
4.07713e+06,0,0,0,168,4224
4.07842e+06,0,0,0,296,4096
4.08036e+06,0,0,0,4392,0
4.08036e+06,0,0,0,3880,512
4.08036e+06,0,0,0,3368,1024
4.08036e+06,0,0,0,2856,1536
4.08036e+06,0,0,0,2600,1792
4.08036e+06,0,0,0,2344,2048
4.08036e+06,0,0,0,1320,3072
4.08036e+06,0,0,0,296,4096
4.08036e+06,0,0,0,40,4352
4.08755e+06,0,0,0,552,3840
4.08755e+06,0,0,0,360,4032
4.08755e+06,0,0,0,168,4224
4.08755e+06,0,0,0,40,4352
4.09738e+06,0,0,0,232,4160
4.09746e+06,0,0,0,424,3968
4.09844e+06,0,0,0,552,3840
4.09977e+06,0,0,0,808,3584
4.10117e+06,0,0,0,1832,2560
4.10118e+06,0,0,0,808,3584
4.10134e+06,0,0,0,1832,2560
4.10134e+06,0,0,0,808,3584
4.10145e+06,0,0,0,1064,3328
4.10145e+06,0,0,0,40,4352
4.102e+06,0,0,0,296,4096
4.10344e+06,0,0,0,808,3584
4.10347e+06,0,0,0,1320,3072
4.10347e+06,0,0,0,296,4096
4.10347e+06,0,0,0,104,4288
4.11327e+06,0,0,0,296,4096
4.11327e+06,0,0,0,40,4352
4.1204e+06,0,0,0,296,4096
4.12223e+06,0,0,0,1320,3072
4.12223e+06,0,0,0,868,3524
4.12223e+06,0,0,0,676,3716
4.12223e+06,0,0,0,484,3908
4.12232e+06,0,0,0,1508,2884
4.12233e+06,0,0,0,996,3396
4.12233e+06,0,0,0,740,3652
4.12309e+06,0,0,0,1764,2628
4.12452e+06,0,0,0,2788,1604
4.12452e+06,0,0,0,358,4034
4.12452e+06,0,0,0,166,4226
4.12452e+06,0,0,0,38,4354
4.12954e+06,0,0,0,230,4162
4.12955e+06,0,0,0,38,4354
4.13169e+06,0,0,0,166,4226
4.13169e+06,0,0,0,38,4354
4.13213e+06,0,0,0,230,4162
4.13213e+06,0,0,0,38,4354
4.13219e+06,0,0,0,230,4162
4.13219e+06,0,0,0,38,4354
4.1333e+06,0,0,0,490,3902
4.1333e+06,0,0,0,234,4158
4.1333e+06,0,0,0,42,4350
4.13888e+06,0,0,0,170,4222
4.13888e+06,0,0,0,42,4350
4.13944e+06,0,0,0,234,4158
4.14049e+06,0,0,0,490,3902
4.14195e+06,0,0,0,682,3710
4.14221e+06,0,0,0,874,3518
4.14311e+06,0,0,0,1066,3326
4.1436e+06,0,0,0,1322,3070
4.14513e+06,0,0,0,1834,2558
4.14607e+06,0,0,0,1962,2430
4.14614e+06,0,0,0,4392,0
4.14614e+06,0,0,0,1962,2430
4.14614e+06,0,0,0,1450,2942
4.14614e+06,0,0,0,1194,3198
4.14614e+06,0,0,0,1002,3390
4.14614e+06,0,0,0,810,3582
4.14614e+06,0,0,0,618,3774
4.14614e+06,0,0,0,426,3966
4.14614e+06,0,0,0,234,4158
4.14614e+06,0,0,0,42,4350
4.15131e+06,0,0,0,234,4158
4.15131e+06,0,0,0,42,4350
4.1533e+06,0,0,0,554,3838
4.1533e+06,0,0,0,362,4030
4.1533e+06,0,0,0,234,4158
4.1533e+06,0,0,0,106,4286
4.15598e+06,0,0,0,298,4094
4.15599e+06,0,0,0,42,4350
4.15599e+06,0,0,0,234,4158
4.15599e+06,0,0,0,42,4350
4.15602e+06,0,0,0,234,4158
4.15602e+06,0,0,0,106,4286
4.157e+06,0,0,0,298,4094
4.157e+06,0,0,0,42,4350
4.15708e+06,0,0,0,234,4158
4.15708e+06,0,0,0,106,4286
4.16113e+06,0,0,0,298,4094
4.16126e+06,0,0,0,426,3966
4.16256e+06,0,0,0,554,3838
4.16312e+06,0,0,0,746,3646
4.16321e+06,0,0,0,1002,3390
4.16338e+06,0,0,0,1194,3198
4.1642e+06,0,0,0,1450,2942
4.16562e+06,0,0,0,1578,2814
4.16575e+06,0,0,0,1834,2558
4.16652e+06,0,0,0,1962,2430
4.16776e+06,0,0,0,4392,0
4.16776e+06,0,0,0,1962,2430
4.16776e+06,0,0,0,1706,2686
4.16776e+06,0,0,0,1450,2942
4.16776e+06,0,0,0,1194,3198
4.16776e+06,0,0,0,682,3710
4.16776e+06,0,0,0,426,3966
4.16776e+06,0,0,0,170,4222
4.16776e+06,0,0,0,42,4350
4.17492e+06,0,0,0,170,4222
4.17492e+06,0,0,0,42,4350
4.17842e+06,0,0,0,298,4094
4.17842e+06,0,0,0,42,4350
4.17918e+06,0,0,0,2472,1920
4.17919e+06,0,0,0,2216,2176
4.17919e+06,0,0,0,1960,2432
4.17919e+06,0,0,0,1704,2688
4.17919e+06,0,0,0,1448,2944
4.17919e+06,0,0,0,1192,3200
4.17919e+06,0,0,0,936,3456
4.17919e+06,0,0,0,484,3908
4.17919e+06,0,0,0,228,4164
4.17919e+06,0,0,0,100,4292
4.18576e+06,0,0,0,228,4164
4.18633e+06,0,0,0,356,4036
4.18736e+06,0,0,0,612,3780
4.18736e+06,0,0,0,100,4292
4.1894e+06,0,0,0,356,4036
4.18941e+06,0,0,0,612,3780
4.18942e+06,0,0,0,868,3524
4.18942e+06,0,0,0,228,4164
4.18964e+06,0,0,0,680,3712
4.18965e+06,0,0,0,424,3968
4.18965e+06,0,0,0,168,4224
4.18967e+06,0,0,0,424,3968
4.18968e+06,0,0,0,168,4224
4.18976e+06,0,0,0,424,3968
4.18976e+06,0,0,0,168,4224
4.19021e+06,0,0,0,424,3968
4.19023e+06,0,0,0,680,3712
4.19023e+06,0,0,0,168,4224
4.19033e+06,0,0,0,680,3712
4.19034e+06,0,0,0,168,4224
4.19106e+06,0,0,0,424,3968
4.19107e+06,0,0,0,168,4224
4.19685e+06,0,0,0,424,3968
4.19744e+06,0,0,0,936,3456
4.19744e+06,0,0,0,424,3968
4.19744e+06,0,0,0,296,4096
4.19744e+06,0,0,0,168,4224
4.19744e+06,0,0,0,40,4352
4.19757e+06,0,0,0,552,3840
4.19757e+06,0,0,0,424,3968
4.19757e+06,0,0,0,296,4096
4.19757e+06,0,0,0,40,4352
4.19819e+06,0,0,0,296,4096
4.19819e+06,0,0,0,40,4352
4.19873e+06,0,0,0,296,4096
4.20054e+06,0,0,0,936,3456
4.20054e+06,0,0,0,424,3968
4.20054e+06,0,0,0,168,4224
4.20054e+06,0,0,0,40,4352
4.20081e+06,0,0,0,296,4096
4.20081e+06,0,0,0,168,4224
4.20081e+06,0,0,0,40,4352
4.20082e+06,0,0,0,296,4096
4.20082e+06,0,0,0,168,4224
4.20082e+06,0,0,0,40,4352
4.20468e+06,0,0,0,552,3840
4.20468e+06,0,0,0,296,4096
4.20468e+06,0,0,0,168,4224
4.20479e+06,0,0,0,424,3968
4.2048e+06,0,0,0,168,4224
4.20543e+06,0,0,0,424,3968
4.20776e+06,0,0,0,680,3712
4.20776e+06,0,0,0,168,4224
4.20776e+06,0,0,0,40,4352
4.20828e+06,0,0,0,168,4224
4.20829e+06,0,0,0,296,4096
4.20829e+06,0,0,0,424,3968
4.2084e+06,0,0,0,552,3840
4.20841e+06,0,0,0,680,3712
4.20909e+06,0,0,0,1192,3200
4.20909e+06,0,0,0,168,4224
4.21029e+06,0,0,0,424,3968
4.21035e+06,0,0,0,936,3456
4.21132e+06,0,0,0,1192,3200
4.21132e+06,0,0,0,168,4224
4.21139e+06,0,0,0,296,4096
4.21144e+06,0,0,0,552,3840
4.21166e+06,0,0,0,680,3712
4.21166e+06,0,0,0,808,3584
4.21167e+06,0,0,0,936,3456
4.21171e+06,0,0,0,1064,3328
4.21171e+06,0,0,0,40,4352
4.21187e+06,0,0,0,168,4224
4.21187e+06,0,0,0,40,4352
4.21193e+06,0,0,0,296,4096
4.21193e+06,0,0,0,80,4312
4.21807e+06,0,0,0,208,4184
4.21807e+06,0,0,0,16,4376
4.22275e+06,0,0,0,144,4248
4.22275e+06,0,0,0,16,4376
4.22284e+06,0,0,0,232,4160
4.22435e+06,0,0,0,488,3904
4.22809e+06,0,0,0,680,3712
4.22979e+06,0,0,0,1704,2688
4.2298e+06,0,0,0,680,3712
4.22994e+06,0,0,0,808,3584
4.23068e+06,0,0,0,1320,3072
4.23068e+06,0,0,0,296,4096
4.23255e+06,0,0,0,1320,3072
4.23255e+06,0,0,0,296,4096
4.23255e+06,0,0,0,40,4352
4.23343e+06,0,0,0,1064,3328
4.23343e+06,0,0,0,872,3520
4.23343e+06,0,0,0,680,3712
4.23343e+06,0,0,0,488,3904
4.23343e+06,0,0,0,296,4096
4.23343e+06,0,0,0,104,4288
4.24323e+06,0,0,0,296,4096
4.24323e+06,0,0,0,168,4224
4.24323e+06,0,0,0,40,4352
4.24326e+06,0,0,0,232,4160
4.24326e+06,0,0,0,424,3968
4.24327e+06,0,0,0,616,3776
4.24327e+06,0,0,0,488,3904
4.24327e+06,0,0,0,360,4032
4.24327e+06,0,0,0,232,4160
4.24327e+06,0,0,0,104,4288
4.24331e+06,0,0,0,296,4096
4.24331e+06,0,0,0,168,4224
4.24331e+06,0,0,0,40,4352
4.24355e+06,0,0,0,296,4096
4.24355e+06,0,0,0,168,4224
4.24355e+06,0,0,0,40,4352
4.25093e+06,0,0,0,168,4224
4.25107e+06,0,0,0,1192,3200
4.25107e+06,0,0,0,671,3721
4.25107e+06,0,0,0,543,3849
4.25107e+06,0,0,0,415,3977
4.25107e+06,0,0,0,287,4105
4.25107e+06,0,0,0,31,4361
4.25169e+06,0,0,0,159,4233
4.25186e+06,0,0,0,287,4105
4.25218e+06,0,0,0,415,3977
4.25234e+06,0,0,0,1439,2953
4.25234e+06,0,0,0,927,3465
4.25234e+06,0,0,0,799,3593
4.25234e+06,0,0,0,671,3721
4.25234e+06,0,0,0,543,3849
4.25234e+06,0,0,0,415,3977
4.25234e+06,0,0,0,287,4105
4.25234e+06,0,0,0,159,4233
4.25234e+06,0,0,0,31,4361
4.25278e+06,0,0,0,159,4233
4.25278e+06,0,0,0,31,4361
4.25318e+06,0,0,0,1055,3337
4.25318e+06,0,0,0,927,3465
4.25318e+06,0,0,0,799,3593
4.25318e+06,0,0,0,671,3721
4.25318e+06,0,0,0,479,3913
4.25318e+06,0,0,0,287,4105
4.25318e+06,0,0,0,95,4297
4.25366e+06,0,0,0,223,4169
4.25366e+06,0,0,0,31,4361
4.25379e+06,0,0,0,159,4233
4.25412e+06,0,0,0,287,4105
4.25412e+06,0,0,0,31,4361
4.25439e+06,0,0,0,159,4233
4.25439e+06,0,0,0,31,4361
4.25441e+06,0,0,0,159,4233
4.25813e+06,0,0,0,680,3712
4.25814e+06,0,0,0,488,3904
4.25814e+06,0,0,0,360,4032
4.25814e+06,0,0,0,104,4288
4.25966e+06,0,0,0,616,3776
4.25966e+06,0,0,0,360,4032
4.25967e+06,0,0,0,488,3904
4.25999e+06,0,0,0,616,3776
4.2608e+06,0,0,0,744,3648
4.2608e+06,0,0,0,104,4288
4.26141e+06,0,0,0,232,4160
4.26177e+06,0,0,0,360,4032
4.2619e+06,0,0,0,488,3904
4.26203e+06,0,0,0,616,3776
4.26203e+06,0,0,0,104,4288
4.26303e+06,0,0,0,296,4096
4.26303e+06,0,0,0,166,4226
4.26303e+06,0,0,0,38,4354
4.26304e+06,0,0,0,230,4162
4.26304e+06,0,0,0,422,3970
4.26305e+06,0,0,0,230,4162
4.26305e+06,0,0,0,38,4354
4.26316e+06,0,0,0,166,4226
4.26317e+06,0,0,0,294,4098
4.26317e+06,0,0,0,102,4290
4.26324e+06,0,0,0,230,4162
4.26324e+06,0,0,0,38,4354
4.26326e+06,0,0,0,166,4226
4.26328e+06,0,0,0,294,4098
4.26329e+06,0,0,0,422,3970
4.26329e+06,0,0,0,230,4162
4.26329e+06,0,0,0,38,4354
4.26335e+06,0,0,0,166,4226
4.26351e+06,0,0,0,358,4034
4.26351e+06,0,0,0,166,4226
4.2641e+06,0,0,0,294,4098
4.2641e+06,0,0,0,102,4290
4.26796e+06,0,0,0,294,4098
4.26797e+06,0,0,0,102,4290
4.26906e+06,0,0,0,230,4162
4.26906e+06,0,0,0,38,4354
4.27142e+06,0,0,0,678,3714
4.27142e+06,0,0,0,486,3906
4.27142e+06,0,0,0,358,4034
4.27142e+06,0,0,0,230,4162
4.27142e+06,0,0,0,102,4290
4.27181e+06,0,0,0,294,4098
4.27182e+06,0,0,0,102,4290
4.27272e+06,0,0,0,358,4034
4.27272e+06,0,0,0,230,4162
4.27272e+06,0,0,0,38,4354
4.27293e+06,0,0,0,230,4162
4.27293e+06,0,0,0,102,4290
4.27308e+06,0,0,0,294,4098
4.27309e+06,0,0,0,166,4226
4.27312e+06,0,0,0,358,4034
4.2732e+06,0,0,0,550,3842
4.27335e+06,0,0,0,742,3650
4.27388e+06,0,0,0,870,3522
4.27391e+06,0,0,0,1000,3392
4.27411e+06,0,0,0,1192,3200
4.27492e+06,0,0,0,1384,3008
4.27538e+06,0,0,0,1256,3136
4.27577e+06,0,0,0,1512,2880
4.27766e+06,0,0,0,1384,3008
4.27856e+06,0,0,0,1512,2880
4.2788e+06,0,0,0,1704,2688
4.2789e+06,0,0,0,1896,2496
4.27914e+06,0,0,0,2152,2240
4.28008e+06,0,0,0,2280,2112
4.2804e+06,0,0,0,2152,2240
4.28133e+06,0,0,0,2024,2368
4.28139e+06,0,0,0,2216,2176
4.28163e+06,0,0,0,2408,1984
4.28194e+06,0,0,0,2280,2112
4.28228e+06,0,0,0,2408,1984
4.28229e+06,0,0,0,2536,1856
4.28266e+06,0,0,0,2728,1664
4.28269e+06,0,0,0,2984,1408
4.28359e+06,0,0,0,3112,1280
4.28366e+06,0,0,0,3240,1152
4.28395e+06,0,0,0,3368,1024
4.28404e+06,0,0,0,3240,1152
4.28544e+06,0,0,0,3752,640
4.28851e+06,0,0,0,3880,512
4.28883e+06,0,0,0,3752,640
4.29006e+06,0,0,0,3624,768
4.2912e+06,0,0,0,3752,640
4.29126e+06,0,0,0,3880,512
4.29219e+06,0,0,0,4008,384
4.29279e+06,0,0,0,4136,256
4.29748e+06,0,0,0,3624,768
4.29969e+06,0,0,0,3752,640
4.30062e+06,0,0,0,3624,768
4.30097e+06,0,0,0,3752,640
4.30153e+06,0,0,0,3624,768
4.30155e+06,0,0,0,3432,960
4.30157e+06,0,0,0,3240,1152
4.30159e+06,0,0,0,3048,1344
4.30161e+06,0,0,0,2856,1536
4.30162e+06,0,0,0,2664,1728
4.30163e+06,0,0,0,2472,1920
4.30249e+06,0,0,0,2344,2048
4.3034e+06,0,0,0,2216,2176
4.30652e+06,0,0,0,2088,2304
4.30951e+06,0,0,0,1960,2432
4.31143e+06,0,0,0,2152,2240
4.31145e+06,0,0,0,2344,2048
4.31146e+06,0,0,0,2536,1856
4.31146e+06,0,0,0,2728,1664
4.31147e+06,0,0,0,2856,1536
4.3115e+06,0,0,0,3048,1344
4.31179e+06,0,0,0,2920,1472
4.31236e+06,0,0,0,3048,1344
4.31246e+06,0,0,0,3240,1152
4.31339e+06,0,0,0,3368,1024
4.31366e+06,0,0,0,3240,1152
4.31423e+06,0,0,0,3368,1024
4.31489e+06,0,0,0,3240,1152
4.31712e+06,0,0,0,3112,1280
4.31723e+06,0,0,0,3240,1152
4.31762e+06,0,0,0,3112,1280
4.31762e+06,0,0,0,2984,1408
4.31842e+06,0,0,0,2728,1664
4.31884e+06,0,0,0,2600,1792
4.32032e+06,0,0,0,2472,1920
4.32037e+06,0,0,0,2600,1792
4.32039e+06,0,0,0,3112,1280
4.32084e+06,0,0,0,2984,1408
4.32125e+06,0,0,0,2792,1600
4.32127e+06,0,0,0,2600,1792
4.32169e+06,0,0,0,2472,1920
4.32169e+06,0,0,0,2344,2048
4.32252e+06,0,0,0,1832,2560
4.32266e+06,0,0,0,1960,2432
4.32355e+06,0,0,0,1832,2560
4.3245e+06,0,0,0,1960,2432
4.32464e+06,0,0,0,1832,2560
4.32481e+06,0,0,0,1960,2432
4.32484e+06,0,0,0,2088,2304
4.32544e+06,0,0,0,1960,2432
4.32573e+06,0,0,0,2088,2304
4.327e+06,0,0,0,1576,2816
4.32771e+06,0,0,0,1704,2688
4.32902e+06,0,0,0,1832,2560
4.32979e+06,0,0,0,1704,2688
4.33017e+06,0,0,0,1832,2560
4.33048e+06,0,0,0,1960,2432
4.33063e+06,0,0,0,2088,2304
4.33109e+06,0,0,0,2280,2112
4.33211e+06,0,0,0,2408,1984
4.33221e+06,0,0,0,2600,1792
4.33439e+06,0,0,0,2728,1664
4.33496e+06,0,0,0,2856,1536
4.33626e+06,0,0,0,2984,1408
4.33653e+06,0,0,0,2856,1536
4.3379e+06,0,0,0,2600,1792
4.33865e+06,0,0,0,2472,1920
4.33902e+06,0,0,0,2344,2048
4.34008e+06,0,0,0,2600,1792
4.3403e+06,0,0,0,3112,1280
4.34064e+06,0,0,0,3240,1152
4.34086e+06,0,0,0,2984,1408
4.34087e+06,0,0,0,2728,1664
4.34088e+06,0,0,0,2472,1920
4.34272e+06,0,0,0,2216,2176
4.34585e+06,0,0,0,2344,2048
4.34611e+06,0,0,0,2216,2176
4.34738e+06,0,0,0,2344,2048
4.34739e+06,0,0,0,2216,2176
4.3478e+06,0,0,0,2088,2304
4.3478e+06,0,0,0,1960,2432
4.34781e+06,0,0,0,1832,2560
4.34909e+06,0,0,0,1704,2688
4.34988e+06,0,0,0,1960,2432
4.34988e+06,0,0,0,2088,2304
4.355e+06,0,0,0,1960,2432
4.35587e+06,0,0,0,2472,1920
4.35648e+06,0,0,0,2600,1792
4.35811e+06,0,0,0,2728,1664
4.35818e+06,0,0,0,2856,1536
4.35823e+06,0,0,0,2984,1408
4.35844e+06,0,0,0,3112,1280
4.35922e+06,0,0,0,3240,1152
4.35954e+06,0,0,0,3496,896
4.36249e+06,0,0,0,3752,640
4.36251e+06,0,0,0,4008,384
4.36253e+06,0,0,0,4264,128
4.36586e+06,0,0,0,4392,0
4.36987e+06,0,0,0,4136,256
4.38233e+06,0,0,0,3880,512
4.38233e+06,0,0,0,3624,768
4.3868e+06,0,0,0,3112,1280
4.38958e+06,0,0,0,2984,1408
4.39149e+06,0,0,0,3240,1152
4.39273e+06,0,0,0,3063,1329
4.39274e+06,0,0,0,2886,1506
4.39275e+06,0,0,0,2709,1683
4.39275e+06,0,0,0,2532,1860
4.39276e+06,0,0,0,2355,2037
4.39342e+06,0,0,0,1493,2899
4.39677e+06,0,0,0,1621,2771
4.39783e+06,0,0,0,1365,3027
4.40306e+06,0,0,0,1542,2850
4.40316e+06,0,0,0,1719,2673
4.40327e+06,0,0,0,1896,2496
4.40332e+06,0,0,0,2073,2319
4.40338e+06,0,0,0,2250,2142
4.40402e+06,0,0,0,2506,1886
4.40402e+06,0,0,0,2762,1630
4.40511e+06,0,0,0,2634,1758
4.40511e+06,0,0,0,2506,1886
4.40659e+06,0,0,0,2250,2142
4.40679e+06,0,0,0,1994,2398
4.40695e+06,0,0,0,1866,2526
4.40704e+06,0,0,0,1610,2782
4.40715e+06,0,0,0,1354,3038
4.40789e+06,0,0,0,1226,3166
4.40845e+06,0,0,0,970,3422
4.40845e+06,0,0,0,714,3678
4.40845e+06,0,0,0,458,3934
4.40846e+06,0,0,0,202,4190
4.41541e+06,0,0,0,330,4062
4.41542e+06,0,0,0,74,4318
4.4157e+06,0,0,0,586,3806
4.41571e+06,0,0,0,330,4062
4.41571e+06,0,0,0,74,4318
4.41596e+06,0,0,0,202,4190
4.41759e+06,0,0,0,330,4062
4.41759e+06,0,0,0,74,4318
4.41815e+06,0,0,0,202,4190
4.41955e+06,0,0,0,458,3934
4.41955e+06,0,0,0,202,4190
4.42149e+06,0,0,0,458,3934
4.4215e+06,0,0,0,202,4190
4.4215e+06,0,0,0,74,4318
4.42169e+06,0,0,0,330,4062
4.4217e+06,0,0,0,202,4190
4.4217e+06,0,0,0,74,4318
4.42172e+06,0,0,0,330,4062
4.42172e+06,0,0,0,202,4190
4.42241e+06,0,0,0,458,3934
4.42255e+06,0,0,0,714,3678
4.42256e+06,0,0,0,202,4190
4.42256e+06,0,0,0,74,4318
4.42272e+06,0,0,0,330,4062
4.42273e+06,0,0,0,202,4190
4.42278e+06,0,0,0,458,3934
4.4234e+06,0,0,0,714,3678
4.4234e+06,0,0,0,74,4318
4.42831e+06,0,0,0,330,4062
4.42832e+06,0,0,0,74,4318
4.42885e+06,0,0,0,330,4062
4.42888e+06,0,0,0,586,3806
4.4297e+06,0,0,0,1098,3294
4.43085e+06,0,0,0,1354,3038
4.43152e+06,0,0,0,1098,3294
4.43154e+06,0,0,0,842,3550
4.43155e+06,0,0,0,586,3806
4.43185e+06,0,0,0,714,3678
4.43252e+06,0,0,0,842,3550
4.43254e+06,0,0,0,970,3422
4.43255e+06,0,0,0,1098,3294
4.4326e+06,0,0,0,1354,3038
4.43278e+06,0,0,0,1482,2910
4.43357e+06,0,0,0,1610,2782
4.43486e+06,0,0,0,1866,2526
4.43549e+06,0,0,0,2122,2270
4.4361e+06,0,0,0,2762,1630
4.45316e+06,0,0,0,3018,1374
4.4532e+06,0,0,0,3274,1118
4.45321e+06,0,0,0,3530,862
4.46232e+06,0,0,0,3402,990
4.46409e+06,0,0,0,3146,1246
4.46946e+06,0,0,0,3274,1118
4.47719e+06,0,0,0,2634,1758
4.47937e+06,0,0,0,3496,896
4.48136e+06,0,0,0,3368,1024
4.48188e+06,0,0,0,3240,1152
4.48435e+06,0,0,0,2728,1664
4.48439e+06,0,0,0,2600,1792
4.48569e+06,0,0,0,2856,1536
4.48829e+06,0,0,0,2600,1792
4.48851e+06,0,0,0,2728,1664
4.48865e+06,0,0,0,2472,1920
4.48897e+06,0,0,0,2216,2176
4.48905e+06,0,0,0,2344,2048
4.48981e+06,0,0,0,2984,1408
4.49115e+06,0,0,0,2728,1664
4.49157e+06,0,0,0,2856,1536
4.49164e+06,0,0,0,2600,1792
4.49178e+06,0,0,0,2344,2048
4.49272e+06,0,0,0,1704,2688
4.49595e+06,0,0,0,1448,2944
4.49795e+06,0,0,0,1704,2688
4.49872e+06,0,0,0,1960,2432
4.49896e+06,0,0,0,1832,2560
4.49938e+06,0,0,0,2088,2304
4.5e+06,0,0,0,1960,2432
4.50001e+06,0,0,0,1832,2560
4.50029e+06,0,0,0,1704,2688
4.50029e+06,0,0,0,1576,2816
4.50138e+06,0,0,0,1832,2560
4.50296e+06,0,0,0,2088,2304
4.50404e+06,0,0,0,1896,2496
4.50415e+06,0,0,0,2152,2240
4.50506e+06,0,0,0,2792,1600
4.50547e+06,0,0,0,3048,1344
4.50611e+06,0,0,0,3176,1216
4.50664e+06,0,0,0,3688,704
4.50706e+06,0,0,0,3432,960
4.50749e+06,0,0,0,3560,832
4.50907e+06,0,0,0,3688,704
4.51039e+06,0,0,0,3816,576
4.51063e+06,0,0,0,3560,832
4.51064e+06,0,0,0,3304,1088
4.51083e+06,0,0,0,3432,960
4.51374e+06,0,0,0,2792,1600
4.51421e+06,0,0,0,3048,1344
4.51488e+06,0,0,0,3240,1152
4.51665e+06,0,0,0,3112,1280
4.51945e+06,0,0,0,2472,1920
4.51958e+06,0,0,0,2216,2176
4.51961e+06,0,0,0,1960,2432
4.52085e+06,0,0,0,1832,2560
4.52166e+06,0,0,0,1576,2816
4.52172e+06,0,0,0,1320,3072
4.5221e+06,0,0,0,1192,3200
4.52379e+06,0,0,0,1320,3072
4.52647e+06,0,0,0,1960,2432
4.52929e+06,0,0,0,2216,2176
4.53023e+06,0,0,0,2088,2304
4.53162e+06,0,0,0,2728,1664
4.53173e+06,0,0,0,2856,1536
4.53232e+06,0,0,0,3112,1280
4.53294e+06,0,0,0,3240,1152
4.53367e+06,0,0,0,3496,896
4.5361e+06,0,0,0,3752,640
4.53728e+06,0,0,0,3624,768
4.53739e+06,0,0,0,3752,640
4.54121e+06,0,0,0,4008,384
4.54123e+06,0,0,0,4264,128
4.54333e+06,0,0,0,4008,384
4.54375e+06,0,0,0,3880,512
4.5444e+06,0,0,0,4008,384
4.55056e+06,0,0,0,4264,128
4.55419e+06,0,0,0,4008,384
4.55462e+06,0,0,0,4136,256
4.555e+06,0,0,0,3880,512
4.55555e+06,0,0,0,3688,704
4.55558e+06,0,0,0,3496,896
4.55559e+06,0,0,0,3304,1088
4.5556e+06,0,0,0,3112,1280
4.55564e+06,0,0,0,2920,1472
4.55565e+06,0,0,0,2728,1664
4.55566e+06,0,0,0,2536,1856
4.55567e+06,0,0,0,2344,2048
4.55568e+06,0,0,0,2152,2240
4.55611e+06,0,0,0,1640,2752
4.5564e+06,0,0,0,1384,3008
4.55641e+06,0,0,0,1128,3264
4.55645e+06,0,0,0,488,3904
4.5573e+06,0,0,0,232,4160
4.56363e+06,0,0,0,488,3904
4.56363e+06,0,0,0,744,3648
4.56543e+06,0,0,0,936,3456
4.5655e+06,0,0,0,1128,3264
4.56551e+06,0,0,0,104,4288
4.56552e+06,0,0,0,296,4096
4.56555e+06,0,0,0,488,3904
4.56557e+06,0,0,0,680,3712
4.56562e+06,0,0,0,872,3520
4.56572e+06,0,0,0,1064,3328
4.56573e+06,0,0,0,40,4352
4.56578e+06,0,0,0,232,4160
4.56625e+06,0,0,0,424,3968
4.56625e+06,0,0,0,168,4224
4.56837e+06,0,0,0,424,3968
4.56838e+06,0,0,0,168,4224
4.56875e+06,0,0,0,808,3584
4.56876e+06,0,0,0,552,3840
4.56876e+06,0,0,0,424,3968
4.56876e+06,0,0,0,288,4104
4.56876e+06,0,0,0,152,4240
4.56876e+06,0,0,0,16,4376
4.57658e+06,0,0,0,272,4120
4.57659e+06,0,0,0,136,4256
4.57659e+06,0,0,0,0,4392
4.57891e+06,0,0,0,256,4136
4.57892e+06,0,0,0,128,4264
4.57896e+06,0,0,0,640,3752
4.57896e+06,0,0,0,0,4392
4.57957e+06,0,0,0,136,4256
4.57957e+06,0,0,0,8,4384
4.5796e+06,0,0,0,144,4248
4.57961e+06,0,0,0,272,4120
4.58099e+06,0,0,0,408,3984
4.58595e+06,0,0,0,1432,2960
4.58595e+06,0,0,0,392,4000
4.58606e+06,0,0,0,520,3872
4.58679e+06,0,0,0,648,3744
4.58742e+06,0,0,0,784,3608
4.58744e+06,0,0,0,920,3472
4.58787e+06,0,0,0,1176,3216
4.58939e+06,0,0,0,1816,2576
4.5894e+06,0,0,0,440,3952
4.5894e+06,0,0,0,312,4080
4.5894e+06,0,0,0,176,4216
4.5894e+06,0,0,0,40,4352
4.59003e+06,0,0,0,296,4096
4.59003e+06,0,0,0,160,4232
4.59003e+06,0,0,0,24,4368
4.59041e+06,0,0,0,280,4112
4.59041e+06,0,0,0,144,4248
4.59041e+06,0,0,0,8,4384
4.59312e+06,0,0,0,1048,3344
4.59312e+06,0,0,0,912,3480
4.59312e+06,0,0,0,776,3616
4.59312e+06,0,0,0,640,3752
4.59312e+06,0,0,0,504,3888
4.59312e+06,0,0,0,368,4024
4.60023e+06,0,0,0,504,3888
4.60024e+06,0,0,0,632,3760
4.60024e+06,0,0,0,120,4272
4.60032e+06,0,0,0,256,4136
4.60033e+06,0,0,0,128,4264
4.60083e+06,0,0,0,264,4128
4.60083e+06,0,0,0,8,4384
4.6009e+06,0,0,0,144,4248
4.6009e+06,0,0,0,16,4376
4.6012e+06,0,0,0,152,4240
4.60121e+06,0,0,0,288,4104
4.60122e+06,0,0,0,32,4360
4.6039e+06,0,0,0,168,4224
4.6039e+06,0,0,0,304,4088
4.60391e+06,0,0,0,176,4216
4.60392e+06,0,0,0,312,4080
4.60392e+06,0,0,0,56,4336
4.60396e+06,0,0,0,192,4200
4.60396e+06,0,0,0,328,4064
4.60396e+06,0,0,0,136,4256
4.608e+06,0,0,0,392,4000
4.608e+06,0,0,0,136,4256
4.60933e+06,0,0,0,8,4384
4.61039e+06,0,0,0,1032,3360
4.61039e+06,0,0,0,904,3488
4.61122e+06,0,0,0,1032,3360
4.61179e+06,0,0,0,1160,3232
4.61245e+06,0,0,0,120,4272
4.61462e+06,0,0,0,248,4144
4.61486e+06,0,0,0,440,3952
4.61486e+06,0,0,0,184,4208
4.6189e+06,0,0,0,440,3952
4.6189e+06,0,0,0,184,4208
4.6189e+06,0,0,0,56,4336
4.62027e+06,0,0,0,184,4208
4.62129e+06,0,0,0,312,4080
4.62292e+06,0,0,0,568,3824
4.62445e+06,0,0,0,1608,2784
4.62565e+06,0,0,0,1864,2528
4.6261e+06,0,0,0,1992,2400
4.62901e+06,0,0,0,1480,2912
4.63054e+06,0,0,0,1992,2400
4.63248e+06,0,0,0,1864,2528
4.63789e+06,0,0,0,2120,2272
4.63966e+06,0,0,0,2248,2144
4.64195e+06,0,0,0,2504,1888
4.64203e+06,0,0,0,2376,2016
4.64505e+06,0,0,0,2120,2272
4.64505e+06,0,0,0,1864,2528
4.64522e+06,0,0,0,1352,3040
4.64583e+06,0,0,0,1096,3296
4.64657e+06,0,0,0,840,3552
4.64704e+06,0,0,0,584,3808
4.64704e+06,0,0,0,328,4064
4.64922e+06,0,0,0,456,3936
4.65191e+06,0,0,0,968,3424
4.65191e+06,0,0,0,389,4003
4.65221e+06,0,0,0,645,3747
4.65224e+06,0,0,0,901,3491
4.65863e+06,0,0,0,773,3619
4.65864e+06,0,0,0,645,3747
4.66514e+06,0,0,0,1224,3168
4.66514e+06,0,0,0,184,4208
4.66579e+06,0,0,0,312,4080
4.66581e+06,0,0,0,440,3952
4.66742e+06,0,0,0,696,3696
4.66825e+06,0,0,0,952,3440
4.66825e+06,0,0,0,90,4302
4.66857e+06,0,0,0,346,4046
4.66857e+06,0,0,0,90,4302
4.6687e+06,0,0,0,346,4046
4.6687e+06,0,0,0,218,4174
4.6687e+06,0,0,0,90,4302
4.67259e+06,0,0,0,602,3790
4.67259e+06,0,0,0,90,4302
4.67586e+06,0,0,0,218,4174
4.67586e+06,0,0,0,90,4302
4.67592e+06,0,0,0,1466,2926
4.67592e+06,0,0,0,442,3950
4.67592e+06,0,0,0,42,4350
4.67958e+06,0,0,0,170,4222
4.68301e+06,0,0,0,298,4094
4.68301e+06,0,0,0,42,4350
4.69015e+06,0,0,0,298,4094
4.69016e+06,0,0,0,170,4222
4.69016e+06,0,0,0,42,4350
4.69027e+06,0,0,0,298,4094
4.69028e+06,0,0,0,170,4222
4.69731e+06,0,0,0,298,4094
4.69755e+06,0,0,0,698,3694
4.69755e+06,0,0,0,366,4026
4.69896e+06,0,0,0,1390,3002
4.69909e+06,0,0,0,1518,2874
4.70068e+06,0,0,0,2030,2362
4.70113e+06,0,0,0,2158,2234
4.7084e+06,0,0,0,2490,1902
4.7085e+06,0,0,0,3530,862
4.75429e+06,0,0,0,4392,0
