time,nb_sleeping,nb_switching_on,nb_switching_off,nb_idle,nb_computing
0.00240003,0,0,0,2344,2048
0.00300004,0,0,0,1320,3072
0.00360005,0,0,0,1192,3200
0.00420006,0,0,0,1064,3328
0.00480006,0,0,0,936,3456
0.00540007,0,0,0,808,3584
0.00600008,0,0,0,296,4096
0.00660009,0,0,0,168,4224
0.0072001,0,0,0,40,4352
10140,0,0,0,168,4224
10422,0,0,0,296,4096
10473,0,0,0,424,3968
10802,0,0,0,552,3840
10908,0,0,0,680,3712
10920,0,0,0,2728,1664
10920,0,0,0,2856,1536
10926,0,0,0,808,3584
10926,0,0,0,552,3840
10926,0,0,0,296,4096
10926,0,0,0,168,4224
10926,0,0,0,40,4352
21850,0,0,0,168,4224
21948,0,0,0,296,4096
22624,0,0,0,808,3584
22627,0,0,0,168,4224
22627,0,0,0,40,4352
32665,0,0,0,296,4096
32668,0,0,0,40,4352
32691,0,0,0,296,4096
32694,0,0,0,168,4224
32694,0,0,0,38,4354
33560,0,0,0,166,4226
33563,0,0,0,38,4354
43652,0,0,0,166,4226
43655,0,0,0,38,4354
43662,0,0,0,168,4224
43665,0,0,0,40,4352
44467,0,0,0,168,4224
44470,0,0,0,40,4352
53836,0,0,0,168,4224
53839,0,0,0,40,4352
54388,0,0,0,296,4096
54391,0,0,0,40,4352
54583,0,0,0,168,4224
54586,0,0,0,40,4352
55411,0,0,0,168,4224
55414,0,0,0,40,4352
64768,0,0,0,168,4224
65320,0,0,0,424,3968
65518,0,0,0,552,3840
66018,0,0,0,1192,3200
66349,0,0,0,1320,3072
68666,0,0,0,3368,1024
68669,0,0,0,1320,3072
68669,0,0,0,936,3456
68669,0,0,0,935,3457
68669,0,0,0,607,3785
68669,0,0,0,279,4113
68669,0,0,0,151,4241
78726,0,0,0,2199,2193
78729,0,0,0,1871,2521
78729,0,0,0,1543,2849
78729,0,0,0,1215,3177
78729,0,0,0,887,3505
78729,0,0,0,559,3833
78729,0,0,0,231,4161
78913,0,0,0,359,4033
78916,0,0,0,31,4361
86485,0,0,0,1055,3337
86488,0,0,0,727,3665
86488,0,0,0,399,3993
86488,0,0,0,71,4321
90388,0,0,0,399,3993
90391,0,0,0,71,4321
90406,0,0,0,399,3993
90409,0,0,0,71,4321
100440,0,0,0,399,3993
100442,0,0,0,727,3665
100446,0,0,0,399,3993
100446,0,0,0,71,4321
100452,0,0,0,399,3993
100455,0,0,0,71,4321
100473,0,0,0,399,3993
100476,0,0,0,71,4321
100482,0,0,0,399,3993
100485,0,0,0,71,4321
100636,0,0,0,399,3993
100639,0,0,0,71,4321
101175,0,0,0,455,3937
101178,0,0,0,199,4193
101178,0,0,0,71,4321
101633,0,0,0,399,3993
108194,0,0,0,727,3665
108201,0,0,0,1055,3337
108232,0,0,0,1383,3009
112110,0,0,0,1639,2753
112119,0,0,0,1767,2625
112126,0,0,0,2095,2297
112129,0,0,0,47,4345
112143,0,0,0,375,4017
112146,0,0,0,119,4273
122151,0,0,0,447,3945
122173,0,0,0,775,3617
122185,0,0,0,1103,3289
122188,0,0,0,301,4091
122189,0,0,0,629,3763
122192,0,0,0,305,4087
122192,0,0,0,49,4343
122239,0,0,0,377,4015
122242,0,0,0,121,4271
122371,0,0,0,449,3943
122374,0,0,0,193,4199
122374,0,0,0,65,4327
127181,0,0,0,321,4071
133142,0,0,0,577,3815
133214,0,0,0,833,3559
133326,0,0,0,1089,3303
133329,0,0,0,65,4327
133331,0,0,0,193,4199
133334,0,0,0,33,4359
133430,0,0,0,357,4035
133433,0,0,0,229,4163
133433,0,0,0,101,4291
138458,0,0,0,903,3489
138461,0,0,0,101,4291
140791,0,0,0,102,4290
143924,0,0,0,262,4130
144333,0,0,0,390,4002
144374,0,0,0,518,3874
145068,0,0,0,1542,2850
145071,0,0,0,518,3874
145071,0,0,0,66,4326
160550,0,0,0,2114,2278
160553,0,0,0,1090,3302
160553,0,0,0,706,3686
160553,0,0,0,194,4198
160553,0,0,0,66,4326
171496,0,0,0,194,4198
173884,0,0,0,646,3746
173887,0,0,0,390,4002
173887,0,0,0,389,4003
173887,0,0,0,133,4259
173887,0,0,0,5,4387
176663,0,0,0,389,4003
176666,0,0,0,133,4259
176666,0,0,0,5,4387
183382,0,0,0,517,3875
183385,0,0,0,261,4131
183385,0,0,0,5,4387
184838,0,0,0,133,4259
184841,0,0,0,5,4387
185523,0,0,0,261,4131
185526,0,0,0,5,4387
187581,0,0,0,133,4259
187584,0,0,0,5,4387
189588,0,0,0,261,4131
189591,0,0,0,5,4387
195799,0,0,0,133,4259
195802,0,0,0,5,4387
198394,0,0,0,261,4131
198397,0,0,0,5,4387
198514,0,0,0,133,4259
198517,0,0,0,5,4387
199390,0,0,0,261,4131
199393,0,0,0,133,4259
199393,0,0,0,5,4387
205153,0,0,0,261,4131
205156,0,0,0,133,4259
205156,0,0,0,5,4387
206706,0,0,0,133,4259
207296,0,0,0,389,4003
207299,0,0,0,65,4327
209437,0,0,0,193,4199
210311,0,0,0,321,4071
210315,0,0,0,449,3943
210318,0,0,0,125,4267
211184,0,0,0,381,4011
212907,0,0,0,253,4139
212967,0,0,0,125,4267
215162,0,0,0,253,4139
215814,0,0,0,381,4011
218383,0,0,0,705,3687
220008,0,0,0,961,3431
221545,0,0,0,1285,3107
223836,0,0,0,1413,2979
223881,0,0,0,1541,2851
225024,0,0,0,2343,2049
225027,0,0,0,423,3969
225027,0,0,0,422,3970
231592,0,0,0,1446,2946
231595,0,0,0,536,3856
231595,0,0,0,24,4368
243929,0,0,0,536,3856
246054,0,0,0,2456,1936
246057,0,0,0,1631,2761
246057,0,0,0,607,3785
246072,0,0,0,608,3784
247092,0,0,0,1632,2760
247095,0,0,0,608,3784
247095,0,0,0,284,4108
258374,0,0,0,1109,3283
258377,0,0,0,85,4307
258377,0,0,0,84,4308
259416,0,0,0,408,3984
259419,0,0,0,84,4308
271003,0,0,0,408,3984
274841,0,0,0,1318,3074
274844,0,0,0,643,3749
274844,0,0,0,259,4133
277242,0,0,0,63,4329
288062,0,0,0,259,4133
288065,0,0,0,131,4261
290971,0,0,0,132,4260
298237,0,0,0,516,3876
299010,0,0,0,644,3748
303756,0,0,0,516,3876
310018,0,0,0,1540,2852
310021,0,0,0,516,3876
314665,0,0,0,644,3748
318117,0,0,0,1319,3073
318120,0,0,0,295,4097
330469,0,0,0,296,4096
333585,0,0,0,1320,3072
333588,0,0,0,296,4096
333588,0,0,0,295,4097
333588,0,0,0,167,4225
339562,0,0,0,1191,3201
339565,0,0,0,167,4225
344536,0,0,0,295,4097
344911,0,0,0,1319,3073
344914,0,0,0,935,3457
344914,0,0,0,133,4259
354092,0,0,0,1157,3235
354095,0,0,0,773,3619
354095,0,0,0,389,4003
354095,0,0,0,245,4147
354095,0,0,0,117,4275
358922,0,0,0,501,3891
358925,0,0,0,373,4019
358925,0,0,0,245,4147
358925,0,0,0,117,4275
360739,0,0,0,919,3473
362128,0,0,0,791,3601
364903,0,0,0,935,3457
365101,0,0,0,1063,3329
367776,0,0,0,1447,2945
367779,0,0,0,295,4097
367779,0,0,0,167,4225
369827,0,0,0,295,4097
369889,0,0,0,167,4225
369911,0,0,0,295,4097
369921,0,0,0,423,3969
369924,0,0,0,99,4293
372932,0,0,0,227,4165
372935,0,0,0,99,4293
379894,0,0,0,227,4165
380785,0,0,0,355,4037
382493,0,0,0,679,3713
383900,0,0,0,807,3585
386397,0,0,0,1959,2433
386400,0,0,0,935,3457
386507,0,0,0,1319,3073
386510,0,0,0,295,4097
403051,0,0,0,1319,3073
403054,0,0,0,807,3585
403054,0,0,0,167,4225
404629,0,0,0,1191,3201
404632,0,0,0,551,3841
405710,0,0,0,552,3840
416674,0,0,0,1576,2816
416677,0,0,0,936,3456
416677,0,0,0,552,3840
416677,0,0,0,168,4224
421768,0,0,0,680,3712
421771,0,0,0,296,4096
421771,0,0,0,40,4352
433907,0,0,0,424,3968
433910,0,0,0,296,4096
433910,0,0,0,168,4224
433910,0,0,0,40,4352
436929,0,0,0,424,3968
442115,0,0,0,808,3584
442118,0,0,0,168,4224
443519,0,0,0,424,3968
444027,0,0,0,1064,3328
444030,0,0,0,424,3968
444815,0,0,0,552,3840
444848,0,0,0,680,3712
444851,0,0,0,40,4352
444955,0,0,0,168,4224
445399,0,0,0,808,3584
445402,0,0,0,424,3968
445402,0,0,0,40,4352
455464,0,0,0,424,3968
455467,0,0,0,296,4096
455467,0,0,0,168,4224
455467,0,0,0,40,4352
457783,0,0,0,680,3712
457786,0,0,0,552,3840
457786,0,0,0,424,3968
457786,0,0,0,296,4096
463361,0,0,0,680,3712
465206,0,0,0,1320,3072
465209,0,0,0,296,4096
466392,0,0,0,424,3968
466442,0,0,0,552,3840
466447,0,0,0,680,3712
468671,0,0,0,808,3584
468698,0,0,0,936,3456
468733,0,0,0,1064,3328
468736,0,0,0,40,4352
472962,0,0,0,1064,3328
472965,0,0,0,808,3584
472965,0,0,0,552,3840
472965,0,0,0,296,4096
472965,0,0,0,40,4352
472965,0,0,0,39,4353
477464,0,0,0,679,3713
477467,0,0,0,293,4099
483558,0,0,0,933,3459
483561,0,0,0,547,3845
494674,0,0,0,803,3589
494681,0,0,0,1059,3333
494684,0,0,0,35,4357
494727,0,0,0,291,4101
494730,0,0,0,35,4357
494736,0,0,0,291,4101
495800,0,0,0,677,3715
495803,0,0,0,293,4099
503799,0,0,0,679,3713
508847,0,0,0,1703,2689
508850,0,0,0,539,3853
508850,0,0,0,538,3854
508850,0,0,0,282,4110
508850,0,0,0,26,4366
516456,0,0,0,282,4110
516459,0,0,0,26,4366
528000,0,0,0,410,3982
528003,0,0,0,154,4238
528003,0,0,0,26,4366
530575,0,0,0,282,4110
531776,0,0,0,538,3854
538175,0,0,0,794,3598
538914,0,0,0,922,3470
540858,0,0,0,1946,2446
540861,0,0,0,922,3470
546197,0,0,0,923,3469
549779,0,0,0,1179,3213
549782,0,0,0,155,4237
552194,0,0,0,1319,3073
552197,0,0,0,295,4097
552197,0,0,0,167,4225
563132,0,0,0,295,4097
566112,0,0,0,1319,3073
566115,0,0,0,679,3713
566115,0,0,0,167,4225
573569,0,0,0,1191,3201
573572,0,0,0,519,3873
576387,0,0,0,1031,3361
576390,0,0,0,359,4033
580932,0,0,0,360,4032
581208,0,0,0,1384,3008
581211,0,0,0,712,3680
581211,0,0,0,40,4352
584872,0,0,0,712,3680
584875,0,0,0,40,4352
588619,0,0,0,712,3680
588622,0,0,0,328,4064
592476,0,0,0,1000,3392
592850,0,0,0,1672,2720
592853,0,0,0,648,3744
592853,0,0,0,108,4284
596376,0,0,0,780,3612
596379,0,0,0,240,4152
605561,0,0,0,1264,3128
605564,0,0,0,724,3668
605564,0,0,0,184,4208
609424,0,0,0,824,3568
609427,0,0,0,284,4108
609427,0,0,0,28,4364
616678,0,0,0,568,3824
616681,0,0,0,28,4364
620294,0,0,0,568,3824
620297,0,0,0,312,4080
620297,0,0,0,184,4208
620297,0,0,0,24,4368
620330,0,0,0,280,4112
620333,0,0,0,152,4240
620333,0,0,0,24,4368
621111,0,0,0,408,3984
621114,0,0,0,280,4112
621114,0,0,0,152,4240
629513,0,0,0,692,3700
629527,0,0,0,1232,3160
629530,0,0,0,208,4184
630656,0,0,0,336,4056
630659,0,0,0,464,3928
630837,0,0,0,592,3800
631207,0,0,0,752,3640
632029,0,0,0,880,3512
632041,0,0,0,1008,3384
633263,0,0,0,1548,2844
633266,0,0,0,508,3884
633266,0,0,0,507,3885
633266,0,0,0,499,3893
638438,0,0,0,755,3637
638441,0,0,0,66,4326
639835,0,0,0,1090,3302
639838,0,0,0,834,3558
640484,0,0,0,1374,3018
640487,0,0,0,366,4026
640487,0,0,0,110,4282
651281,0,0,0,1134,3258
651284,0,0,0,878,3514
651284,0,0,0,554,3838
656050,0,0,0,810,3582
661603,0,0,0,1066,3326
661606,0,0,0,66,4326
662581,0,0,0,390,4002
662584,0,0,0,6,4386
673010,0,0,0,262,4130
681667,0,0,0,951,3441
681670,0,0,0,149,4243
681968,0,0,0,157,4235
684567,0,0,0,541,3851
684570,0,0,0,217,4175
686411,0,0,0,89,4303
695931,0,0,0,413,3979
695934,0,0,0,29,4363
696908,0,0,0,157,4235
705284,0,0,0,1197,3195
705287,0,0,0,873,3519
705287,0,0,0,549,3843
705287,0,0,0,225,4167
706507,0,0,0,226,4166
709068,0,0,0,610,3782
709071,0,0,0,226,4166
710542,0,0,0,1028,3364
710545,0,0,0,704,3688
710545,0,0,0,380,4012
710545,0,0,0,56,4336
716405,0,0,0,1056,3336
716408,0,0,0,672,3720
716408,0,0,0,348,4044
716408,0,0,0,24,4368
716537,0,0,0,348,4044
716540,0,0,0,220,4172
716540,0,0,0,92,4300
716570,0,0,0,416,3976
716573,0,0,0,288,4104
716614,0,0,0,612,3780
716617,0,0,0,288,4104
721715,0,0,0,612,3780
721718,0,0,0,228,4164
721718,0,0,0,100,4292
721817,0,0,0,424,3968
721870,0,0,0,808,3584
721871,0,0,0,1132,3260
725111,0,0,0,808,3584
726980,0,0,0,1816,2576
727048,0,0,0,1944,2448
727307,0,0,0,2072,2320
727444,0,0,0,2200,2192
727829,0,0,0,2524,1868
727924,0,0,0,2848,1544
728126,0,0,0,3172,1220
728994,0,0,0,3556,836
731719,0,0,0,3684,708
734410,0,0,0,4068,324
736600,0,0,0,4392,0
737004,0,0,0,4068,324
737886,0,0,0,3684,708
741285,0,0,0,3360,1032
748370,0,0,0,3684,708
749309,0,0,0,3360,1032
750595,0,0,0,3744,648
752861,0,0,0,4068,324
754043,0,0,0,3684,708
760892,0,0,0,4008,384
765658,0,0,0,3684,708
765659,0,0,0,3360,1032
766266,0,0,0,2848,1544
766422,0,0,0,3232,1160
767964,0,0,0,2080,2312
769272,0,0,0,1952,2440
776876,0,0,0,2276,2116
776930,0,0,0,2600,1792
776962,0,0,0,2420,1972
779665,0,0,0,2292,2100
779703,0,0,0,2420,1972
782430,0,0,0,2292,2100
784135,0,0,0,2036,2356
785451,0,0,0,3188,1204
785887,0,0,0,2804,1588
787778,0,0,0,2984,1408
787976,0,0,0,2660,1732
788002,0,0,0,2336,2056
788277,0,0,0,1312,3080
790604,0,0,0,1440,2952
792127,0,0,0,1952,2440
792801,0,0,0,2080,2312
795060,0,0,0,2336,2056
798835,0,0,0,2720,1672
799319,0,0,0,3044,1348
799321,0,0,0,3368,1024
801505,0,0,0,3112,1280
805224,0,0,0,2856,1536
805295,0,0,0,2600,1792
813857,0,0,0,2216,2176
817330,0,0,0,2088,2304
819658,0,0,0,2344,2048
823205,0,0,0,2600,1792
827049,0,0,0,2856,1536
827183,0,0,0,3240,1152
827760,0,0,0,3368,1024
831014,0,0,0,3044,1348
831395,0,0,0,1892,2500
831397,0,0,0,868,3524
835026,0,0,0,716,3676
837019,0,0,0,460,3932
837696,0,0,0,204,4188
838157,0,0,0,76,4316
842240,0,0,0,400,3992
842243,0,0,0,272,4120
845820,0,0,0,424,3968
848490,0,0,0,1448,2944
848493,0,0,0,424,3968
848493,0,0,0,296,4096
848493,0,0,0,168,4224
849095,0,0,0,296,4096
851084,0,0,0,1448,2944
851087,0,0,0,936,3456
851087,0,0,0,612,3780
851087,0,0,0,228,4164
852592,0,0,0,356,4036
853149,0,0,0,1380,3012
853152,0,0,0,372,4020
853152,0,0,0,116,4276
858260,0,0,0,372,4020
858263,0,0,0,116,4276
858736,0,0,0,372,4020
859004,0,0,0,500,3892
859409,0,0,0,628,3764
863396,0,0,0,1012,3380
863399,0,0,0,210,4182
863641,0,0,0,534,3858
867747,0,0,0,790,3602
874108,0,0,0,1302,3090
874111,0,0,0,500,3892
874111,0,0,0,372,4020
874111,0,0,0,48,4344
880000,0,0,0,304,4088
880003,0,0,0,176,4216
880003,0,0,0,48,4344
885006,0,0,0,176,4216
885009,0,0,0,48,4344
886595,0,0,0,372,4020
890882,0,0,0,500,3892
890919,0,0,0,628,3764
890922,0,0,0,116,4276
895808,0,0,0,244,4148
904285,0,0,0,756,3636
904288,0,0,0,244,4148
918214,0,0,0,756,3636
918217,0,0,0,432,3960
918217,0,0,0,108,4284
920629,0,0,0,1132,3260
920632,0,0,0,808,3584
920632,0,0,0,424,3968
925087,0,0,0,100,4292
927714,0,0,0,902,3490
927907,0,0,0,750,3642
929375,0,0,0,1074,3318
929456,0,0,0,1398,2994
931238,0,0,0,1070,3322
931239,0,0,0,742,3650
931240,0,0,0,414,3978
931243,0,0,0,86,4306
931909,0,0,0,410,3982
931912,0,0,0,82,4310
933613,0,0,0,466,3926
933616,0,0,0,138,4254
936391,0,0,0,462,3930
936394,0,0,0,134,4258
938741,0,0,0,286,4106
939679,0,0,0,1294,3098
939682,0,0,0,966,3426
939682,0,0,0,638,3754
939682,0,0,0,310,4082
949803,0,0,0,1112,3280
949806,0,0,0,88,4304
952948,0,0,0,416,3976
952982,0,0,0,744,3648
952996,0,0,0,1072,3320
953042,0,0,0,1400,2992
953747,0,0,0,1728,2664
955331,0,0,0,2056,2336
955334,0,0,0,8,4384
958112,0,0,0,336,4056
958115,0,0,0,12,4380
961376,0,0,0,340,4052
961379,0,0,0,212,4180
961399,0,0,0,540,3852
961441,0,0,0,868,3524
961444,0,0,0,66,4326
969420,0,0,0,390,4002
971487,0,0,0,1414,2978
971490,0,0,0,612,3780
972337,0,0,0,740,3652
977102,0,0,0,2788,1604
977105,0,0,0,740,3652
977105,0,0,0,356,4036
977105,0,0,0,32,4360
988337,0,0,0,356,4036
988340,0,0,0,32,4360
990686,0,0,0,416,3976
990689,0,0,0,32,4360
999573,0,0,0,356,4036
1.01024e+06,0,0,0,228,4164
1.01776e+06,0,0,0,100,4292
1.01798e+06,0,0,0,98,4294
1.02119e+06,0,0,0,226,4166
1.02137e+06,0,0,0,98,4294
1.02312e+06,0,0,0,482,3910
1.02626e+06,0,0,0,1284,3108
1.02873e+06,0,0,0,1412,2980
1.03064e+06,0,0,0,1414,2978
1.03229e+06,0,0,0,1542,2850
1.03635e+06,0,0,0,2344,2048
1.03635e+06,0,0,0,296,4096
1.03635e+06,0,0,0,104,4288
1.03635e+06,0,0,0,103,4289
1.03635e+06,0,0,0,100,4292
1.03635e+06,0,0,0,99,4293
1.03635e+06,0,0,0,98,4294
1.04733e+06,0,0,0,290,4102
1.04733e+06,0,0,0,98,4294
1.04851e+06,0,0,0,99,4293
1.05098e+06,0,0,0,100,4292
1.05446e+06,0,0,0,101,4291
1.05451e+06,0,0,0,104,4288
1.05835e+06,0,0,0,296,4096
1.06362e+06,0,0,0,2344,2048
1.06363e+06,0,0,0,1672,2720
1.06363e+06,0,0,0,1000,3392
1.06363e+06,0,0,0,328,4064
1.06363e+06,0,0,0,136,4256
1.06363e+06,0,0,0,8,4384
1.07454e+06,0,0,0,200,4192
1.07455e+06,0,0,0,328,4064
1.07571e+06,0,0,0,1000,3392
1.07571e+06,0,0,0,328,4064
1.07571e+06,0,0,0,136,4256
1.0762e+06,0,0,0,808,3584
1.0762e+06,0,0,0,616,3776
1.0762e+06,0,0,0,424,3968
1.0762e+06,0,0,0,232,4160
1.0762e+06,0,0,0,40,4352
1.07632e+06,0,0,0,712,3680
1.07632e+06,0,0,0,520,3872
1.07632e+06,0,0,0,328,4064
1.08665e+06,0,0,0,520,3872
1.08714e+06,0,0,0,712,3680
1.08716e+06,0,0,0,904,3488
1.08716e+06,0,0,0,1096,3296
1.08716e+06,0,0,0,1768,2624
1.08717e+06,0,0,0,1960,2432
1.08725e+06,0,0,0,2152,2240
1.08725e+06,0,0,0,104,4288
1.08727e+06,0,0,0,296,4096
1.09358e+06,0,0,0,168,4224
1.09408e+06,0,0,0,40,4352
1.10451e+06,0,0,0,168,4224
1.10452e+06,0,0,0,40,4352
1.10507e+06,0,0,0,168,4224
1.10508e+06,0,0,0,40,4352
1.10906e+06,0,0,0,2088,2304
1.10907e+06,0,0,0,1064,3328
1.10907e+06,0,0,0,56,4336
1.11554e+06,0,0,0,184,4208
1.11607e+06,0,0,0,312,4080
1.12287e+06,0,0,0,2360,2032
1.12287e+06,0,0,0,1558,2834
1.12287e+06,0,0,0,1234,3158
1.12287e+06,0,0,0,734,3658
1.12287e+06,0,0,0,234,4158
1.12287e+06,0,0,0,106,4286
1.1338e+06,0,0,0,234,4158
1.13426e+06,0,0,0,558,3834
1.13427e+06,0,0,0,234,4158
1.13427e+06,0,0,0,106,4286
1.14504e+06,0,0,0,234,4158
1.14518e+06,0,0,0,1258,3134
1.14519e+06,0,0,0,934,3458
1.14519e+06,0,0,0,610,3782
1.14519e+06,0,0,0,286,4106
1.1456e+06,0,0,0,610,3782
1.1456e+06,0,0,0,98,4294
1.1518e+06,0,0,0,900,3492
1.1518e+06,0,0,0,400,3992
1.1518e+06,0,0,0,272,4120
1.1518e+06,0,0,0,16,4376
1.1555e+06,0,0,0,516,3876
1.15551e+06,0,0,0,388,4004
1.15551e+06,0,0,0,4,4388
1.15568e+06,0,0,0,504,3888
1.15639e+06,0,0,0,828,3564
1.15641e+06,0,0,0,1152,3240
1.15646e+06,0,0,0,1476,2916
1.15695e+06,0,0,0,1988,2404
1.16272e+06,0,0,0,2116,2276
1.16645e+06,0,0,0,2244,2148
1.17353e+06,0,0,0,2500,1892
1.18275e+06,0,0,0,2244,2148
1.18394e+06,0,0,0,2116,2276
1.18459e+06,0,0,0,2616,1776
1.18653e+06,0,0,0,2360,2032
1.18679e+06,0,0,0,2104,2288
1.18797e+06,0,0,0,2488,1904
1.18911e+06,0,0,0,2164,2228
1.19417e+06,0,0,0,1140,3252
1.19466e+06,0,0,0,1268,3124
1.19474e+06,0,0,0,1140,3252
1.1956e+06,0,0,0,2148,2244
1.20043e+06,0,0,0,2472,1920
1.20434e+06,0,0,0,2088,2304
1.20443e+06,0,0,0,2344,2048
1.20565e+06,0,0,0,2472,1920
1.20756e+06,0,0,0,2344,2048
1.20765e+06,0,0,0,2088,2304
1.20828e+06,0,0,0,2344,2048
1.20849e+06,0,0,0,2600,1792
1.2097e+06,0,0,0,1798,2594
1.20985e+06,0,0,0,996,3396
1.21325e+06,0,0,0,868,3524
1.21673e+06,0,0,0,612,3780
1.2185e+06,0,0,0,740,3652
1.21866e+06,0,0,0,996,3396
1.21957e+06,0,0,0,868,3524
1.22417e+06,0,0,0,996,3396
1.23054e+06,0,0,0,1124,3268
1.23071e+06,0,0,0,996,3396
1.2315e+06,0,0,0,2020,2372
1.23687e+06,0,0,0,2404,1988
1.23844e+06,0,0,0,2660,1732
1.23932e+06,0,0,0,3462,930
1.24162e+06,0,0,0,3590,802
1.25373e+06,0,0,0,4392,0
1.25831e+06,0,0,0,4264,128
1.26922e+06,0,0,0,4392,0
1.27203e+06,0,0,0,4264,128
1.28119e+06,0,0,0,4008,384
1.28296e+06,0,0,0,4136,256
1.28301e+06,0,0,0,4008,384
1.29348e+06,0,0,0,3624,768
1.29395e+06,0,0,0,3752,640
1.29642e+06,0,0,0,4008,384
1.30461e+06,0,0,0,3880,512
1.30754e+06,0,0,0,4264,128
1.30809e+06,0,0,0,3940,452
1.31222e+06,0,0,0,3616,776
1.31265e+06,0,0,0,3104,1288
1.31269e+06,0,0,0,2848,1544
1.31553e+06,0,0,0,2976,1416
1.31939e+06,0,0,0,3300,1092
1.31944e+06,0,0,0,2976,1416
1.32334e+06,0,0,0,2652,1740
1.32336e+06,0,0,0,2976,1416
1.33076e+06,0,0,0,3300,1092
1.33443e+06,0,0,0,3556,836
1.33491e+06,0,0,0,3880,512
1.33553e+06,0,0,0,4392,0
1.34776e+06,0,0,0,4008,384
1.35213e+06,0,0,0,3684,708
1.35947e+06,0,0,0,3428,964
1.35973e+06,0,0,0,3300,1092
1.36045e+06,0,0,0,2148,2244
1.36078e+06,0,0,0,2532,1860
1.36153e+06,0,0,0,1508,2884
1.36157e+06,0,0,0,484,3908
1.36375e+06,0,0,0,808,3584
1.37064e+06,0,0,0,936,3456
1.3711e+06,0,0,0,808,3584
1.37425e+06,0,0,0,680,3712
1.37975e+06,0,0,0,1832,2560
1.38117e+06,0,0,0,2088,2304
1.38135e+06,0,0,0,1832,2560
1.38185e+06,0,0,0,1960,2432
1.38515e+06,0,0,0,2088,2304
1.38567e+06,0,0,0,3112,1280
1.38773e+06,0,0,0,4136,256
1.3891e+06,0,0,0,3112,1280
1.39655e+06,0,0,0,2788,1604
1.40068e+06,0,0,0,2464,1928
1.4024e+06,0,0,0,1440,2952
1.40306e+06,0,0,0,1696,2696
1.40679e+06,0,0,0,1440,2952
1.40759e+06,0,0,0,1184,3208
1.40806e+06,0,0,0,1508,2884
1.4096e+06,0,0,0,1124,3268
1.41221e+06,0,0,0,800,3592
1.41234e+06,0,0,0,1124,3268
1.41252e+06,0,0,0,800,3592
1.41513e+06,0,0,0,1824,2568
1.41635e+06,0,0,0,1312,3080
1.41717e+06,0,0,0,288,4104
1.42097e+06,0,0,0,544,3848
1.42251e+06,0,0,0,928,3464
1.42388e+06,0,0,0,1252,3140
1.42396e+06,0,0,0,1576,2816
1.42424e+06,0,0,0,1252,3140
1.42517e+06,0,0,0,868,3524
1.42612e+06,0,0,0,544,3848
1.42933e+06,0,0,0,800,3592
1.4355e+06,0,0,0,1124,3268
1.43728e+06,0,0,0,1448,2944
1.43729e+06,0,0,0,296,4096
1.43793e+06,0,0,0,680,3712
1.43793e+06,0,0,0,356,4036
1.43793e+06,0,0,0,32,4360
1.44105e+06,0,0,0,1056,3336
1.44105e+06,0,0,0,544,3848
1.4457e+06,0,0,0,1568,2824
1.44886e+06,0,0,0,2080,2312
1.44903e+06,0,0,0,2404,1988
1.44953e+06,0,0,0,2728,1664
1.45528e+06,0,0,0,3880,512
1.47358e+06,0,0,0,4392,0
1.47939e+06,0,0,0,3880,512
1.48048e+06,0,0,0,3368,1024
1.48054e+06,0,0,0,2344,2048
1.48515e+06,0,0,0,2020,2372
1.48579e+06,0,0,0,1764,2628
1.48629e+06,0,0,0,1380,3012
1.49136e+06,0,0,0,1892,2500
1.49143e+06,0,0,0,2916,1476
1.4963e+06,0,0,0,3240,1152
1.50112e+06,0,0,0,3752,640
1.50254e+06,0,0,0,4136,256
1.5075e+06,0,0,0,4392,0
1.50844e+06,0,0,0,4068,324
1.51185e+06,0,0,0,3812,580
1.51956e+06,0,0,0,4136,256
1.51974e+06,0,0,0,3812,580
1.52925e+06,0,0,0,3488,904
1.52994e+06,0,0,0,3232,1160
1.5311e+06,0,0,0,3556,836
1.53114e+06,0,0,0,3232,1160
1.53131e+06,0,0,0,2848,1544
1.53308e+06,0,0,0,2592,1800
1.5333e+06,0,0,0,2208,2184
1.53359e+06,0,0,0,2464,1928
1.53514e+06,0,0,0,2208,2184
1.5352e+06,0,0,0,1952,2440
1.53632e+06,0,0,0,1696,2696
1.53667e+06,0,0,0,1568,2824
1.53766e+06,0,0,0,544,3848
1.54057e+06,0,0,0,868,3524
1.5426e+06,0,0,0,1192,3200
1.5426e+06,0,0,0,168,4224
1.54669e+06,0,0,0,552,3840
1.54762e+06,0,0,0,680,3712
1.55147e+06,0,0,0,1704,2688
1.55147e+06,0,0,0,902,3490
1.55147e+06,0,0,0,100,4292
1.55165e+06,0,0,0,356,4036
1.55302e+06,0,0,0,740,3652
1.55473e+06,0,0,0,996,3396
1.55474e+06,0,0,0,194,4198
1.55674e+06,0,0,0,450,3942
1.55677e+06,0,0,0,706,3686
1.55802e+06,0,0,0,962,3430
1.55802e+06,0,0,0,160,4232
1.55802e+06,0,0,0,32,4360
1.56893e+06,0,0,0,160,4232
1.58598e+06,0,0,0,1184,3208
1.58598e+06,0,0,0,382,4010
1.59477e+06,0,0,0,1184,3208
1.59477e+06,0,0,0,382,4010
1.59477e+06,0,0,0,58,4334
1.59796e+06,0,0,0,860,3532
1.59796e+06,0,0,0,604,3788
1.59796e+06,0,0,0,348,4044
1.60606e+06,0,0,0,672,3720
1.60606e+06,0,0,0,160,4232
1.6089e+06,0,0,0,416,3976
1.61706e+06,0,0,0,928,3464
1.61966e+06,0,0,0,1184,3208
1.61966e+06,0,0,0,160,4232
1.63177e+06,0,0,0,1184,3208
1.63178e+06,0,0,0,672,3720
1.63178e+06,0,0,0,348,4044
1.63788e+06,0,0,0,1150,3242
1.63788e+06,0,0,0,638,3754
1.63788e+06,0,0,0,126,4266
1.64307e+06,0,0,0,450,3942
1.64446e+06,0,0,0,1252,3140
1.64446e+06,0,0,0,100,4292
1.64866e+06,0,0,0,612,3780
1.64867e+06,0,0,0,484,3908
1.64867e+06,0,0,0,996,3396
1.64867e+06,0,0,0,484,3908
1.65959e+06,0,0,0,996,3396
1.6608e+06,0,0,0,1124,3268
1.6608e+06,0,0,0,116,4276
1.66144e+06,0,0,0,1268,3124
1.66144e+06,0,0,0,1012,3380
1.66144e+06,0,0,0,472,3920
1.66427e+06,0,0,0,984,3408
1.66428e+06,0,0,0,444,3948
1.66825e+06,0,0,0,1246,3146
1.66825e+06,0,0,0,706,3686
1.66825e+06,0,0,0,166,4226
1.67746e+06,0,0,0,968,3424
1.67746e+06,0,0,0,640,3752
1.67746e+06,0,0,0,312,4080
1.67934e+06,0,0,0,852,3540
1.67934e+06,0,0,0,524,3868
1.67934e+06,0,0,0,196,4196
1.6801e+06,0,0,0,736,3656
1.6801e+06,0,0,0,408,3984
1.6801e+06,0,0,0,80,4312
1.68029e+06,0,0,0,620,3772
1.6803e+06,0,0,0,292,4100
1.68259e+06,0,0,0,832,3560
1.6826e+06,0,0,0,504,3888
1.6826e+06,0,0,0,176,4216
1.68318e+06,0,0,0,432,3960
1.68318e+06,0,0,0,104,4288
1.69918e+06,0,0,0,432,3960
1.69925e+06,0,0,0,760,3632
1.70108e+06,0,0,0,1088,3304
1.70108e+06,0,0,0,64,4328
1.70111e+06,0,0,0,392,4000
1.70179e+06,0,0,0,720,3672
1.70179e+06,0,0,0,208,4184
1.70179e+06,0,0,0,207,4185
1.70184e+06,0,0,0,535,3857
1.70184e+06,0,0,0,279,4113
1.70184e+06,0,0,0,23,4369
1.70338e+06,0,0,0,351,4041
1.70404e+06,0,0,0,95,4297
1.70433e+06,0,0,0,423,3969
1.70435e+06,0,0,0,751,3641
1.70451e+06,0,0,0,495,3897
1.70496e+06,0,0,0,823,3569
1.71214e+06,0,0,0,567,3825
1.71224e+06,0,0,0,311,4081
1.71236e+06,0,0,0,183,4209
1.72283e+06,0,0,0,1207,3185
1.72306e+06,0,0,0,1463,2929
1.72308e+06,0,0,0,1591,2801
1.72317e+06,0,0,0,1847,2545
1.72345e+06,0,0,0,2103,2289
1.72345e+06,0,0,0,55,4337
1.72345e+06,0,0,0,54,4338
1.72346e+06,0,0,0,310,4082
1.72346e+06,0,0,0,54,4338
1.72605e+06,0,0,0,310,4082
1.72606e+06,0,0,0,54,4338
1.72672e+06,0,0,0,310,4082
1.73439e+06,0,0,0,822,3570
1.73694e+06,0,0,0,1078,3314
1.73694e+06,0,0,0,54,4338
1.74502e+06,0,0,0,310,4082
1.74734e+06,0,0,0,1318,3074
1.74734e+06,0,0,0,294,4098
1.74826e+06,0,0,0,1318,3074
1.74826e+06,0,0,0,294,4098
1.74826e+06,0,0,0,166,4226
1.74826e+06,0,0,0,38,4354
1.75865e+06,0,0,0,1062,3330
1.75865e+06,0,0,0,38,4354
1.75919e+06,0,0,0,166,4226
1.75923e+06,0,0,0,294,4098
1.75955e+06,0,0,0,1318,3074
1.75956e+06,0,0,0,516,3876
1.75956e+06,0,0,0,388,4004
1.75956e+06,0,0,0,260,4132
1.75956e+06,0,0,0,132,4260
1.76994e+06,0,0,0,1156,3236
1.76994e+06,0,0,0,900,3492
1.76994e+06,0,0,0,772,3620
1.76994e+06,0,0,0,516,3876
1.76994e+06,0,0,0,388,4004
1.77014e+06,0,0,0,260,4132
1.77018e+06,0,0,0,132,4260
1.77044e+06,0,0,0,260,4132
1.77049e+06,0,0,0,388,4004
1.77057e+06,0,0,0,516,3876
1.77504e+06,0,0,0,517,3875
1.77978e+06,0,0,0,389,4003
1.78085e+06,0,0,0,517,3875
1.78087e+06,0,0,0,645,3747
1.78106e+06,0,0,0,773,3619
1.78112e+06,0,0,0,901,3491
1.78131e+06,0,0,0,1703,2689
1.78445e+06,0,0,0,1959,2433
1.78494e+06,0,0,0,1831,2561
1.78752e+06,0,0,0,1703,2689
1.79075e+06,0,0,0,1831,2561
1.79168e+06,0,0,0,2087,2305
1.79231e+06,0,0,0,1959,2433
1.79334e+06,0,0,0,1575,2817
1.79345e+06,0,0,0,1447,2945
1.79346e+06,0,0,0,1319,3073
1.79549e+06,0,0,0,1191,3201
1.79556e+06,0,0,0,1192,3200
1.79586e+06,0,0,0,1320,3072
1.79624e+06,0,0,0,1064,3328
1.79627e+06,0,0,0,1063,3329
1.7965e+06,0,0,0,807,3585
1.79692e+06,0,0,0,551,3841
1.79704e+06,0,0,0,295,4097
1.79844e+06,0,0,0,423,3969
1.79928e+06,0,0,0,167,4225
1.80324e+06,0,0,0,295,4097
1.80438e+06,0,0,0,423,3969
1.80444e+06,0,0,0,551,3841
1.80556e+06,0,0,0,935,3457
1.8064e+06,0,0,0,1063,3329
1.80641e+06,0,0,0,55,4337
1.80995e+06,0,0,0,2103,2289
1.80995e+06,0,0,0,1975,2417
1.80995e+06,0,0,0,1847,2545
1.80995e+06,0,0,0,1719,2673
1.80995e+06,0,0,0,1207,3185
1.80995e+06,0,0,0,951,3441
1.80995e+06,0,0,0,695,3697
1.80995e+06,0,0,0,439,3953
1.81419e+06,0,0,0,183,4209
1.81751e+06,0,0,0,55,4337
1.81788e+06,0,0,0,311,4081
1.81788e+06,0,0,0,55,4337
1.81811e+06,0,0,0,311,4081
1.81853e+06,0,0,0,567,3825
1.81854e+06,0,0,0,183,4209
1.81863e+06,0,0,0,439,3953
1.81912e+06,0,0,0,279,4113
1.82086e+06,0,0,0,407,3985
1.82087e+06,0,0,0,535,3857
1.82092e+06,0,0,0,663,3729
1.82097e+06,0,0,0,919,3473
1.82097e+06,0,0,0,117,4275
1.82832e+06,0,0,0,373,4019
1.82847e+06,0,0,0,501,3891
1.83007e+06,0,0,0,661,3731
1.8317e+06,0,0,0,917,3475
1.83171e+06,0,0,0,1429,2963
1.83171e+06,0,0,0,429,3963
1.83171e+06,0,0,0,173,4219
1.83171e+06,0,0,0,429,3963
1.83172e+06,0,0,0,173,4219
1.83553e+06,0,0,0,557,3835
1.83553e+06,0,0,0,301,4091
1.83553e+06,0,0,0,45,4347
1.83581e+06,0,0,0,301,4091
1.83581e+06,0,0,0,45,4347
1.83662e+06,0,0,0,301,4091
1.84323e+06,0,0,0,141,4251
1.84988e+06,0,0,0,943,3449
1.84988e+06,0,0,0,687,3705
1.85239e+06,0,0,0,943,3449
1.85261e+06,0,0,0,1199,3193
1.85329e+06,0,0,0,1455,2937
1.85417e+06,0,0,0,1615,2777
1.85712e+06,0,0,0,1871,2521
1.85713e+06,0,0,0,2127,2265
1.8579e+06,0,0,0,1871,2521
1.86948e+06,0,0,0,1872,2520
1.87151e+06,0,0,0,2128,2264
1.87397e+06,0,0,0,1804,2588
1.87962e+06,0,0,0,2060,2332
1.88104e+06,0,0,0,12,4380
1.88526e+06,0,0,0,336,4056
1.88581e+06,0,0,0,1336,3056
1.89291e+06,0,0,0,2344,2048
1.89291e+06,0,0,0,296,4096
1.89291e+06,0,0,0,40,4352
1.90113e+06,0,0,0,2088,2304
1.90113e+06,0,0,0,1832,2560
1.90113e+06,0,0,0,1320,3072
1.90113e+06,0,0,0,996,3396
1.90113e+06,0,0,0,672,3720
1.90333e+06,0,0,0,416,3976
1.90939e+06,0,0,0,2464,1928
1.91203e+06,0,0,0,1952,2440
1.91243e+06,0,0,0,2276,2116
1.91245e+06,0,0,0,2600,1792
1.91464e+06,0,0,0,2856,1536
1.91511e+06,0,0,0,2356,2036
1.91596e+06,0,0,0,2032,2360
1.91908e+06,0,0,0,1776,2616
1.91909e+06,0,0,0,1520,2872
1.9194e+06,0,0,0,1264,3128
1.91943e+06,0,0,0,1008,3384
1.91946e+06,0,0,0,752,3640
1.91955e+06,0,0,0,496,3896
1.91989e+06,0,0,0,752,3640
1.92e+06,0,0,0,496,3896
1.92251e+06,0,0,0,336,4056
1.92311e+06,0,0,0,592,3800
1.9233e+06,0,0,0,336,4056
1.92467e+06,0,0,0,80,4312
1.92715e+06,0,0,0,404,3988
1.92715e+06,0,0,0,148,4244
1.93077e+06,0,0,0,660,3732
1.93349e+06,0,0,0,820,3572
1.93531e+06,0,0,0,1332,3060
1.94069e+06,0,0,0,1588,2804
1.94071e+06,0,0,0,1844,2548
1.94101e+06,0,0,0,2100,2292
1.94102e+06,0,0,0,2356,2036
1.94111e+06,0,0,0,2612,1780
1.94119e+06,0,0,0,2868,1524
1.94166e+06,0,0,0,3124,1268
1.94511e+06,0,0,0,3380,1012
1.9464e+06,0,0,0,3636,756
1.9488e+06,0,0,0,4136,256
1.9489e+06,0,0,0,4392,0
1.95157e+06,0,0,0,4264,128
1.95162e+06,0,0,0,4136,256
1.95452e+06,0,0,0,3812,580
1.95894e+06,0,0,0,2660,1732
1.96202e+06,0,0,0,612,3780
1.96255e+06,0,0,0,740,3652
1.96256e+06,0,0,0,868,3524
1.96257e+06,0,0,0,612,3780
1.96586e+06,0,0,0,936,3456
1.96948e+06,0,0,0,808,3584
1.97068e+06,0,0,0,680,3712
1.97069e+06,0,0,0,552,3840
1.97072e+06,0,0,0,424,3968
1.97124e+06,0,0,0,40,4352
1.97677e+06,0,0,0,1192,3200
1.97677e+06,0,0,0,1064,3328
1.97677e+06,0,0,0,936,3456
1.97677e+06,0,0,0,680,3712
1.97677e+06,0,0,0,552,3840
1.97677e+06,0,0,0,424,3968
1.977e+06,0,0,0,680,3712
1.97764e+06,0,0,0,424,3968
1.97767e+06,0,0,0,168,4224
1.97869e+06,0,0,0,2216,2176
1.97869e+06,0,0,0,1960,2432
1.97869e+06,0,0,0,1704,2688
1.97869e+06,0,0,0,1448,2944
1.97869e+06,0,0,0,1192,3200
1.97956e+06,0,0,0,168,4224
1.98044e+06,0,0,0,296,4096
1.98159e+06,0,0,0,424,3968
1.98166e+06,0,0,0,552,3840
1.98167e+06,0,0,0,680,3712
1.98434e+06,0,0,0,1064,3328
1.98772e+06,0,0,0,1192,3200
1.98773e+06,0,0,0,1320,3072
1.98776e+06,0,0,0,1448,2944
1.98777e+06,0,0,0,1576,2816
1.98852e+06,0,0,0,1448,2944
1.99852e+06,0,0,0,1704,2688
1.99931e+06,0,0,0,1960,2432
1.99932e+06,0,0,0,2216,2176
1.9995e+06,0,0,0,2344,2048
1.99951e+06,0,0,0,2088,2304
1.99987e+06,0,0,0,1832,2560
2.00029e+06,0,0,0,2088,2304
2.0003e+06,0,0,0,2344,2048
2.00032e+06,0,0,0,2600,1792
2.00141e+06,0,0,0,3624,768
2.00148e+06,0,0,0,3880,512
2.01734e+06,0,0,0,3624,768
2.01745e+06,0,0,0,3496,896
2.02126e+06,0,0,0,3752,640
2.02159e+06,0,0,0,4008,384
2.02834e+06,0,0,0,4136,256
2.03742e+06,0,0,0,3880,512
2.03816e+06,0,0,0,3556,836
2.0391e+06,0,0,0,3812,580
2.04013e+06,0,0,0,3556,836
2.04664e+06,0,0,0,3555,837
2.04786e+06,0,0,0,2753,1639
2.04789e+06,0,0,0,2625,1767
2.04854e+06,0,0,0,2497,1895
2.04942e+06,0,0,0,2821,1571
2.05153e+06,0,0,0,2565,1827
2.05322e+06,0,0,0,2309,2083
2.05458e+06,0,0,0,2053,2339
2.05502e+06,0,0,0,1729,2663
2.05815e+06,0,0,0,1857,2535
2.05899e+06,0,0,0,2113,2279
2.05948e+06,0,0,0,2241,2151
2.06193e+06,0,0,0,2497,1895
2.06327e+06,0,0,0,2369,2023
2.06435e+06,0,0,0,2177,2215
2.06561e+06,0,0,0,2049,2343
2.06612e+06,0,0,0,2373,2019
2.06772e+06,0,0,0,1349,3043
2.06946e+06,0,0,0,2151,2241
2.06985e+06,0,0,0,1767,2625
2.07273e+06,0,0,0,1439,2953
2.07274e+06,0,0,0,1111,3281
2.07274e+06,0,0,0,783,3609
2.07274e+06,0,0,0,455,3937
2.07274e+06,0,0,0,127,4265
2.07324e+06,0,0,0,383,4009
2.07324e+06,0,0,0,55,4337
2.07391e+06,0,0,0,183,4209
2.07495e+06,0,0,0,439,3953
2.07495e+06,0,0,0,111,4281
2.07528e+06,0,0,0,303,4089
2.07632e+06,0,0,0,559,3833
2.07633e+06,0,0,0,231,4161
2.07633e+06,0,0,0,359,4033
2.07633e+06,0,0,0,31,4361
2.08439e+06,0,0,0,415,3977
2.08439e+06,0,0,0,87,4305
2.09059e+06,0,0,0,1111,3281
2.0906e+06,0,0,0,983,3409
2.0906e+06,0,0,0,855,3537
2.0906e+06,0,0,0,599,3793
2.0906e+06,0,0,0,87,4305
2.09447e+06,0,0,0,415,3977
2.09447e+06,0,0,0,743,3649
2.09448e+06,0,0,0,1071,3321
2.09448e+06,0,0,0,246,4146
2.09449e+06,0,0,0,574,3818
2.09449e+06,0,0,0,62,4330
2.09496e+06,0,0,0,390,4002
2.09496e+06,0,0,0,134,4258
2.09565e+06,0,0,0,462,3930
2.09669e+06,0,0,0,790,3602
2.0967e+06,0,0,0,278,4114
2.0967e+06,0,0,0,22,4370
2.09806e+06,0,0,0,350,4042
2.09806e+06,0,0,0,678,3714
2.09807e+06,0,0,0,422,3970
2.10153e+06,0,0,0,550,3842
2.10157e+06,0,0,0,678,3714
2.10616e+06,0,0,0,1006,3386
2.10616e+06,0,0,0,181,4211
2.10616e+06,0,0,0,21,4371
2.10641e+06,0,0,0,277,4115
2.10641e+06,0,0,0,21,4371
2.11125e+06,0,0,0,846,3546
2.11125e+06,0,0,0,590,3802
2.11125e+06,0,0,0,462,3930
2.11125e+06,0,0,0,334,4058
2.11125e+06,0,0,0,78,4314
2.1123e+06,0,0,0,590,3802
2.1123e+06,0,0,0,462,3930
2.1123e+06,0,0,0,206,4186
2.11619e+06,0,0,0,718,3674
2.11619e+06,0,0,0,462,3930
2.11705e+06,0,0,0,622,3770
2.118e+06,0,0,0,878,3514
2.11806e+06,0,0,0,1703,2689
2.11841e+06,0,0,0,2215,2177
2.11846e+06,0,0,0,2471,1921
2.11873e+06,0,0,0,2472,1920
2.11982e+06,0,0,0,2728,1664
2.12216e+06,0,0,0,2856,1536
2.12218e+06,0,0,0,2984,1408
2.12316e+06,0,0,0,3112,1280
2.12687e+06,0,0,0,2984,1408
2.1281e+06,0,0,0,3240,1152
2.1285e+06,0,0,0,3496,896
2.1305e+06,0,0,0,3240,1152
2.1306e+06,0,0,0,3496,896
2.13285e+06,0,0,0,3752,640
2.133e+06,0,0,0,4008,384
2.13316e+06,0,0,0,3752,640
2.13383e+06,0,0,0,2600,1792
2.13591e+06,0,0,0,2088,2304
2.13591e+06,0,0,0,1764,2628
2.13644e+06,0,0,0,1763,2629
2.13774e+06,0,0,0,1891,2501
2.14154e+06,0,0,0,1699,2693
2.14154e+06,0,0,0,1507,2885
2.14154e+06,0,0,0,1315,3077
2.14255e+06,0,0,0,803,3589
2.1426e+06,0,0,0,291,4101
2.14829e+06,0,0,0,615,3777
2.1483e+06,0,0,0,103,4289
2.15211e+06,0,0,0,359,4033
2.15211e+06,0,0,0,103,4289
2.15245e+06,0,0,0,295,4097
2.15245e+06,0,0,0,39,4353
2.15247e+06,0,0,0,231,4161
2.15248e+06,0,0,0,423,3969
2.15248e+06,0,0,0,99,4293
2.15427e+06,0,0,0,1251,3141
2.15427e+06,0,0,0,1123,3269
2.15474e+06,0,0,0,1379,3013
2.15567e+06,0,0,0,1123,3269
2.15567e+06,0,0,0,107,4285
2.15771e+06,0,0,0,619,3773
2.1579e+06,0,0,0,419,3973
2.159e+06,0,0,0,291,4101
2.16425e+06,0,0,0,803,3589
2.16432e+06,0,0,0,1315,3077
2.16432e+06,0,0,0,490,3902
2.16487e+06,0,0,0,814,3578
2.16521e+06,0,0,0,942,3450
2.16881e+06,0,0,0,1142,3250
2.1699e+06,0,0,0,1270,3122
2.17e+06,0,0,0,1782,2610
2.1739e+06,0,0,0,2038,2354
2.17421e+06,0,0,0,2294,2098
2.17621e+06,0,0,0,3119,1273
2.17728e+06,0,0,0,3375,1017
2.18305e+06,0,0,0,2573,1819
2.18621e+06,0,0,0,2317,2075
2.18784e+06,0,0,0,2061,2331
2.18927e+06,0,0,0,1867,2525
2.19252e+06,0,0,0,1483,2909
2.20016e+06,0,0,0,1677,2715
2.20515e+06,0,0,0,2061,2331
2.20793e+06,0,0,0,2863,1529
2.20794e+06,0,0,0,3119,1273
2.20854e+06,0,0,0,3120,1272
2.20956e+06,0,0,0,3376,1016
2.21343e+06,0,0,0,2352,2040
2.21368e+06,0,0,0,2028,2364
2.2138e+06,0,0,0,1516,2876
2.2164e+06,0,0,0,844,3548
2.21641e+06,0,0,0,172,4220
2.21685e+06,0,0,0,22,4370
2.22604e+06,0,0,0,346,4046
2.22774e+06,0,0,0,496,3896
2.22909e+06,0,0,0,1168,3224
2.2291e+06,0,0,0,144,4248
2.22952e+06,0,0,0,816,3576
2.22952e+06,0,0,0,624,3768
2.23553e+06,0,0,0,1136,3256
2.23553e+06,0,0,0,502,3890
2.23635e+06,0,0,0,1526,2866
2.23635e+06,0,0,0,374,4018
2.23635e+06,0,0,0,50,4342
2.23635e+06,0,0,0,49,4343
2.24045e+06,0,0,0,241,4151
2.24045e+06,0,0,0,47,4345
2.24336e+06,0,0,0,1063,3329
2.24337e+06,0,0,0,807,3585
2.24337e+06,0,0,0,295,4097
2.24337e+06,0,0,0,95,4297
2.24743e+06,0,0,0,419,3973
2.25164e+06,0,0,0,1053,3339
2.25164e+06,0,0,0,29,4363
2.25256e+06,0,0,0,223,4169
2.25435e+06,0,0,0,423,3969
2.25691e+06,0,0,0,1575,2817
2.25691e+06,0,0,0,1063,3329
2.25691e+06,0,0,0,807,3585
2.25691e+06,0,0,0,551,3841
2.25691e+06,0,0,0,39,4353
2.25967e+06,0,0,0,295,4097
2.25967e+06,0,0,0,39,4353
2.26504e+06,0,0,0,551,3841
2.26505e+06,0,0,0,39,4353
2.27454e+06,0,0,0,551,3841
2.27454e+06,0,0,0,39,4353
2.27852e+06,0,0,0,295,4097
2.27853e+06,0,0,0,39,4353
2.27859e+06,0,0,0,295,4097
2.27859e+06,0,0,0,39,4353
2.27863e+06,0,0,0,551,3841
2.27863e+06,0,0,0,295,4097
2.28136e+06,0,0,0,551,3841
2.2862e+06,0,0,0,1063,3329
2.29477e+06,0,0,0,1575,2817
2.29492e+06,0,0,0,2599,1793
2.29627e+06,0,0,0,2343,2049
2.29629e+06,0,0,0,2087,2305
2.29739e+06,0,0,0,1959,2433
2.29834e+06,0,0,0,2215,2177
2.30021e+06,0,0,0,2471,1921
2.30025e+06,0,0,0,2727,1665
2.30079e+06,0,0,0,2599,1793
2.30586e+06,0,0,0,2471,1921
2.30599e+06,0,0,0,2343,2049
2.30604e+06,0,0,0,2215,2177
2.30692e+06,0,0,0,2087,2305
2.30829e+06,0,0,0,2215,2177
2.30961e+06,0,0,0,2216,2176
2.31013e+06,0,0,0,1192,3200
2.31018e+06,0,0,0,1191,3201
2.31165e+06,0,0,0,1319,3073
2.31284e+06,0,0,0,1063,3329
2.31315e+06,0,0,0,935,3457
2.31477e+06,0,0,0,679,3713
2.3152e+06,0,0,0,167,4225
2.3155e+06,0,0,0,423,3969
2.31566e+06,0,0,0,1447,2945
2.31567e+06,0,0,0,935,3457
2.31652e+06,0,0,0,807,3585
2.31665e+06,0,0,0,551,3841
2.31665e+06,0,0,0,295,4097
2.31665e+06,0,0,0,39,4353
2.31679e+06,0,0,0,167,4225
2.31715e+06,0,0,0,295,4097
2.31715e+06,0,0,0,39,4353
2.31801e+06,0,0,0,295,4097
2.31801e+06,0,0,0,39,4353
2.31812e+06,0,0,0,167,4225
2.31831e+06,0,0,0,295,4097
2.31832e+06,0,0,0,39,4353
2.32307e+06,0,0,0,295,4097
2.32308e+06,0,0,0,39,4353
2.32528e+06,0,0,0,167,4225
2.32746e+06,0,0,0,295,4097
2.32746e+06,0,0,0,39,4353
2.32915e+06,0,0,0,295,4097
2.32915e+06,0,0,0,167,4225
2.33136e+06,0,0,0,423,3969
2.33136e+06,0,0,0,167,4225
2.33136e+06,0,0,0,39,4353
2.33508e+06,0,0,0,295,4097
2.33508e+06,0,0,0,167,4225
2.33508e+06,0,0,0,39,4353
2.33644e+06,0,0,0,295,4097
2.33645e+06,0,0,0,39,4353
2.33833e+06,0,0,0,295,4097
2.33836e+06,0,0,0,551,3841
2.33836e+06,0,0,0,227,4165
2.33889e+06,0,0,0,483,3909
2.33889e+06,0,0,0,227,4165
2.33889e+06,0,0,0,99,4293
2.33977e+06,0,0,0,355,4037
2.34005e+06,0,0,0,483,3909
2.34005e+06,0,0,0,45,4347
2.34229e+06,0,0,0,173,4219
2.34229e+06,0,0,0,45,4347
2.34553e+06,0,0,0,301,4091
2.34599e+06,0,0,0,429,3963
2.34601e+06,0,0,0,557,3835
2.34769e+06,0,0,0,1069,3323
2.34769e+06,0,0,0,61,4331
2.34814e+06,0,0,0,573,3819
2.34962e+06,0,0,0,897,3495
2.34979e+06,0,0,0,1025,3367
2.35099e+06,0,0,0,1281,3111
2.35306e+06,0,0,0,1537,2855
2.35322e+06,0,0,0,1665,2727
2.3534e+06,0,0,0,1921,2471
2.35635e+06,0,0,0,2359,2033
2.35773e+06,0,0,0,2231,2161
2.35894e+06,0,0,0,1463,2929
2.36865e+06,0,0,0,1591,2801
2.3737e+06,0,0,0,1463,2929
2.3823e+06,0,0,0,1464,2928
2.38463e+06,0,0,0,1592,2800
2.38504e+06,0,0,0,1464,2928
2.3905e+06,0,0,0,1140,3252
2.39106e+06,0,0,0,1012,3380
2.39117e+06,0,0,0,884,3508
2.39119e+06,0,0,0,756,3636
2.39147e+06,0,0,0,1524,2868
2.3924e+06,0,0,0,1396,2996
2.39306e+06,0,0,0,372,4020
2.39363e+06,0,0,0,1396,2996
2.39596e+06,0,0,0,1524,2868
2.39598e+06,0,0,0,1396,2996
2.39606e+06,0,0,0,1140,3252
2.39629e+06,0,0,0,884,3508
2.40185e+06,0,0,0,1208,3184
2.40185e+06,0,0,0,184,4208
2.40185e+06,0,0,0,183,4209
2.402e+06,0,0,0,311,4081
2.40204e+06,0,0,0,439,3953
2.4021e+06,0,0,0,567,3825
2.4021e+06,0,0,0,55,4337
2.40334e+06,0,0,0,183,4209
2.40693e+06,0,0,0,311,4081
2.41405e+06,0,0,0,567,3825
2.41406e+06,0,0,0,55,4337
2.41799e+06,0,0,0,311,4081
2.418e+06,0,0,0,183,4209
2.418e+06,0,0,0,55,4337
2.42217e+06,0,0,0,567,3825
2.42217e+06,0,0,0,129,4263
2.42217e+06,0,0,0,1,4391
2.42888e+06,0,0,0,129,4263
2.42889e+06,0,0,0,1,4391
2.42898e+06,0,0,0,129,4263
2.43312e+06,0,0,0,257,4135
2.43312e+06,0,0,0,1,4391
2.4341e+06,0,0,0,513,3879
2.43411e+06,0,0,0,321,4071
2.43411e+06,0,0,0,129,4263
2.43419e+06,0,0,0,1137,3255
2.43419e+06,0,0,0,945,3447
2.43419e+06,0,0,0,753,3639
2.43419e+06,0,0,0,561,3831
2.43419e+06,0,0,0,369,4023
2.43419e+06,0,0,0,177,4215
2.43984e+06,0,0,0,305,4087
2.44048e+06,0,0,0,743,3649
2.44341e+06,0,0,0,999,3393
2.44502e+06,0,0,0,1191,3201
2.44503e+06,0,0,0,1383,3009
2.4451e+06,0,0,0,1575,2817
2.44511e+06,0,0,0,1767,2625
2.44511e+06,0,0,0,1959,2433
2.44512e+06,0,0,0,2151,2241
2.44512e+06,0,0,0,103,4289
2.44513e+06,0,0,0,295,4097
2.44513e+06,0,0,0,39,4353
2.45962e+06,0,0,0,295,4097
2.45963e+06,0,0,0,39,4353
2.47265e+06,0,0,0,1063,3329
2.47265e+06,0,0,0,551,3841
2.47265e+06,0,0,0,167,4225
2.47265e+06,0,0,0,39,4353
2.47395e+06,0,0,0,40,4352
2.47413e+06,0,0,0,296,4096
2.47414e+06,0,0,0,168,4224
2.48358e+06,0,0,0,296,4096
2.48504e+06,0,0,0,424,3968
2.49007e+06,0,0,0,1448,2944
2.49007e+06,0,0,0,936,3456
2.49007e+06,0,0,0,424,3968
2.49007e+06,0,0,0,168,4224
2.49007e+06,0,0,0,40,4352
2.50098e+06,0,0,0,296,4096
2.50099e+06,0,0,0,424,3968
2.50155e+06,0,0,0,936,3456
2.50156e+06,0,0,0,424,3968
2.50156e+06,0,0,0,168,4224
2.50518e+06,0,0,0,552,3840
2.50518e+06,0,0,0,296,4096
2.50701e+06,0,0,0,2344,2048
2.50701e+06,0,0,0,2016,2376
2.50701e+06,0,0,0,1688,2704
2.50701e+06,0,0,0,1360,3032
2.50701e+06,0,0,0,1032,3360
2.50701e+06,0,0,0,704,3688
2.50701e+06,0,0,0,376,4016
2.50701e+06,0,0,0,48,4344
2.51175e+06,0,0,0,560,3832
2.51176e+06,0,0,0,232,4160
2.51182e+06,0,0,0,744,3648
2.51182e+06,0,0,0,416,3976
2.51182e+06,0,0,0,88,4304
2.52322e+06,0,0,0,344,4048
2.52322e+06,0,0,0,20,4372
2.52326e+06,0,0,0,532,3860
2.52326e+06,0,0,0,208,4184
2.52692e+06,0,0,0,464,3928
2.52693e+06,0,0,0,80,4312
2.52872e+06,0,0,0,408,3984
2.52872e+06,0,0,0,736,3656
2.52872e+06,0,0,0,412,3980
2.52872e+06,0,0,0,284,4108
2.52872e+06,0,0,0,156,4236
2.52872e+06,0,0,0,28,4364
2.52873e+06,0,0,0,356,4036
2.52873e+06,0,0,0,684,3708
2.52874e+06,0,0,0,1012,3380
2.52874e+06,0,0,0,884,3508
2.52874e+06,0,0,0,756,3636
2.52874e+06,0,0,0,628,3764
2.52874e+06,0,0,0,500,3892
2.52874e+06,0,0,0,372,4020
2.52874e+06,0,0,0,116,4276
2.52876e+06,0,0,0,444,3948
2.52876e+06,0,0,0,188,4204
2.52877e+06,0,0,0,516,3876
2.52878e+06,0,0,0,192,4200
2.53346e+06,0,0,0,520,3872
2.53347e+06,0,0,0,264,4128
2.53347e+06,0,0,0,8,4384
2.53358e+06,0,0,0,336,4056
2.53358e+06,0,0,0,86,4306
2.53459e+06,0,0,0,410,3982
2.53459e+06,0,0,0,86,4306
2.5346e+06,0,0,0,410,3982
2.53472e+06,0,0,0,738,3654
2.5396e+06,0,0,0,866,3526
2.53961e+06,0,0,0,994,3398
2.53963e+06,0,0,0,1122,3270
2.53964e+06,0,0,0,1250,3142
2.53964e+06,0,0,0,1378,3014
2.53965e+06,0,0,0,1506,2886
2.53967e+06,0,0,0,1634,2758
2.53968e+06,0,0,0,1762,2630
2.54e+06,0,0,0,2086,2306
2.54e+06,0,0,0,38,4354
2.5402e+06,0,0,0,362,4030
2.54021e+06,0,0,0,234,4158
2.54029e+06,0,0,0,618,3774
2.54413e+06,0,0,0,874,3518
2.54434e+06,0,0,0,1124,3268
2.54438e+06,0,0,0,1380,3012
2.5444e+06,0,0,0,1636,2756
2.54476e+06,0,0,0,1892,2500
2.54574e+06,0,0,0,2216,2176
2.55089e+06,0,0,0,4264,128
2.55112e+06,0,0,0,4392,0
2.55271e+06,0,0,0,4264,128
2.55272e+06,0,0,0,4136,256
2.55272e+06,0,0,0,4008,384
2.5533e+06,0,0,0,3752,640
2.56363e+06,0,0,0,3880,512
2.56364e+06,0,0,0,4008,384
2.56364e+06,0,0,0,4136,256
2.56522e+06,0,0,0,3964,428
2.56522e+06,0,0,0,3792,600
2.56724e+06,0,0,0,3632,760
2.56929e+06,0,0,0,3504,888
2.575e+06,0,0,0,3760,632
2.57614e+06,0,0,0,3932,460
2.57617e+06,0,0,0,4104,288
2.57695e+06,0,0,0,3592,800
2.57783e+06,0,0,0,3752,640
2.58026e+06,0,0,0,3880,512
2.58678e+06,0,0,0,3752,640
2.58678e+06,0,0,0,3624,768
2.58679e+06,0,0,0,3496,896
2.58679e+06,0,0,0,3368,1024
2.58791e+06,0,0,0,3240,1152
2.59639e+06,0,0,0,2728,1664
2.59768e+06,0,0,0,2856,1536
2.5977e+06,0,0,0,2984,1408
2.59771e+06,0,0,0,3112,1280
2.59772e+06,0,0,0,3240,1152
2.59774e+06,0,0,0,1192,3200
2.59871e+06,0,0,0,1704,2688
2.59888e+06,0,0,0,1832,2560
2.60012e+06,0,0,0,1672,2720
2.60093e+06,0,0,0,1416,2976
2.60113e+06,0,0,0,1032,3360
2.60114e+06,0,0,0,708,3684
2.60179e+06,0,0,0,580,3812
2.60526e+06,0,0,0,256,4136
2.61093e+06,0,0,0,416,3976
2.61219e+06,0,0,0,740,3652
2.61219e+06,0,0,0,228,4164
2.61237e+06,0,0,0,2276,2116
2.61237e+06,0,0,0,1764,2628
2.61237e+06,0,0,0,1252,3140
2.61237e+06,0,0,0,740,3652
2.61237e+06,0,0,0,228,4164
2.61382e+06,0,0,0,356,4036
2.61448e+06,0,0,0,868,3524
2.61449e+06,0,0,0,356,4036
2.61537e+06,0,0,0,740,3652
2.61537e+06,0,0,0,228,4164
2.61633e+06,0,0,0,552,3840
2.61633e+06,0,0,0,40,4352
2.61667e+06,0,0,0,296,4096
2.61667e+06,0,0,0,136,4256
2.62539e+06,0,0,0,648,3744
2.62539e+06,0,0,0,136,4256
2.6276e+06,0,0,0,296,4096
2.63409e+06,0,0,0,808,3584
2.63409e+06,0,0,0,296,4096
2.63411e+06,0,0,0,808,3584
2.63619e+06,0,0,0,1320,3072
2.63619e+06,0,0,0,296,4096
2.63619e+06,0,0,0,40,4352
2.63712e+06,0,0,0,552,3840
2.6372e+06,0,0,0,424,3968
2.63802e+06,0,0,0,936,3456
2.64131e+06,0,0,0,1448,2944
2.64132e+06,0,0,0,1960,2432
2.6482e+06,0,0,0,2088,2304
2.65067e+06,0,0,0,2344,2048
2.65429e+06,0,0,0,3368,1024
2.65784e+06,0,0,0,3880,512
2.66654e+06,0,0,0,4392,0
2.67955e+06,0,0,0,3880,512
2.6796e+06,0,0,0,3368,1024
2.67987e+06,0,0,0,2856,1536
2.6799e+06,0,0,0,2344,2048
2.67994e+06,0,0,0,1832,2560
2.67997e+06,0,0,0,1320,3072
2.68001e+06,0,0,0,808,3584
2.68108e+06,0,0,0,648,3744
2.69198e+06,0,0,0,808,3584
2.70127e+06,0,0,0,1320,3072
2.70133e+06,0,0,0,1832,2560
2.71231e+06,0,0,0,2344,2048
2.71231e+06,0,0,0,296,4096
2.71231e+06,0,0,0,40,4352
2.71235e+06,0,0,0,552,3840
2.71236e+06,0,0,0,424,3968
2.71236e+06,0,0,0,168,4224
2.71385e+06,0,0,0,680,3712
2.71385e+06,0,0,0,424,3968
2.71386e+06,0,0,0,936,3456
2.71386e+06,0,0,0,1448,2944
2.71768e+06,0,0,0,1124,3268
2.71775e+06,0,0,0,800,3592
2.72325e+06,0,0,0,928,3464
2.72627e+06,0,0,0,1184,3208
2.72861e+06,0,0,0,1440,2952
2.72896e+06,0,0,0,1764,2628
2.72901e+06,0,0,0,2088,2304
2.73018e+06,0,0,0,4136,256
2.73188e+06,0,0,0,3880,512
2.73323e+06,0,0,0,3752,640
2.73403e+06,0,0,0,3624,768
2.73558e+06,0,0,0,3880,512
2.73593e+06,0,0,0,3640,752
2.73624e+06,0,0,0,3128,1264
2.73654e+06,0,0,0,2616,1776
2.73726e+06,0,0,0,2360,2032
2.73734e+06,0,0,0,1336,3056
2.73894e+06,0,0,0,952,3440
2.74277e+06,0,0,0,1208,3184
2.74286e+06,0,0,0,1080,3312
2.74416e+06,0,0,0,1208,3184
2.74435e+06,0,0,0,1016,3376
2.74435e+06,0,0,0,824,3568
2.74435e+06,0,0,0,632,3760
2.74435e+06,0,0,0,440,3952
2.74435e+06,0,0,0,248,4144
2.74435e+06,0,0,0,56,4336
2.74497e+06,0,0,0,184,4208
2.74688e+06,0,0,0,424,3968
2.74689e+06,0,0,0,232,4160
2.74689e+06,0,0,0,40,4352
2.75157e+06,0,0,0,424,3968
2.75158e+06,0,0,0,232,4160
2.75158e+06,0,0,0,40,4352
2.75287e+06,0,0,0,552,3840
2.75287e+06,0,0,0,424,3968
2.75287e+06,0,0,0,423,3969
2.75378e+06,0,0,0,551,3841
2.75378e+06,0,0,0,126,4266
2.75523e+06,0,0,0,318,4074
2.75523e+06,0,0,0,190,4202
2.75525e+06,0,0,0,382,4010
2.75528e+06,0,0,0,574,3818
2.7553e+06,0,0,0,766,3626
2.7553e+06,0,0,0,958,3434
2.75533e+06,0,0,0,1150,3242
2.75779e+06,0,0,0,1342,3050
2.75779e+06,0,0,0,1534,2858
2.75802e+06,0,0,0,2046,2346
2.75879e+06,0,0,0,3070,1322
2.75879e+06,0,0,0,1022,3370
2.75879e+06,0,0,0,510,3882
2.7625e+06,0,0,0,702,3690
2.7625e+06,0,0,0,894,3498
2.76377e+06,0,0,0,1022,3370
2.76612e+06,0,0,0,1150,3242
2.76613e+06,0,0,0,126,4266
2.7699e+06,0,0,0,551,3841
2.76991e+06,0,0,0,295,4097
2.76991e+06,0,0,0,167,4225
2.77694e+06,0,0,0,679,3713
2.77694e+06,0,0,0,355,4037
2.77694e+06,0,0,0,227,4165
2.77694e+06,0,0,0,99,4293
2.77999e+06,0,0,0,1123,3269
2.77999e+06,0,0,0,487,3905
2.78087e+06,0,0,0,615,3777
2.78087e+06,0,0,0,103,4289
2.78785e+06,0,0,0,231,4161
2.78788e+06,0,0,0,359,4033
2.78825e+06,0,0,0,615,3777
2.78825e+06,0,0,0,103,4289
2.78847e+06,0,0,0,427,3965
2.78848e+06,0,0,0,171,4221
2.78848e+06,0,0,0,43,4349
2.79943e+06,0,0,0,171,4221
2.79946e+06,0,0,0,807,3585
2.79947e+06,0,0,0,483,3909
2.79947e+06,0,0,0,99,4293
2.80055e+06,0,0,0,611,3781
2.80056e+06,0,0,0,451,3941
2.80056e+06,0,0,0,323,4069
2.80056e+06,0,0,0,163,4229
2.80056e+06,0,0,0,35,4357
2.80801e+06,0,0,0,547,3845
2.80801e+06,0,0,0,419,3973
2.80801e+06,0,0,0,291,4101
2.81006e+06,0,0,0,547,3845
2.81089e+06,0,0,0,871,3521
2.8113e+06,0,0,0,999,3393
2.81145e+06,0,0,0,1159,3233
2.81153e+06,0,0,0,1319,3073
2.81154e+06,0,0,0,1447,2945
2.81224e+06,0,0,0,1831,2561
2.81893e+06,0,0,0,1959,2433
2.81894e+06,0,0,0,2087,2305
2.81895e+06,0,0,0,39,4353
2.82614e+06,0,0,0,40,4352
2.84647e+06,0,0,0,2088,2304
2.84648e+06,0,0,0,1764,2628
2.84648e+06,0,0,0,1440,2952
2.84648e+06,0,0,0,1184,3208
2.84648e+06,0,0,0,928,3464
2.84648e+06,0,0,0,490,3902
2.84648e+06,0,0,0,166,4226
2.84648e+06,0,0,0,38,4354
2.85769e+06,0,0,0,362,4030
2.85775e+06,0,0,0,686,3706
2.85778e+06,0,0,0,1010,3382
2.85801e+06,0,0,0,1138,3254
2.85801e+06,0,0,0,114,4278
2.86643e+06,0,0,0,552,3840
2.86643e+06,0,0,0,296,4096
2.86809e+06,0,0,0,552,3840
2.8681e+06,0,0,0,808,3584
2.8681e+06,0,0,0,484,3908
2.8681e+06,0,0,0,160,4232
2.8681e+06,0,0,0,0,4392
2.87909e+06,0,0,0,160,4232
2.87928e+06,0,0,0,484,3908
2.87929e+06,0,0,0,160,4232
2.87929e+06,0,0,0,32,4360
2.8826e+06,0,0,0,356,4036
2.8826e+06,0,0,0,100,4292
2.88445e+06,0,0,0,356,4036
2.89022e+06,0,0,0,484,3908
2.89348e+06,0,0,0,740,3652
2.89379e+06,0,0,0,1064,3328
2.8938e+06,0,0,0,262,4130
2.8938e+06,0,0,0,6,4386
2.90476e+06,0,0,0,262,4130
2.90546e+06,0,0,0,2310,2082
2.90546e+06,0,0,0,1508,2884
2.90546e+06,0,0,0,706,3686
2.90546e+06,0,0,0,705,3687
2.90546e+06,0,0,0,449,3943
2.90546e+06,0,0,0,193,4199
2.90546e+06,0,0,0,65,4327
2.91631e+06,0,0,0,193,4199
2.91638e+06,0,0,0,449,3943
2.92706e+06,0,0,0,705,3687
2.92707e+06,0,0,0,193,4199
2.92707e+06,0,0,0,65,4327
2.92787e+06,0,0,0,1089,3303
2.92787e+06,0,0,0,577,3815
2.92787e+06,0,0,0,65,4327
2.93799e+06,0,0,0,193,4199
2.93799e+06,0,0,0,65,4327
2.94806e+06,0,0,0,193,4199
2.94934e+06,0,0,0,995,3397
2.94935e+06,0,0,0,483,3909
2.95675e+06,0,0,0,995,3397
2.95675e+06,0,0,0,193,4199
2.95678e+06,0,0,0,705,3687
2.95721e+06,0,0,0,1217,3175
2.95721e+06,0,0,0,415,3977
2.95721e+06,0,0,0,159,4233
2.95721e+06,0,0,0,31,4361
2.95946e+06,0,0,0,833,3559
2.95946e+06,0,0,0,321,4071
2.95946e+06,0,0,0,193,4199
2.95946e+06,0,0,0,65,4327
2.96362e+06,0,0,0,867,3525
2.96362e+06,0,0,0,355,4037
2.96816e+06,0,0,0,483,3909
2.97041e+06,0,0,0,611,3781
2.97041e+06,0,0,0,99,4293
2.97157e+06,0,0,0,227,4165
2.97525e+06,0,0,0,483,3909
2.97756e+06,0,0,0,484,3908
2.97826e+06,0,0,0,996,3396
2.97826e+06,0,0,0,484,3908
2.97826e+06,0,0,0,228,4164
2.97826e+06,0,0,0,68,4324
2.98116e+06,0,0,0,580,3812
2.98116e+06,0,0,0,452,3940
2.98116e+06,0,0,0,324,4068
2.98116e+06,0,0,0,140,4252
2.98116e+06,0,0,0,12,4380
2.98541e+06,0,0,0,524,3868
2.98541e+06,0,0,0,396,3996
2.98541e+06,0,0,0,268,4124
2.98541e+06,0,0,0,140,4252
2.98922e+06,0,0,0,300,4092
2.99206e+06,0,0,0,428,3964
2.99208e+06,0,0,0,556,3836
2.99208e+06,0,0,0,684,3708
2.99212e+06,0,0,0,868,3524
2.99219e+06,0,0,0,1380,3012
2.99631e+06,0,0,0,1508,2884
2.99632e+06,0,0,0,1636,2756
2.99636e+06,0,0,0,1764,2628
2.99998e+06,0,0,0,2020,2372
3.00005e+06,0,0,0,2532,1860
3.00005e+06,0,0,0,484,3908
3.00005e+06,0,0,0,228,4164
3.00005e+06,0,0,0,56,4336
3.00308e+06,0,0,0,858,3534
3.00309e+06,0,0,0,602,3790
3.00309e+06,0,0,0,346,4046
3.00309e+06,0,0,0,90,4302
3.0035e+06,0,0,0,892,3500
3.0035e+06,0,0,0,636,3756
3.0035e+06,0,0,0,124,4268
3.01101e+06,0,0,0,296,4096
3.01102e+06,0,0,0,40,4352
3.01611e+06,0,0,0,296,4096
3.01611e+06,0,0,0,40,4352
3.0244e+06,0,0,0,296,4096
3.0244e+06,0,0,0,168,4224
3.02479e+06,0,0,0,424,3968
3.0248e+06,0,0,0,680,3712
3.02483e+06,0,0,0,936,3456
3.02638e+06,0,0,0,1192,3200
3.02998e+06,0,0,0,1448,2944
3.03539e+06,0,0,0,1576,2816
3.03595e+06,0,0,0,2088,2304
3.03596e+06,0,0,0,40,4352
3.08299e+06,0,0,0,296,4096
3.08658e+06,0,0,0,2344,2048
3.08658e+06,0,0,0,1336,3056
3.08658e+06,0,0,0,280,4112
3.08658e+06,0,0,0,24,4368
3.10015e+06,0,0,0,280,4112
3.10015e+06,0,0,0,24,4368
3.11273e+06,0,0,0,280,4112
3.11867e+06,0,0,0,2328,2064
3.11867e+06,0,0,0,1526,2866
3.11867e+06,0,0,0,502,3890
3.12262e+06,0,0,0,1558,2834
3.12262e+06,0,0,0,1046,3346
3.12262e+06,0,0,0,534,3858
3.12262e+06,0,0,0,22,4370
3.13887e+06,0,0,0,824,3568
3.13887e+06,0,0,0,312,4080
3.13887e+06,0,0,0,311,4081
3.1551e+06,0,0,0,823,3569
3.1551e+06,0,0,0,311,4081
3.15511e+06,0,0,0,823,3569
3.15512e+06,0,0,0,311,4081
3.15512e+06,0,0,0,823,3569
3.15513e+06,0,0,0,311,4081
3.17134e+06,0,0,0,823,3569
3.17134e+06,0,0,0,311,4081
3.17134e+06,0,0,0,55,4337
3.1731e+06,0,0,0,1063,3329
3.1731e+06,0,0,0,807,3585
3.1731e+06,0,0,0,551,3841
3.1731e+06,0,0,0,223,4169
3.18402e+06,0,0,0,735,3657
3.18402e+06,0,0,0,407,3985
3.18402e+06,0,0,0,79,4313
3.18403e+06,0,0,0,591,3801
3.18403e+06,0,0,0,263,4129
3.18404e+06,0,0,0,775,3617
3.18404e+06,0,0,0,447,3945
3.18404e+06,0,0,0,119,4273
3.1902e+06,0,0,0,1143,3249
3.1902e+06,0,0,0,815,3577
3.1902e+06,0,0,0,487,3905
3.1902e+06,0,0,0,159,4233
3.19426e+06,0,0,0,415,3977
3.19426e+06,0,0,0,87,4305
3.19481e+06,0,0,0,415,3977
3.19481e+06,0,0,0,159,4233
3.19481e+06,0,0,0,415,3977
3.19481e+06,0,0,0,671,3721
3.19482e+06,0,0,0,415,3977
3.19482e+06,0,0,0,159,4233
3.20027e+06,0,0,0,671,3721
3.20027e+06,0,0,0,415,3977
3.20027e+06,0,0,0,159,4233
3.20577e+06,0,0,0,487,3905
3.20578e+06,0,0,0,815,3577
3.20578e+06,0,0,0,1143,3249
3.20581e+06,0,0,0,1471,2921
3.20589e+06,0,0,0,1799,2593
3.20914e+06,0,0,0,2055,2337
3.21099e+06,0,0,0,2056,2336
3.21192e+06,0,0,0,2384,2008
3.21194e+06,0,0,0,2712,1680
3.21304e+06,0,0,0,3040,1352
3.21475e+06,0,0,0,3296,1096
3.21595e+06,0,0,0,3624,768
3.21622e+06,0,0,0,3880,512
3.21655e+06,0,0,0,4136,256
3.22191e+06,0,0,0,4392,0
