time,nb_sleeping,nb_switching_on,nb_switching_off,nb_idle,nb_computing
0.00240003,0,0,0,12,4380
5922,0,0,0,4392,0
5925,0,0,0,4136,256
5925,0,0,0,4008,384
5925.01,0,0,0,3807,585
5925.01,0,0,0,3606,786
5925.01,0,0,0,3478,914
5925.01,0,0,0,2778,1614
5925.01,0,0,0,2278,2114
5925.01,0,0,0,1778,2614
5925.01,0,0,0,1278,3114
5925.01,0,0,0,778,3614
5925.01,0,0,0,522,3870
5925.01,0,0,0,22,4370
5925.01,0,0,0,21,4371
13748,0,0,0,22,4370
15915,0,0,0,150,4242
15918,0,0,0,22,4370
16853,0,0,0,150,4242
16856,0,0,0,22,4370
22296,0,0,0,150,4242
26075,0,0,0,278,4114
27617,0,0,0,534,3858
27620,0,0,0,34,4358
27620,0,0,0,33,4359
27630,0,0,0,289,4103
27633,0,0,0,161,4231
27649,0,0,0,861,3531
27652,0,0,0,605,3787
27652,0,0,0,477,3915
27652,0,0,0,221,4171
27652,0,0,0,76,4316
34016,0,0,0,221,4171
34832,0,0,0,721,3671
34835,0,0,0,465,3927
34835,0,0,0,320,4072
37247,0,0,0,820,3572
37250,0,0,0,436,3956
37250,0,0,0,52,4340
38436,0,0,0,552,3840
38439,0,0,0,423,3969
38439,0,0,0,295,4097
38439,0,0,0,167,4225
38445,0,0,0,667,3725
38497,0,0,0,1167,3225
38500,0,0,0,365,4027
38516,0,0,0,493,3899
38571,0,0,0,621,3771
41429,0,0,0,766,3626
42894,0,0,0,1022,3370
42897,0,0,0,220,4172
42897,0,0,0,19,4373
49061,0,0,0,147,4245
49270,0,0,0,275,4117
49273,0,0,0,74,4318
49339,0,0,0,203,4189
49342,0,0,0,2,4390
49342,0,0,0,1,4391
49355,0,0,0,257,4135
49358,0,0,0,56,4336
51211,0,0,0,257,4135
51214,0,0,0,56,4336
56550,0,0,0,556,3836
56553,0,0,0,427,3965
56553,0,0,0,171,4221
56553,0,0,0,43,4349
56577,0,0,0,299,4093
56580,0,0,0,43,4349
60232,0,0,0,845,3547
60235,0,0,0,589,3803
60235,0,0,0,461,3931
60235,0,0,0,333,4059
60235,0,0,0,205,4187
60235,0,0,0,4,4388
62899,0,0,0,260,4132
62902,0,0,0,4,4388
64631,0,0,0,806,3586
64634,0,0,0,550,3842
64634,0,0,0,422,3970
64634,0,0,0,166,4226
64634,0,0,0,38,4354
66403,0,0,0,294,4098
66406,0,0,0,38,4354
66590,0,0,0,239,4153
66593,0,0,0,111,4281
66728,0,0,0,312,4080
66731,0,0,0,56,4336
66949,0,0,0,312,4080
66952,0,0,0,56,4336
67489,0,0,0,184,4208
67492,0,0,0,56,4336
67870,0,0,0,257,4135
67873,0,0,0,1,4391
67912,0,0,0,129,4263
67915,0,0,0,1,4391
68126,0,0,0,0,4392
68601,0,0,0,129,4263
68604,0,0,0,1,4391
68671,0,0,0,0,4392
69414,0,0,0,384,4008
69417,0,0,0,128,4264
69417,0,0,0,0,4392
69593,0,0,0,384,4008
69596,0,0,0,128,4264
69596,0,0,0,0,4392
70150,0,0,0,128,4264
70153,0,0,0,0,4392
71211,0,0,0,128,4264
71214,0,0,0,0,4392
74254,0,0,0,201,4191
74257,0,0,0,73,4319
74257,0,0,0,72,4320
74257,0,0,0,71,4321
74257,0,0,0,70,4322
74552,0,0,0,69,4323
75529,0,0,0,197,4195
75532,0,0,0,69,4323
75559,0,0,0,197,4195
75562,0,0,0,68,4324
76698,0,0,0,196,4196
76701,0,0,0,67,4325
76732,0,0,0,195,4197
76735,0,0,0,66,4326
77090,0,0,0,322,4070
77093,0,0,0,66,4326
77391,0,0,0,322,4070
77394,0,0,0,66,4326
77596,0,0,0,67,4325
77853,0,0,0,195,4197
77856,0,0,0,66,4326
77862,0,0,0,194,4198
77865,0,0,0,66,4326
78527,0,0,0,194,4198
78530,0,0,0,66,4326
78608,0,0,0,194,4198
78611,0,0,0,66,4326
78824,0,0,0,194,4198
78827,0,0,0,65,4327
78836,0,0,0,193,4199
78839,0,0,0,65,4327
79558,0,0,0,66,4326
79764,0,0,0,67,4325
79796,0,0,0,66,4326
81324,0,0,0,65,4327
81546,0,0,0,66,4326
81757,0,0,0,9,4383
82598,0,0,0,137,4255
82601,0,0,0,9,4383
83030,0,0,0,137,4255
83033,0,0,0,9,4383
83432,0,0,0,8,4384
83604,0,0,0,7,4385
84224,0,0,0,135,4257
84227,0,0,0,7,4385
84576,0,0,0,135,4257
84579,0,0,0,7,4385
84595,0,0,0,263,4129
84598,0,0,0,7,4385
84724,0,0,0,263,4129
84727,0,0,0,7,4385
84794,0,0,0,6,4386
85221,0,0,0,207,4185
85224,0,0,0,6,4386
85267,0,0,0,262,4130
85270,0,0,0,6,4386
85463,0,0,0,7,4385
86350,0,0,0,263,4129
86353,0,0,0,7,4385
86369,0,0,0,136,4256
86372,0,0,0,8,4384
87520,0,0,0,137,4255
87523,0,0,0,9,4383
87525,0,0,0,138,4254
87528,0,0,0,10,4382
88146,0,0,0,266,4126
88149,0,0,0,65,4327
88351,0,0,0,122,4270
88455,0,0,0,378,4014
88458,0,0,0,122,4270
88604,0,0,0,123,4269
88674,0,0,0,379,4013
88677,0,0,0,123,4269
88689,0,0,0,252,4140
88692,0,0,0,51,4341
88761,0,0,0,52,4340
88774,0,0,0,180,4212
88777,0,0,0,35,4357
89521,0,0,0,163,4229
89524,0,0,0,18,4374
89604,0,0,0,274,4118
89607,0,0,0,18,4374
89640,0,0,0,147,4245
89643,0,0,0,19,4373
90746,0,0,0,20,4372
90758,0,0,0,21,4371
90916,0,0,0,22,4370
91825,0,0,0,150,4242
91828,0,0,0,22,4370
92135,0,0,0,23,4369
92231,0,0,0,151,4241
92234,0,0,0,6,4386
92280,0,0,0,262,4130
92283,0,0,0,6,4386
92557,0,0,0,262,4130
92560,0,0,0,6,4386
93001,0,0,0,262,4130
93004,0,0,0,6,4386
93363,0,0,0,134,4258
93366,0,0,0,6,4386
95214,0,0,0,134,4258
95217,0,0,0,6,4386
95355,0,0,0,262,4130
95358,0,0,0,6,4386
95693,0,0,0,151,4241
95696,0,0,0,23,4369
96154,0,0,0,168,4224
96157,0,0,0,40,4352
96727,0,0,0,38,4354
97098,0,0,0,294,4098
97101,0,0,0,38,4354
97215,0,0,0,36,4356
97311,0,0,0,164,4228
97314,0,0,0,36,4356
97521,0,0,0,292,4100
97524,0,0,0,36,4356
98185,0,0,0,164,4228
98188,0,0,0,36,4356
98425,0,0,0,164,4228
98428,0,0,0,36,4356
98523,0,0,0,292,4100
98526,0,0,0,36,4356
98666,0,0,0,181,4211
98669,0,0,0,53,4339
99704,0,0,0,54,4338
99883,0,0,0,310,4082
99886,0,0,0,54,4338
100249,0,0,0,182,4210
100252,0,0,0,54,4338
101187,0,0,0,310,4082
101190,0,0,0,54,4338
101870,0,0,0,182,4210
101873,0,0,0,54,4338
102463,0,0,0,255,4137
102466,0,0,0,127,4265
102494,0,0,0,255,4137
102497,0,0,0,127,4265
102536,0,0,0,255,4137
102539,0,0,0,127,4265
102742,0,0,0,383,4009
102745,0,0,0,23,4369
103532,0,0,0,18,4374
104565,0,0,0,274,4118
104568,0,0,0,18,4374
104750,0,0,0,274,4118
104753,0,0,0,18,4374
106040,0,0,0,274,4118
106043,0,0,0,18,4374
106590,0,0,0,146,4246
106999,0,0,0,148,4244
107056,0,0,0,276,4116
107059,0,0,0,20,4372
107357,0,0,0,148,4244
107424,0,0,0,349,4043
107427,0,0,0,93,4299
107552,0,0,0,349,4043
107555,0,0,0,93,4299
107609,0,0,0,221,4171
107881,0,0,0,349,4043
107884,0,0,0,93,4299
107940,0,0,0,349,4043
107943,0,0,0,93,4299
108241,0,0,0,221,4171
108564,0,0,0,93,4299
108813,0,0,0,349,4043
108816,0,0,0,93,4299
109435,0,0,0,221,4171
109701,0,0,0,349,4043
109704,0,0,0,93,4299
112174,0,0,0,349,4043
112177,0,0,0,93,4299
113099,0,0,0,294,4098
113102,0,0,0,38,4354
113334,0,0,0,294,4098
113337,0,0,0,38,4354
113363,0,0,0,166,4226
113382,0,0,0,294,4098
113385,0,0,0,38,4354
113483,0,0,0,166,4226
114518,0,0,0,171,4221
114671,0,0,0,427,3965
114674,0,0,0,171,4221
114727,0,0,0,427,3965
114730,0,0,0,171,4221
115114,0,0,0,166,4226
115826,0,0,0,422,3970
115829,0,0,0,166,4226
116063,0,0,0,422,3970
116066,0,0,0,166,4226
116272,0,0,0,422,3970
116275,0,0,0,166,4226
118323,0,0,0,168,4224
119483,0,0,0,296,4096
119486,0,0,0,40,4352
121503,0,0,0,41,4351
121831,0,0,0,297,4095
121834,0,0,0,41,4351
123315,0,0,0,297,4095
123318,0,0,0,41,4351
124031,0,0,0,297,4095
124034,0,0,0,41,4351
124285,0,0,0,297,4095
124288,0,0,0,41,4351
124340,0,0,0,297,4095
124343,0,0,0,41,4351
124432,0,0,0,401,3991
124435,0,0,0,145,4247
125128,0,0,0,401,3991
125647,0,0,0,657,3735
125650,0,0,0,145,4247
125691,0,0,0,401,3991
125999,0,0,0,602,3790
126002,0,0,0,90,4302
126010,0,0,0,95,4297
126800,0,0,0,351,4041
126803,0,0,0,206,4186
127003,0,0,0,462,3930
127026,0,0,0,718,3674
127908,0,0,0,974,3418
129115,0,0,0,1230,3162
129118,0,0,0,230,4162
129645,0,0,0,486,3906
130650,0,0,0,742,3650
130765,0,0,0,998,3394
131016,0,0,0,1254,3138
131860,0,0,0,1510,2882
132082,0,0,0,1766,2626
133292,0,0,0,2022,2370
133350,0,0,0,2167,2225
133357,0,0,0,2679,1713
133738,0,0,0,3191,1201
134757,0,0,0,4191,201
135636,0,0,0,4392,0
135639,0,0,0,12,4380
142397,0,0,0,4392,0
142400,0,0,0,1832,2560
142400,0,0,0,1192,3200
142400,0,0,0,712,3680
142400,0,0,0,232,4160
149453,0,0,0,104,4288
150404,0,0,0,67,4325
156309,0,0,0,104,4288
156389,0,0,0,55,4337
160282,0,0,0,183,4209
160285,0,0,0,55,4337
171171,0,0,0,51,4341
171182,0,0,0,179,4213
171185,0,0,0,51,4341
173076,0,0,0,531,3861
173079,0,0,0,19,4373
173142,0,0,0,499,3893
173145,0,0,0,243,4149
173145,0,0,0,115,4277
178114,0,0,0,111,4281
178143,0,0,0,115,4277
179492,0,0,0,243,4149
179495,0,0,0,98,4294
182114,0,0,0,226,4166
182117,0,0,0,98,4294
185724,0,0,0,738,3654
185727,0,0,0,594,3798
185727,0,0,0,466,3926
185727,0,0,0,338,4054
187433,0,0,0,483,3909
187800,0,0,0,611,3781
193249,0,0,0,755,3637
193897,0,0,0,1267,3125
194849,0,0,0,1523,2869
194926,0,0,0,1651,2741
194969,0,0,0,1779,2613
196660,0,0,0,1783,2609
197121,0,0,0,1832,2560
197580,0,0,0,4392,0
197583,0,0,0,12,4380
204983,0,0,0,4392,0
204986,0,0,0,3368,1024
204986,0,0,0,3112,1280
204986,0,0,0,2856,1536
204986,0,0,0,2600,1792
204986,0,0,0,2344,2048
204986,0,0,0,2088,2304
204986,0,0,0,1832,2560
204986,0,0,0,1576,2816
204986,0,0,0,1096,3296
204986,0,0,0,72,4320
204986,0,0,0,71,4321
233861,0,0,0,1095,3297
233864,0,0,0,711,3681
233864,0,0,0,455,3937
233864,0,0,0,71,4321
235689,0,0,0,551,3841
235692,0,0,0,422,3970
235692,0,0,0,294,4098
235692,0,0,0,38,4354
241289,0,0,0,294,4098
241292,0,0,0,150,4242
241292,0,0,0,22,4370
241871,0,0,0,150,4242
241874,0,0,0,22,4370
242048,0,0,0,21,4371
246575,0,0,0,150,4242
246578,0,0,0,21,4371
248590,0,0,0,149,4243
248593,0,0,0,21,4371
248820,0,0,0,165,4227
248823,0,0,0,37,4355
252720,0,0,0,165,4227
252723,0,0,0,37,4355
254893,0,0,0,165,4227
254896,0,0,0,37,4355
256529,0,0,0,38,4354
256772,0,0,0,294,4098
257522,0,0,0,423,3969
257553,0,0,0,551,3841
262899,0,0,0,679,3713
264028,0,0,0,551,3841
265074,0,0,0,679,3713
266375,0,0,0,1063,3329
266378,0,0,0,295,4097
266490,0,0,0,167,4225
267623,0,0,0,551,3841
267827,0,0,0,423,3969
270521,0,0,0,551,3841
273646,0,0,0,1319,3073
273925,0,0,0,1447,2945
277060,0,0,0,1448,2944
277390,0,0,0,1576,2816
280102,0,0,0,1832,2560
291475,0,0,0,2088,2304
291506,0,0,0,2344,2048
291538,0,0,0,2600,1792
291539,0,0,0,2856,1536
291541,0,0,0,3112,1280
291556,0,0,0,3368,1024
291977,0,0,0,4392,0
291980,0,0,0,12,4380
300115,0,0,0,4392,0
300118,0,0,0,1832,2560
300118,0,0,0,808,3584
300397,0,0,0,680,3712
307707,0,0,0,808,3584
328437,0,0,0,1832,2560
329253,0,0,0,1576,2816
329311,0,0,0,1320,3072
329420,0,0,0,1064,3328
329473,0,0,0,808,3584
329536,0,0,0,552,3840
333611,0,0,0,424,3968
340047,0,0,0,680,3712
340063,0,0,0,936,3456
340245,0,0,0,1192,3200
340256,0,0,0,1448,2944
340339,0,0,0,1704,2688
344460,0,0,0,1832,2560
366819,0,0,0,1704,2688
366904,0,0,0,1576,2816
366919,0,0,0,1448,2944
366938,0,0,0,1320,3072
376027,0,0,0,1448,2944
376074,0,0,0,1576,2816
376089,0,0,0,1704,2688
376186,0,0,0,1832,2560
377247,0,0,0,4392,0
377250,0,0,0,2344,2048
377250,0,0,0,1542,2850
377250,0,0,0,1286,3106
377250,0,0,0,1158,3234
384022,0,0,0,1030,3362
386010,0,0,0,1286,3106
388967,0,0,0,1414,2978
390389,0,0,0,1542,2850
397915,0,0,0,1286,3106
407597,0,0,0,902,3490
416757,0,0,0,774,3618
418737,0,0,0,629,3763
419661,0,0,0,885,3507
423180,0,0,0,875,3517
423294,0,0,0,865,3527
423305,0,0,0,855,3537
424012,0,0,0,845,3547
424356,0,0,0,835,3557
424436,0,0,0,825,3567
424658,0,0,0,815,3577
424685,0,0,0,805,3587
425420,0,0,0,950,3442
425808,0,0,0,694,3698
425861,0,0,0,438,3954
425969,0,0,0,428,3964
427659,0,0,0,556,3836
430578,0,0,0,492,3900
430873,0,0,0,748,3644
431026,0,0,0,758,3634
431101,0,0,0,768,3624
431101,0,0,0,778,3614
431120,0,0,0,788,3604
431139,0,0,0,798,3594
431809,0,0,0,788,3604
431828,0,0,0,778,3614
431867,0,0,0,788,3604
431877,0,0,0,798,3594
431879,0,0,0,808,3584
431918,0,0,0,818,3574
431995,0,0,0,808,3584
431996,0,0,0,798,3594
432078,0,0,0,1054,3338
432167,0,0,0,1044,3348
432169,0,0,0,1034,3358
432169,0,0,0,1024,3368
432266,0,0,0,1014,3378
432271,0,0,0,1004,3388
432273,0,0,0,994,3398
432540,0,0,0,984,3408
432692,0,0,0,974,3418
432693,0,0,0,964,3428
432695,0,0,0,954,3438
432699,0,0,0,944,3448
432714,0,0,0,934,3458
432716,0,0,0,924,3468
432730,0,0,0,914,3478
432735,0,0,0,904,3488
432749,0,0,0,894,3498
435885,0,0,0,884,3508
437900,0,0,0,948,3444
440120,0,0,0,1332,3060
449329,0,0,0,1204,3188
449564,0,0,0,1059,3333
449864,0,0,0,931,3461
453495,0,0,0,941,3451
453522,0,0,0,951,3441
453697,0,0,0,961,3431
453699,0,0,0,971,3421
453925,0,0,0,981,3411
453933,0,0,0,991,3401
453934,0,0,0,1001,3391
453962,0,0,0,1011,3381
453968,0,0,0,1021,3371
454006,0,0,0,1031,3361
454245,0,0,0,1041,3351
454348,0,0,0,1051,3341
454383,0,0,0,1061,3331
454384,0,0,0,1071,3321
454417,0,0,0,1081,3311
454443,0,0,0,1091,3301
454460,0,0,0,1101,3291
454462,0,0,0,1111,3281
454472,0,0,0,1121,3271
454504,0,0,0,1131,3261
455004,0,0,0,1259,3133
456096,0,0,0,1404,2988
457602,0,0,0,1414,2978
458377,0,0,0,1542,2850
462406,0,0,0,3590,802
462409,0,0,0,727,3665
462409,0,0,0,599,3793
462409,0,0,0,471,3921
465018,0,0,0,1273,3119
472060,0,0,0,1401,2991
473298,0,0,0,1529,2863
482029,0,0,0,4392,0
482032,0,0,0,2344,2048
482032,0,0,0,2143,2249
482032,0,0,0,1942,2450
482032,0,0,0,1046,3346
482032,0,0,0,845,3547
482032,0,0,0,365,4027
482032,0,0,0,109,4283
482032,0,0,0,99,4293
482032,0,0,0,89,4303
482032,0,0,0,79,4313
482032,0,0,0,69,4323
482032,0,0,0,59,4333
482032,0,0,0,49,4343
482032,0,0,0,39,4353
482032,0,0,0,29,4363
482032,0,0,0,19,4373
482032,0,0,0,9,4383
503696,0,0,0,19,4373
503699,0,0,0,9,4383
503719,0,0,0,19,4373
503722,0,0,0,9,4383
503743,0,0,0,19,4373
503746,0,0,0,9,4383
503752,0,0,0,265,4127
503755,0,0,0,255,4137
503755,0,0,0,245,4147
503755,0,0,0,235,4157
503755,0,0,0,225,4167
503755,0,0,0,215,4177
503755,0,0,0,205,4187
503755,0,0,0,195,4197
503755,0,0,0,185,4207
503755,0,0,0,175,4217
503755,0,0,0,165,4227
503755,0,0,0,155,4237
503755,0,0,0,145,4247
503755,0,0,0,135,4257
503755,0,0,0,125,4267
503755,0,0,0,115,4277
503757,0,0,0,125,4267
503768,0,0,0,135,4257
503771,0,0,0,7,4385
503772,0,0,0,17,4375
503776,0,0,0,27,4365
503777,0,0,0,37,4355
503779,0,0,0,47,4345
503813,0,0,0,57,4335
512765,0,0,0,537,3855
512768,0,0,0,37,4355
513707,0,0,0,165,4227
513710,0,0,0,37,4355
523357,0,0,0,165,4227
523360,0,0,0,37,4355
525439,0,0,0,47,4345
525441,0,0,0,57,4335
525442,0,0,0,67,4325
525446,0,0,0,77,4315
525446,0,0,0,87,4305
525457,0,0,0,97,4295
525460,0,0,0,107,4285
525465,0,0,0,117,4275
525467,0,0,0,127,4265
525468,0,0,0,137,4255
525474,0,0,0,9,4383
525477,0,0,0,19,4373
525477,0,0,0,29,4363
525479,0,0,0,39,4353
525481,0,0,0,49,4343
525496,0,0,0,59,4333
525513,0,0,0,69,4323
525519,0,0,0,79,4313
525525,0,0,0,89,4303
529766,0,0,0,217,4175
529769,0,0,0,89,4303
536174,0,0,0,217,4175
536177,0,0,0,89,4303
542100,0,0,0,217,4175
542103,0,0,0,89,4303
545275,0,0,0,589,3803
545278,0,0,0,333,4059
545278,0,0,0,77,4315
548310,0,0,0,205,4187
548313,0,0,0,77,4315
554259,0,0,0,205,4187
554262,0,0,0,77,4315
554730,0,0,0,333,4059
554733,0,0,0,77,4315
555084,0,0,0,333,4059
555087,0,0,0,205,4187
555087,0,0,0,77,4315
560463,0,0,0,205,4187
560466,0,0,0,77,4315
561046,0,0,0,205,4187
561049,0,0,0,77,4315
564440,0,0,0,333,4059
565176,0,0,0,461,3931
566634,0,0,0,589,3803
567226,0,0,0,717,3675
567643,0,0,0,845,3547
568580,0,0,0,2893,1499
568583,0,0,0,1893,2499
568583,0,0,0,869,3523
568583,0,0,0,485,3907
568595,0,0,0,1381,3011
568598,0,0,0,681,3711
568598,0,0,0,169,4223
568598,0,0,0,41,4351
574865,0,0,0,169,4223
576241,0,0,0,681,3711
576244,0,0,0,169,4223
576244,0,0,0,41,4351
582477,0,0,0,169,4223
583843,0,0,0,681,3711
583846,0,0,0,169,4223
583846,0,0,0,41,4351
590134,0,0,0,169,4223
590234,0,0,0,681,3711
590237,0,0,0,169,4223
590237,0,0,0,41,4351
590237,0,0,0,31,4361
590237,0,0,0,21,4371
590297,0,0,0,721,3671
590300,0,0,0,465,3927
590300,0,0,0,337,4055
590300,0,0,0,209,4183
595252,0,0,0,219,4173
595293,0,0,0,229,4163
595360,0,0,0,485,3907
596495,0,0,0,613,3779
596587,0,0,0,741,3651
596599,0,0,0,869,3523
596645,0,0,0,1381,3011
596648,0,0,0,381,4011
596648,0,0,0,125,4267
601076,0,0,0,509,3883
602187,0,0,0,765,3627
602629,0,0,0,1765,2627
602632,0,0,0,869,3523
602632,0,0,0,724,3668
602632,0,0,0,468,3924
602632,0,0,0,340,4052
602632,0,0,0,84,4308
609052,0,0,0,212,4180
609173,0,0,0,468,3924
609939,0,0,0,724,3668
610279,0,0,0,869,3523
611726,0,0,0,1070,3322
611729,0,0,0,174,4218
611729,0,0,0,46,4346
611729,0,0,0,36,4356
611729,0,0,0,26,4366
611729,0,0,0,16,4376
611729,0,0,0,6,4386
611767,0,0,0,207,4185
611770,0,0,0,79,4313
611770,0,0,0,69,4323
611770,0,0,0,59,4333
611770,0,0,0,49,4343
611779,0,0,0,250,4142
611782,0,0,0,122,4270
613214,0,0,0,112,4280
613256,0,0,0,102,4290
613295,0,0,0,92,4300
618456,0,0,0,102,4290
618603,0,0,0,112,4280
622657,0,0,0,240,4152
622660,0,0,0,112,4280
622697,0,0,0,240,4152
622700,0,0,0,112,4280
623389,0,0,0,122,4270
623792,0,0,0,250,4142
623795,0,0,0,122,4270
626266,0,0,0,132,4260
626269,0,0,0,4,4388
629098,0,0,0,132,4260
629114,0,0,0,260,4132
630192,0,0,0,388,4004
630658,0,0,0,398,3994
632277,0,0,0,408,3984
632279,0,0,0,418,3974
632325,0,0,0,428,3964
632442,0,0,0,438,3954
632442,0,0,0,448,3944
632634,0,0,0,576,3816
632810,0,0,0,1472,2920
632813,0,0,0,576,3816
632813,0,0,0,448,3944
632813,0,0,0,320,4072
632813,0,0,0,64,4328
639261,0,0,0,320,4072
639330,0,0,0,448,3944
639416,0,0,0,576,3816
641109,0,0,0,1472,2920
641112,0,0,0,576,3816
641112,0,0,0,320,4072
641112,0,0,0,64,4328
650206,0,0,0,320,4072
650556,0,0,0,576,3816
654362,0,0,0,1576,2816
654365,0,0,0,680,3712
654464,0,0,0,1704,2688
654467,0,0,0,808,3584
654467,0,0,0,680,3712
654467,0,0,0,552,3840
654467,0,0,0,424,3968
654467,0,0,0,296,4096
654467,0,0,0,40,4352
659508,0,0,0,168,4224
659526,0,0,0,296,4096
660207,0,0,0,424,3968
660799,0,0,0,552,3840
660867,0,0,0,808,3584
662497,0,0,0,1704,2688
662500,0,0,0,808,3584
662500,0,0,0,680,3712
662500,0,0,0,424,3968
662500,0,0,0,296,4096
662500,0,0,0,168,4224
662500,0,0,0,40,4352
668897,0,0,0,168,4224
669802,0,0,0,296,4096
669820,0,0,0,424,3968
670882,0,0,0,680,3712
671898,0,0,0,808,3584
671975,0,0,0,1704,2688
671978,0,0,0,808,3584
671978,0,0,0,679,3713
671978,0,0,0,550,3842
671978,0,0,0,421,3971
671978,0,0,0,293,4099
671978,0,0,0,37,4355
681507,0,0,0,293,4099
682792,0,0,0,422,3970
682828,0,0,0,551,3841
682879,0,0,0,679,3713
682907,0,0,0,808,3584
684204,0,0,0,1704,2688
684207,0,0,0,808,3584
688954,0,0,0,1704,2688
688957,0,0,0,808,3584
692417,0,0,0,1704,2688
692420,0,0,0,808,3584
692420,0,0,0,552,3840
692420,0,0,0,451,3941
692420,0,0,0,350,4042
692420,0,0,0,94,4298
692420,0,0,0,93,4299
692420,0,0,0,92,4300
692420,0,0,0,88,4304
692727,0,0,0,87,4305
699681,0,0,0,91,4301
699702,0,0,0,92,4300
699737,0,0,0,93,4299
699815,0,0,0,94,4298
701883,0,0,0,990,3402
701886,0,0,0,552,3840
701886,0,0,0,424,3968
701886,0,0,0,296,4096
701886,0,0,0,168,4224
701886,0,0,0,40,4352
701886,0,0,0,39,4353
701886,0,0,0,7,4385
711884,0,0,0,39,4353
712381,0,0,0,40,4352
712726,0,0,0,168,4224
712792,0,0,0,296,4096
712799,0,0,0,424,3968
714003,0,0,0,552,3840
714122,0,0,0,1448,2944
714125,0,0,0,748,3644
714130,0,0,0,1004,3388
714133,0,0,0,202,4190
714187,0,0,0,458,3934
714190,0,0,0,202,4190
715544,0,0,0,640,3752
715547,0,0,0,384,4008
715547,0,0,0,183,4209
718648,0,0,0,1079,3313
718651,0,0,0,878,3514
718651,0,0,0,750,3642
718651,0,0,0,494,3898
718651,0,0,0,238,4154
722152,0,0,0,1134,3258
722155,0,0,0,878,3514
722155,0,0,0,627,3765
722155,0,0,0,127,4265
722155,0,0,0,126,4266
727731,0,0,0,127,4265
729551,0,0,0,255,4137
729554,0,0,0,127,4265
731660,0,0,0,827,3565
735081,0,0,0,1083,3309
735084,0,0,0,59,4333
735498,0,0,0,315,4077
735501,0,0,0,59,4333
735876,0,0,0,315,4077
735879,0,0,0,59,4333
740284,0,0,0,187,4205
740378,0,0,0,443,3949
740381,0,0,0,187,4205
743864,0,0,0,443,3949
743867,0,0,0,187,4205
743867,0,0,0,177,4215
743867,0,0,0,167,4225
743867,0,0,0,157,4235
743867,0,0,0,147,4245
743867,0,0,0,137,4255
743900,0,0,0,637,3755
743903,0,0,0,381,4011
743903,0,0,0,371,4021
743903,0,0,0,361,4031
743903,0,0,0,351,4041
743903,0,0,0,341,4051
743903,0,0,0,331,4061
743903,0,0,0,321,4071
743903,0,0,0,311,4081
743903,0,0,0,301,4091
743903,0,0,0,45,4347
746952,0,0,0,246,4146
746969,0,0,0,347,4045
747759,0,0,0,448,3944
748543,0,0,0,704,3688
748546,0,0,0,64,4328
749414,0,0,0,265,4127
749417,0,0,0,9,4383
750220,0,0,0,1033,3359
750223,0,0,0,777,3615
750223,0,0,0,521,3871
750223,0,0,0,393,3999
750223,0,0,0,137,4255
750427,0,0,0,393,3999
750430,0,0,0,137,4255
750430,0,0,0,9,4383
756327,0,0,0,137,4255
756522,0,0,0,265,4127
756525,0,0,0,9,4383
758892,0,0,0,265,4127
758895,0,0,0,9,4383
759209,0,0,0,265,4127
759212,0,0,0,137,4255
759212,0,0,0,9,4383
762081,0,0,0,265,4127
762084,0,0,0,255,4137
762084,0,0,0,245,4147
762084,0,0,0,235,4157
762084,0,0,0,225,4167
762084,0,0,0,215,4177
762084,0,0,0,205,4187
762084,0,0,0,195,4197
762084,0,0,0,185,4207
762084,0,0,0,175,4217
762084,0,0,0,174,4218
762084,0,0,0,173,4219
762084,0,0,0,45,4347
762084,0,0,0,44,4348
763183,0,0,0,300,4092
763186,0,0,0,172,4220
764456,0,0,0,182,4210
764960,0,0,0,438,3954
764963,0,0,0,182,4210
764963,0,0,0,54,4338
765546,0,0,0,64,4328
765551,0,0,0,74,4318
765572,0,0,0,84,4308
765580,0,0,0,94,4298
765582,0,0,0,104,4288
765593,0,0,0,114,4278
765598,0,0,0,370,4022
765601,0,0,0,242,4150
765601,0,0,0,114,4278
765601,0,0,0,124,4268
765604,0,0,0,134,4258
765607,0,0,0,6,4386
765609,0,0,0,262,4130
765611,0,0,0,272,4120
765615,0,0,0,144,4248
765615,0,0,0,16,4376
765646,0,0,0,26,4366
765653,0,0,0,36,4356
765690,0,0,0,46,4346
766864,0,0,0,302,4090
766867,0,0,0,174,4218
766867,0,0,0,46,4346
768579,0,0,0,174,4218
770192,0,0,0,430,3962
770195,0,0,0,174,4218
770365,0,0,0,425,3967
770368,0,0,0,169,4223
770658,0,0,0,971,3421
770661,0,0,0,459,3933
771115,0,0,0,715,3677
771330,0,0,0,843,3549
771386,0,0,0,971,3421
771903,0,0,0,1227,3165
771906,0,0,0,203,4189
771906,0,0,0,202,4190
772531,0,0,0,330,4062
772911,0,0,0,458,3934
773129,0,0,0,586,3806
774008,0,0,0,714,3678
774011,0,0,0,74,4318
774011,0,0,0,73,4319
774011,0,0,0,72,4320
774121,0,0,0,200,4192
774136,0,0,0,328,4064
774181,0,0,0,456,3936
774215,0,0,0,584,3808
774241,0,0,0,712,3680
777919,0,0,0,968,3424
777922,0,0,0,166,4226
780194,0,0,0,167,4225
782059,0,0,0,1191,3201
782062,0,0,0,389,4003
782431,0,0,0,901,3491
782434,0,0,0,99,4293
783757,0,0,0,109,4283
783770,0,0,0,119,4273
783785,0,0,0,129,4263
783802,0,0,0,139,4253
783805,0,0,0,149,4243
783807,0,0,0,159,4233
783811,0,0,0,169,4223
783814,0,0,0,179,4213
783826,0,0,0,189,4203
786409,0,0,0,190,4202
786664,0,0,0,446,3946
786667,0,0,0,190,4202
786667,0,0,0,62,4330
788501,0,0,0,63,4329
788544,0,0,0,64,4328
789771,0,0,0,65,4327
790992,0,0,0,66,4326
791901,0,0,0,706,3686
791904,0,0,0,578,3814
791904,0,0,0,450,3942
791904,0,0,0,322,4070
791904,0,0,0,194,4198
791904,0,0,0,66,4326
791919,0,0,0,322,4070
791922,0,0,0,194,4198
791922,0,0,0,66,4326
792782,0,0,0,194,4198
792785,0,0,0,66,4326
797432,0,0,0,194,4198
797435,0,0,0,66,4326
797457,0,0,0,194,4198
798309,0,0,0,322,4070
798760,0,0,0,450,3942
798966,0,0,0,578,3814
798969,0,0,0,66,4326
799693,0,0,0,868,3524
799696,0,0,0,740,3652
799696,0,0,0,260,4132
801249,0,0,0,388,4004
801294,0,0,0,516,3876
801297,0,0,0,78,4314
802156,0,0,0,880,3512
802159,0,0,0,629,3763
802159,0,0,0,378,4014
802159,0,0,0,122,4270
802678,0,0,0,250,4142
802989,0,0,0,378,4014
802992,0,0,0,122,4270
804141,0,0,0,924,3468
804144,0,0,0,668,3724
804144,0,0,0,412,3980
804144,0,0,0,156,4236
807004,0,0,0,284,4108
807007,0,0,0,28,4364
808381,0,0,0,284,4108
808384,0,0,0,140,4252
808384,0,0,0,12,4380
809261,0,0,0,268,4124
809264,0,0,0,12,4380
813386,0,0,0,450,3942
815743,0,0,0,706,3686
815925,0,0,0,850,3542
816346,0,0,0,978,3414
817305,0,0,0,1618,2774
817308,0,0,0,594,3798
817308,0,0,0,466,3926
817308,0,0,0,210,4182
820191,0,0,0,466,3926
820194,0,0,0,210,4182
820693,0,0,0,722,3670
820696,0,0,0,466,3926
821405,0,0,0,722,3670
821408,0,0,0,22,4370
824680,0,0,0,278,4114
824683,0,0,0,150,4242
825839,0,0,0,630,3762
825842,0,0,0,374,4018
825842,0,0,0,118,4274
825923,0,0,0,374,4018
825926,0,0,0,118,4274
826598,0,0,0,374,4018
826601,0,0,0,246,4146
826601,0,0,0,118,4274
828115,0,0,0,246,4146
828118,0,0,0,118,4274
828729,0,0,0,374,4018
828732,0,0,0,246,4146
828732,0,0,0,118,4274
831916,0,0,0,246,4146
831919,0,0,0,118,4274
832567,0,0,0,246,4146
832570,0,0,0,118,4274
834728,0,0,0,246,4146
834731,0,0,0,118,4274
835080,0,0,0,246,4146
835083,0,0,0,118,4274
835841,0,0,0,246,4146
835844,0,0,0,118,4274
836829,0,0,0,374,4018
836832,0,0,0,246,4146
836832,0,0,0,118,4274
837064,0,0,0,246,4146
837067,0,0,0,118,4274
839037,0,0,0,374,4018
839040,0,0,0,246,4146
839040,0,0,0,118,4274
839369,0,0,0,818,3574
839372,0,0,0,690,3702
839372,0,0,0,252,4140
840807,0,0,0,508,3884
840810,0,0,0,70,4322
841417,0,0,0,198,4194
842416,0,0,0,454,3938
842419,0,0,0,16,4376
842912,0,0,0,144,4248
843089,0,0,0,272,4120
843463,0,0,0,400,3992
843471,0,0,0,528,3864
843621,0,0,0,656,3736
844536,0,0,0,784,3608
846670,0,0,0,912,3480
846712,0,0,0,1040,3352
846715,0,0,0,40,4352
847605,0,0,0,296,4096
847608,0,0,0,168,4224
847608,0,0,0,40,4352
847766,0,0,0,168,4224
849192,0,0,0,606,3786
850281,0,0,0,734,3658
853311,0,0,0,862,3530
853315,0,0,0,990,3402
853615,0,0,0,1241,3151
853618,0,0,0,241,4151
854465,0,0,0,679,3713
854468,0,0,0,241,4151
854468,0,0,0,113,4279
854974,0,0,0,364,4028
854977,0,0,0,108,4284
856222,0,0,0,546,3846
856225,0,0,0,290,4102
859320,0,0,0,1290,3102
859323,0,0,0,778,3614
859323,0,0,0,522,3870
859323,0,0,0,266,4126
859323,0,0,0,138,4254
865186,0,0,0,266,4126
865189,0,0,0,122,4270
865376,0,0,0,250,4142
865379,0,0,0,122,4270
865791,0,0,0,378,4014
865794,0,0,0,250,4142
865794,0,0,0,106,4286
865830,0,0,0,362,4030
865833,0,0,0,106,4286
867826,0,0,0,618,3774
867829,0,0,0,489,3903
867829,0,0,0,360,4032
867829,0,0,0,231,4161
867829,0,0,0,102,4290
871329,0,0,0,540,3852
871332,0,0,0,411,3981
871332,0,0,0,282,4110
871332,0,0,0,31,4361
874577,0,0,0,175,4217
874580,0,0,0,47,4345
874607,0,0,0,175,4217
874610,0,0,0,47,4345
875030,0,0,0,175,4217
875825,0,0,0,319,4073
875828,0,0,0,63,4329
876705,0,0,0,319,4073
876708,0,0,0,63,4329
877282,0,0,0,319,4073
877285,0,0,0,63,4329
878647,0,0,0,192,4200
878650,0,0,0,321,4071
878653,0,0,0,65,4327
878657,0,0,0,194,4198
878697,0,0,0,323,4069
878700,0,0,0,67,4325
881888,0,0,0,195,4197
881934,0,0,0,323,4069
881937,0,0,0,67,4325
882113,0,0,0,196,4196
882116,0,0,0,68,4324
882121,0,0,0,197,4195
882124,0,0,0,69,4323
883170,0,0,0,325,4067
883173,0,0,0,69,4323
887515,0,0,0,325,4067
888078,0,0,0,453,3939
889028,0,0,0,709,3683
889031,0,0,0,197,4195
889696,0,0,0,453,3939
889699,0,0,0,15,4377
892941,0,0,0,143,4249
897051,0,0,0,1143,3249
897054,0,0,0,892,3500
897054,0,0,0,641,3751
897054,0,0,0,392,4000
897054,0,0,0,143,4249
897054,0,0,0,15,4377
897241,0,0,0,527,3865
898407,0,0,0,783,3609
898968,0,0,0,1039,3353
898971,0,0,0,237,4155
899315,0,0,0,488,3904
899318,0,0,0,232,4160
899318,0,0,0,104,4288
900415,0,0,0,360,4032
900418,0,0,0,232,4160
900418,0,0,0,104,4288
902185,0,0,0,232,4160
903094,0,0,0,1256,3136
903097,0,0,0,1000,3392
903097,0,0,0,872,3520
903097,0,0,0,616,3776
903097,0,0,0,488,3904
903097,0,0,0,232,4160
903627,0,0,0,488,3904
903637,0,0,0,926,3466
908507,0,0,0,1054,3338
909673,0,0,0,1182,3210
910698,0,0,0,1310,3082
911776,0,0,0,1438,2954
913936,0,0,0,1566,2826
919160,0,0,0,1822,2570
922051,0,0,0,2071,2321
922556,0,0,0,2320,2072
924202,0,0,0,2576,1816
924852,0,0,0,2832,1560
926171,0,0,0,2576,1816
929170,0,0,0,1560,2832
929690,0,0,0,1304,3088
929814,0,0,0,664,3728
931494,0,0,0,408,3984
931696,0,0,0,280,4112
931716,0,0,0,152,4240
931724,0,0,0,24,4368
939137,0,0,0,152,4240
939140,0,0,0,24,4368
940817,0,0,0,152,4240
940820,0,0,0,24,4368
941354,0,0,0,152,4240
941357,0,0,0,24,4368
944903,0,0,0,275,4117
944906,0,0,0,147,4245
944906,0,0,0,19,4373
944940,0,0,0,270,4122
944943,0,0,0,142,4250
944943,0,0,0,14,4378
948116,0,0,0,270,4122
948119,0,0,0,142,4250
948119,0,0,0,14,4378
948823,0,0,0,142,4250
948826,0,0,0,14,4378
949120,0,0,0,270,4122
949123,0,0,0,142,4250
949123,0,0,0,14,4378
950049,0,0,0,142,4250
950052,0,0,0,14,4378
950117,0,0,0,142,4250
952371,0,0,0,270,4122
952374,0,0,0,14,4378
952390,0,0,0,142,4250
952514,0,0,0,1158,3234
952517,0,0,0,902,3490
952894,0,0,0,1030,3362
954254,0,0,0,774,3618
954313,0,0,0,1030,3362
955045,0,0,0,774,3618
955301,0,0,0,902,3490
955545,0,0,0,1030,3362
956129,0,0,0,1158,3234
956613,0,0,0,1286,3106
956618,0,0,0,1414,2978
958035,0,0,0,1542,2850
958971,0,0,0,1293,3099
958996,0,0,0,1044,3348
959429,0,0,0,1172,3220
959839,0,0,0,916,3476
959841,0,0,0,660,3732
959859,0,0,0,532,3860
959865,0,0,0,404,3988
963210,0,0,0,660,3732
966767,0,0,0,916,3476
966791,0,0,0,1172,3220
966794,0,0,0,172,4220
970773,0,0,0,428,3964
970776,0,0,0,172,4220
970776,0,0,0,44,4348
972005,0,0,0,172,4220
972008,0,0,0,44,4348
972017,0,0,0,172,4220
972020,0,0,0,44,4348
973098,0,0,0,684,3708
973101,0,0,0,556,3836
973101,0,0,0,428,3964
973101,0,0,0,300,4092
973101,0,0,0,172,4220
973101,0,0,0,44,4348
974073,0,0,0,300,4092
974076,0,0,0,172,4220
974076,0,0,0,44,4348
976694,0,0,0,300,4092
976697,0,0,0,172,4220
976697,0,0,0,44,4348
976900,0,0,0,172,4220
976903,0,0,0,44,4348
977032,0,0,0,172,4220
977035,0,0,0,44,4348
978310,0,0,0,172,4220
978313,0,0,0,44,4348
978999,0,0,0,172,4220
979002,0,0,0,44,4348
979016,0,0,0,172,4220
979019,0,0,0,44,4348
980665,0,0,0,172,4220
980668,0,0,0,44,4348
980690,0,0,0,172,4220
980693,0,0,0,44,4348
981245,0,0,0,172,4220
981663,0,0,0,300,4092
981666,0,0,0,44,4348
981687,0,0,0,172,4220
982597,0,0,0,300,4092
982600,0,0,0,44,4348
984235,0,0,0,293,4099
984512,0,0,0,421,3971
984514,0,0,0,670,3722
984876,0,0,0,798,3594
984900,0,0,0,926,3466
985445,0,0,0,1728,2664
985806,0,0,0,1856,2536
985856,0,0,0,2112,2280
986584,0,0,0,2240,2152
986616,0,0,0,2368,2024
986649,0,0,0,2240,2152
988270,0,0,0,2368,2024
988880,0,0,0,2496,1896
992773,0,0,0,2624,1768
993774,0,0,0,2880,1512
1.00344e+06,0,0,0,3136,1256
1.00423e+06,0,0,0,3392,1000
1.01116e+06,0,0,0,3136,1256
1.01378e+06,0,0,0,3008,1384
1.01378e+06,0,0,0,2880,1512
1.01384e+06,0,0,0,2752,1640
1.01384e+06,0,0,0,2624,1768
1.02309e+06,0,0,0,2752,1640
1.02309e+06,0,0,0,2880,1512
1.02338e+06,0,0,0,3008,1384
1.02377e+06,0,0,0,3136,1256
1.02544e+06,0,0,0,2887,1505
1.02548e+06,0,0,0,2638,1754
1.0327e+06,0,0,0,2894,1498
1.03486e+06,0,0,0,3143,1249
1.03512e+06,0,0,0,2887,1505
1.03525e+06,0,0,0,2631,1761
1.03525e+06,0,0,0,2375,2017
1.03529e+06,0,0,0,2247,2145
1.04184e+06,0,0,0,2503,1889
1.04196e+06,0,0,0,2759,1633
1.0422e+06,0,0,0,3015,1377
1.04222e+06,0,0,0,2213,2179
1.0433e+06,0,0,0,1813,2579
1.0436e+06,0,0,0,474,3918
1.04593e+06,0,0,0,602,3790
1.05118e+06,0,0,0,851,3541
1.05257e+06,0,0,0,1851,2541
1.05257e+06,0,0,0,512,3880
1.05257e+06,0,0,0,12,4380
1.05445e+06,0,0,0,1351,3041
1.05445e+06,0,0,0,327,4065
1.05445e+06,0,0,0,199,4193
1.05445e+06,0,0,0,71,4321
1.06357e+06,0,0,0,199,4193
1.06357e+06,0,0,0,71,4321
1.06362e+06,0,0,0,199,4193
1.06362e+06,0,0,0,71,4321
1.07273e+06,0,0,0,199,4193
1.07282e+06,0,0,0,327,4065
1.07423e+06,0,0,0,827,3565
1.07423e+06,0,0,0,427,3965
1.0758e+06,0,0,0,827,3565
1.08501e+06,0,0,0,2166,2226
1.09091e+06,0,0,0,3190,1202
1.10164e+06,0,0,0,2941,1451
1.10666e+06,0,0,0,3341,1051
1.11892e+06,0,0,0,2445,1947
1.11893e+06,0,0,0,1549,2843
1.11893e+06,0,0,0,653,3739
1.12906e+06,0,0,0,1455,2937
1.12907e+06,0,0,0,559,3833
1.12907e+06,0,0,0,415,3977
1.12907e+06,0,0,0,271,4121
1.13658e+06,0,0,0,415,3977
1.13662e+06,0,0,0,559,3833
1.14838e+06,0,0,0,1455,2937
1.14839e+06,0,0,0,559,3833
1.14849e+06,0,0,0,1455,2937
1.1485e+06,0,0,0,559,3833
1.14852e+06,0,0,0,1455,2937
1.14853e+06,0,0,0,559,3833
1.14853e+06,0,0,0,431,3961
1.15113e+06,0,0,0,287,4105
1.15177e+06,0,0,0,143,4249
1.15339e+06,0,0,0,392,4000
1.15864e+06,0,0,0,536,3856
1.15933e+06,0,0,0,664,3728
1.15933e+06,0,0,0,808,3584
1.16523e+06,0,0,0,1704,2688
1.16523e+06,0,0,0,808,3584
1.17793e+06,0,0,0,1704,2688
1.17793e+06,0,0,0,680,3712
1.17822e+06,0,0,0,1576,2816
1.17823e+06,0,0,0,464,3928
1.17823e+06,0,0,0,208,4184
1.17825e+06,0,0,0,1104,3288
1.18458e+06,0,0,0,855,3537
1.18544e+06,0,0,0,727,3665
1.18619e+06,0,0,0,599,3793
1.18619e+06,0,0,0,471,3921
1.1862e+06,0,0,0,343,4049
1.1862e+06,0,0,0,215,4177
1.1862e+06,0,0,0,87,4305
1.1916e+06,0,0,0,215,4177
1.19165e+06,0,0,0,343,4049
1.19165e+06,0,0,0,87,4305
1.19166e+06,0,0,0,215,4177
1.19167e+06,0,0,0,87,4305
1.19167e+06,0,0,0,215,4177
1.19171e+06,0,0,0,343,4049
1.19176e+06,0,0,0,471,3921
1.19259e+06,0,0,0,720,3672
1.19976e+06,0,0,0,976,3416
1.2014e+06,0,0,0,1872,2520
1.20141e+06,0,0,0,856,3536
1.20141e+06,0,0,0,605,3787
1.20141e+06,0,0,0,477,3915
1.20141e+06,0,0,0,333,4059
1.20141e+06,0,0,0,189,4203
1.20249e+06,0,0,0,317,4075
1.20534e+06,0,0,0,61,4331
1.20867e+06,0,0,0,189,4203
1.20933e+06,0,0,0,333,4059
1.20943e+06,0,0,0,477,3915
1.21091e+06,0,0,0,733,3659
1.21195e+06,0,0,0,605,3787
1.21223e+06,0,0,0,477,3915
1.21224e+06,0,0,0,349,4043
1.21224e+06,0,0,0,221,4171
1.21226e+06,0,0,0,93,4299
1.2213e+06,0,0,0,349,4043
1.22192e+06,0,0,0,477,3915
1.22295e+06,0,0,0,605,3787
1.22298e+06,0,0,0,733,3659
1.22298e+06,0,0,0,861,3531
1.22312e+06,0,0,0,989,3403
1.22593e+06,0,0,0,1240,3152
1.22593e+06,0,0,0,240,4152
1.22593e+06,0,0,0,112,4280
1.23592e+06,0,0,0,240,4152
1.23592e+06,0,0,0,112,4280
1.24681e+06,0,0,0,240,4152
1.24682e+06,0,0,0,112,4280
1.25593e+06,0,0,0,240,4152
1.25593e+06,0,0,0,112,4280
1.26175e+06,0,0,0,240,4152
1.26378e+06,0,0,0,1264,3128
1.26378e+06,0,0,0,864,3528
1.26378e+06,0,0,0,464,3928
1.26378e+06,0,0,0,208,4184
1.26472e+06,0,0,0,1320,3072
1.26472e+06,0,0,0,320,4072
1.26472e+06,0,0,0,192,4200
1.26472e+06,0,0,0,64,4328
1.27042e+06,0,0,0,1064,3328
1.27385e+06,0,0,0,1192,3200
1.27386e+06,0,0,0,1320,3072
1.2762e+06,0,0,0,2320,2072
1.27621e+06,0,0,0,272,4120
1.27621e+06,0,0,0,23,4369
1.28547e+06,0,0,0,279,4113
1.28548e+06,0,0,0,30,4362
1.28785e+06,0,0,0,430,3962
1.28785e+06,0,0,0,302,4090
1.28808e+06,0,0,0,1318,3074
1.28808e+06,0,0,0,880,3512
1.28808e+06,0,0,0,752,3640
1.28808e+06,0,0,0,624,3768
1.28808e+06,0,0,0,496,3896
1.28808e+06,0,0,0,240,4152
1.28808e+06,0,0,0,112,4280
1.29352e+06,0,0,0,240,4152
1.29387e+06,0,0,0,368,4024
1.29387e+06,0,0,0,112,4280
1.29388e+06,0,0,0,240,4152
1.29621e+06,0,0,0,640,3752
1.29622e+06,0,0,0,384,4008
1.297e+06,0,0,0,512,3880
1.297e+06,0,0,0,0,4392
1.2989e+06,0,0,0,128,4264
1.29891e+06,0,0,0,0,4392
1.30199e+06,0,0,0,438,3954
1.30199e+06,0,0,0,310,4082
1.30199e+06,0,0,0,54,4338
1.3033e+06,0,0,0,310,4082
1.3033e+06,0,0,0,182,4210
1.30419e+06,0,0,0,694,3698
1.30419e+06,0,0,0,438,3954
1.30419e+06,0,0,0,310,4082
1.30419e+06,0,0,0,182,4210
1.30419e+06,0,0,0,53,4339
1.30419e+06,0,0,0,52,4340
1.30419e+06,0,0,0,51,4341
1.30874e+06,0,0,0,179,4213
1.30875e+06,0,0,0,51,4341
1.30981e+06,0,0,0,307,4085
1.30982e+06,0,0,0,179,4213
1.30982e+06,0,0,0,51,4341
1.30983e+06,0,0,0,179,4213
1.30983e+06,0,0,0,51,4341
1.31157e+06,0,0,0,52,4340
1.31301e+06,0,0,0,180,4212
1.31301e+06,0,0,0,52,4340
1.31315e+06,0,0,0,53,4339
1.31394e+06,0,0,0,52,4340
1.3142e+06,0,0,0,180,4212
1.31502e+06,0,0,0,308,4084
1.31502e+06,0,0,0,52,4340
1.31511e+06,0,0,0,180,4212
1.31527e+06,0,0,0,308,4084
1.31527e+06,0,0,0,52,4340
1.31618e+06,0,0,0,181,4211
1.31667e+06,0,0,0,437,3955
1.31667e+06,0,0,0,181,4211
1.31725e+06,0,0,0,437,3955
1.31802e+06,0,0,0,436,3956
1.31827e+06,0,0,0,435,3957
1.31844e+06,0,0,0,434,3958
1.31856e+06,0,0,0,433,3959
1.31856e+06,0,0,0,432,3960
1.31856e+06,0,0,0,431,3961
1.31856e+06,0,0,0,430,3962
1.31856e+06,0,0,0,429,3963
1.31856e+06,0,0,0,428,3964
1.31862e+06,0,0,0,427,3965
1.31881e+06,0,0,0,426,3966
1.3207e+06,0,0,0,554,3838
1.32076e+06,0,0,0,682,3710
1.32377e+06,0,0,0,810,3582
1.32574e+06,0,0,0,1066,3326
1.3324e+06,0,0,0,1322,3070
1.3337e+06,0,0,0,1578,2814
1.33566e+06,0,0,0,1579,2813
1.33668e+06,0,0,0,1835,2557
1.33976e+06,0,0,0,1836,2556
1.33997e+06,0,0,0,1837,2555
1.34017e+06,0,0,0,1838,2554
1.3402e+06,0,0,0,1839,2553
1.34022e+06,0,0,0,1840,2552
1.34024e+06,0,0,0,1841,2551
1.34026e+06,0,0,0,1842,2550
1.34027e+06,0,0,0,1843,2549
1.34028e+06,0,0,0,1844,2548
1.34029e+06,0,0,0,1845,2547
1.34032e+06,0,0,0,1846,2546
1.36121e+06,0,0,0,3894,498
1.36122e+06,0,0,0,1334,3058
1.36326e+06,0,0,0,334,4058
1.36537e+06,0,0,0,206,4186
1.36684e+06,0,0,0,205,4187
1.36698e+06,0,0,0,204,4188
1.36698e+06,0,0,0,203,4189
1.36699e+06,0,0,0,202,4190
1.36699e+06,0,0,0,201,4191
1.367e+06,0,0,0,200,4192
1.367e+06,0,0,0,199,4193
1.367e+06,0,0,0,198,4194
1.36724e+06,0,0,0,197,4195
1.36724e+06,0,0,0,196,4196
1.36724e+06,0,0,0,195,4197
1.37421e+06,0,0,0,67,4325
1.37579e+06,0,0,0,195,4197
1.37579e+06,0,0,0,67,4325
1.38147e+06,0,0,0,62,4330
1.38159e+06,0,0,0,57,4335
1.38161e+06,0,0,0,52,4340
1.38176e+06,0,0,0,47,4345
1.38176e+06,0,0,0,42,4350
1.3819e+06,0,0,0,37,4355
1.3819e+06,0,0,0,32,4360
1.38201e+06,0,0,0,27,4365
1.38205e+06,0,0,0,22,4370
1.38215e+06,0,0,0,17,4375
1.38232e+06,0,0,0,12,4380
1.38232e+06,0,0,0,7,4385
1.38232e+06,0,0,0,2,4390
1.38249e+06,0,0,0,3,4389
1.38252e+06,0,0,0,4,4388
1.38252e+06,0,0,0,5,4387
1.38255e+06,0,0,0,6,4386
1.38256e+06,0,0,0,7,4385
1.38257e+06,0,0,0,8,4384
1.38259e+06,0,0,0,9,4383
1.38262e+06,0,0,0,10,4382
1.38262e+06,0,0,0,11,4381
1.38265e+06,0,0,0,12,4380
1.38272e+06,0,0,0,13,4379
1.38275e+06,0,0,0,8,4384
1.38281e+06,0,0,0,3,4389
1.38467e+06,0,0,0,131,4261
1.38468e+06,0,0,0,3,4389
1.3862e+06,0,0,0,131,4261
1.38621e+06,0,0,0,3,4389
1.3948e+06,0,0,0,131,4261
1.39481e+06,0,0,0,3,4389
1.39628e+06,0,0,0,131,4261
1.39629e+06,0,0,0,3,4389
1.39927e+06,0,0,0,252,4140
1.39927e+06,0,0,0,124,4268
1.40313e+06,0,0,0,129,4263
1.40314e+06,0,0,0,1,4391
1.40324e+06,0,0,0,6,4386
1.40324e+06,0,0,0,11,4381
1.40338e+06,0,0,0,16,4376
1.40339e+06,0,0,0,21,4371
1.4034e+06,0,0,0,26,4366
1.40345e+06,0,0,0,31,4361
1.40346e+06,0,0,0,36,4356
1.40354e+06,0,0,0,41,4351
1.40357e+06,0,0,0,46,4346
1.40359e+06,0,0,0,51,4341
1.40367e+06,0,0,0,56,4336
1.40372e+06,0,0,0,61,4331
1.40373e+06,0,0,0,66,4326
1.40373e+06,0,0,0,71,4321
1.40526e+06,0,0,0,199,4193
1.40591e+06,0,0,0,448,3944
1.40674e+06,0,0,0,576,3816
1.40816e+06,0,0,0,704,3688
1.41e+06,0,0,0,832,3560
1.41002e+06,0,0,0,3392,1000
1.41003e+06,0,0,0,2368,2024
1.41003e+06,0,0,0,2240,2152
1.41003e+06,0,0,0,1740,2652
1.41003e+06,0,0,0,716,3676
1.41556e+06,0,0,0,1740,2652
1.41556e+06,0,0,0,716,3676
1.41556e+06,0,0,0,588,3804
1.42085e+06,0,0,0,716,3676
1.42105e+06,0,0,0,1740,2652
1.42105e+06,0,0,0,740,3652
1.42649e+06,0,0,0,868,3524
1.42692e+06,0,0,0,1868,2524
1.42692e+06,0,0,0,868,3524
1.42692e+06,0,0,0,778,3614
1.42692e+06,0,0,0,663,3729
1.42692e+06,0,0,0,535,3857
1.42692e+06,0,0,0,407,3985
1.42692e+06,0,0,0,279,4113
1.42692e+06,0,0,0,151,4241
1.42692e+06,0,0,0,23,4369
1.43415e+06,0,0,0,151,4241
1.43604e+06,0,0,0,279,4113
1.43606e+06,0,0,0,407,3985
1.43775e+06,0,0,0,535,3857
1.43775e+06,0,0,0,35,4357
1.43776e+06,0,0,0,163,4229
1.44248e+06,0,0,0,663,3729
1.44248e+06,0,0,0,407,3985
1.44248e+06,0,0,0,151,4241
1.44248e+06,0,0,0,146,4246
1.44248e+06,0,0,0,18,4374
1.44248e+06,0,0,0,13,4379
1.44248e+06,0,0,0,8,4384
1.44248e+06,0,0,0,3,4389
1.449e+06,0,0,0,1003,3389
1.449e+06,0,0,0,998,3394
1.449e+06,0,0,0,993,3399
1.449e+06,0,0,0,988,3404
1.449e+06,0,0,0,983,3409
1.449e+06,0,0,0,839,3553
1.449e+06,0,0,0,711,3681
1.449e+06,0,0,0,583,3809
1.449e+06,0,0,0,327,4065
1.449e+06,0,0,0,199,4193
1.449e+06,0,0,0,70,4322
1.45332e+06,0,0,0,198,4194
1.45625e+06,0,0,0,454,3938
1.45625e+06,0,0,0,582,3810
1.45784e+06,0,0,0,838,3554
1.45882e+06,0,0,0,843,3549
1.4594e+06,0,0,0,1343,3049
1.4594e+06,0,0,0,327,4065
1.4594e+06,0,0,0,199,4193
1.45985e+06,0,0,0,343,4049
1.45985e+06,0,0,0,472,3920
1.45987e+06,0,0,0,600,3792
1.45998e+06,0,0,0,728,3664
1.46179e+06,0,0,0,984,3408
1.46298e+06,0,0,0,728,3664
1.46313e+06,0,0,0,472,3920
1.46372e+06,0,0,0,344,4048
1.46377e+06,0,0,0,216,4176
1.46377e+06,0,0,0,88,4304
1.46413e+06,0,0,0,93,4299
1.46418e+06,0,0,0,98,4294
1.46424e+06,0,0,0,103,4289
1.46501e+06,0,0,0,1119,3273
1.46502e+06,0,0,0,863,3529
1.46695e+06,0,0,0,735,3657
1.46699e+06,0,0,0,607,3785
1.46954e+06,0,0,0,479,3913
1.46959e+06,0,0,0,223,4169
1.4703e+06,0,0,0,351,4041
1.47065e+06,0,0,0,356,4036
1.47067e+06,0,0,0,361,4031
1.47069e+06,0,0,0,366,4026
1.47071e+06,0,0,0,371,4021
1.47193e+06,0,0,0,115,4277
1.4745e+06,0,0,0,243,4149
1.47451e+06,0,0,0,371,4021
1.47456e+06,0,0,0,499,3893
1.47684e+06,0,0,0,627,3765
1.47684e+06,0,0,0,883,3509
1.47685e+06,0,0,0,115,4277
1.47716e+06,0,0,0,1115,3277
1.47717e+06,0,0,0,347,4045
1.47778e+06,0,0,0,475,3917
1.47785e+06,0,0,0,603,3789
1.48455e+06,0,0,0,859,3533
1.48473e+06,0,0,0,1115,3277
1.48656e+06,0,0,0,1371,3021
1.48859e+06,0,0,0,1115,3277
1.48949e+06,0,0,0,1230,3162
1.49241e+06,0,0,0,1998,2394
1.49364e+06,0,0,0,2254,2138
1.49457e+06,0,0,0,2510,1882
1.49534e+06,0,0,0,3278,1114
1.49583e+06,0,0,0,4302,90
1.49583e+06,0,0,0,93,4299
1.49905e+06,0,0,0,183,4209
1.50334e+06,0,0,0,4392,0
1.50334e+06,0,0,0,1212,3180
1.50334e+06,0,0,0,362,4030
1.50334e+06,0,0,0,106,4286
1.51166e+06,0,0,0,3286,1106
1.51166e+06,0,0,0,2646,1746
1.51166e+06,0,0,0,1796,2596
1.51166e+06,0,0,0,1296,3096
1.51166e+06,0,0,0,896,3496
1.52144e+06,0,0,0,768,3624
1.52505e+06,0,0,0,1024,3368
1.52987e+06,0,0,0,895,3497
1.53237e+06,0,0,0,1023,3369
1.53501e+06,0,0,0,895,3497
1.53682e+06,0,0,0,646,3746
1.53749e+06,0,0,0,397,3995
1.5405e+06,0,0,0,797,3595
1.54068e+06,0,0,0,926,3466
1.54179e+06,0,0,0,798,3594
1.54416e+06,0,0,0,1298,3094
1.54416e+06,0,0,0,186,4206
1.54416e+06,0,0,0,42,4350
1.54582e+06,0,0,0,170,4222
1.5524e+06,0,0,0,314,4078
1.55264e+06,0,0,0,442,3950
1.55497e+06,0,0,0,1082,3310
1.55497e+06,0,0,0,280,4112
1.57102e+06,0,0,0,1130,3262
1.57102e+06,0,0,0,328,4064
1.57663e+06,0,0,0,1130,3262
1.57663e+06,0,0,0,328,4064
1.57663e+06,0,0,0,200,4192
1.57663e+06,0,0,0,72,4320
1.58578e+06,0,0,0,200,4192
1.58579e+06,0,0,0,328,4064
1.59268e+06,0,0,0,1130,3262
1.59268e+06,0,0,0,328,4064
1.59773e+06,0,0,0,1178,3214
1.59773e+06,0,0,0,376,4016
1.59829e+06,0,0,0,1178,3214
1.59829e+06,0,0,0,376,4016
1.61438e+06,0,0,0,1178,3214
1.61438e+06,0,0,0,376,4016
1.61941e+06,0,0,0,1178,3214
1.61941e+06,0,0,0,376,4016
1.62003e+06,0,0,0,1178,3214
1.62003e+06,0,0,0,376,4016
1.63081e+06,0,0,0,1488,2904
1.63081e+06,0,0,0,686,3706
1.63081e+06,0,0,0,430,3962
1.63613e+06,0,0,0,1232,3160
1.63613e+06,0,0,0,720,3672
1.63613e+06,0,0,0,592,3800
1.63613e+06,0,0,0,336,4056
1.63613e+06,0,0,0,208,4184
1.63613e+06,0,0,0,80,4312
1.64121e+06,0,0,0,882,3510
1.64121e+06,0,0,0,754,3638
1.64121e+06,0,0,0,626,3766
1.64121e+06,0,0,0,498,3894
1.64121e+06,0,0,0,370,4022
1.64121e+06,0,0,0,242,4150
1.64121e+06,0,0,0,114,4278
1.64165e+06,0,0,0,916,3476
1.64165e+06,0,0,0,788,3604
1.64165e+06,0,0,0,644,3748
1.64183e+06,0,0,0,516,3876
1.64459e+06,0,0,0,644,3748
1.64674e+06,0,0,0,772,3620
1.64697e+06,0,0,0,900,3492
1.647e+06,0,0,0,1156,3236
1.64745e+06,0,0,0,1284,3108
1.64958e+06,0,0,0,1428,2964
1.65044e+06,0,0,0,1940,2452
1.65053e+06,0,0,0,2068,2324
1.65071e+06,0,0,0,2870,1522
1.65149e+06,0,0,0,2998,1394
1.65155e+06,0,0,0,3126,1266
1.65184e+06,0,0,0,3254,1138
1.65206e+06,0,0,0,3382,1010
1.65207e+06,0,0,0,3510,882
1.65266e+06,0,0,0,3638,754
1.65484e+06,0,0,0,3894,498
1.65561e+06,0,0,0,3766,626
1.6628e+06,0,0,0,3510,882
1.66399e+06,0,0,0,2708,1684
1.66644e+06,0,0,0,2836,1556
1.66652e+06,0,0,0,3085,1307
1.66725e+06,0,0,0,3334,1058
1.66926e+06,0,0,0,3078,1314
1.66926e+06,0,0,0,2822,1570
1.66928e+06,0,0,0,2566,1826
1.66928e+06,0,0,0,2310,2082
1.66956e+06,0,0,0,2054,2338
1.66958e+06,0,0,0,1926,2466
1.67123e+06,0,0,0,2728,1664
1.67778e+06,0,0,0,2984,1408
1.6803e+06,0,0,0,3112,1280
1.69079e+06,0,0,0,3368,1024
1.69082e+06,0,0,0,3624,768
1.69085e+06,0,0,0,3880,512
1.69088e+06,0,0,0,4136,256
1.69113e+06,0,0,0,4392,0
1.69266e+06,0,0,0,4264,128
1.70353e+06,0,0,0,4392,0
1.75913e+06,0,0,0,2344,2048
1.75923e+06,0,0,0,296,4096
1.78106e+06,0,0,0,168,4224
1.79123e+06,0,0,0,40,4352
1.79192e+06,0,0,0,168,4224
1.79193e+06,0,0,0,40,4352
1.80171e+06,0,0,0,168,4224
1.80171e+06,0,0,0,40,4352
1.80251e+06,0,0,0,168,4224
1.80251e+06,0,0,0,40,4352
1.81214e+06,0,0,0,168,4224
1.81214e+06,0,0,0,40,4352
1.81285e+06,0,0,0,168,4224
1.81286e+06,0,0,0,40,4352
1.82239e+06,0,0,0,168,4224
1.82239e+06,0,0,0,40,4352
1.82302e+06,0,0,0,168,4224
1.82302e+06,0,0,0,24,4368
1.83041e+06,0,0,0,168,4224
1.83041e+06,0,0,0,24,4368
1.83151e+06,0,0,0,152,4240
1.83152e+06,0,0,0,8,4384
1.83776e+06,0,0,0,152,4240
1.83917e+06,0,0,0,296,4096
1.84415e+06,0,0,0,2344,2048
1.84433e+06,0,0,0,4392,0
1.84433e+06,0,0,0,0,4392
1.85034e+06,0,0,0,4392,0
1.85034e+06,0,0,0,3992,400
1.85034e+06,0,0,0,3592,800
1.85034e+06,0,0,0,3192,1200
1.85034e+06,0,0,0,2692,1700
1.85034e+06,0,0,0,1692,2700
1.85034e+06,0,0,0,668,3724
1.85034e+06,0,0,0,168,4224
1.85034e+06,0,0,0,24,4368
1.85914e+06,0,0,0,168,4224
1.85914e+06,0,0,0,24,4368
1.86111e+06,0,0,0,524,3868
1.86111e+06,0,0,0,380,4012
1.86111e+06,0,0,0,236,4156
1.86658e+06,0,0,0,380,4012
1.86659e+06,0,0,0,524,3868
1.86844e+06,0,0,0,668,3724
1.87443e+06,0,0,0,1068,3324
1.87444e+06,0,0,0,368,4024
1.87921e+06,0,0,0,768,3624
1.87979e+06,0,0,0,1268,3124
1.87979e+06,0,0,0,466,3926
1.8829e+06,0,0,0,866,3526
1.89323e+06,0,0,0,1566,2826
1.89429e+06,0,0,0,764,3628
1.89786e+06,0,0,0,1566,2826
1.89818e+06,0,0,0,542,3850
1.9015e+06,0,0,0,414,3978
1.90177e+06,0,0,0,286,4106
1.90199e+06,0,0,0,158,4234
1.90218e+06,0,0,0,30,4362
1.90232e+06,0,0,0,832,3560
1.90267e+06,0,0,0,704,3688
1.90288e+06,0,0,0,576,3816
1.90377e+06,0,0,0,1600,2792
1.90491e+06,0,0,0,576,3816
1.9073e+06,0,0,0,704,3688
1.90755e+06,0,0,0,832,3560
1.90793e+06,0,0,0,960,3432
1.90837e+06,0,0,0,1088,3304
1.90841e+06,0,0,0,1216,3176
1.90855e+06,0,0,0,1344,3048
1.91036e+06,0,0,0,2368,2024
1.91046e+06,0,0,0,1566,2826
1.91162e+06,0,0,0,764,3628
1.91624e+06,0,0,0,636,3756
1.91626e+06,0,0,0,508,3884
1.92438e+06,0,0,0,1310,3082
1.9254e+06,0,0,0,1438,2954
1.9254e+06,0,0,0,1566,2826
1.92781e+06,0,0,0,2590,1802
1.93212e+06,0,0,0,3392,1000
1.9361e+06,0,0,0,4392,0
1.9361e+06,0,0,0,40,4352
1.94233e+06,0,0,0,4392,0
1.94233e+06,0,0,0,40,4352
1.95028e+06,0,0,0,4392,0
1.95028e+06,0,0,0,40,4352
2.03676e+06,0,0,0,4392,0
2.03677e+06,0,0,0,40,4352
2.04446e+06,0,0,0,4392,0
2.04447e+06,0,0,0,40,4352
2.05393e+06,0,0,0,4392,0
2.05393e+06,0,0,0,40,4352
2.13517e+06,0,0,0,4392,0
2.13518e+06,0,0,0,3368,1024
2.13518e+06,0,0,0,2868,1524
2.13518e+06,0,0,0,2724,1668
2.13518e+06,0,0,0,1922,2470
2.13518e+06,0,0,0,1422,2970
2.13518e+06,0,0,0,922,3470
2.13518e+06,0,0,0,422,3970
2.13518e+06,0,0,0,294,4098
2.13518e+06,0,0,0,154,4238
2.14141e+06,0,0,0,282,4110
2.14243e+06,0,0,0,422,3970
2.14422e+06,0,0,0,566,3826
2.14591e+06,0,0,0,1066,3326
2.14592e+06,0,0,0,66,4326
2.14593e+06,0,0,0,566,3826
2.14595e+06,0,0,0,1066,3326
2.14595e+06,0,0,0,66,4326
2.15685e+06,0,0,0,868,3524
2.15685e+06,0,0,0,368,4024
2.15685e+06,0,0,0,112,4280
2.1641e+06,0,0,0,368,4024
2.16756e+06,0,0,0,1368,3024
2.16757e+06,0,0,0,344,4048
2.16772e+06,0,0,0,844,3548
2.17304e+06,0,0,0,1868,2524
2.17304e+06,0,0,0,844,3548
2.1785e+06,0,0,0,1868,2524
2.17851e+06,0,0,0,844,3548
2.17851e+06,0,0,0,444,3948
2.17851e+06,0,0,0,44,4348
2.17859e+06,0,0,0,544,3848
2.17859e+06,0,0,0,416,3976
2.17859e+06,0,0,0,160,4232
2.18395e+06,0,0,0,1184,3208
2.18395e+06,0,0,0,684,3708
2.18395e+06,0,0,0,184,4208
2.18942e+06,0,0,0,312,4080
2.1914e+06,0,0,0,568,3824
2.19141e+06,0,0,0,68,4324
2.19615e+06,0,0,0,1068,3324
2.19615e+06,0,0,0,44,4348
2.20216e+06,0,0,0,544,3848
2.20258e+06,0,0,0,944,3448
2.21093e+06,0,0,0,1344,3048
2.2125e+06,0,0,0,2368,2024
2.21638e+06,0,0,0,2868,1524
2.21638e+06,0,0,0,3368,1024
2.22166e+06,0,0,0,4392,0
2.22166e+06,0,0,0,40,4352
2.29857e+06,0,0,0,4392,0
2.29857e+06,0,0,0,3280,1112
2.29857e+06,0,0,0,2780,1612
2.29857e+06,0,0,0,2280,2112
2.29857e+06,0,0,0,1256,3136
2.29857e+06,0,0,0,256,4136
2.29857e+06,0,0,0,110,4282
2.30459e+06,0,0,0,256,4136
2.31313e+06,0,0,0,128,4264
2.31483e+06,0,0,0,1152,3240
2.31483e+06,0,0,0,152,4240
2.315e+06,0,0,0,24,4368
2.31816e+06,0,0,0,152,4240
2.32023e+06,0,0,0,1152,3240
2.32023e+06,0,0,0,350,4042
2.32079e+06,0,0,0,222,4170
2.32587e+06,0,0,0,350,4042
2.32947e+06,0,0,0,94,4298
2.33044e+06,0,0,0,896,3496
2.33044e+06,0,0,0,94,4298
2.33104e+06,0,0,0,594,3798
2.33104e+06,0,0,0,94,4298
2.33104e+06,0,0,0,594,3798
2.33105e+06,0,0,0,338,4054
2.33172e+06,0,0,0,466,3926
2.33728e+06,0,0,0,722,3670
2.34136e+06,0,0,0,1524,2868
2.34137e+06,0,0,0,722,3670
2.3418e+06,0,0,0,1222,3170
2.34181e+06,0,0,0,222,4170
2.34513e+06,0,0,0,478,3914
2.34538e+06,0,0,0,94,4298
2.35176e+06,0,0,0,896,3496
2.35176e+06,0,0,0,512,3880
2.35321e+06,0,0,0,368,4024
2.35329e+06,0,0,0,224,4168
2.3533e+06,0,0,0,80,4312
2.36064e+06,0,0,0,224,4168
2.36065e+06,0,0,0,80,4312
2.36067e+06,0,0,0,224,4168
2.36067e+06,0,0,0,80,4312
2.36069e+06,0,0,0,224,4168
2.3607e+06,0,0,0,80,4312
2.36346e+06,0,0,0,1080,3312
2.36346e+06,0,0,0,936,3456
2.36346e+06,0,0,0,552,3840
2.36511e+06,0,0,0,1552,2840
2.3654e+06,0,0,0,1936,2456
2.36707e+06,0,0,0,2320,2072
2.368e+06,0,0,0,2464,1928
2.36801e+06,0,0,0,2608,1784
2.36805e+06,0,0,0,2752,1640
2.37089e+06,0,0,0,2896,1496
2.37711e+06,0,0,0,3280,1112
2.37712e+06,0,0,0,100,4292
2.38441e+06,0,0,0,3280,1112
2.3851e+06,0,0,0,4392,0
2.38511e+06,0,0,0,40,4352
2.45688e+06,0,0,0,4392,0
2.45689e+06,0,0,0,40,4352
2.45689e+06,0,0,0,32,4360
2.46836e+06,0,0,0,40,4352
2.48463e+06,0,0,0,32,4360
2.49156e+06,0,0,0,40,4352
2.49195e+06,0,0,0,32,4360
2.49918e+06,0,0,0,40,4352
2.50098e+06,0,0,0,4392,0
2.50098e+06,0,0,0,3392,1000
2.50098e+06,0,0,0,2392,2000
2.50098e+06,0,0,0,2264,2128
2.50098e+06,0,0,0,2136,2256
2.50098e+06,0,0,0,2008,2384
2.50098e+06,0,0,0,1752,2640
2.50098e+06,0,0,0,1624,2768
2.50098e+06,0,0,0,1496,2896
2.50098e+06,0,0,0,1240,3152
2.50098e+06,0,0,0,984,3408
2.50098e+06,0,0,0,856,3536
2.50098e+06,0,0,0,680,3712
2.50098e+06,0,0,0,552,3840
2.50098e+06,0,0,0,407,3985
2.50098e+06,0,0,0,151,4241
2.50098e+06,0,0,0,23,4369
2.50098e+06,0,0,0,15,4377
2.50639e+06,0,0,0,143,4249
2.50639e+06,0,0,0,15,4377
2.50674e+06,0,0,0,23,4369
2.50706e+06,0,0,0,279,4113
2.50706e+06,0,0,0,23,4369
2.50787e+06,0,0,0,168,4224
2.50787e+06,0,0,0,40,4352
2.50823e+06,0,0,0,168,4224
2.50824e+06,0,0,0,40,4352
2.50827e+06,0,0,0,216,4176
2.50828e+06,0,0,0,88,4304
2.51004e+06,0,0,0,216,4176
2.51004e+06,0,0,0,88,4304
2.5102e+06,0,0,0,216,4176
2.5102e+06,0,0,0,88,4304
2.51175e+06,0,0,0,216,4176
2.51175e+06,0,0,0,88,4304
2.51175e+06,0,0,0,216,4176
2.51176e+06,0,0,0,88,4304
2.51182e+06,0,0,0,216,4176
2.51182e+06,0,0,0,88,4304
2.51185e+06,0,0,0,216,4176
2.51185e+06,0,0,0,72,4320
2.51293e+06,0,0,0,200,4192
2.51293e+06,0,0,0,56,4336
2.51548e+06,0,0,0,184,4208
2.51548e+06,0,0,0,40,4352
2.51553e+06,0,0,0,168,4224
2.51553e+06,0,0,0,24,4368
2.51731e+06,0,0,0,152,4240
2.51732e+06,0,0,0,8,4384
2.51751e+06,0,0,0,136,4256
2.51863e+06,0,0,0,264,4128
2.51863e+06,0,0,0,8,4384
2.51906e+06,0,0,0,136,4256
2.51916e+06,0,0,0,280,4112
2.51916e+06,0,0,0,24,4368
2.52035e+06,0,0,0,168,4224
2.52149e+06,0,0,0,296,4096
2.52149e+06,0,0,0,40,4352
2.52222e+06,0,0,0,296,4096
2.52222e+06,0,0,0,40,4352
2.52255e+06,0,0,0,296,4096
2.52255e+06,0,0,0,40,4352
2.52261e+06,0,0,0,296,4096
2.52261e+06,0,0,0,40,4352
2.52267e+06,0,0,0,168,4224
2.52269e+06,0,0,0,424,3968
2.5227e+06,0,0,0,168,4224
2.52277e+06,0,0,0,312,4080
2.52277e+06,0,0,0,56,4336
2.52285e+06,0,0,0,200,4192
2.52478e+06,0,0,0,344,4048
2.52479e+06,0,0,0,88,4304
2.52849e+06,0,0,0,344,4048
2.52862e+06,0,0,0,600,3792
2.52862e+06,0,0,0,88,4304
2.53251e+06,0,0,0,344,4048
2.53252e+06,0,0,0,216,4176
2.53252e+06,0,0,0,88,4304
2.53383e+06,0,0,0,344,4048
2.53383e+06,0,0,0,216,4176
2.53383e+06,0,0,0,88,4304
2.5353e+06,0,0,0,344,4048
2.5353e+06,0,0,0,216,4176
2.5353e+06,0,0,0,88,4304
2.54238e+06,0,0,0,216,4176
2.54284e+06,0,0,0,344,4048
2.54309e+06,0,0,0,856,3536
2.54309e+06,0,0,0,344,4048
2.54315e+06,0,0,0,600,3792
2.54379e+06,0,0,0,856,3536
2.54408e+06,0,0,0,1112,3280
2.54409e+06,0,0,0,112,4280
2.54424e+06,0,0,0,240,4152
2.54449e+06,0,0,0,368,4024
2.54495e+06,0,0,0,496,3896
2.5456e+06,0,0,0,624,3768
2.54575e+06,0,0,0,368,4024
2.54642e+06,0,0,0,624,3768
2.55125e+06,0,0,0,1624,2768
2.56123e+06,0,0,0,1880,2512
2.56574e+06,0,0,0,2880,1512
2.56852e+06,0,0,0,2078,2314
2.56946e+06,0,0,0,1566,2826
2.57333e+06,0,0,0,1438,2954
2.57553e+06,0,0,0,1950,2442
2.57698e+06,0,0,0,1822,2570
2.57936e+06,0,0,0,2624,1768
2.5828e+06,0,0,0,2752,1640
2.58282e+06,0,0,0,2880,1512
2.584e+06,0,0,0,3392,1000
2.58674e+06,0,0,0,4392,0
2.58674e+06,0,0,0,40,4352
2.59759e+06,0,0,0,4392,0
2.59759e+06,0,0,0,40,4352
2.68275e+06,0,0,0,4392,0
2.68275e+06,0,0,0,40,4352
2.68841e+06,0,0,0,4392,0
2.68842e+06,0,0,0,40,4352
2.69928e+06,0,0,0,4392,0
2.69928e+06,0,0,0,4143,249
2.69928e+06,0,0,0,3894,498
2.69928e+06,0,0,0,2894,1498
2.69928e+06,0,0,0,2092,2300
2.69928e+06,0,0,0,1092,3300
2.69928e+06,0,0,0,836,3556
2.69928e+06,0,0,0,708,3684
2.69928e+06,0,0,0,452,3940
2.69928e+06,0,0,0,196,4196
2.69928e+06,0,0,0,68,4324
2.70474e+06,0,0,0,196,4196
2.70474e+06,0,0,0,68,4324
2.7053e+06,0,0,0,324,4068
2.70531e+06,0,0,0,196,4196
2.70531e+06,0,0,0,68,4324
2.70534e+06,0,0,0,324,4068
2.70534e+06,0,0,0,196,4196
2.70534e+06,0,0,0,68,4324
2.7084e+06,0,0,0,196,4196
2.71537e+06,0,0,0,324,4068
2.71547e+06,0,0,0,452,3940
2.71547e+06,0,0,0,580,3812
2.71582e+06,0,0,0,708,3684
2.71582e+06,0,0,0,836,3556
2.71735e+06,0,0,0,1092,3300
2.71735e+06,0,0,0,68,4324
2.72312e+06,0,0,0,1092,3300
2.72313e+06,0,0,0,692,3700
2.72313e+06,0,0,0,436,3956
2.72313e+06,0,0,0,180,4212
2.72313e+06,0,0,0,52,4340
2.73351e+06,0,0,0,180,4212
2.73351e+06,0,0,0,52,4340
2.73833e+06,0,0,0,308,4084
2.74097e+06,0,0,0,164,4228
2.74334e+06,0,0,0,292,4100
2.74482e+06,0,0,0,548,3844
2.74643e+06,0,0,0,692,3700
2.74733e+06,0,0,0,1092,3300
2.74733e+06,0,0,0,242,4150
2.74733e+06,0,0,0,114,4278
2.75816e+06,0,0,0,242,4150
2.76205e+06,0,0,0,1242,3150
2.76205e+06,0,0,0,986,3406
2.76205e+06,0,0,0,730,3662
2.76205e+06,0,0,0,474,3918
2.76205e+06,0,0,0,223,4169
2.76205e+06,0,0,0,87,4305
2.7726e+06,0,0,0,223,4169
2.7726e+06,0,0,0,95,4297
2.77653e+06,0,0,0,351,4041
2.77654e+06,0,0,0,205,4187
2.77702e+06,0,0,0,461,3931
2.77815e+06,0,0,0,717,3675
2.78254e+06,0,0,0,863,3529
2.78347e+06,0,0,0,991,3401
2.78503e+06,0,0,0,1991,2401
2.78504e+06,0,0,0,967,3425
2.78504e+06,0,0,0,711,3681
2.78504e+06,0,0,0,455,3937
2.78586e+06,0,0,0,1257,3135
2.78586e+06,0,0,0,407,3985
2.79078e+06,0,0,0,1431,2961
2.79078e+06,0,0,0,431,3961
2.79078e+06,0,0,0,303,4089
2.79078e+06,0,0,0,175,4217
2.79078e+06,0,0,0,47,4345
2.79094e+06,0,0,0,296,4096
2.79094e+06,0,0,0,168,4224
2.79094e+06,0,0,0,40,4352
2.79985e+06,0,0,0,296,4096
2.80105e+06,0,0,0,424,3968
2.80136e+06,0,0,0,552,3840
2.8014e+06,0,0,0,680,3712
2.80148e+06,0,0,0,808,3584
2.80151e+06,0,0,0,936,3456
2.80166e+06,0,0,0,1936,2456
2.80166e+06,0,0,0,936,3456
2.80674e+06,0,0,0,1192,3200
2.80674e+06,0,0,0,192,4200
2.81256e+06,0,0,0,1192,3200
2.81256e+06,0,0,0,192,4200
2.81763e+06,0,0,0,1192,3200
2.81763e+06,0,0,0,192,4200
2.82061e+06,0,0,0,441,3951
2.82338e+06,0,0,0,1441,2951
2.82338e+06,0,0,0,441,3951
2.82849e+06,0,0,0,1441,2951
2.82849e+06,0,0,0,691,3701
2.83016e+06,0,0,0,1541,2851
2.83017e+06,0,0,0,791,3601
2.83017e+06,0,0,0,41,4351
2.83427e+06,0,0,0,1041,3351
2.83427e+06,0,0,0,913,3479
2.83427e+06,0,0,0,785,3607
2.83427e+06,0,0,0,657,3735
2.83427e+06,0,0,0,401,3991
2.83427e+06,0,0,0,145,4247
2.83943e+06,0,0,0,895,3497
2.83943e+06,0,0,0,639,3753
2.83943e+06,0,0,0,383,4009
2.83943e+06,0,0,0,127,4265
2.8411e+06,0,0,0,877,3515
2.84111e+06,0,0,0,621,3771
2.84111e+06,0,0,0,365,4027
2.84111e+06,0,0,0,109,4283
2.84114e+06,0,0,0,859,3533
2.84115e+06,0,0,0,603,3789
2.84115e+06,0,0,0,347,4045
2.84115e+06,0,0,0,91,4301
2.84337e+06,0,0,0,219,4173
2.84469e+06,0,0,0,347,4045
2.84469e+06,0,0,0,91,4301
2.84499e+06,0,0,0,219,4173
2.84514e+06,0,0,0,475,3917
2.84515e+06,0,0,0,731,3661
2.84515e+06,0,0,0,231,4161
2.85032e+06,0,0,0,487,3905
2.85035e+06,0,0,0,743,3649
2.85035e+06,0,0,0,243,4149
2.85037e+06,0,0,0,499,3893
2.85193e+06,0,0,0,755,3637
2.85193e+06,0,0,0,255,4137
2.85194e+06,0,0,0,511,3881
2.85195e+06,0,0,0,11,4381
2.85204e+06,0,0,0,267,4125
2.85207e+06,0,0,0,523,3869
2.85207e+06,0,0,0,23,4369
2.85208e+06,0,0,0,279,4113
2.85209e+06,0,0,0,535,3857
2.85209e+06,0,0,0,35,4357
2.85555e+06,0,0,0,291,4101
2.85556e+06,0,0,0,163,4229
2.85556e+06,0,0,0,35,4357
2.85603e+06,0,0,0,535,3857
2.85603e+06,0,0,0,407,3985
2.85603e+06,0,0,0,279,4113
2.85603e+06,0,0,0,30,4362
2.86125e+06,0,0,0,530,3862
2.86126e+06,0,0,0,274,4118
2.86283e+06,0,0,0,774,3618
2.86286e+06,0,0,0,1274,3118
2.86286e+06,0,0,0,258,4134
2.86286e+06,0,0,0,242,4150
2.86295e+06,0,0,0,742,3650
2.86295e+06,0,0,0,493,3899
2.86297e+06,0,0,0,993,3399
2.86646e+06,0,0,0,1121,3271
2.86649e+06,0,0,0,1249,3143
2.86679e+06,0,0,0,1377,3015
2.86689e+06,0,0,0,1505,2887
2.86837e+06,0,0,0,2355,2037
2.86837e+06,0,0,0,307,4085
2.86837e+06,0,0,0,303,4089
2.86865e+06,0,0,0,319,4073
2.87099e+06,0,0,0,175,4217
2.87641e+06,0,0,0,319,4073
2.88168e+06,0,0,0,575,3817
2.88994e+06,0,0,0,579,3813
2.89178e+06,0,0,0,830,3562
2.90235e+06,0,0,0,1079,3313
2.90235e+06,0,0,0,229,4163
2.90235e+06,0,0,0,85,4307
2.90783e+06,0,0,0,229,4163
2.90917e+06,0,0,0,478,3914
2.90917e+06,0,0,0,78,4314
2.94166e+06,0,0,0,478,3914
2.94944e+06,0,0,0,1494,2898
2.94945e+06,0,0,0,982,3410
2.94945e+06,0,0,0,598,3794
2.95359e+06,0,0,0,2646,1746
2.9536e+06,0,0,0,1646,2746
2.96427e+06,0,0,0,1518,2874
2.96452e+06,0,0,0,1390,3002
2.96471e+06,0,0,0,1262,3130
2.96491e+06,0,0,0,1134,3258
2.96651e+06,0,0,0,1646,2746
2.96706e+06,0,0,0,1518,2874
2.96709e+06,0,0,0,1390,3002
2.96709e+06,0,0,0,1262,3130
2.9671e+06,0,0,0,1134,3258
2.9679e+06,0,0,0,1006,3386
2.97331e+06,0,0,0,1134,3258
2.97351e+06,0,0,0,1262,3130
2.97391e+06,0,0,0,1390,3002
2.97402e+06,0,0,0,1518,2874
2.97709e+06,0,0,0,1646,2746
2.97793e+06,0,0,0,1774,2618
2.97795e+06,0,0,0,1902,2490
2.97797e+06,0,0,0,2030,2362
2.97804e+06,0,0,0,2158,2234
2.98316e+06,0,0,0,2542,1850
2.98466e+06,0,0,0,3392,1000
2.98753e+06,0,0,0,3200,1192
2.99739e+06,0,0,0,3072,1320
2.99742e+06,0,0,0,2944,1448
2.99743e+06,0,0,0,2816,1576
2.99744e+06,0,0,0,2688,1704
2.99744e+06,0,0,0,2560,1832
2.99745e+06,0,0,0,2432,1960
2.9983e+06,0,0,0,2624,1768
3.00024e+06,0,0,0,2496,1896
3.00031e+06,0,0,0,2368,2024
3.00269e+06,0,0,0,2117,2275
3.00536e+06,0,0,0,1861,2531
3.00539e+06,0,0,0,1605,2787
3.00752e+06,0,0,0,1733,2659
3.00765e+06,0,0,0,1861,2531
3.00771e+06,0,0,0,1989,2403
3.00786e+06,0,0,0,2117,2275
3.00808e+06,0,0,0,2245,2147
3.00812e+06,0,0,0,2373,2019
3.00822e+06,0,0,0,2245,2147
3.00839e+06,0,0,0,2117,2275
3.0101e+06,0,0,0,1267,3125
3.0101e+06,0,0,0,417,3975
3.01098e+06,0,0,0,545,3847
3.01112e+06,0,0,0,673,3719
3.01136e+06,0,0,0,929,3463
3.01137e+06,0,0,0,79,4313
3.01142e+06,0,0,0,335,4057
3.01545e+06,0,0,0,463,3929
3.0192e+06,0,0,0,591,3801
3.02e+06,0,0,0,842,3550
3.03934e+06,0,0,0,1842,2550
3.03934e+06,0,0,0,992,3400
3.03934e+06,0,0,0,142,4250
3.04311e+06,0,0,0,992,3400
3.04311e+06,0,0,0,142,4250
3.05485e+06,0,0,0,14,4378
3.06563e+06,0,0,0,142,4250
3.0814e+06,0,0,0,14,4378
3.0922e+06,0,0,0,142,4250
3.09293e+06,0,0,0,992,3400
3.09294e+06,0,0,0,142,4250
3.09483e+06,0,0,0,992,3400
3.09484e+06,0,0,0,142,4250
3.09484e+06,0,0,0,14,4378
3.10562e+06,0,0,0,142,4250
3.10563e+06,0,0,0,14,4378
3.11645e+06,0,0,0,142,4250
3.12206e+06,0,0,0,992,3400
3.12206e+06,0,0,0,142,4250
3.12321e+06,0,0,0,992,3400
3.12322e+06,0,0,0,117,4275
3.12637e+06,0,0,0,967,3425
3.12637e+06,0,0,0,467,3925
3.12637e+06,0,0,0,216,4176
3.12637e+06,0,0,0,88,4304
3.13313e+06,0,0,0,216,4176
3.13313e+06,0,0,0,88,4304
3.1439e+06,0,0,0,216,4176
3.15618e+06,0,0,0,467,3925
3.1588e+06,0,0,0,967,3425
3.1588e+06,0,0,0,467,3925
3.17573e+06,0,0,0,1317,3075
3.17574e+06,0,0,0,817,3575
3.17574e+06,0,0,0,317,4075
3.1779e+06,0,0,0,1167,3225
3.1779e+06,0,0,0,667,3725
3.1779e+06,0,0,0,167,4225
3.19124e+06,0,0,0,667,3725
3.19124e+06,0,0,0,167,4225
3.20397e+06,0,0,0,1042,3350
3.20397e+06,0,0,0,542,3850
3.20397e+06,0,0,0,42,4350
3.20575e+06,0,0,0,892,3500
3.20575e+06,0,0,0,142,4250
3.20817e+06,0,0,0,642,3750
3.20824e+06,0,0,0,1142,3250
3.20824e+06,0,0,0,392,4000
3.21045e+06,0,0,0,892,3500
3.21045e+06,0,0,0,142,4250
3.21051e+06,0,0,0,642,3750
3.22378e+06,0,0,0,1142,3250
3.22379e+06,0,0,0,392,4000
3.23643e+06,0,0,0,892,3500
3.23643e+06,0,0,0,142,4250
3.23645e+06,0,0,0,642,3750
3.24904e+06,0,0,0,1392,3000
3.24905e+06,0,0,0,642,3750
3.25157e+06,0,0,0,1392,3000
3.25372e+06,0,0,0,2142,2250
3.25373e+06,0,0,0,94,4298
3.26706e+06,0,0,0,844,3548
3.26706e+06,0,0,0,144,4248
3.2797e+06,0,0,0,894,3498
3.28531e+06,0,0,0,1594,2798
3.2923e+06,0,0,0,2344,2048
3.2923e+06,0,0,0,296,4096
3.2923e+06,0,0,0,47,4345
3.3388e+06,0,0,0,2095,2297
3.3388e+06,0,0,0,1293,3099
3.3388e+06,0,0,0,491,3901
3.34309e+06,0,0,0,740,3652
3.34309e+06,0,0,0,228,4164
3.36049e+06,0,0,0,1030,3362
3.37324e+06,0,0,0,1542,2850
3.3789e+06,0,0,0,3590,802
3.42537e+06,0,0,0,4392,0
