job_id,workload_name,profile,submission_time,requested_number_of_resources,requested_time,success,final_state,starting_time,execution_time,finish_time,waiting_time,turnaround_time,stretch,allocated_resources,consumed_energy,metadata
14_0_1,w0,profile_14,0.000000,512,28800.000000,1,COMPLETED_SUCCESSFULLY,0.005400,23245.000000,23245.005400,0.005400,23245.005400,1.000000,2157-2668,-1.000000,""
15_0_1,w0,profile_15,0.000000,249,43200.000000,1,COMPLETED_SUCCESSFULLY,0.006000,23832.000000,23832.006000,0.006000,23832.006000,1.000000,2669-2917,-1.000000,""
1_0_1,w0,profile_1,0.000000,249,43200.000000,1,COMPLETED_SUCCESSFULLY,0.009000,24676.000000,24676.009000,0.009000,24676.009000,1.000000,3928-4176,-1.000000,""
0_0_1,w0,profile_0,0.000000,1,36001.000000,1,COMPLETED_SUCCESSFULLY,0.002400,36000.000000,36000.002400,0.002400,36000.002400,1.000000,0,-1.000000,""
17_0_1,w0,profile_17,0.000000,249,72000.000000,1,COMPLETED_SUCCESSFULLY,0.007200,43240.000000,43240.007200,0.007200,43240.007200,1.000000,3167-3415,-1.000000,""
11_0_1,w0,profile_11,0.000000,640,43247.000000,1,COMPLETED_SUCCESSFULLY,0.003600,43246.000000,43246.003600,0.003600,43246.003600,1.000000,641-1280,-1.000000,""
10_0_1,w0,profile_10,0.000000,640,43333.000000,1,COMPLETED_SUCCESSFULLY,0.003000,43332.000000,43332.003000,0.003000,43332.003000,1.000000,1-640,-1.000000,""
33_0_1,w0,profile_33,0.000000,256,21668.000000,1,COMPLETED_SUCCESSFULLY,43335.005250,21667.000000,65002.005250,43335.005250,65002.005250,3.000046,513-640 1153-1280,-1.000000,""
30_0_1,w0,profile_30,0.000000,512,32400.000000,1,COMPLETED_SUCCESSFULLY,43335.004650,30746.000000,74081.004650,43335.004650,74081.004650,2.409452,1-512,-1.000000,""
23_0_1,w0,profile_23,0.000000,512,32429.000000,1,COMPLETED_SUCCESSFULLY,43249.005250,32428.000000,75677.005250,43249.005250,75677.005250,2.333693,641-1152,-1.000000,""
13_0_1,w0,profile_13,0.000000,875,86400.000000,1,COMPLETED_SUCCESSFULLY,0.004800,78420.000000,78420.004800,0.004800,78420.004800,1.000000,1282-2156,-1.000000,""
19_0_1,w0,profile_19,0.000000,256,86400.000000,1,COMPLETED_SUCCESSFULLY,0.008400,81347.000000,81347.008400,0.008400,81347.008400,1.000000,3672-3927,-1.000000,""
12_0_1,w0,profile_12,0.000000,1,86582.000000,1,COMPLETED_SUCCESSFULLY,0.004200,86581.000000,86581.004200,0.004200,86581.004200,1.000000,1281,-1.000000,""
18_0_1,w0,profile_18,0.000000,256,87853.000000,1,COMPLETED_SUCCESSFULLY,0.007800,87852.000000,87852.007800,0.007800,87852.007800,1.000000,3416-3671,-1.000000,""
21_0_1,w0,profile_21,0.000000,256,86400.000000,1,COMPLETED_SUCCESSFULLY,23248.007650,72898.000000,96146.007650,23248.007650,96146.007650,1.318911,2413-2668,-1.000000,""
34_0_1,w0,profile_34,0.000000,256,21756.000000,1,COMPLETED_SUCCESSFULLY,81350.010050,21755.000000,103105.010050,81350.010050,103105.010050,4.739371,2050-2156 3672-3820,-1.000000,""
38_0_1,w0,profile_38,0.000000,256,21655.000000,1,COMPLETED_SUCCESSFULLY,87855.009450,21654.000000,109509.009450,87855.009450,109509.009450,5.057219,1281 3416-3670,-1.000000,""
20_0_1,w0,profile_20,0.000000,256,86568.000000,1,COMPLETED_SUCCESSFULLY,23248.007050,86567.000000,109815.007050,23248.007050,109815.007050,1.268555,2157-2412,-1.000000,""
16_0_1,w0,profile_16,0.000000,249,129793.000000,1,COMPLETED_SUCCESSFULLY,0.006600,129792.000000,129792.006600,0.006600,129792.006600,1.000000,2918-3166,-1.000000,""
22_0_1,w0,profile_22,0.000000,840,86857.000000,1,COMPLETED_SUCCESSFULLY,43243.008850,86856.000000,130099.008850,43243.008850,130099.008850,1.497870,0 2669-2917 3167-3415 3928-4268,-1.000000,""
26_0_1,w0,profile_26,0.000000,1,86400.000000,1,COMPLETED_SUCCESSFULLY,109512.011700,35369.000000,144881.011700,109512.011700,144881.011700,4.096271,3927,-1.000000,""
28_0_1,w0,profile_28,0.000000,249,57600.000000,1,COMPLETED_SUCCESSFULLY,109818.008700,53358.000000,163176.008700,109818.008700,163176.008700,3.058136,2157-2405,-1.000000,""
24_0_1,w0,profile_24,0.000000,2048,86545.000000,1,COMPLETED_SUCCESSFULLY,78423.006450,86544.000000,164967.006450,78423.006450,164967.006450,1.906163,1-1280 1282-2049,-1.000000,""
25_0_1,w0,profile_25,0.000000,875,86400.000000,1,COMPLETED_SUCCESSFULLY,109512.011100,76816.000000,186328.011100,109512.011100,186328.011100,2.425641,1281 2050-2156 2413-2668 3416-3926,-1.000000,""
32_0_1,w0,profile_32,0.000000,1,86400.000000,1,COMPLETED_SUCCESSFULLY,164970.009300,22913.000000,187883.009300,164970.009300,187883.009300,8.199843,1153,-1.000000,""
29_0_1,w0,profile_29,0.000000,1024,86400.000000,1,COMPLETED_SUCCESSFULLY,130102.010500,62794.000000,192896.010500,130102.010500,192896.010500,3.071886,0 2406-2412 2669-3415 3928-4196,-1.000000,""
27_0_1,w0,profile_27,0.000000,1,86400.000000,1,COMPLETED_SUCCESSFULLY,109512.012300,85831.000000,195343.012300,109512.012300,195343.012300,2.275903,4269,-1.000000,""
31_0_1,w0,profile_31,0.000000,512,32400.000000,1,COMPLETED_SUCCESSFULLY,164970.008700,30693.000000,195663.008700,164970.008700,195663.008700,6.374841,641-1152,-1.000000,""
36_0_1,w0,profile_36,0.000000,802,32593.000000,1,COMPLETED_SUCCESSFULLY,164970.010500,32592.000000,197562.010500,164970.010500,197562.010500,6.061672,1404-2049 2157-2312,-1.000000,""
2_0_1,w0,profile_2,0.000000,640,43360.000000,1,COMPLETED_SUCCESSFULLY,164970.008100,43359.000000,208329.008100,164970.008100,208329.008100,4.804747,1-640,-1.000000,""
35_0_1,w0,profile_35,0.000000,249,72000.000000,1,COMPLETED_SUCCESSFULLY,164970.009900,46144.000000,211114.009900,164970.009900,211114.009900,4.575113,1154-1280 1282-1403,-1.000000,""
37_0_1,w0,profile_37,0.000000,802,32518.000000,1,COMPLETED_SUCCESSFULLY,186331.012750,32517.000000,218848.012750,186331.012750,218848.012750,6.730265,1281 2050-2156 2313-2405 2413-2668 3416-3760,-1.000000,""
4_0_1,w0,profile_4,0.000000,640,43331.000000,1,COMPLETED_SUCCESSFULLY,192899.012750,43330.000000,236229.012750,192899.012750,236229.012750,5.451858,3300-3415 3761-4268 4270-4285,-1.000000,""
3_0_1,w0,profile_3,0.000000,640,46008.000000,1,COMPLETED_SUCCESSFULLY,192899.012150,46007.000000,238906.012150,192899.012150,238906.012150,5.192819,0 1153 2406-2412 2669-3299,-1.000000,""
6_0_1,w0,profile_6,0.000000,640,43365.000000,1,COMPLETED_SUCCESSFULLY,197565.012750,43364.000000,240929.012750,197565.012750,240929.012750,5.555968,1532-2049 2157-2278,-1.000000,""
5_0_1,w0,profile_5,0.000000,640,44699.000000,1,COMPLETED_SUCCESSFULLY,197565.012150,44698.000000,242263.012150,197565.012150,242263.012150,5.419997,641-1152 1404-1531,-1.000000,""
7_0_1,w0,profile_7,0.000000,640,43387.000000,1,COMPLETED_SUCCESSFULLY,208332.009750,43386.000000,251718.009750,208332.009750,251718.009750,5.801826,1-640,-1.000000,""
8_0_1,w0,profile_8,0.000000,640,43297.000000,1,COMPLETED_SUCCESSFULLY,218851.014400,43296.000000,262147.014400,218851.014400,262147.014400,6.054763,1154-1403 2050-2156 2279-2405 2413-2568,-1.000000,""
45_0_1,w0,profile_45,177558.000000,256,21724.000000,1,COMPLETED_SUCCESSFULLY,240932.015600,21723.000000,262655.015600,63374.015600,85097.015600,3.917369,2030-2049 2157-2278 4225-4338,-1.000000,""
47_0_1,w0,profile_47,177561.000000,256,21668.000000,1,COMPLETED_SUCCESSFULLY,242266.014400,21667.000000,263933.014400,64705.014400,86372.014400,3.986339,897-1152,-1.000000,""
41_0_1,w0,profile_41,43746.000000,249,36000.000000,1,COMPLETED_SUCCESSFULLY,240932.014400,23022.000000,263954.014400,197186.014400,220208.014400,9.565112,1532-1780,-1.000000,""
46_0_1,w0,profile_46,177560.000000,256,21929.000000,1,COMPLETED_SUCCESSFULLY,242266.013800,21928.000000,264194.013800,64706.013800,86634.013800,3.950840,641-896,-1.000000,""
43_0_1,w0,profile_43,173130.000000,802,21651.000000,1,COMPLETED_SUCCESSFULLY,251721.011400,21650.000000,273371.011400,78591.011400,100241.011400,4.630070,1-640 1404-1531 4339-4372,-1.000000,""
9_0_1,w0,profile_9,0.000000,640,43320.000000,1,COMPLETED_SUCCESSFULLY,236232.014400,43319.000000,279551.014400,236232.014400,279551.014400,6.453312,2569-2668 3300-3839,-1.000000,""
49_0_1,w0,profile_49,177564.000000,256,21650.000000,1,COMPLETED_SUCCESSFULLY,262150.016650,21649.000000,283799.016650,84586.016650,106235.016650,4.907156,2056-2156 2279-2405 2413-2440,-1.000000,""
48_0_1,w0,profile_48,177562.000000,256,21699.000000,1,COMPLETED_SUCCESSFULLY,262150.016050,21698.000000,283848.016050,84588.016050,106286.016050,4.898425,1154-1403 2050-2055,-1.000000,""
50_0_1,w0,profile_50,177565.000000,256,21644.000000,1,COMPLETED_SUCCESSFULLY,262658.017250,21643.000000,284301.017250,85093.017250,106736.017250,4.931665,2030-2049 2157-2278 2441-2554,-1.000000,""
51_0_1,w0,profile_51,177566.000000,256,21655.000000,1,COMPLETED_SUCCESSFULLY,263936.016050,21654.000000,285590.016050,86370.016050,108024.016050,4.988640,897-1152,-1.000000,""
52_0_1,w0,profile_52,177567.000000,256,21729.000000,1,COMPLETED_SUCCESSFULLY,263957.016050,21728.000000,285685.016050,86390.016050,108118.016050,4.975976,1532-1780 2555-2561,-1.000000,""
53_0_1,w0,profile_53,177577.000000,256,21672.000000,1,COMPLETED_SUCCESSFULLY,264197.015450,21671.000000,285868.015450,86620.015450,108291.015450,4.997047,641-896,-1.000000,""
54_0_1,w0,profile_54,177578.000000,256,21742.000000,1,COMPLETED_SUCCESSFULLY,273374.013050,21741.000000,295115.013050,95796.013050,117537.013050,5.406238,1-256,-1.000000,""
39_0_1,w0,profile_39,11966.000000,1024,86400.000000,1,COMPLETED_SUCCESSFULLY,238909.013800,56850.000000,295759.013800,226943.013800,283793.013800,4.991962,0 1153 2406-2412 2669-3299 3840-4223,-1.000000,""
55_0_1,w0,profile_55,178855.000000,512,32400.000000,1,COMPLETED_SUCCESSFULLY,273374.013650,22898.000000,296272.013650,94519.013650,117417.013650,5.127828,257-640 1404-1531,-1.000000,""
42_0_1,w0,profile_42,80948.000000,249,57691.000000,1,COMPLETED_SUCCESSFULLY,240932.015000,57690.000000,298622.015000,159984.015000,217674.015000,3.773167,1781-2029,-1.000000,""
71_0_1,w0,profile_71,275087.000000,384,21637.000000,1,COMPLETED_SUCCESSFULLY,284304.018900,21636.000000,305940.018900,9217.018900,30853.018900,1.426004,1154-1403 2030-2055 2157-2264,-1.000000,""
72_0_1,w0,profile_72,275440.000000,384,21743.000000,1,COMPLETED_SUCCESSFULLY,285593.017700,21742.000000,307335.017700,10153.017700,31895.017700,1.466977,897-1152 2265-2278 2441-2554,-1.000000,""
68_0_1,w0,profile_68,216154.000000,512,32400.000000,1,COMPLETED_SUCCESSFULLY,279554.016050,31402.000000,310956.016050,63400.016050,94802.016050,3.018980,2562-2668 3300-3704,-1.000000,""
69_0_1,w0,profile_69,216168.000000,512,32400.000000,1,COMPLETED_SUCCESSFULLY,283802.018300,31398.000000,315200.018300,67634.018300,99032.018300,3.154087,2056-2156 2279-2405 2413-2440 3705-3839 4225-4345,-1.000000,""
44_0_1,w0,profile_44,176512.000000,1,86400.000000,1,COMPLETED_SUCCESSFULLY,238909.014400,79786.000000,318695.014400,62397.014400,142183.014400,1.782055,4224,-1.000000,""
65_0_1,w0,profile_65,200097.000000,249,72000.000000,1,COMPLETED_SUCCESSFULLY,315203.020550,58947.000000,374150.020550,115106.020550,174053.020550,2.952704,4096-4223 4225-4345,-1.000000,""
70_0_1,w0,profile_70,271901.000000,1,86400.000000,1,COMPLETED_SUCCESSFULLY,315203.021150,70552.000000,385755.021150,43302.021150,113854.021150,1.613760,4346,-1.000000,""
40_0_1,w0,profile_40,12821.000000,4096,86557.000000,1,COMPLETED_SUCCESSFULLY,315203.019950,86556.000000,401759.019950,302382.019950,388938.019950,4.493484,0-4095,-1.000000,""
82_0_1,w0,profile_82,397601.000000,17,21600.000000,1,COMPLETED_SUCCESSFULLY,401762.025200,21538.000000,423300.025200,4161.025200,25699.025200,1.193195,4096-4112,-1.000000,""
81_0_1,w0,profile_81,396887.000000,256,21651.000000,1,COMPLETED_SUCCESSFULLY,401762.024600,21650.000000,423412.024600,4875.024600,26525.024600,1.225174,3840-4095,-1.000000,""
80_0_1,w0,profile_80,394743.000000,256,21733.000000,1,COMPLETED_SUCCESSFULLY,401762.024000,21732.000000,423494.024000,7019.024000,28751.024000,1.322981,3584-3839,-1.000000,""
57_0_1,w0,profile_57,181957.000000,896,43200.000000,1,COMPLETED_SUCCESSFULLY,401762.022200,29843.000000,431605.022200,219805.022200,249648.022200,8.365380,896-1791,-1.000000,""
56_0_1,w0,profile_56,181611.000000,896,43200.000000,1,COMPLETED_SUCCESSFULLY,401762.021600,29876.000000,431638.021600,220151.021600,250027.021600,8.368825,0-895,-1.000000,""
59_0_1,w0,profile_59,181962.000000,896,43200.000000,1,COMPLETED_SUCCESSFULLY,401762.023400,32100.000000,433862.023400,219800.023400,251900.023400,7.847353,2688-3583,-1.000000,""
58_0_1,w0,profile_58,181960.000000,896,43200.000000,1,COMPLETED_SUCCESSFULLY,401762.022800,32184.000000,433946.022800,219802.022800,251986.022800,7.829543,1792-2687,-1.000000,""
61_0_1,w0,profile_61,181965.000000,896,43200.000000,1,COMPLETED_SUCCESSFULLY,431641.023250,31577.000000,463218.023250,249676.023250,281253.023250,8.906895,0-895,-1.000000,""
60_0_1,w0,profile_60,181963.000000,896,43200.000000,1,COMPLETED_SUCCESSFULLY,431608.023850,31843.000000,463451.023850,249645.023850,281488.023850,8.839871,896-1791,-1.000000,""
62_0_1,w0,profile_62,181967.000000,896,43200.000000,1,COMPLETED_SUCCESSFULLY,433865.025050,32155.000000,466020.025050,251898.025050,284053.025050,8.833868,2688-3583,-1.000000,""
63_0_1,w0,profile_63,181980.000000,896,43200.000000,1,COMPLETED_SUCCESSFULLY,433949.024450,32710.000000,466659.024450,251969.024450,284679.024450,8.703119,1792-2687,-1.000000,""
88_0_1,w0,profile_88,464987.000000,2,21670.000000,1,COMPLETED_SUCCESSFULLY,466662.026700,21669.000000,488331.026700,1675.026700,23344.026700,1.077301,2904-2905,-1.000000,""
67_0_1,w0,profile_67,201450.000000,249,72000.000000,1,COMPLETED_SUCCESSFULLY,463221.026100,42748.000000,505969.026100,261771.026100,304519.026100,7.123585,3812-4060,-1.000000,""
66_0_1,w0,profile_66,201347.000000,249,75600.000000,1,COMPLETED_SUCCESSFULLY,463221.025500,54771.000000,517992.025500,261874.025500,316645.025500,5.781253,875-895 3584-3811,-1.000000,""
73_0_1,w0,profile_73,280103.000000,1024,72000.000000,1,COMPLETED_SUCCESSFULLY,463454.025500,65671.000000,529125.025500,183351.025500,249022.025500,3.791963,896-1791 4061-4188,-1.000000,""
89_0_1,w0,profile_89,500209.000000,468,32510.000000,1,COMPLETED_SUCCESSFULLY,500209.001800,32509.000000,532718.001800,0.001800,32509.001800,1.000000,2904-3371,-1.000000,""
64_0_1,w0,profile_64,188499.000000,875,86400.000000,1,COMPLETED_SUCCESSFULLY,463221.024900,77269.000000,540490.024900,274722.024900,351991.024900,4.555398,0-874,-1.000000,""
74_0_1,w0,profile_74,284190.000000,1112,86488.000000,1,COMPLETED_SUCCESSFULLY,466662.026100,86487.000000,553149.026100,182472.026100,268959.026100,3.109820,1792-2903,-1.000000,""
90_0_1,w0,profile_90,528661.000000,512,32400.000000,1,COMPLETED_SUCCESSFULLY,540493.026550,21969.000000,562462.026550,11832.026550,33801.026550,1.538578,0-511,-1.000000,""
87_0_1,w0,profile_87,452844.000000,249,75600.000000,1,COMPLETED_SUCCESSFULLY,532721.003450,54720.000000,587441.003450,79877.003450,134597.003450,2.459741,1771-1791 2904-3131,-1.000000,""
91_0_1,w0,profile_91,538261.000000,249,72000.000000,1,COMPLETED_SUCCESSFULLY,538261.001800,65641.000000,603902.001800,0.001800,65641.001800,1.000000,3132-3371 4061-4069,-1.000000,""
75_0_1,w0,profile_75,294354.000000,896,86446.000000,1,COMPLETED_SUCCESSFULLY,517995.027150,86445.000000,604440.027150,223641.027150,310086.027150,3.587090,875-895 3372-4060 4189-4374,-1.000000,""
76_0_1,w0,profile_76,352036.000000,875,86400.000000,1,COMPLETED_SUCCESSFULLY,529128.027150,78597.000000,607725.027150,177092.027150,255689.027150,3.253165,896-1770,-1.000000,""
77_0_1,w0,profile_77,365617.000000,4096,86491.000000,1,COMPLETED_SUCCESSFULLY,607728.028800,86490.000000,694218.028800,242111.028800,328601.028800,3.799295,0-4095,-1.000000,""
92_0_1,w0,profile_92,624375.000000,249,72000.000000,1,COMPLETED_SUCCESSFULLY,694221.031050,42093.000000,736314.031050,69846.031050,111939.031050,2.659327,4096-4344,-1.000000,""
78_0_1,w0,profile_78,365626.000000,4096,86535.000000,1,COMPLETED_SUCCESSFULLY,694221.030450,86534.000000,780755.030450,328595.030450,415129.030450,4.797294,0-4095,-1.000000,""
106_0_1,w0,profile_106,728624.000000,400,24139.000000,1,COMPLETED_SUCCESSFULLY,780758.034500,24138.000000,804896.034500,52134.034500,76272.034500,3.159832,3570-3969,-1.000000,""
95_0_1,w0,profile_95,689402.000000,249,54000.000000,1,COMPLETED_SUCCESSFULLY,780758.033900,41988.000000,822746.033900,91356.033900,133344.033900,3.175765,3321-3569,-1.000000,""
94_0_1,w0,profile_94,689365.000000,249,54000.000000,1,COMPLETED_SUCCESSFULLY,780758.033300,42034.000000,822792.033300,91393.033300,133427.033300,3.174264,3072-3320,-1.000000,""
79_0_1,w0,profile_79,378504.000000,1024,72000.000000,1,COMPLETED_SUCCESSFULLY,780758.032100,54216.000000,834974.032100,402254.032100,456470.032100,8.419471,0-1023,-1.000000,""
83_0_1,w0,profile_83,421579.000000,2048,86492.000000,1,COMPLETED_SUCCESSFULLY,780758.032700,86491.000000,867249.032700,359179.032700,445670.032700,5.152791,1024-3071,-1.000000,""
98_0_1,w0,profile_98,711016.000000,1024,43200.000000,1,COMPLETED_SUCCESSFULLY,867252.034950,23701.000000,890953.034950,156236.034950,179937.034950,7.591960,1899-2922,-1.000000,""
112_0_1,w0,profile_112,825088.000000,512,28800.000000,1,COMPLETED_SUCCESSFULLY,890956.036600,22820.000000,913776.036600,65868.036600,88688.036600,3.886417,1899-2410,-1.000000,""
113_0_1,w0,profile_113,825110.000000,512,28800.000000,1,COMPLETED_SUCCESSFULLY,890956.037200,23077.000000,914033.037200,65846.037200,88923.037200,3.853319,2411-2922,-1.000000,""
84_0_1,w0,profile_84,423437.000000,2048,86400.000000,1,COMPLETED_SUCCESSFULLY,834977.033750,81777.000000,916754.033750,411540.033750,493317.033750,6.032467,0-1023 3072-4095,-1.000000,""
117_0_1,w0,profile_117,863745.000000,258,21654.000000,1,COMPLETED_SUCCESSFULLY,916757.037800,21653.000000,938410.037800,53012.037800,74665.037800,3.448254,3685-3942,-1.000000,""
114_0_1,w0,profile_114,825137.000000,512,28800.000000,1,COMPLETED_SUCCESSFULLY,916757.037200,23115.000000,939872.037200,91620.037200,114735.037200,4.963662,3173-3684,-1.000000,""
93_0_1,w0,profile_93,664118.000000,2048,86400.000000,1,COMPLETED_SUCCESSFULLY,916757.035400,33451.000000,950208.035400,252639.035400,286090.035400,8.552511,0-1023 1899-2922,-1.000000,""
86_0_1,w0,profile_86,445657.000000,875,86400.000000,1,COMPLETED_SUCCESSFULLY,867252.034350,85215.000000,952467.034350,421595.034350,506810.034350,5.947427,1024-1898,-1.000000,""
85_0_1,w0,profile_85,433642.000000,249,129694.000000,1,COMPLETED_SUCCESSFULLY,834977.034350,129693.000000,964670.034350,401335.034350,531028.034350,4.094500,4096-4344,-1.000000,""
99_0_1,w0,profile_99,711150.000000,1024,39600.000000,1,COMPLETED_SUCCESSFULLY,950211.037050,25105.000000,975316.037050,239061.037050,264166.037050,10.522447,0-1023,-1.000000,""
97_0_1,w0,profile_97,698796.000000,1,86400.000000,1,COMPLETED_SUCCESSFULLY,916757.036600,84630.000000,1001387.036600,217961.036600,302591.036600,3.575458,3172,-1.000000,""
101_0_1,w0,profile_101,714957.000000,1024,86400.000000,1,COMPLETED_SUCCESSFULLY,964673.036000,58885.000000,1023558.036000,249716.036000,308601.036000,5.240741,3322-4345,-1.000000,""
100_0_1,w0,profile_100,714917.000000,2048,86536.000000,1,COMPLETED_SUCCESSFULLY,952470.036000,86535.000000,1039005.036000,237553.036000,324088.036000,3.745167,1024-2922 3173-3321,-1.000000,""
96_0_1,w0,profile_96,689517.000000,249,129738.000000,1,COMPLETED_SUCCESSFULLY,916757.036000,129737.000000,1046494.036000,227240.036000,356977.036000,2.751544,2923-3171,-1.000000,""
102_0_1,w0,profile_102,715040.000000,1024,86400.000000,1,COMPLETED_SUCCESSFULLY,975319.038700,84269.000000,1059588.038700,260279.038700,344548.038700,4.088669,0-1023,-1.000000,""
121_0_1,w0,profile_121,908633.000000,500,21671.000000,1,COMPLETED_SUCCESSFULLY,1039008.038850,21670.000000,1060678.038850,130375.038850,152045.038850,7.016384,3409-3908,-1.000000,""
122_0_1,w0,profile_122,908988.000000,256,21692.000000,1,COMPLETED_SUCCESSFULLY,1039008.039450,21691.000000,1060699.039450,130020.039450,151711.039450,6.994193,3909-4164,-1.000000,""
146_0_1,w0,profile_146,1088307.000000,32,21673.000000,1,COMPLETED_SUCCESSFULLY,1088307.001800,21672.000000,1109979.001800,0.001800,21672.001800,1.000000,4184-4215,-1.000000,""
104_0_1,w0,profile_104,715485.000000,1024,86400.000000,1,COMPLETED_SUCCESSFULLY,1039008.038250,74244.000000,1113252.038250,323523.038250,397767.038250,5.357565,2136-2922 3172-3408,-1.000000,""
103_0_1,w0,profile_103,715087.000000,1112,86453.000000,1,COMPLETED_SUCCESSFULLY,1039008.037650,86452.000000,1125460.037650,323921.037650,410373.037650,4.746831,1024-2135,-1.000000,""
105_0_1,w0,profile_105,722554.000000,2048,86400.000000,1,COMPLETED_SUCCESSFULLY,1060702.041100,85026.000000,1145728.041100,338148.041100,423174.041100,4.976996,0-1023 2923-3171 3409-4183,-1.000000,""
147_0_1,w0,profile_147,1132865.000000,256,21667.000000,1,COMPLETED_SUCCESSFULLY,1145731.044550,21666.000000,1167397.044550,12866.044550,34532.044550,1.593836,4096-4351,-1.000000,""
116_0_1,w0,profile_116,825193.000000,512,28800.000000,1,COMPLETED_SUCCESSFULLY,1145731.043950,22961.000000,1168692.043950,320538.043950,343499.043950,14.960108,3584-4095,-1.000000,""
115_0_1,w0,profile_115,825161.000000,512,28800.000000,1,COMPLETED_SUCCESSFULLY,1145731.043350,23019.000000,1168750.043350,320570.043350,343589.043350,14.926324,2923-3171 3321-3583,-1.000000,""
107_0_1,w0,profile_107,796421.000000,2048,86400.000000,1,COMPLETED_SUCCESSFULLY,1125463.039300,48098.000000,1173561.039300,329042.039300,377140.039300,7.841075,1024-2922 3172-3320,-1.000000,""
151_0_1,w0,profile_151,1152098.000000,10,21656.000000,1,COMPLETED_SUCCESSFULLY,1152098.001800,21655.000000,1173753.001800,0.001800,21655.001800,1.000000,4352-4361,-1.000000,""
150_0_1,w0,profile_150,1136532.000000,60,21634.000000,1,COMPLETED_SUCCESSFULLY,1167400.046200,21633.000000,1189033.046200,30868.046200,52501.046200,2.426896,4096-4155,-1.000000,""
127_0_1,w0,profile_127,968645.000000,299,21658.000000,1,COMPLETED_SUCCESSFULLY,1168695.046200,21657.000000,1190352.046200,200050.046200,221707.046200,10.237200,3970-4095 4156-4328,-1.000000,""
123_0_1,w0,profile_123,909102.000000,500,21635.000000,1,COMPLETED_SUCCESSFULLY,1168753.045000,21634.000000,1190387.045000,259651.045000,281285.045000,13.001990,2923-3171 3321-3571,-1.000000,""
108_0_1,w0,profile_108,796540.000000,1024,86400.000000,1,COMPLETED_SUCCESSFULLY,1145731.042750,55288.000000,1201019.042750,349191.042750,404479.042750,7.315856,0-1023,-1.000000,""
118_0_1,w0,profile_118,866011.000000,386,32484.000000,1,COMPLETED_SUCCESSFULLY,1168695.045600,32483.000000,1201178.045600,302684.045600,335167.045600,10.318229,3584-3969,-1.000000,""
109_0_1,w0,profile_109,798259.000000,2048,86400.000000,1,COMPLETED_SUCCESSFULLY,1173564.040950,41976.000000,1215540.040950,375305.040950,417281.040950,9.940943,1024-2922 3172-3320,-1.000000,""
152_0_1,w0,profile_152,1179626.000000,60,21650.000000,1,COMPLETED_SUCCESSFULLY,1201181.047850,21649.000000,1222830.047850,21555.047850,43204.047850,1.995660,3833-3892,-1.000000,""
124_0_1,w0,profile_124,951638.000000,512,32400.000000,1,COMPLETED_SUCCESSFULLY,1215543.043200,31431.000000,1246974.043200,263905.043200,295336.043200,9.396330,2024-2535,-1.000000,""
125_0_1,w0,profile_125,951655.000000,512,32400.000000,1,COMPLETED_SUCCESSFULLY,1215543.043800,31538.000000,1247081.043800,263888.043800,295426.043800,9.367304,2536-2922 3172-3296,-1.000000,""
120_0_1,w0,profile_120,908585.000000,1000,86400.000000,1,COMPLETED_SUCCESSFULLY,1215543.042600,40521.000000,1256064.042600,306958.042600,347479.042600,8.575283,1024-2023,-1.000000,""
119_0_1,w0,profile_119,890034.000000,249,72000.000000,1,COMPLETED_SUCCESSFULLY,1201181.047250,65138.000000,1266319.047250,311147.047250,376285.047250,5.776736,3584-3832,-1.000000,""
110_0_1,w0,profile_110,798341.000000,1024,86400.000000,1,COMPLETED_SUCCESSFULLY,1201022.044400,66050.000000,1267072.044400,402681.044400,468731.044400,7.096609,0-1023,-1.000000,""
126_0_1,w0,profile_126,953668.000000,512,25200.000000,1,COMPLETED_SUCCESSFULLY,1246977.044850,22930.000000,1269907.044850,293309.044850,316239.044850,13.791498,2024-2535,-1.000000,""
165_0_1,w0,profile_165,1251342.000000,32,21678.000000,1,COMPLETED_SUCCESSFULLY,1251342.001800,21677.000000,1273019.001800,0.001800,21677.001800,1.000000,4348-4379,-1.000000,""
128_0_1,w0,profile_128,970869.000000,249,144000.000000,1,COMPLETED_SUCCESSFULLY,1246977.045450,26432.000000,1273409.045450,276108.045450,302540.045450,11.445976,3297-3320 3833-3969 4260-4347,-1.000000,""
131_0_1,w0,profile_131,981998.000000,512,32400.000000,1,COMPLETED_SUCCESSFULLY,1247084.045450,30689.000000,1277773.045450,265086.045450,295775.045450,9.637820,2536-2922 3172-3296,-1.000000,""
111_0_1,w0,profile_111,809477.000000,802,86400.000000,1,COMPLETED_SUCCESSFULLY,1201022.045000,76765.000000,1277787.045000,391545.045000,468310.045000,6.100567,2923-3171 3321-3583 3970-4259,-1.000000,""
132_0_1,w0,profile_132,982275.000000,512,32400.000000,1,COMPLETED_SUCCESSFULLY,1256067.044250,30683.000000,1286750.044250,273792.044250,304475.044250,9.923249,1024-1535,-1.000000,""
135_0_1,w0,profile_135,1003282.000000,512,32400.000000,1,COMPLETED_SUCCESSFULLY,1267075.046650,21886.000000,1288961.046650,263793.046650,285679.046650,13.053050,512-1023,-1.000000,""
142_0_1,w0,profile_142,1056555.000000,512,25200.000000,1,COMPLETED_SUCCESSFULLY,1269910.046500,22832.000000,1292742.046500,213355.046500,236187.046500,10.344562,2024-2535,-1.000000,""
143_0_1,w0,profile_143,1056789.000000,512,25200.000000,1,COMPLETED_SUCCESSFULLY,1273412.047100,22858.000000,1296270.047100,216623.047100,239481.047100,10.476903,3297-3320 3608-3969 4260-4385,-1.000000,""
133_0_1,w0,profile_133,982298.000000,512,32400.000000,1,COMPLETED_SUCCESSFULLY,1266322.048900,30756.000000,1297078.048900,284024.048900,314780.048900,10.234753,1536-2023 3584-3607,-1.000000,""
134_0_1,w0,profile_134,982300.000000,512,32400.000000,1,COMPLETED_SUCCESSFULLY,1267075.046050,30793.000000,1297868.046050,284775.046050,315568.046050,10.248045,0-511,-1.000000,""
148_0_1,w0,profile_148,1134776.000000,249,72000.000000,1,COMPLETED_SUCCESSFULLY,1297871.048300,42184.000000,1340055.048300,163095.048300,205279.048300,4.866277,4096-4344,-1.000000,""
129_0_1,w0,profile_129,972082.000000,4096,86400.000000,1,COMPLETED_SUCCESSFULLY,1297871.047700,43314.000000,1341185.047700,325789.047700,369103.047700,8.521565,0-4095,-1.000000,""
168_0_1,w0,profile_168,1294548.000000,256,21636.000000,1,COMPLETED_SUCCESSFULLY,1340058.049950,21635.000000,1361693.049950,45510.049950,67145.049950,3.103538,4096-4351,-1.000000,""
130_0_1,w0,profile_130,972250.000000,4096,86400.000000,1,COMPLETED_SUCCESSFULLY,1341188.049350,50630.000000,1391818.049350,368938.049350,419568.049350,8.286945,0-4095,-1.000000,""
145_0_1,w0,profile_145,1056996.000000,512,25200.000000,1,COMPLETED_SUCCESSFULLY,1391821.054000,22822.000000,1414643.054000,334825.054000,357647.054000,15.671153,3072-3583,-1.000000,""
144_0_1,w0,profile_144,1056961.000000,512,25200.000000,1,COMPLETED_SUCCESSFULLY,1391821.053400,22972.000000,1414793.053400,334860.053400,357832.053400,15.576879,2560-3071,-1.000000,""
138_0_1,w0,profile_138,1056333.000000,640,43200.000000,1,COMPLETED_SUCCESSFULLY,1391821.051000,26904.000000,1418725.051000,335488.051000,362392.051000,13.469821,0-639,-1.000000,""
139_0_1,w0,profile_139,1056348.000000,640,43200.000000,1,COMPLETED_SUCCESSFULLY,1391821.051600,27055.000000,1418876.051600,335473.051600,362528.051600,13.399669,640-1279,-1.000000,""
140_0_1,w0,profile_140,1056353.000000,640,43200.000000,1,COMPLETED_SUCCESSFULLY,1391821.052200,27228.000000,1419049.052200,335468.052200,362696.052200,13.320701,1280-1919,-1.000000,""
141_0_1,w0,profile_141,1056357.000000,640,43200.000000,1,COMPLETED_SUCCESSFULLY,1391821.052800,27235.000000,1419056.052800,335464.052800,362699.052800,13.317388,1920-2559,-1.000000,""
153_0_1,w0,profile_153,1183502.000000,1024,36000.000000,1,COMPLETED_SUCCESSFULLY,1414796.055050,21910.000000,1436706.055050,231294.055050,253204.055050,11.556552,2560-3583,-1.000000,""
157_0_1,w0,profile_157,1212903.000000,512,25200.000000,1,COMPLETED_SUCCESSFULLY,1419059.054450,23081.000000,1442140.054450,206156.054450,229237.054450,9.931851,1920-2431,-1.000000,""
154_0_1,w0,profile_154,1183624.000000,1024,36000.000000,1,COMPLETED_SUCCESSFULLY,1418879.053250,23285.000000,1442164.053250,235255.053250,258540.053250,11.103288,0-1023,-1.000000,""
155_0_1,w0,profile_155,1183661.000000,1024,36000.000000,1,COMPLETED_SUCCESSFULLY,1419052.053850,24496.000000,1443548.053850,235391.053850,259887.053850,10.609367,1024-1919 3833-3960,-1.000000,""
137_0_1,w0,profile_137,1041077.000000,1,86483.000000,1,COMPLETED_SUCCESSFULLY,1361696.052200,86482.000000,1448178.052200,320619.052200,407101.052200,4.707350,4345,-1.000000,""
136_0_1,w0,profile_136,1032093.000000,249,144000.000000,1,COMPLETED_SUCCESSFULLY,1361696.051600,97544.000000,1459240.051600,329603.051600,427147.051600,4.379019,4096-4344,-1.000000,""
156_0_1,w0,profile_156,1183704.000000,1024,36000.000000,1,COMPLETED_SUCCESSFULLY,1436709.056700,22859.000000,1459568.056700,253005.056700,275864.056700,12.068072,2432-3455,-1.000000,""
149_0_1,w0,profile_149,1135027.000000,249,72048.000000,1,COMPLETED_SUCCESSFULLY,1391821.054600,72047.000000,1463868.054600,256794.054600,328841.054600,4.564257,3584-3832,-1.000000,""
158_0_1,w0,profile_158,1213132.000000,512,25200.000000,1,COMPLETED_SUCCESSFULLY,1442143.056100,23092.000000,1465235.056100,229011.056100,252103.056100,10.917333,1920-2431,-1.000000,""
162_0_1,w0,profile_162,1241861.000000,512,25200.000000,1,COMPLETED_SUCCESSFULLY,1443551.056100,22903.000000,1466454.056100,201690.056100,224593.056100,9.806272,1636-1919 3456-3583 3833-3932,-1.000000,""
159_0_1,w0,profile_159,1222600.000000,512,32476.000000,1,COMPLETED_SUCCESSFULLY,1442167.054900,32475.000000,1474642.054900,219567.054900,252042.054900,7.761110,0-511,-1.000000,""
163_0_1,w0,profile_163,1241932.000000,512,25200.000000,1,COMPLETED_SUCCESSFULLY,1459571.058350,22836.000000,1482407.058350,217639.058350,240475.058350,10.530525,2432-2943,-1.000000,""
164_0_1,w0,profile_164,1241977.000000,512,25200.000000,1,COMPLETED_SUCCESSFULLY,1459571.058950,22951.000000,1482522.058950,217594.058950,240545.058950,10.480810,2944-3455,-1.000000,""
160_0_1,w0,profile_160,1223012.000000,249,50400.000000,1,COMPLETED_SUCCESSFULLY,1442167.055500,43555.000000,1485722.055500,219155.055500,262710.055500,6.031685,512-760,-1.000000,""
167_0_1,w0,profile_167,1265890.000000,802,43200.000000,1,COMPLETED_SUCCESSFULLY,1465238.057750,24096.000000,1489334.057750,199348.057750,223444.057750,9.273077,1920-2431 3584-3832 3934-3974,-1.000000,""
169_0_1,w0,profile_169,1386662.000000,1554,43200.000000,1,COMPLETED_SUCCESSFULLY,1482410.060000,21372.000000,1503782.060000,95748.060000,117120.060000,5.480070,0-511 1636-1919 2432-2943 3456-3583 3833-3932 3975-3992,-1.000000,""
161_0_1,w0,profile_161,1234790.000000,875,86400.000000,1,COMPLETED_SUCCESSFULLY,1443551.055500,77939.000000,1521490.055500,208761.055500,286700.055500,3.678519,761-1635,-1.000000,""
166_0_1,w0,profile_166,1262777.000000,1,87836.000000,1,COMPLETED_SUCCESSFULLY,1459571.059550,87835.000000,1547406.059550,196794.059550,284629.059550,3.240497,3933,-1.000000,""
171_0_1,w0,profile_171,1397529.000000,249,86400.000000,1,COMPLETED_SUCCESSFULLY,1482525.060600,77730.000000,1560255.060600,84996.060600,162726.060600,2.093478,2944-3192,-1.000000,""
180_0_1,w0,profile_180,1581529.000000,256,21643.000000,1,COMPLETED_SUCCESSFULLY,1581529.001800,21642.000000,1603171.001800,0.001800,21642.001800,1.000000,3840-3992 4242-4344,-1.000000,""
175_0_1,w0,profile_175,1581514.000000,256,21666.000000,1,COMPLETED_SUCCESSFULLY,1581514.001800,21665.000000,1603179.001800,0.001800,21665.001800,1.000000,2560-2815,-1.000000,""
178_0_1,w0,profile_178,1581527.000000,256,21670.000000,1,COMPLETED_SUCCESSFULLY,1581527.001800,21669.000000,1603196.001800,0.001800,21669.001800,1.000000,3328-3583,-1.000000,""
179_0_1,w0,profile_179,1581528.000000,256,21701.000000,1,COMPLETED_SUCCESSFULLY,1581528.001800,21700.000000,1603228.001800,0.001800,21700.001800,1.000000,3584-3839,-1.000000,""
174_0_1,w0,profile_174,1581513.000000,256,21718.000000,1,COMPLETED_SUCCESSFULLY,1581513.001800,21717.000000,1603230.001800,0.001800,21717.001800,1.000000,2304-2559,-1.000000,""
173_0_1,w0,profile_173,1581510.000000,256,21734.000000,1,COMPLETED_SUCCESSFULLY,1581510.001800,21733.000000,1603243.001800,0.001800,21733.001800,1.000000,2048-2303,-1.000000,""
176_0_1,w0,profile_176,1581524.000000,256,21747.000000,1,COMPLETED_SUCCESSFULLY,1581524.001800,21746.000000,1603270.001800,0.001800,21746.001800,1.000000,2816-3071,-1.000000,""
177_0_1,w0,profile_177,1581525.000000,256,21792.000000,1,COMPLETED_SUCCESSFULLY,1581525.001800,21791.000000,1603316.001800,0.001800,21791.001800,1.000000,3072-3327,-1.000000,""
170_0_1,w0,profile_170,1397359.000000,249,144000.000000,1,COMPLETED_SUCCESSFULLY,1482410.060600,134955.000000,1617365.060600,85051.060600,220006.060600,1.630218,3993-4241,-1.000000,""
172_0_1,w0,profile_172,1575356.000000,2048,86400.000000,1,COMPLETED_SUCCESSFULLY,1575356.001800,42251.000000,1617607.001800,0.001800,42251.001800,1.000000,0-2047,-1.000000,""
181_0_1,w0,profile_181,1581531.000000,256,21664.000000,1,COMPLETED_SUCCESSFULLY,1603174.003450,21663.000000,1624837.003450,21643.003450,43306.003450,1.999077,3840-3992 4242-4344,-1.000000,""
184_0_1,w0,profile_184,1584373.000000,640,43200.000000,1,COMPLETED_SUCCESSFULLY,1603273.003450,28314.000000,1631587.003450,18900.003450,47214.003450,1.667514,2048-2303 2816-3071 3705-3832,-1.000000,""
183_0_1,w0,profile_183,1584369.000000,640,43200.000000,1,COMPLETED_SUCCESSFULLY,1603234.004500,28397.000000,1631631.004500,18865.004500,47262.004500,1.664331,2304-2559 2809-2815 3328-3704,-1.000000,""
188_0_1,w0,profile_188,1584406.000000,640,43200.000000,1,COMPLETED_SUCCESSFULLY,1617610.005250,27232.000000,1644842.005250,33204.005250,60436.005250,2.219301,1920-2047 3072-3327 3833-3839 3993-4241,-1.000000,""
185_0_1,w0,profile_185,1584377.000000,640,43200.000000,1,COMPLETED_SUCCESSFULLY,1617610.003450,27621.000000,1645231.003450,33233.003450,60854.003450,2.203179,0-639,-1.000000,""
186_0_1,w0,profile_186,1584389.000000,640,43200.000000,1,COMPLETED_SUCCESSFULLY,1617610.004050,27724.000000,1645334.004050,33221.004050,60945.004050,2.198276,640-1279,-1.000000,""
187_0_1,w0,profile_187,1584392.000000,640,43200.000000,1,COMPLETED_SUCCESSFULLY,1617610.004650,27871.000000,1645481.004650,33218.004650,61089.004650,2.191848,1280-1919,-1.000000,""
189_0_1,w0,profile_189,1639366.000000,249,50400.000000,1,COMPLETED_SUCCESSFULLY,1639366.001800,45632.000000,1684998.001800,0.001800,45632.001800,1.000000,2048-2296,-1.000000,""
182_0_1,w0,profile_182,1582082.000000,249,144000.000000,1,COMPLETED_SUCCESSFULLY,1603182.003450,135257.000000,1738439.003450,21100.003450,156357.003450,1.155999,2560-2808,-1.000000,""
190_0_1,w0,profile_190,1666749.000000,249,100800.000000,1,COMPLETED_SUCCESSFULLY,1666749.001800,100515.000000,1767264.001800,0.001800,100515.001800,1.000000,0-248,-1.000000,""
191_0_1,w0,profile_191,1711426.000000,2048,86400.000000,1,COMPLETED_SUCCESSFULLY,1711426.001800,56854.000000,1768280.001800,0.001800,56854.001800,1.000000,249-2296,-1.000000,""
193_0_1,w0,profile_193,1769779.000000,840,21674.000000,1,COMPLETED_SUCCESSFULLY,1769779.001800,21673.000000,1791452.001800,0.001800,21673.001800,1.000000,0-839,-1.000000,""
192_0_1,w0,profile_192,1763252.000000,802,43200.000000,1,COMPLETED_SUCCESSFULLY,1763252.001800,29060.000000,1792312.001800,0.001800,29060.001800,1.000000,2297-3098,-1.000000,""
194_0_1,w0,profile_194,1772369.000000,256,21672.000000,1,COMPLETED_SUCCESSFULLY,1772369.001800,21671.000000,1794040.001800,0.001800,21671.001800,1.000000,840-1095,-1.000000,""
195_0_1,w0,profile_195,1794184.000000,400,24102.000000,1,COMPLETED_SUCCESSFULLY,1794184.001800,24101.000000,1818285.001800,0.001800,24101.001800,1.000000,0-399,-1.000000,""
196_0_1,w0,profile_196,1794344.000000,500,29540.000000,1,COMPLETED_SUCCESSFULLY,1794344.001800,29539.000000,1823883.001800,0.001800,29539.001800,1.000000,400-899,-1.000000,""
199_0_1,w0,profile_199,1934357.000000,256,21665.000000,1,COMPLETED_SUCCESSFULLY,1934357.001800,21664.000000,1956021.001800,0.001800,21664.001800,1.000000,1987-2242,-1.000000,""
198_0_1,w0,profile_198,1916045.000000,875,86400.000000,1,COMPLETED_SUCCESSFULLY,1916045.001800,57157.000000,1973202.001800,0.001800,57157.001800,1.000000,1112-1986,-1.000000,""
197_0_1,w0,profile_197,1901502.000000,1112,86620.000000,1,COMPLETED_SUCCESSFULLY,1901502.001800,86619.000000,1988121.001800,0.001800,86619.001800,1.000000,0-1111,-1.000000,""
200_0_1,w0,profile_200,2032765.000000,256,21652.000000,0,COMPLETED_WALLTIME_REACHED,2032765.001800,21652.000000,2054417.001800,0.001800,21652.001800,1.000000,0-255,-1.000000,""
201_0_1,w0,profile_201,2047878.000000,256,21734.000000,1,COMPLETED_SUCCESSFULLY,2047878.001800,21733.000000,2069611.001800,0.001800,21733.001800,1.000000,256-511,-1.000000,""
202_0_1,w0,profile_202,2074626.000000,512,25200.000000,1,COMPLETED_SUCCESSFULLY,2074626.001800,22115.000000,2096741.001800,0.001800,22115.001800,1.000000,0-511,-1.000000,""
203_0_1,w0,profile_203,2074852.000000,512,25200.000000,1,COMPLETED_SUCCESSFULLY,2074852.001800,22885.000000,2097737.001800,0.001800,22885.001800,1.000000,512-1023,-1.000000,""
204_0_1,w0,profile_204,2074888.000000,512,25200.000000,1,COMPLETED_SUCCESSFULLY,2074888.001800,22886.000000,2097774.001800,0.001800,22886.001800,1.000000,1024-1535,-1.000000,""
205_0_1,w0,profile_205,2087439.000000,256,21691.000000,1,COMPLETED_SUCCESSFULLY,2087439.001800,21690.000000,2109129.001800,0.001800,21690.001800,1.000000,1536-1791,-1.000000,""
206_0_1,w0,profile_206,2089301.000000,875,86400.000000,1,COMPLETED_SUCCESSFULLY,2089301.001800,76732.000000,2166033.001800,0.001800,76732.001800,1.000000,1792-2666,-1.000000,""
207_0_1,w0,profile_207,2089682.000000,1000,86610.000000,1,COMPLETED_SUCCESSFULLY,2089682.001800,86609.000000,2176291.001800,0.001800,86609.001800,1.000000,2667-3666,-1.000000,""
208_0_1,w0,profile_208,2089703.000000,2048,86540.000000,1,COMPLETED_SUCCESSFULLY,2097777.003450,86539.000000,2184316.003450,8074.003450,94613.003450,1.093299,0-1535 3667-4178,-1.000000,""
209_0_1,w0,profile_209,2090655.000000,875,86400.000000,1,COMPLETED_SUCCESSFULLY,2166036.003450,79890.000000,2245926.003450,75381.003450,155271.003450,1.943560,1536-2410,-1.000000,""
212_0_1,w0,profile_212,2166684.000000,512,25200.000000,1,COMPLETED_SUCCESSFULLY,2245929.005100,22928.000000,2268857.005100,79245.005100,102173.005100,4.456255,1536-2047,-1.000000,""
213_0_1,w0,profile_213,2166721.000000,512,25200.000000,1,COMPLETED_SUCCESSFULLY,2245929.005700,23198.000000,2269127.005700,79208.005700,102406.005700,4.414433,2048-2410 4035-4183,-1.000000,""
210_0_1,w0,profile_210,2100160.000000,2048,86400.000000,1,COMPLETED_SUCCESSFULLY,2184319.005100,85000.000000,2269319.005100,84159.005100,169159.005100,1.990106,0-1535 2411-2922,-1.000000,""
211_0_1,w0,profile_211,2162420.000000,1112,86499.000000,1,COMPLETED_SUCCESSFULLY,2184319.005700,86498.000000,2270817.005700,21899.005700,108397.005700,1.253174,2923-4034,-1.000000,""
215_0_1,w0,profile_215,2256355.000000,256,21665.000000,1,COMPLETED_SUCCESSFULLY,2269130.007950,21664.000000,2290794.007950,12775.007950,34439.007950,1.589688,4035-4290,-1.000000,""
216_0_1,w0,profile_216,2260521.000000,1024,43200.000000,1,COMPLETED_SUCCESSFULLY,2269322.006750,37223.000000,2306545.006750,8801.006750,46024.006750,1.236440,0-1023,-1.000000,""
218_0_1,w0,profile_218,2292539.000000,256,21740.000000,1,COMPLETED_SUCCESSFULLY,2306548.009000,21739.000000,2328287.009000,14009.009000,35748.009000,1.644418,4055-4310,-1.000000,""
217_0_1,w0,profile_217,2284071.000000,3180,28800.000000,1,COMPLETED_SUCCESSFULLY,2306548.008400,23213.000000,2329761.008400,22477.008400,45690.008400,1.968294,0-1535 2411-4054,-1.000000,""
214_0_1,w0,profile_214,2185876.000000,875,86400.000000,1,COMPLETED_SUCCESSFULLY,2269130.007350,76728.000000,2345858.007350,83254.007350,159982.007350,2.085054,1536-2410,-1.000000,""
219_0_1,w0,profile_219,2292541.000000,256,21680.000000,1,COMPLETED_SUCCESSFULLY,2328290.010650,21679.000000,2349969.010650,35749.010650,57428.010650,2.649016,4055-4310,-1.000000,""
220_0_1,w0,profile_220,2292542.000000,256,21677.000000,1,COMPLETED_SUCCESSFULLY,2329764.010050,21676.000000,2351440.010050,37222.010050,58898.010050,2.717199,0-255,-1.000000,""
222_0_1,w0,profile_222,2293544.000000,256,21678.000000,1,COMPLETED_SUCCESSFULLY,2329764.011250,21677.000000,2351441.011250,36220.011250,57897.011250,2.670896,512-767,-1.000000,""
221_0_1,w0,profile_221,2292807.000000,256,21712.000000,1,COMPLETED_SUCCESSFULLY,2329764.010650,21711.000000,2351475.010650,36957.010650,58668.010650,2.702225,256-511,-1.000000,""
223_0_1,w0,profile_223,2342990.000000,512,32400.000000,1,COMPLETED_SUCCESSFULLY,2342990.001800,31424.000000,2374414.001800,0.001800,31424.001800,1.000000,768-1279,-1.000000,""
225_0_1,w0,profile_225,2363835.000000,256,21663.000000,1,COMPLETED_SUCCESSFULLY,2363835.001800,21662.000000,2385497.001800,0.001800,21662.001800,1.000000,1314-1569,-1.000000,""
226_0_1,w0,profile_226,2397549.000000,256,21715.000000,1,COMPLETED_SUCCESSFULLY,2397549.001800,21714.000000,2419263.001800,0.001800,21714.001800,1.000000,768-1023,-1.000000,""
227_0_1,w0,profile_227,2412454.000000,256,21679.000000,1,COMPLETED_SUCCESSFULLY,2412454.001800,21678.000000,2434132.001800,0.001800,21678.001800,1.000000,1024-1279,-1.000000,""
224_0_1,w0,profile_224,2355664.000000,802,86400.000000,1,COMPLETED_SUCCESSFULLY,2355664.001800,78750.000000,2434414.001800,0.001800,78750.001800,1.000000,0-767 1280-1313,-1.000000,""
230_0_1,w0,profile_230,2429860.000000,256,21657.000000,1,COMPLETED_SUCCESSFULLY,2429860.001800,21656.000000,2451516.001800,0.001800,21656.001800,1.000000,2426-2681,-1.000000,""
231_0_1,w0,profile_231,2429984.000000,256,21676.000000,1,COMPLETED_SUCCESSFULLY,2429984.001800,21675.000000,2451659.001800,0.001800,21675.001800,1.000000,2682-2937,-1.000000,""
232_0_1,w0,profile_232,2431073.000000,256,21642.000000,1,COMPLETED_SUCCESSFULLY,2431073.001800,21641.000000,2452714.001800,0.001800,21641.001800,1.000000,2938-3193,-1.000000,""
229_0_1,w0,profile_229,2429744.000000,256,23110.000000,1,COMPLETED_SUCCESSFULLY,2429744.001800,23109.000000,2452853.001800,0.001800,23109.001800,1.000000,768-1023,-1.000000,""
233_0_1,w0,profile_233,2434271.000000,256,21669.000000,1,COMPLETED_SUCCESSFULLY,2434271.001800,21668.000000,2455939.001800,0.001800,21668.001800,1.000000,1024-1279,-1.000000,""
234_0_1,w0,profile_234,2437364.000000,256,21651.000000,1,COMPLETED_SUCCESSFULLY,2437364.001800,21650.000000,2459014.001800,0.001800,21650.001800,1.000000,0-255,-1.000000,""
235_0_1,w0,profile_235,2457039.000000,802,21600.000000,1,COMPLETED_SUCCESSFULLY,2457039.001800,20243.000000,2477282.001800,0.001800,20243.001800,1.000000,256-1057,-1.000000,""
236_0_1,w0,profile_236,2457849.000000,802,21656.000000,1,COMPLETED_SUCCESSFULLY,2457849.001800,21655.000000,2479504.001800,0.001800,21655.001800,1.000000,1058-1313 2426-2971,-1.000000,""
237_0_1,w0,profile_237,2458772.000000,802,21691.000000,1,COMPLETED_SUCCESSFULLY,2458772.001800,21690.000000,2480462.001800,0.001800,21690.001800,1.000000,2972-3773,-1.000000,""
228_0_1,w0,profile_228,2412705.000000,1112,86517.000000,1,COMPLETED_SUCCESSFULLY,2412705.001800,86516.000000,2499221.001800,0.001800,86516.001800,1.000000,1314-2425,-1.000000,""
238_0_1,w0,profile_238,2464754.000000,802,43308.000000,1,COMPLETED_SUCCESSFULLY,2464754.001800,43307.000000,2508061.001800,0.001800,43307.001800,1.000000,0-255 3774-4319,-1.000000,""
239_0_1,w0,profile_239,2467776.000000,3180,36000.000000,1,COMPLETED_SUCCESSFULLY,2499224.003450,21566.000000,2520790.003450,31448.003450,53014.003450,2.458221,256-3435,-1.000000,""
243_0_1,w0,profile_243,2525103.000000,1,21652.000000,1,COMPLETED_SUCCESSFULLY,2525103.001800,21651.000000,2546754.001800,0.001800,21651.001800,1.000000,256,-1.000000,""
250_0_1,w0,profile_250,2533577.000000,512,25200.000000,1,COMPLETED_SUCCESSFULLY,2533577.001800,22851.000000,2556428.001800,0.001800,22851.001800,1.000000,1793-2304,-1.000000,""
249_0_1,w0,profile_249,2533556.000000,512,25200.000000,1,COMPLETED_SUCCESSFULLY,2533556.001800,23045.000000,2556601.001800,0.001800,23045.001800,1.000000,1281-1792,-1.000000,""
251_0_1,w0,profile_251,2533598.000000,512,25200.000000,1,COMPLETED_SUCCESSFULLY,2533598.001800,23031.000000,2556629.001800,0.001800,23031.001800,1.000000,2305-2816,-1.000000,""
252_0_1,w0,profile_252,2543995.000000,256,21630.000000,1,COMPLETED_SUCCESSFULLY,2543995.001800,21629.000000,2565624.001800,0.001800,21629.001800,1.000000,2817-3072,-1.000000,""
246_0_1,w0,profile_246,2526906.000000,1024,46900.000000,1,COMPLETED_SUCCESSFULLY,2526906.001800,46899.000000,2573805.001800,0.001800,46899.001800,1.000000,257-1280,-1.000000,""
253_0_1,w0,profile_253,2559836.000000,1,21654.000000,1,COMPLETED_SUCCESSFULLY,2559836.001800,21653.000000,2581489.001800,0.001800,21653.001800,1.000000,256,-1.000000,""
240_0_1,w0,profile_240,2471929.000000,875,86400.000000,1,COMPLETED_SUCCESSFULLY,2508064.003450,75881.000000,2583945.003450,36135.003450,112016.003450,1.476206,0-255 3436-4054,-1.000000,""
254_0_1,w0,profile_254,2586255.000000,249,50400.000000,1,COMPLETED_SUCCESSFULLY,2586255.001800,44146.000000,2630401.001800,0.001800,44146.001800,1.000000,4096-4344,-1.000000,""
241_0_1,w0,profile_241,2519687.000000,4096,54255.000000,1,COMPLETED_SUCCESSFULLY,2583948.005100,54254.000000,2638202.005100,64261.005100,118515.005100,2.184447,0-4095,-1.000000,""
257_0_1,w0,profile_257,2607077.000000,256,23181.000000,1,COMPLETED_SUCCESSFULLY,2638205.009150,23180.000000,2661385.009150,31128.009150,54308.009150,2.342882,4096-4351,-1.000000,""
263_0_1,w0,profile_263,2614884.000000,256,21654.000000,1,COMPLETED_SUCCESSFULLY,2661388.010800,21653.000000,2683041.010800,46504.010800,68157.010800,3.147694,4096-4351,-1.000000,""
242_0_1,w0,profile_242,2520550.000000,1024,86400.000000,1,COMPLETED_SUCCESSFULLY,2638205.006750,53690.000000,2691895.006750,117655.006750,171345.006750,3.191377,0-1023,-1.000000,""
244_0_1,w0,profile_244,2525999.000000,1024,86400.000000,1,COMPLETED_SUCCESSFULLY,2638205.007350,55114.000000,2693319.007350,112206.007350,167320.007350,3.035889,1024-2047,-1.000000,""
247_0_1,w0,profile_247,2527293.000000,1024,86400.000000,1,COMPLETED_SUCCESSFULLY,2638205.008550,61389.000000,2699594.008550,110912.008550,172301.008550,2.806708,3072-4095,-1.000000,""
267_0_1,w0,profile_267,2680305.000000,256,21681.000000,1,COMPLETED_SUCCESSFULLY,2683044.012450,21680.000000,2704724.012450,2739.012450,24419.012450,1.126338,4096-4351,-1.000000,""
269_0_1,w0,profile_269,2682106.000000,256,21735.000000,1,COMPLETED_SUCCESSFULLY,2693322.010200,21734.000000,2715056.010200,11216.010200,32950.010200,1.516058,1792-2047,-1.000000,""
268_0_1,w0,profile_268,2680863.000000,256,21756.000000,0,COMPLETED_WALLTIME_REACHED,2693322.009600,21756.000000,2715078.009600,12459.009600,34215.009600,1.572670,1536-1791,-1.000000,""
255_0_1,w0,profile_255,2594322.000000,512,25200.000000,1,COMPLETED_SUCCESSFULLY,2693322.009000,22844.000000,2716166.009000,99000.009000,121844.009000,5.333742,1024-1535,-1.000000,""
245_0_1,w0,profile_245,2526165.000000,1024,86400.000000,1,COMPLETED_SUCCESSFULLY,2638205.007950,82898.000000,2721103.007950,112040.007950,194938.007950,2.351541,2048-3071,-1.000000,""
248_0_1,w0,profile_248,2531874.000000,1024,86400.000000,1,COMPLETED_SUCCESSFULLY,2691898.008400,34067.000000,2725965.008400,160024.008400,194091.008400,5.697332,0-1023,-1.000000,""
259_0_1,w0,profile_259,2612791.000000,512,32400.000000,1,COMPLETED_SUCCESSFULLY,2716169.010650,22973.000000,2739142.010650,103378.010650,126351.010650,5.499979,1024-1535,-1.000000,""
271_0_1,w0,profile_271,2703926.000000,256,21751.000000,1,COMPLETED_SUCCESSFULLY,2721106.010800,21750.000000,2742856.010800,17180.010800,38930.010800,1.789886,2816-3071,-1.000000,""
276_0_1,w0,profile_276,2711188.000000,134,23163.000000,1,COMPLETED_SUCCESSFULLY,2721106.011400,23162.000000,2744268.011400,9918.011400,33080.011400,1.428202,4203-4336,-1.000000,""
258_0_1,w0,profile_258,2612782.000000,512,32400.000000,1,COMPLETED_SUCCESSFULLY,2715059.011850,30709.000000,2745768.011850,102277.011850,132986.011850,4.330522,1792-2047 3947-4202,-1.000000,""
261_0_1,w0,profile_261,2612898.000000,512,32400.000000,1,COMPLETED_SUCCESSFULLY,2721106.010200,24850.000000,2745956.010200,108208.010200,133058.010200,5.354447,2304-2815,-1.000000,""
270_0_1,w0,profile_270,2683131.000000,512,25200.000000,1,COMPLETED_SUCCESSFULLY,2725968.010050,23017.000000,2748985.010050,42837.010050,65854.010050,2.861103,0-511,-1.000000,""
260_0_1,w0,profile_260,2612887.000000,512,32400.000000,1,COMPLETED_SUCCESSFULLY,2721106.009600,30706.000000,2751812.009600,108219.009600,138925.009600,4.524360,1536-1791 2048-2303,-1.000000,""
272_0_1,w0,profile_272,2708171.000000,512,32454.000000,1,COMPLETED_SUCCESSFULLY,2725968.010650,32453.000000,2758421.010650,17797.010650,50250.010650,1.548393,512-1023,-1.000000,""
273_0_1,w0,profile_273,2708227.000000,512,32497.000000,1,COMPLETED_SUCCESSFULLY,2739145.012300,32496.000000,2771641.012300,30918.012300,63414.012300,1.951441,1024-1535,-1.000000,""
256_0_1,w0,profile_256,2600157.000000,875,86400.000000,1,COMPLETED_SUCCESSFULLY,2699597.010200,75597.000000,2775194.010200,99440.010200,175037.010200,2.315396,3072-3946,-1.000000,""
274_0_1,w0,profile_274,2708286.000000,512,32445.000000,1,COMPLETED_SUCCESSFULLY,2745771.013500,32444.000000,2778215.013500,37485.013500,69929.013500,2.155376,1792-2047 2816-3071,-1.000000,""
275_0_1,w0,profile_275,2708303.000000,512,32460.000000,1,COMPLETED_SUCCESSFULLY,2745959.011850,32459.000000,2778418.011850,37656.011850,70115.011850,2.160110,2304-2815,-1.000000,""
277_0_1,w0,profile_277,2765369.000000,249,43200.000000,1,COMPLETED_SUCCESSFULLY,2778421.014100,29919.000000,2808340.014100,13052.014100,42971.014100,1.436245,4096-4344,-1.000000,""
262_0_1,w0,profile_262,2613699.000000,4096,86400.000000,1,COMPLETED_SUCCESSFULLY,2778421.013500,46452.000000,2824873.013500,164722.013500,211174.013500,4.546069,0-4095,-1.000000,""
283_0_1,w0,profile_283,2819365.000000,5,21637.000000,1,COMPLETED_SUCCESSFULLY,2819365.001800,21636.000000,2841001.001800,0.001800,21636.001800,1.000000,4345-4349,-1.000000,""
284_0_1,w0,profile_284,2819368.000000,5,21664.000000,1,COMPLETED_SUCCESSFULLY,2819368.001800,21663.000000,2841031.001800,0.001800,21663.001800,1.000000,4350-4354,-1.000000,""
286_0_1,w0,profile_286,2819372.000000,5,21689.000000,1,COMPLETED_SUCCESSFULLY,2819372.001800,21688.000000,2841060.001800,0.001800,21688.001800,1.000000,4360-4364,-1.000000,""
287_0_1,w0,profile_287,2819373.000000,5,21705.000000,1,COMPLETED_SUCCESSFULLY,2819373.001800,21704.000000,2841077.001800,0.001800,21704.001800,1.000000,4365-4369,-1.000000,""
285_0_1,w0,profile_285,2819369.000000,5,21734.000000,1,COMPLETED_SUCCESSFULLY,2819369.001800,21733.000000,2841102.001800,0.001800,21733.001800,1.000000,4355-4359,-1.000000,""
282_0_1,w0,profile_282,2791083.000000,249,50400.000000,1,COMPLETED_SUCCESSFULLY,2808343.015750,42860.000000,2851203.015750,17260.015750,60120.015750,1.402707,4096-4344,-1.000000,""
288_0_1,w0,profile_288,2846137.000000,249,50400.000000,1,COMPLETED_SUCCESSFULLY,2851206.017400,43899.000000,2895105.017400,5069.017400,48968.017400,1.115470,4096-4344,-1.000000,""
264_0_1,w0,profile_264,2627490.000000,4096,86520.000000,1,COMPLETED_SUCCESSFULLY,2824876.015150,86519.000000,2911395.015150,197386.015150,283905.015150,3.281418,0-4095,-1.000000,""
265_0_1,w0,profile_265,2627492.000000,4096,87931.000000,1,COMPLETED_SUCCESSFULLY,2911398.016800,87930.000000,2999328.016800,283906.016800,371836.016800,4.228773,0-4095,-1.000000,""
266_0_1,w0,profile_266,2674324.000000,249,144000.000000,1,COMPLETED_SUCCESSFULLY,2911398.017400,88738.000000,3000136.017400,237074.017400,325812.017400,3.671618,4096-4344,-1.000000,""
294_0_1,w0,profile_294,2953618.000000,256,21661.000000,1,COMPLETED_SUCCESSFULLY,2999331.022650,21660.000000,3020991.022650,45713.022650,67373.022650,3.110481,3833-4088,-1.000000,""
295_0_1,w0,profile_295,2954407.000000,256,21669.000000,1,COMPLETED_SUCCESSFULLY,3000139.019050,21668.000000,3021807.019050,45732.019050,67400.019050,3.110579,4089-4344,-1.000000,""
280_0_1,w0,profile_280,2766019.000000,512,25200.000000,1,COMPLETED_SUCCESSFULLY,2999331.019650,22891.000000,3022222.019650,233312.019650,256203.019650,11.192304,1024-1535,-1.000000,""
278_0_1,w0,profile_278,2765849.000000,512,25200.000000,1,COMPLETED_SUCCESSFULLY,2999331.018450,22899.000000,3022230.018450,233482.018450,256381.018450,11.196167,0-511,-1.000000,""
279_0_1,w0,profile_279,2765882.000000,512,25200.000000,1,COMPLETED_SUCCESSFULLY,2999331.019050,22915.000000,3022246.019050,233449.019050,256364.019050,11.187607,512-1023,-1.000000,""
293_0_1,w0,profile_293,2883342.000000,512,32400.000000,1,COMPLETED_SUCCESSFULLY,2999331.022050,25882.000000,3025213.022050,115989.022050,141871.022050,5.481455,3321-3832,-1.000000,""
292_0_1,w0,profile_292,2883333.000000,512,32400.000000,1,COMPLETED_SUCCESSFULLY,2999331.021450,30700.000000,3030031.021450,115998.021450,146698.021450,4.778437,2809-3320,-1.000000,""
281_0_1,w0,profile_281,2787397.000000,1024,34665.000000,1,COMPLETED_SUCCESSFULLY,2999331.020250,34664.000000,3033995.020250,211934.020250,246598.020250,7.113952,1536-2559,-1.000000,""
296_0_1,w0,profile_296,2954436.000000,256,21682.000000,1,COMPLETED_SUCCESSFULLY,3020994.024300,21681.000000,3042675.024300,66558.024300,88239.024300,4.069878,3833-4088,-1.000000,""
299_0_1,w0,profile_299,3060985.000000,25,21669.000000,1,COMPLETED_SUCCESSFULLY,3060985.001800,21668.000000,3082653.001800,0.001800,21668.001800,1.000000,4345-4369,-1.000000,""
289_0_1,w0,profile_289,2879930.000000,249,108000.000000,1,COMPLETED_SUCCESSFULLY,2999331.020850,98530.000000,3097861.020850,119401.020850,217931.020850,2.211824,2560-2808,-1.000000,""
290_0_1,w0,profile_290,2881112.000000,4096,86400.000000,1,COMPLETED_SUCCESSFULLY,3042678.025950,76555.000000,3119233.025950,161566.025950,238121.025950,3.110457,0-2559 2809-4344,-1.000000,""
300_0_1,w0,profile_300,3083205.000000,256,21670.000000,1,COMPLETED_SUCCESSFULLY,3097864.022500,21669.000000,3119533.022500,14659.022500,36328.022500,1.676497,2560-2808 4345-4351,-1.000000,""
291_0_1,w0,profile_291,2881205.000000,4096,86400.000000,1,COMPLETED_SUCCESSFULLY,3119236.027600,49164.000000,3168400.027600,238031.027600,287195.027600,5.841572,0-2559 2809-4344,-1.000000,""
301_0_1,w0,profile_301,3151263.000000,384,32400.000000,1,COMPLETED_SUCCESSFULLY,3168403.030450,23523.000000,3191926.030450,17140.030450,40663.030450,1.728650,2923-3306,-1.000000,""
302_0_1,w0,profile_302,3152121.000000,384,32400.000000,1,COMPLETED_SUCCESSFULLY,3168403.031050,23612.000000,3192015.031050,16282.031050,39894.031050,1.689566,3307-3690,-1.000000,""
303_0_1,w0,profile_303,3192270.000000,249,50400.000000,1,COMPLETED_SUCCESSFULLY,3192270.001800,21308.000000,3213578.001800,0.001800,21308.001800,1.000000,2923-3171,-1.000000,""
304_0_1,w0,profile_304,3200354.000000,802,21696.000000,1,COMPLETED_SUCCESSFULLY,3200354.001800,21695.000000,3222049.001800,0.001800,21695.001800,1.000000,3172-3973,-1.000000,""
305_0_1,w0,profile_305,3200357.000000,802,21709.000000,1,COMPLETED_SUCCESSFULLY,3222052.003450,21708.000000,3243760.003450,21695.003450,43403.003450,1.999401,2923-3724,-1.000000,""
297_0_1,w0,profile_297,2955811.000000,2048,86400.000000,1,COMPLETED_SUCCESSFULLY,3168403.029250,85048.000000,3253451.029250,212592.029250,297640.029250,3.499671,0-2047,-1.000000,""
298_0_1,w0,profile_298,3043963.000000,875,86400.000000,1,COMPLETED_SUCCESSFULLY,3168403.029850,85421.000000,3253824.029850,124440.029850,209861.029850,2.456785,2048-2922,-1.000000,""
306_0_1,w0,profile_306,3201324.000000,802,21728.000000,1,COMPLETED_SUCCESSFULLY,3243763.005100,21727.000000,3265490.005100,42439.005100,64166.005100,2.953284,2923-3724,-1.000000,""
314_0_1,w0,profile_314,3239992.000000,256,21651.000000,1,COMPLETED_SUCCESSFULLY,3253454.035100,21650.000000,3275104.035100,13462.035100,35112.035100,1.621803,4001-4256,-1.000000,""
310_0_1,w0,profile_310,3239987.000000,256,21659.000000,1,COMPLETED_SUCCESSFULLY,3253454.032700,21658.000000,3275112.032700,13467.032700,35125.032700,1.621804,1300-1555,-1.000000,""
312_0_1,w0,profile_312,3239990.000000,256,21659.000000,1,COMPLETED_SUCCESSFULLY,3253454.033900,21658.000000,3275112.033900,13464.033900,35122.033900,1.621666,1812-2047 3725-3744,-1.000000,""
307_0_1,w0,profile_307,3201329.000000,802,21691.000000,1,COMPLETED_SUCCESSFULLY,3253454.030900,21690.000000,3275144.030900,52125.030900,73815.030900,3.403183,0-801,-1.000000,""
313_0_1,w0,profile_313,3239991.000000,256,21706.000000,1,COMPLETED_SUCCESSFULLY,3253454.034500,21705.000000,3275159.034500,13463.034500,35168.034500,1.620273,3745-4000,-1.000000,""
311_0_1,w0,profile_311,3239988.000000,256,21772.000000,1,COMPLETED_SUCCESSFULLY,3253454.033300,21771.000000,3275225.033300,13466.033300,35237.033300,1.618531,1556-1811,-1.000000,""
316_0_1,w0,profile_316,3239995.000000,256,21642.000000,1,COMPLETED_SUCCESSFULLY,3253827.032100,21641.000000,3275468.032100,13832.032100,35473.032100,1.639159,2304-2559,-1.000000,""
317_0_1,w0,profile_317,3240005.000000,256,21669.000000,1,COMPLETED_SUCCESSFULLY,3253827.032700,21668.000000,3275495.032700,13822.032700,35490.032700,1.637901,2560-2815,-1.000000,""
315_0_1,w0,profile_315,3239994.000000,256,21694.000000,1,COMPLETED_SUCCESSFULLY,3253827.031500,21693.000000,3275520.031500,13833.031500,35526.031500,1.637673,2048-2303,-1.000000,""
308_0_1,w0,profile_308,3213484.000000,249,36000.000000,1,COMPLETED_SUCCESSFULLY,3253454.031500,30275.000000,3283729.031500,39970.031500,70245.031500,2.320232,802-1050,-1.000000,""
320_0_1,w0,profile_320,3241414.000000,256,21661.000000,1,COMPLETED_SUCCESSFULLY,3265493.007950,21660.000000,3287153.007950,24079.007950,45739.007950,2.111681,3328-3583,-1.000000,""
318_0_1,w0,profile_318,3240007.000000,256,21688.000000,1,COMPLETED_SUCCESSFULLY,3265493.006750,21687.000000,3287180.006750,25486.006750,47173.006750,2.175174,2816-3071,-1.000000,""
319_0_1,w0,profile_319,3240008.000000,256,21700.000000,1,COMPLETED_SUCCESSFULLY,3265493.007350,21699.000000,3287192.007350,25485.007350,47184.007350,2.174478,3072-3327,-1.000000,""
321_0_1,w0,profile_321,3245376.000000,802,21674.000000,1,COMPLETED_SUCCESSFULLY,3275118.035400,21673.000000,3296791.035400,29742.035400,51415.035400,2.372308,1300-1555 1812-2047 3584-3744 4001-4149,-1.000000,""
322_0_1,w0,profile_322,3245380.000000,802,21714.000000,1,COMPLETED_SUCCESSFULLY,3275147.032550,21713.000000,3296860.032550,29767.032550,51480.032550,2.370931,0-801,-1.000000,""
309_0_1,w0,profile_309,3214165.000000,249,50400.000000,1,COMPLETED_SUCCESSFULLY,3253454.032100,43886.000000,3297340.032100,39289.032100,83175.032100,1.895252,1051-1299,-1.000000,""
323_0_1,w0,profile_323,3246983.000000,400,24047.000000,1,COMPLETED_SUCCESSFULLY,3275162.036150,24046.000000,3299208.036150,28179.036150,52225.036150,2.171880,3745-4000 4150-4293,-1.000000,""
324_0_1,w0,profile_324,3247030.000000,400,25425.000000,1,COMPLETED_SUCCESSFULLY,3275471.033750,25424.000000,3300895.033750,28441.033750,53865.033750,2.118669,1556-1811 2304-2447,-1.000000,""
325_0_1,w0,profile_325,3291139.000000,249,36000.000000,1,COMPLETED_SUCCESSFULLY,3291139.001800,29507.000000,3320646.001800,0.001800,29507.001800,1.000000,802-1050,-1.000000,""
327_0_1,w0,profile_327,3299770.000000,256,21699.000000,1,COMPLETED_SUCCESSFULLY,3299770.001800,21698.000000,3321468.001800,0.001800,21698.001800,1.000000,1051-1299 2946-2952,-1.000000,""
329_0_1,w0,profile_329,3316503.000000,512,32400.000000,1,COMPLETED_SUCCESSFULLY,3316503.001800,20667.000000,3337170.001800,0.001800,20667.001800,1.000000,1805-1811 2304-2447 2953-3313,-1.000000,""
326_0_1,w0,profile_326,3296917.000000,2048,86400.000000,1,COMPLETED_SUCCESSFULLY,3296917.001800,48610.000000,3345527.001800,0.001800,48610.001800,1.000000,0-801 1300-1555 1812-2303 2448-2945,-1.000000,""
331_0_1,w0,profile_331,3324623.000000,512,25200.000000,1,COMPLETED_SUCCESSFULLY,3324623.001800,23392.000000,3348015.001800,0.001800,23392.001800,1.000000,802-1299 2946-2952 3814-3820,-1.000000,""
332_0_1,w0,profile_332,3325170.000000,512,25200.000000,1,COMPLETED_SUCCESSFULLY,3325170.001800,22992.000000,3348162.001800,0.001800,22992.001800,1.000000,3821-4332,-1.000000,""
330_0_1,w0,profile_330,3320095.000000,500,29464.000000,1,COMPLETED_SUCCESSFULLY,3320095.001800,29463.000000,3349558.001800,0.001800,29463.001800,1.000000,3314-3813,-1.000000,""
328_0_1,w0,profile_328,3308584.000000,249,79200.000000,1,COMPLETED_SUCCESSFULLY,3308584.001800,45169.000000,3353753.001800,0.001800,45169.001800,1.000000,1556-1804,-1.000000,""
333_0_1,w0,profile_333,3325330.000000,512,25369.000000,1,COMPLETED_SUCCESSFULLY,3337173.003450,25368.000000,3362541.003450,11843.003450,37211.003450,1.466848,1805-1811 2304-2447 2953-3313,-1.000000,""
334_0_1,w0,profile_334,3325554.000000,512,25293.000000,1,COMPLETED_SUCCESSFULLY,3345530.003450,25292.000000,3370822.003450,19976.003450,45268.003450,1.789815,0-511,-1.000000,""
339_0_1,w0,profile_339,3384664.000000,256,21600.000000,1,COMPLETED_SUCCESSFULLY,3384664.001800,20301.000000,3404965.001800,0.001800,20301.001800,1.000000,4096-4351,-1.000000,""
341_0_1,w0,profile_341,3393795.000000,1,21707.000000,1,COMPLETED_SUCCESSFULLY,3393795.001800,21706.000000,3415501.001800,0.001800,21706.001800,1.000000,4352,-1.000000,""
340_0_1,w0,profile_340,3384901.000000,256,21642.000000,1,COMPLETED_SUCCESSFULLY,3404968.003450,21641.000000,3426609.003450,20067.003450,41708.003450,1.927268,4096-4351,-1.000000,""
342_0_1,w0,profile_342,3420483.000000,256,21657.000000,1,COMPLETED_SUCCESSFULLY,3426612.005100,21656.000000,3448268.005100,6129.005100,27785.005100,1.283016,4096-4351,-1.000000,""
335_0_1,w0,profile_335,3332465.000000,4096,86400.000000,1,COMPLETED_SUCCESSFULLY,3370825.005100,84101.000000,3454926.005100,38360.005100,122461.005100,1.456118,0-4095,-1.000000,""
346_0_1,w0,profile_346,3471868.000000,1,21657.000000,1,COMPLETED_SUCCESSFULLY,3471868.001800,21656.000000,3493524.001800,0.001800,21656.001800,1.000000,4345,-1.000000,""
336_0_1,w0,profile_336,3332466.000000,4096,86400.000000,1,COMPLETED_SUCCESSFULLY,3454929.006750,48010.000000,3502939.006750,122463.006750,170473.006750,3.550781,0-4095,-1.000000,""
345_0_1,w0,profile_345,3469119.000000,256,21621.000000,1,COMPLETED_SUCCESSFULLY,3502942.010200,21620.000000,3524562.010200,33823.010200,55443.010200,2.564432,2027-2282,-1.000000,""
343_0_1,w0,profile_343,3455259.000000,640,43200.000000,1,COMPLETED_SUCCESSFULLY,3502942.009000,21832.000000,3524774.009000,47683.009000,69515.009000,3.184088,512-1151,-1.000000,""
338_0_1,w0,profile_338,3369065.000000,512,25200.000000,1,COMPLETED_SUCCESSFULLY,3502942.008400,23056.000000,3525998.008400,133877.008400,156933.008400,6.806602,0-511,-1.000000,""
337_0_1,w0,profile_337,3366348.000000,249,151200.000000,1,COMPLETED_SUCCESSFULLY,3454929.007350,117564.000000,3572493.007350,88581.007350,206145.007350,1.753471,4096-4344,-1.000000,""
344_0_1,w0,profile_344,3467584.000000,875,86400.000000,1,COMPLETED_SUCCESSFULLY,3502942.009600,78103.000000,3581045.009600,35358.009600,113461.009600,1.452710,1152-2026,-1.000000,""
347_0_1,w0,profile_347,3477666.000000,2048,86400.000000,1,COMPLETED_SUCCESSFULLY,3524565.011850,85191.000000,3609756.011850,46899.011850,132090.011850,1.550516,2027-4074,-1.000000,""
349_0_1,w0,profile_349,3594420.000000,10,21644.000000,1,COMPLETED_SUCCESSFULLY,3594420.001800,21643.000000,3616063.001800,0.001800,21643.001800,1.000000,0-9,-1.000000,""
348_0_1,w0,profile_348,3478923.000000,249,144000.000000,1,COMPLETED_SUCCESSFULLY,3524777.010650,126779.000000,3651556.010650,45854.010650,172633.010650,1.361685,512-760,-1.000000,""
353_0_1,w0,profile_353,3677990.000000,10,21688.000000,1,COMPLETED_SUCCESSFULLY,3677990.001800,21687.000000,3699677.001800,0.001800,21687.001800,1.000000,4345-4354,-1.000000,""
350_0_1,w0,profile_350,3625776.000000,249,86400.000000,1,COMPLETED_SUCCESSFULLY,3625776.001800,82827.000000,3708603.001800,0.001800,82827.001800,1.000000,0-248,-1.000000,""
351_0_1,w0,profile_351,3644178.000000,4096,86400.000000,1,COMPLETED_SUCCESSFULLY,3651559.012300,59728.000000,3711287.012300,7381.012300,67109.012300,1.123577,249-4344,-1.000000,""
352_0_1,w0,profile_352,3644767.000000,4096,86400.000000,1,COMPLETED_SUCCESSFULLY,3711290.013950,59999.000000,3771289.013950,66523.013950,126522.013950,2.108735,0-4095,-1.000000,""
354_0_1,w0,profile_354,3712027.000000,249,86400.000000,1,COMPLETED_SUCCESSFULLY,3712027.001800,76439.000000,3788466.001800,0.001800,76439.001800,1.000000,4096-4344,-1.000000,""
355_0_1,w0,profile_355,3784825.000000,256,21638.000000,1,COMPLETED_SUCCESSFULLY,3784825.001800,21637.000000,3806462.001800,0.001800,21637.001800,1.000000,0-255,-1.000000,""
357_0_1,w0,profile_357,3788771.000000,384,32400.000000,1,COMPLETED_SUCCESSFULLY,3788771.001800,23433.000000,3812204.001800,0.001800,23433.001800,1.000000,640-1023,-1.000000,""
356_0_1,w0,profile_356,3788208.000000,384,32400.000000,1,COMPLETED_SUCCESSFULLY,3788208.001800,24117.000000,3812325.001800,0.001800,24117.001800,1.000000,256-639,-1.000000,""
358_0_1,w0,profile_358,3812085.000000,256,21643.000000,1,COMPLETED_SUCCESSFULLY,3812085.001800,21642.000000,3833727.001800,0.001800,21642.001800,1.000000,0-255,-1.000000,""
360_0_1,w0,profile_360,3827080.000000,256,21726.000000,1,COMPLETED_SUCCESSFULLY,3827080.001800,21725.000000,3848805.001800,0.001800,21725.001800,1.000000,505-760,-1.000000,""
362_0_1,w0,profile_362,3863961.000000,256,21651.000000,1,COMPLETED_SUCCESSFULLY,3863961.001800,21650.000000,3885611.001800,0.001800,21650.001800,1.000000,505-760,-1.000000,""
359_0_1,w0,profile_359,3816988.000000,249,86545.000000,1,COMPLETED_SUCCESSFULLY,3816988.001800,86544.000000,3903532.001800,0.001800,86544.001800,1.000000,256-504,-1.000000,""
363_0_1,w0,profile_363,3882625.000000,384,32400.000000,1,COMPLETED_SUCCESSFULLY,3882625.001800,23660.000000,3906285.001800,0.001800,23660.001800,1.000000,1307-1690,-1.000000,""
364_0_1,w0,profile_364,3884810.000000,384,32400.000000,1,COMPLETED_SUCCESSFULLY,3884810.001800,23586.000000,3908396.001800,0.001800,23586.001800,1.000000,1691-2074,-1.000000,""
361_0_1,w0,profile_361,3841590.000000,802,86400.000000,1,COMPLETED_SUCCESSFULLY,3841590.001800,84647.000000,3926237.001800,0.001800,84647.001800,1.000000,0-255 761-1306,-1.000000,""
367_0_1,w0,profile_367,3916751.000000,256,21759.000000,1,COMPLETED_SUCCESSFULLY,3916751.001800,21758.000000,3938509.001800,0.001800,21758.001800,1.000000,510-760 1307-1311,-1.000000,""
368_0_1,w0,profile_368,3916752.000000,256,21793.000000,1,COMPLETED_SUCCESSFULLY,3916752.001800,21792.000000,3938544.001800,0.001800,21792.001800,1.000000,1312-1567,-1.000000,""
366_0_1,w0,profile_366,3913429.000000,249,43339.000000,1,COMPLETED_SUCCESSFULLY,3913429.001800,43338.000000,3956767.001800,0.001800,43338.001800,1.000000,261-509,-1.000000,""
365_0_1,w0,profile_365,3912988.000000,5,86400.000000,1,COMPLETED_SUCCESSFULLY,3912988.001800,55880.000000,3968868.001800,0.001800,55880.001800,1.000000,256-260,-1.000000,""
371_0_1,w0,profile_371,3963136.000000,384,32400.000000,1,COMPLETED_SUCCESSFULLY,3963136.001800,23589.000000,3986725.001800,0.001800,23589.001800,1.000000,773-1156,-1.000000,""
369_0_1,w0,profile_369,3963133.000000,384,32400.000000,1,COMPLETED_SUCCESSFULLY,3963133.001800,23815.000000,3986948.001800,0.001800,23815.001800,1.000000,0-255 261-388,-1.000000,""
370_0_1,w0,profile_370,3963135.000000,384,32400.000000,1,COMPLETED_SUCCESSFULLY,3963135.001800,23904.000000,3987039.001800,0.001800,23904.001800,1.000000,389-772,-1.000000,""
372_0_1,w0,profile_372,3972374.000000,1024,21697.000000,1,COMPLETED_SUCCESSFULLY,3972374.001800,21696.000000,3994070.001800,0.001800,21696.001800,1.000000,256-260 1157-2175,-1.000000,""
374_0_1,w0,profile_374,3995425.000000,512,25200.000000,1,COMPLETED_SUCCESSFULLY,3995425.001800,22893.000000,4018318.001800,0.001800,22893.001800,1.000000,241-752,-1.000000,""
375_0_1,w0,profile_375,3995500.000000,512,25200.000000,1,COMPLETED_SUCCESSFULLY,3995500.001800,22914.000000,4018414.001800,0.001800,22914.001800,1.000000,753-1264,-1.000000,""
378_0_1,w0,profile_378,4048637.000000,256,21748.000000,1,COMPLETED_SUCCESSFULLY,4048637.001800,21747.000000,4070384.001800,0.001800,21747.001800,1.000000,241-496,-1.000000,""
379_0_1,w0,profile_379,4066229.000000,2032,32400.000000,1,COMPLETED_SUCCESSFULLY,4066229.001800,23160.000000,4089389.001800,0.001800,23160.001800,1.000000,497-1264 1777-3040,-1.000000,""
377_0_1,w0,profile_377,4016347.000000,256,86513.000000,1,COMPLETED_SUCCESSFULLY,4016347.001800,86512.000000,4102859.001800,0.001800,86512.001800,1.000000,1521-1776,-1.000000,""
376_0_1,w0,profile_376,4016345.000000,256,86549.000000,1,COMPLETED_SUCCESSFULLY,4016345.001800,86548.000000,4102893.001800,0.001800,86548.001800,1.000000,1265-1520,-1.000000,""
373_0_1,w0,profile_373,3989116.000000,241,129600.000000,1,COMPLETED_SUCCESSFULLY,3989116.001800,117649.000000,4106765.001800,0.001800,117649.001800,1.000000,0-240,-1.000000,""
380_0_1,w0,profile_380,4078078.000000,802,86400.000000,1,COMPLETED_SUCCESSFULLY,4078078.001800,72122.000000,4150200.001800,0.001800,72122.001800,1.000000,241-496 3041-3586,-1.000000,""
381_0_1,w0,profile_381,4087322.000000,3850,32400.000000,1,COMPLETED_SUCCESSFULLY,4150203.003450,24130.000000,4174333.003450,62881.003450,87011.003450,3.605926,0-3849,-1.000000,""
382_0_1,w0,profile_382,4087343.000000,3850,32400.000000,1,COMPLETED_SUCCESSFULLY,4174336.005100,29638.000000,4203974.005100,86993.005100,116631.005100,3.935185,0-3849,-1.000000,""
