time,nb_sleeping,nb_switching_on,nb_switching_off,nb_idle,nb_computing
0.00240003,0,0,0,4391,1
0.00300004,0,0,0,4390,2
0.00360005,0,0,0,4389,3
0.00420006,0,0,0,3749,643
0.00480006,0,0,0,3109,1283
0.00540007,0,0,0,2469,1923
0.00600008,0,0,0,1829,2563
0.00660009,0,0,0,1189,3203
0.0072001,0,0,0,549,3843
0.0078001,0,0,0,300,4092
0.00840011,0,0,0,51,4341
0.00900012,0,0,0,50,4342
0.00960013,0,0,0,49,4343
0.0102001,0,0,0,48,4344
0.0108001,0,0,0,47,4345
15100,0,0,0,48,4344
15461,0,0,0,49,4343
17292,0,0,0,50,4342
17744,0,0,0,51,4341
22913,0,0,0,52,4340
23832,0,0,0,301,4091
23835,0,0,0,52,4340
24676,0,0,0,301,4091
24679,0,0,0,173,4219
24679,0,0,0,45,4347
34699,0,0,0,294,4098
35369,0,0,0,295,4097
35580,0,0,0,423,3969
35668,0,0,0,551,3841
36000,0,0,0,552,3840
43330,0,0,0,1192,3200
43333,0,0,0,552,3840
43359,0,0,0,1192,3200
43362,0,0,0,552,3840
43364,0,0,0,1192,3200
43367,0,0,0,552,3840
43386,0,0,0,1192,3200
43389,0,0,0,552,3840
43389,0,0,0,551,3841
44698,0,0,0,1191,3201
44701,0,0,0,316,4076
46007,0,0,0,956,3436
46010,0,0,0,444,3948
46010,0,0,0,316,4076
46010,0,0,0,64,4328
56880,0,0,0,316,4076
56883,0,0,0,188,4204
56883,0,0,0,60,4332
56942,0,0,0,188,4204
56945,0,0,0,60,4332
67829,0,0,0,188,4204
67832,0,0,0,60,4332
67841,0,0,0,188,4204
67844,0,0,0,60,4332
67866,0,0,0,188,4204
67869,0,0,0,60,4332
69255,0,0,0,572,3820
69258,0,0,0,316,4076
69258,0,0,0,60,4332
78144,0,0,0,188,4204
78239,0,0,0,316,4076
78518,0,0,0,444,3948
80104,0,0,0,700,3692
80177,0,0,0,956,3436
86629,0,0,0,1596,2796
86632,0,0,0,42,4350
86635,0,0,0,682,3710
86681,0,0,0,1322,3070
86684,0,0,0,520,3872
86684,0,0,0,271,4121
86684,0,0,0,22,4370
86699,0,0,0,662,3730
86702,0,0,0,406,3986
86702,0,0,0,150,4242
86702,0,0,0,22,4370
97610,0,0,0,150,4242
100257,0,0,0,952,3440
100260,0,0,0,696,3696
100260,0,0,0,440,3952
104636,0,0,0,1994,2398
104639,0,0,0,1154,3238
104639,0,0,0,898,3494
104639,0,0,0,386,4006
104639,0,0,0,130,4262
104639,0,0,0,2,4390
115576,0,0,0,130,4262
115579,0,0,0,2,4390
117209,0,0,0,258,4134
117212,0,0,0,130,4262
117212,0,0,0,2,4390
117283,0,0,0,258,4134
117286,0,0,0,130,4262
117286,0,0,0,2,4390
123121,0,0,0,877,3515
123124,0,0,0,749,3643
123124,0,0,0,621,3771
123124,0,0,0,493,3899
123124,0,0,0,365,4027
123124,0,0,0,237,4155
123124,0,0,0,109,4283
126392,0,0,0,237,4155
126395,0,0,0,109,4283
127767,0,0,0,237,4155
127928,0,0,0,365,4027
127930,0,0,0,493,3899
128119,0,0,0,621,3771
129924,0,0,0,870,3522
129970,0,0,0,871,3521
133622,0,0,0,999,3393
133624,0,0,0,1127,3265
133661,0,0,0,1255,3137
133667,0,0,0,1383,3009
133672,0,0,0,1511,2881
133996,0,0,0,1639,2753
136953,0,0,0,1767,2625
137067,0,0,0,2279,2113
137070,0,0,0,231,4161
137070,0,0,0,103,4289
147672,0,0,0,231,4161
147675,0,0,0,103,4289
158224,0,0,0,231,4161
158227,0,0,0,103,4289
168049,0,0,0,359,4033
168791,0,0,0,487,3905
173158,0,0,0,743,3649
174554,0,0,0,999,3393
174557,0,0,0,124,4268
174557,0,0,0,123,4269
186827,0,0,0,379,4013
186830,0,0,0,130,4262
186830,0,0,0,2,4390
191495,0,0,0,842,3550
191498,0,0,0,586,3806
191498,0,0,0,330,4062
191498,0,0,0,202,4190
191498,0,0,0,74,4318
197236,0,0,0,202,4190
197239,0,0,0,74,4318
201811,0,0,0,202,4190
201814,0,0,0,74,4318
202379,0,0,0,202,4190
202382,0,0,0,74,4318
208128,0,0,0,202,4190
212719,0,0,0,330,4062
213165,0,0,0,586,3806
213253,0,0,0,842,3550
213269,0,0,0,970,3422
216476,0,0,0,1219,3173
216479,0,0,0,195,4197
223614,0,0,0,2243,2149
223617,0,0,0,1219,3173
223617,0,0,0,1091,3301
223617,0,0,0,963,3429
223617,0,0,0,835,3557
223617,0,0,0,707,3685
223617,0,0,0,575,3817
223617,0,0,0,447,3945
223617,0,0,0,57,4335
234086,0,0,0,189,4203
234425,0,0,0,317,4075
234440,0,0,0,445,3947
234444,0,0,0,573,3819
234463,0,0,0,701,3691
234486,0,0,0,829,3563
234521,0,0,0,1219,3173
237115,0,0,0,2243,2149
237118,0,0,0,195,4197
237118,0,0,0,67,4325
240188,0,0,0,316,4076
240191,0,0,0,60,4332
247996,0,0,0,188,4204
251181,0,0,0,444,3948
251373,0,0,0,1319,3073
251376,0,0,0,807,3585
251376,0,0,0,295,4097
251376,0,0,0,46,4346
253405,0,0,0,2094,2298
253408,0,0,0,1292,3100
253408,0,0,0,490,3902
253408,0,0,0,234,4158
253408,0,0,0,106,4286
253408,0,0,0,89,4303
260388,0,0,0,90,4302
264235,0,0,0,218,4174
264238,0,0,0,90,4302
274920,0,0,0,218,4174
274946,0,0,0,235,4157
275062,0,0,0,491,3901
279273,0,0,0,1515,2877
279276,0,0,0,491,3901
279276,0,0,0,235,4157
279276,0,0,0,107,4285
282069,0,0,0,619,3773
282072,0,0,0,363,4029
282072,0,0,0,107,4285
282122,0,0,0,619,3773
282125,0,0,0,370,4022
282125,0,0,0,114,4278
285925,0,0,0,916,3476
285928,0,0,0,114,4278
286000,0,0,0,916,3476
286003,0,0,0,660,3732
286003,0,0,0,404,3988
286003,0,0,0,148,4244
286003,0,0,0,20,4372
289979,0,0,0,148,4244
289982,0,0,0,20,4372
290243,0,0,0,18,4374
292879,0,0,0,274,4118
292882,0,0,0,18,4374
296074,0,0,0,274,4118
296077,0,0,0,18,4374
296121,0,0,0,274,4118
296124,0,0,0,18,4374
296925,0,0,0,146,4246
296928,0,0,0,18,4374
297520,0,0,0,267,4125
297523,0,0,0,11,4381
300883,0,0,0,139,4253
300886,0,0,0,11,4381
303848,0,0,0,267,4125
303851,0,0,0,11,4381
305147,0,0,0,260,4132
305150,0,0,0,4,4388
307578,0,0,0,806,3586
307581,0,0,0,294,4098
307581,0,0,0,45,4347
307670,0,0,0,301,4091
307673,0,0,0,45,4347
307701,0,0,0,301,4091
307704,0,0,0,45,4347
307931,0,0,0,301,4091
307934,0,0,0,173,4219
307934,0,0,0,45,4347
307947,0,0,0,173,4219
307950,0,0,0,45,4347
311569,0,0,0,173,4219
311572,0,0,0,45,4347
311912,0,0,0,47,4345
314531,0,0,0,303,4089
314534,0,0,0,47,4345
317720,0,0,0,303,4089
317723,0,0,0,47,4345
317778,0,0,0,303,4089
317781,0,0,0,47,4345
318516,0,0,0,175,4217
318519,0,0,0,47,4345
318547,0,0,0,303,4089
318550,0,0,0,47,4345
318590,0,0,0,175,4217
318593,0,0,0,47,4345
318832,0,0,0,175,4217
318835,0,0,0,47,4345
319251,0,0,0,303,4089
319254,0,0,0,175,4217
322304,0,0,0,431,3961
322437,0,0,0,559,3833
322440,0,0,0,69,4323
325264,0,0,0,318,4074
325522,0,0,0,574,3818
326891,0,0,0,830,3562
328349,0,0,0,1086,3306
329071,0,0,0,1214,3178
329203,0,0,0,1342,3050
329221,0,0,0,1470,2922
329461,0,0,0,1726,2666
329892,0,0,0,1854,2538
330479,0,0,0,2366,2026
331565,0,0,0,2622,1770
331810,0,0,0,2878,1514
333332,0,0,0,3368,1024
336126,0,0,0,4392,0
336129,0,0,0,296,4096
336129,0,0,0,47,4345
336129,0,0,0,46,4346
336129,0,0,0,45,4347
393819,0,0,0,294,4098
393822,0,0,0,38,4354
406681,0,0,0,39,4353
415554,0,0,0,295,4097
415915,0,0,0,296,4096
422685,0,0,0,4392,0
422688,0,0,0,3496,896
422688,0,0,0,2600,1792
422688,0,0,0,1704,2688
422688,0,0,0,808,3584
422688,0,0,0,424,3968
422688,0,0,0,40,4352
444324,0,0,0,424,3968
444430,0,0,0,808,3584
452531,0,0,0,1704,2688
452534,0,0,0,808,3584
452564,0,0,0,1704,2688
452567,0,0,0,808,3584
454788,0,0,0,1704,2688
454791,0,0,0,808,3584
454872,0,0,0,1704,2688
454875,0,0,0,808,3584
454875,0,0,0,552,3840
454875,0,0,0,40,4352
474646,0,0,0,552,3840
476525,0,0,0,808,3584
484144,0,0,0,1704,2688
484147,0,0,0,829,3563
484147,0,0,0,580,3812
484147,0,0,0,331,4061
484147,0,0,0,82,4310
484377,0,0,0,978,3414
484380,0,0,0,466,3926
486946,0,0,0,1362,3030
486949,0,0,0,850,3542
487585,0,0,0,1746,2646
487588,0,0,0,789,3603
487588,0,0,0,539,3853
487588,0,0,0,411,3981
487588,0,0,0,283,4109
487588,0,0,0,155,4237
487588,0,0,0,27,4365
497939,0,0,0,155,4237
497971,0,0,0,283,4109
498162,0,0,0,411,3981
498455,0,0,0,539,3853
498492,0,0,0,789,3603
501433,0,0,0,1746,2646
501436,0,0,0,722,3670
501436,0,0,0,594,3798
501436,0,0,0,466,3926
501436,0,0,0,338,4054
501436,0,0,0,210,4182
501436,0,0,0,82,4310
511938,0,0,0,210,4182
512070,0,0,0,338,4054
512084,0,0,0,466,3926
512308,0,0,0,594,3798
514809,0,0,0,722,3670
515782,0,0,0,1234,3158
515785,0,0,0,122,4270
518347,0,0,0,634,3758
518350,0,0,0,506,3886
518350,0,0,0,378,4014
518350,0,0,0,250,4142
518350,0,0,0,122,4270
526895,0,0,0,371,4021
526898,0,0,0,115,4277
528724,0,0,0,243,4149
528727,0,0,0,115,4277
528843,0,0,0,243,4149
528964,0,0,0,371,4021
529202,0,0,0,499,3893
537189,0,0,0,755,3637
538837,0,0,0,883,3509
538918,0,0,0,1132,3260
538921,0,0,0,236,4156
538921,0,0,0,108,4284
543094,0,0,0,357,4035
543097,0,0,0,101,4291
549761,0,0,0,229,4163
549764,0,0,0,101,4291
553583,0,0,0,357,4035
553586,0,0,0,229,4163
553586,0,0,0,101,4291
560075,0,0,0,229,4163
561416,0,0,0,1104,3288
564115,0,0,0,1232,3160
564275,0,0,0,1360,3032
567107,0,0,0,2384,2008
567110,0,0,0,352,4040
567110,0,0,0,224,4168
567110,0,0,0,62,4330
577818,0,0,0,190,4202
577821,0,0,0,62,4330
577970,0,0,0,224,4168
577973,0,0,0,96,4296
585747,0,0,0,2128,2264
585750,0,0,0,80,4312
588704,0,0,0,208,4184
588707,0,0,0,80,4312
588850,0,0,0,208,4184
588853,0,0,0,80,4312
596609,0,0,0,2128,2264
599604,0,0,0,2256,2136
599750,0,0,0,2384,2008
602272,0,0,0,3496,896
602275,0,0,0,922,3470
602275,0,0,0,607,3785
602275,0,0,0,479,3913
602275,0,0,0,351,4041
602275,0,0,0,223,4169
602275,0,0,0,95,4297
613101,0,0,0,223,4169
613106,0,0,0,351,4041
613127,0,0,0,666,3726
613146,0,0,0,794,3598
613148,0,0,0,922,3470
616039,0,0,0,3496,896
616042,0,0,0,316,4076
625366,0,0,0,1212,3180
625369,0,0,0,337,4055
625369,0,0,0,88,4304
632298,0,0,0,3268,1124
632301,0,0,0,2244,2148
632301,0,0,0,1220,3172
632301,0,0,0,752,3640
632301,0,0,0,240,4152
632301,0,0,0,112,4280
643216,0,0,0,240,4152
643219,0,0,0,112,4280
645820,0,0,0,1136,3256
645823,0,0,0,112,4280
654045,0,0,0,240,4152
654048,0,0,0,112,4280
654270,0,0,0,624,3768
654273,0,0,0,375,4017
654273,0,0,0,126,4266
658384,0,0,0,1150,3242
658387,0,0,0,901,3491
658387,0,0,0,501,3891
658387,0,0,0,373,4019
658387,0,0,0,245,4147
658387,0,0,0,117,4275
664132,0,0,0,245,4147
664135,0,0,0,117,4275
664810,0,0,0,585,3807
664813,0,0,0,452,3940
664813,0,0,0,196,4196
664813,0,0,0,68,4324
668511,0,0,0,196,4196
668514,0,0,0,68,4324
668705,0,0,0,196,4196
668708,0,0,0,68,4324
668874,0,0,0,196,4196
668877,0,0,0,68,4324
674962,0,0,0,196,4196
674965,0,0,0,68,4324
675071,0,0,0,196,4196
675074,0,0,0,68,4324
675362,0,0,0,324,4068
675365,0,0,0,196,4196
675365,0,0,0,68,4324
675672,0,0,0,201,4191
675675,0,0,0,65,4327
679256,0,0,0,193,4199
679259,0,0,0,65,4327
679370,0,0,0,193,4199
679373,0,0,0,65,4327
679544,0,0,0,193,4199
679547,0,0,0,65,4327
680089,0,0,0,314,4078
680092,0,0,0,186,4206
680092,0,0,0,58,4334
682525,0,0,0,458,3934
682528,0,0,0,143,4249
682528,0,0,0,15,4377
685456,0,0,0,143,4249
685459,0,0,0,15,4377
685469,0,0,0,143,4249
685472,0,0,0,15,4377
686212,0,0,0,143,4249
686221,0,0,0,271,4121
686224,0,0,0,15,4377
686517,0,0,0,1039,3353
686520,0,0,0,237,4155
687800,0,0,0,107,4285
687916,0,0,0,243,4149
689715,0,0,0,83,4309
690044,0,0,0,211,4181
690154,0,0,0,339,4053
690189,0,0,0,123,4269
690226,0,0,0,251,4141
690613,0,0,0,119,4273
690759,0,0,0,247,4145
690884,0,0,0,375,4017
693362,0,0,0,503,3889
693382,0,0,0,818,3574
696049,0,0,0,946,3446
696307,0,0,0,1195,3197
696343,0,0,0,1323,3069
696366,0,0,0,1572,2820
698628,0,0,0,1702,2690
700375,0,0,0,1951,2441
700579,0,0,0,2111,2281
700983,0,0,0,2913,1479
701054,0,0,0,3045,1347
701106,0,0,0,3261,1131
702504,0,0,0,3517,875
703966,0,0,0,4392,0
703969,0,0,0,296,4096
703969,0,0,0,47,4345
703969,0,0,0,46,4346
769610,0,0,0,295,4097
769613,0,0,0,45,4347
780475,0,0,0,295,4097
788599,0,0,0,296,4096
790459,0,0,0,4392,0
790462,0,0,0,296,4096
790462,0,0,0,38,4354
812115,0,0,0,296,4096
812118,0,0,0,168,4224
812118,0,0,0,40,4352
822741,0,0,0,168,4224
822744,0,0,0,40,4352
822964,0,0,0,168,4224
822967,0,0,0,40,4352
833608,0,0,0,168,4224
833611,0,0,0,40,4352
833758,0,0,0,168,4224
833761,0,0,0,40,4352
844271,0,0,0,168,4224
844274,0,0,0,296,4096
844277,0,0,0,40,4352
857852,0,0,0,296,4096
857855,0,0,0,168,4224
857855,0,0,0,40,4352
868190,0,0,0,168,4224
868715,0,0,0,296,4096
876996,0,0,0,4392,0
876999,0,0,0,2344,2048
876999,0,0,0,296,4096
876999,0,0,0,47,4345
876999,0,0,0,46,4346
895041,0,0,0,47,4345
913563,0,0,0,15,4377
935235,0,0,0,47,4345
958776,0,0,0,2095,2297
958779,0,0,0,1220,3172
963490,0,0,0,3268,1124
963493,0,0,0,1220,3172
963493,0,0,0,971,3421
963493,0,0,0,459,3933
963493,0,0,0,73,4319
963493,0,0,0,13,4379
985126,0,0,0,73,4319
986313,0,0,0,585,3807
986316,0,0,0,457,3935
986316,0,0,0,329,4063
986316,0,0,0,201,4191
986316,0,0,0,73,4319
995976,0,0,0,459,3933
996828,0,0,0,587,3805
996877,0,0,0,715,3677
996911,0,0,0,843,3549
996917,0,0,0,971,3421
996944,0,0,0,3019,1373
996947,0,0,0,1995,2397
996947,0,0,0,971,3421
996947,0,0,0,459,3933
996947,0,0,0,144,4248
996947,0,0,0,16,4376
996947,0,0,0,6,4386
1.00669e+06,0,0,0,255,4137
1.0067e+06,0,0,0,127,4265
1.00777e+06,0,0,0,442,3950
1.00777e+06,0,0,0,314,4078
1.00777e+06,0,0,0,186,4206
1.00777e+06,0,0,0,58,4334
1.0078e+06,0,0,0,186,4206
1.0078e+06,0,0,0,58,4334
1.01755e+06,0,0,0,186,4206
1.0186e+06,0,0,0,314,4078
1.0186e+06,0,0,0,324,4068
1.01864e+06,0,0,0,452,3940
1.01866e+06,0,0,0,580,3812
1.01867e+06,0,0,0,708,3684
1.02002e+06,0,0,0,1220,3172
1.02065e+06,0,0,0,2244,2148
1.02065e+06,0,0,0,196,4196
1.02205e+06,0,0,0,1220,3172
1.02206e+06,0,0,0,196,4196
1.02206e+06,0,0,0,65,4327
1.02206e+06,0,0,0,5,4387
1.03291e+06,0,0,0,136,4256
1.03291e+06,0,0,0,8,4384
1.0437e+06,0,0,0,68,4324
1.04378e+06,0,0,0,196,4196
1.04399e+06,0,0,0,1071,3321
1.044e+06,0,0,0,47,4345
1.08094e+06,0,0,0,1071,3321
1.08094e+06,0,0,0,821,3571
1.08094e+06,0,0,0,693,3699
1.08094e+06,0,0,0,565,3827
1.08094e+06,0,0,0,437,3955
1.08094e+06,0,0,0,309,4083
1.08094e+06,0,0,0,181,4211
1.08094e+06,0,0,0,53,4339
1.09151e+06,0,0,0,181,4211
1.09154e+06,0,0,0,309,4083
1.09179e+06,0,0,0,559,3833
1.09181e+06,0,0,0,687,3705
1.09181e+06,0,0,0,815,3577
1.09183e+06,0,0,0,943,3449
1.09184e+06,0,0,0,1071,3321
1.09323e+06,0,0,0,1320,3072
1.09323e+06,0,0,0,208,4184
1.09323e+06,0,0,0,80,4312
1.10379e+06,0,0,0,208,4184
1.10719e+06,0,0,0,2256,2136
1.10719e+06,0,0,0,1232,3160
1.10719e+06,0,0,0,104,4288
1.12411e+06,0,0,0,1232,3160
1.12827e+06,0,0,0,2256,2136
1.12827e+06,0,0,0,208,4184
1.12827e+06,0,0,0,80,4312
1.12827e+06,0,0,0,48,4344
1.13883e+06,0,0,0,176,4216
1.13883e+06,0,0,0,48,4344
1.14938e+06,0,0,0,176,4216
1.14938e+06,0,0,0,48,4344
1.14995e+06,0,0,0,80,4312
1.16e+06,0,0,0,208,4184
1.16001e+06,0,0,0,80,4312
1.17038e+06,0,0,0,208,4184
1.17038e+06,0,0,0,80,4312
1.17969e+06,0,0,0,1192,3200
1.17969e+06,0,0,0,680,3712
1.17969e+06,0,0,0,168,4224
1.17969e+06,0,0,0,40,4352
1.18079e+06,0,0,0,168,4224
1.18079e+06,0,0,0,40,4352
1.18143e+06,0,0,0,1064,3328
1.18144e+06,0,0,0,552,3840
1.18144e+06,0,0,0,52,4340
1.19005e+06,0,0,0,180,4212
1.19005e+06,0,0,0,52,4340
1.19138e+06,0,0,0,180,4212
1.19138e+06,0,0,0,52,4340
1.20096e+06,0,0,0,180,4212
1.20096e+06,0,0,0,52,4340
1.20191e+06,0,0,0,180,4212
1.20191e+06,0,0,0,52,4340
1.20271e+06,0,0,0,564,3828
1.20271e+06,0,0,0,436,3956
1.20271e+06,0,0,0,308,4084
1.20271e+06,0,0,0,180,4212
1.20271e+06,0,0,0,52,4340
1.2028e+06,0,0,0,564,3828
1.20281e+06,0,0,0,436,3956
1.20281e+06,0,0,0,308,4084
1.20281e+06,0,0,0,180,4212
1.20281e+06,0,0,0,52,4340
1.20311e+06,0,0,0,552,3840
1.2044e+06,0,0,0,1064,3328
1.21152e+06,0,0,0,1192,3200
1.21246e+06,0,0,0,1320,3072
1.21305e+06,0,0,0,1448,2944
1.21308e+06,0,0,0,1576,2816
1.21314e+06,0,0,0,1704,2688
1.21315e+06,0,0,0,1832,2560
1.21319e+06,0,0,0,1960,2432
1.21324e+06,0,0,0,2088,2304
1.21325e+06,0,0,0,2216,2176
1.21328e+06,0,0,0,2344,2048
1.2133e+06,0,0,0,4392,0
1.2133e+06,0,0,0,1232,3160
1.2133e+06,0,0,0,720,3672
1.2133e+06,0,0,0,464,3928
1.2133e+06,0,0,0,336,4056
1.2133e+06,0,0,0,208,4184
1.2133e+06,0,0,0,80,4312
1.22389e+06,0,0,0,208,4184
1.22389e+06,0,0,0,336,4056
1.22391e+06,0,0,0,464,3928
1.22414e+06,0,0,0,720,3672
1.22417e+06,0,0,0,1232,3160
1.22989e+06,0,0,0,4392,0
1.22989e+06,0,0,0,2838,1554
1.22989e+06,0,0,0,790,3602
1.22989e+06,0,0,0,662,3730
1.22989e+06,0,0,0,534,3858
1.22989e+06,0,0,0,406,3986
1.22989e+06,0,0,0,278,4114
1.22989e+06,0,0,0,150,4242
1.22989e+06,0,0,0,22,4370
1.24045e+06,0,0,0,150,4242
1.24046e+06,0,0,0,278,4114
1.24046e+06,0,0,0,406,3986
1.24047e+06,0,0,0,534,3858
1.24049e+06,0,0,0,662,3730
1.24052e+06,0,0,0,790,3602
1.24642e+06,0,0,0,2344,2048
1.24642e+06,0,0,0,1320,3072
1.24642e+06,0,0,0,1064,3328
1.24642e+06,0,0,0,564,3828
1.24642e+06,0,0,0,52,4340
1.24642e+06,0,0,0,19,4373
1.26387e+06,0,0,0,52,4340
1.26805e+06,0,0,0,552,3840
1.26811e+06,0,0,0,808,3584
1.27785e+06,0,0,0,1320,3072
1.27799e+06,0,0,0,3368,1024
1.278e+06,0,0,0,1320,3072
1.278e+06,0,0,0,296,4096
1.278e+06,0,0,0,40,4352
1.29966e+06,0,0,0,296,4096
1.30171e+06,0,0,0,1320,3072
1.30171e+06,0,0,0,518,3874
1.30171e+06,0,0,0,269,4123
1.30171e+06,0,0,0,141,4251
1.30171e+06,0,0,0,13,4379
1.31226e+06,0,0,0,141,4251
1.31228e+06,0,0,0,269,4123
1.31997e+06,0,0,0,2317,2075
1.31997e+06,0,0,0,1317,3075
1.31997e+06,0,0,0,805,3587
1.31997e+06,0,0,0,293,4099
1.31997e+06,0,0,0,43,4349
1.33082e+06,0,0,0,293,4099
1.33082e+06,0,0,0,165,4227
1.33082e+06,0,0,0,37,4355
1.34138e+06,0,0,0,165,4227
1.34139e+06,0,0,0,293,4099
1.3429e+06,0,0,0,805,3587
1.34291e+06,0,0,0,506,3886
1.34291e+06,0,0,0,257,4135
1.34291e+06,0,0,0,129,4263
1.34291e+06,0,0,0,1,4391
1.34405e+06,0,0,0,1025,3367
1.34405e+06,0,0,0,513,3879
1.34405e+06,0,0,0,1,4391
1.35151e+06,0,0,0,513,3879
1.35152e+06,0,0,0,1,4391
1.35343e+06,0,0,0,129,4263
1.35344e+06,0,0,0,1,4391
1.35347e+06,0,0,0,129,4263
1.35348e+06,0,0,0,1,4391
1.3605e+06,0,0,0,1001,3391
1.3605e+06,0,0,0,873,3519
1.3605e+06,0,0,0,745,3647
1.3605e+06,0,0,0,430,3962
1.3605e+06,0,0,0,302,4090
1.3605e+06,0,0,0,174,4218
1.3605e+06,0,0,0,46,4346
1.36399e+06,0,0,0,174,4218
1.36399e+06,0,0,0,46,4346
1.36409e+06,0,0,0,174,4218
1.36409e+06,0,0,0,46,4346
1.36456e+06,0,0,0,345,4047
1.36457e+06,0,0,0,217,4175
1.36457e+06,0,0,0,89,4303
1.36685e+06,0,0,0,338,4054
1.36685e+06,0,0,0,210,4182
1.36685e+06,0,0,0,82,4310
1.36934e+06,0,0,0,331,4061
1.37085e+06,0,0,0,459,3933
1.37107e+06,0,0,0,587,3805
1.3711e+06,0,0,0,715,3677
1.37111e+06,0,0,0,843,3549
1.37112e+06,0,0,0,971,3421
1.37132e+06,0,0,0,1286,3106
1.3734e+06,0,0,0,1798,2594
1.3746e+06,0,0,0,1926,2466
1.37463e+06,0,0,0,2054,2338
1.37473e+06,0,0,0,2566,1826
1.37474e+06,0,0,0,3078,1314
1.37512e+06,0,0,0,3206,1186
1.37513e+06,0,0,0,3334,1058
1.37722e+06,0,0,0,3462,930
1.3774e+06,0,0,0,3590,802
1.37848e+06,0,0,0,4392,0
1.37848e+06,0,0,0,296,4096
1.37848e+06,0,0,0,47,4345
1.42066e+06,0,0,0,296,4096
1.42179e+06,0,0,0,4392,0
1.4218e+06,0,0,0,296,4096
1.4218e+06,0,0,0,47,4345
1.4218e+06,0,0,0,14,4378
1.44086e+06,0,0,0,47,4345
1.44086e+06,0,0,0,22,4370
1.45204e+06,0,0,0,47,4345
1.46535e+06,0,0,0,296,4096
1.47243e+06,0,0,0,4392,0
1.47243e+06,0,0,0,3880,512
1.47243e+06,0,0,0,3368,1024
1.47243e+06,0,0,0,3119,1273
1.47243e+06,0,0,0,3118,1274
1.47243e+06,0,0,0,2478,1914
1.47243e+06,0,0,0,1838,2554
1.47243e+06,0,0,0,1198,3194
1.47243e+06,0,0,0,558,3834
1.47243e+06,0,0,0,46,4346
1.49526e+06,0,0,0,558,3834
1.49526e+06,0,0,0,46,4346
1.49933e+06,0,0,0,686,3706
1.49934e+06,0,0,0,174,4218
1.49948e+06,0,0,0,814,3578
1.49949e+06,0,0,0,302,4090
1.49949e+06,0,0,0,2,4390
1.49966e+06,0,0,0,642,3750
1.49966e+06,0,0,0,393,3999
1.49966e+06,0,0,0,1033,3359
1.49967e+06,0,0,0,9,4383
1.50318e+06,0,0,0,521,3871
1.50322e+06,0,0,0,1033,3359
1.50322e+06,0,0,0,9,4383
1.51759e+06,0,0,0,309,4083
1.51812e+06,0,0,0,821,3571
1.52158e+06,0,0,0,1845,2547
1.52158e+06,0,0,0,821,3571
1.52231e+06,0,0,0,1333,3059
1.52231e+06,0,0,0,1845,2547
1.52231e+06,0,0,0,821,3571
1.52231e+06,0,0,0,309,4083
1.52651e+06,0,0,0,1333,3059
1.52651e+06,0,0,0,821,3571
1.52651e+06,0,0,0,309,4083
1.52651e+06,0,0,0,181,4211
1.52651e+06,0,0,0,53,4339
1.53707e+06,0,0,0,181,4211
1.5371e+06,0,0,0,309,4083
1.54517e+06,0,0,0,1333,3059
1.54518e+06,0,0,0,309,4083
1.54539e+06,0,0,0,821,3571
1.54608e+06,0,0,0,1845,2547
1.54608e+06,0,0,0,970,3422
1.54608e+06,0,0,0,458,3934
1.5496e+06,0,0,0,970,3422
1.54961e+06,0,0,0,458,3934
1.55739e+06,0,0,0,1482,2910
1.55739e+06,0,0,0,970,3422
1.55739e+06,0,0,0,969,3423
1.55739e+06,0,0,0,167,4225
1.55739e+06,0,0,0,39,4353
1.55891e+06,0,0,0,40,4352
1.55899e+06,0,0,0,552,3840
1.56831e+06,0,0,0,680,3712
1.56898e+06,0,0,0,1192,3200
1.56898e+06,0,0,0,390,4002
1.56997e+06,0,0,0,639,3753
1.57171e+06,0,0,0,888,3504
1.57171e+06,0,0,0,86,4306
1.57244e+06,0,0,0,598,3794
1.57396e+06,0,0,0,1400,2992
1.57396e+06,0,0,0,598,3794
1.58034e+06,0,0,0,1110,3282
1.58035e+06,0,0,0,308,4084
1.58035e+06,0,0,0,52,4340
1.58873e+06,0,0,0,854,3538
1.58874e+06,0,0,0,723,3669
1.58874e+06,0,0,0,408,3984
1.58874e+06,0,0,0,152,4240
1.58874e+06,0,0,0,24,4368
1.5908e+06,0,0,0,826,3566
1.59081e+06,0,0,0,24,4368
1.59158e+06,0,0,0,826,3566
1.59158e+06,0,0,0,698,3694
1.59158e+06,0,0,0,570,3822
1.59158e+06,0,0,0,442,3950
1.59158e+06,0,0,0,314,4078
1.59158e+06,0,0,0,58,4334
1.59956e+06,0,0,0,189,4203
1.59957e+06,0,0,0,317,4075
1.59961e+06,0,0,0,632,3760
1.60166e+06,0,0,0,888,3504
1.60169e+06,0,0,0,1690,2702
1.60198e+06,0,0,0,1946,2446
1.60233e+06,0,0,0,2202,2190
1.60241e+06,0,0,0,2330,2062
1.60243e+06,0,0,0,2458,1934
1.60246e+06,0,0,0,2586,1806
1.60247e+06,0,0,0,2714,1678
1.60444e+06,0,0,0,3516,876
1.60445e+06,0,0,0,356,4036
1.60445e+06,0,0,0,100,4292
1.61461e+06,0,0,0,356,4036
1.61571e+06,0,0,0,3516,876
1.61571e+06,0,0,0,1962,2430
1.61571e+06,0,0,0,1713,2679
1.61571e+06,0,0,0,1464,2928
1.61571e+06,0,0,0,440,3952
1.61571e+06,0,0,0,184,4208
1.61571e+06,0,0,0,56,4336
1.62402e+06,0,0,0,931,3461
1.62402e+06,0,0,0,675,3717
1.62402e+06,0,0,0,419,3973
1.62402e+06,0,0,0,163,4229
1.62402e+06,0,0,0,31,4361
1.62585e+06,0,0,0,287,4105
1.62585e+06,0,0,0,31,4361
1.62657e+06,0,0,0,159,4233
1.62822e+06,0,0,0,1183,3209
1.62822e+06,0,0,0,927,3465
1.62822e+06,0,0,0,671,3721
1.62822e+06,0,0,0,415,3977
1.62822e+06,0,0,0,159,4233
1.63433e+06,0,0,0,291,4101
1.63433e+06,0,0,0,35,4357
1.63554e+06,0,0,0,291,4101
1.63554e+06,0,0,0,35,4357
1.63556e+06,0,0,0,291,4101
1.63557e+06,0,0,0,35,4357
1.63591e+06,0,0,0,291,4101
1.63591e+06,0,0,0,35,4357
1.63694e+06,0,0,0,291,4101
1.63694e+06,0,0,0,35,4357
1.63709e+06,0,0,0,1589,2803
1.63709e+06,0,0,0,1333,3059
1.63709e+06,0,0,0,1077,3315
1.63709e+06,0,0,0,821,3571
1.63709e+06,0,0,0,565,3827
1.63709e+06,0,0,0,309,4083
1.63709e+06,0,0,0,53,4339
1.63957e+06,0,0,0,309,4083
1.63958e+06,0,0,0,75,4317
1.64074e+06,0,0,0,331,4061
1.64075e+06,0,0,0,82,4310
1.64181e+06,0,0,0,338,4054
1.64182e+06,0,0,0,78,4314
1.64277e+06,0,0,0,334,4058
1.64277e+06,0,0,0,78,4314
1.64517e+06,0,0,0,334,4058
1.64518e+06,0,0,0,78,4314
1.64523e+06,0,0,0,79,4313
1.65046e+06,0,0,0,313,4079
1.65047e+06,0,0,0,57,4335
1.6527e+06,0,0,0,317,4075
1.6527e+06,0,0,0,61,4331
1.65299e+06,0,0,0,317,4075
1.653e+06,0,0,0,61,4331
1.65458e+06,0,0,0,317,4075
1.65458e+06,0,0,0,61,4331
1.65607e+06,0,0,0,317,4075
1.65608e+06,0,0,0,61,4331
1.65728e+06,0,0,0,317,4075
1.65763e+06,0,0,0,573,3819
1.65763e+06,0,0,0,173,4219
1.6586e+06,0,0,0,429,3963
1.65873e+06,0,0,0,685,3707
1.65873e+06,0,0,0,45,4347
1.65875e+06,0,0,0,301,4091
1.65876e+06,0,0,0,557,3835
1.65876e+06,0,0,0,57,4335
1.65879e+06,0,0,0,313,4079
1.65883e+06,0,0,0,569,3823
1.65888e+06,0,0,0,825,3567
1.65888e+06,0,0,0,185,4207
1.66819e+06,0,0,0,441,3951
1.66835e+06,0,0,0,697,3695
1.66975e+06,0,0,0,953,3439
1.66975e+06,0,0,0,113,4279
1.67005e+06,0,0,0,369,4023
1.67775e+06,0,0,0,625,3767
1.68173e+06,0,0,0,1025,3367
1.68638e+06,0,0,0,1274,3118
1.68713e+06,0,0,0,1914,2478
1.6872e+06,0,0,0,2554,1838
1.6883e+06,0,0,0,3054,1338
1.69142e+06,0,0,0,3894,498
1.69344e+06,0,0,0,4143,249
1.69345e+06,0,0,0,115,4277
1.7055e+06,0,0,0,4143,249
1.7055e+06,0,0,0,963,3429
1.7116e+06,0,0,0,835,3557
1.72245e+06,0,0,0,963,3429
1.72252e+06,0,0,0,4143,249
1.72252e+06,0,0,0,2095,2297
1.72252e+06,0,0,0,1846,2546
1.72252e+06,0,0,0,1206,3186
1.72252e+06,0,0,0,566,3826
1.72252e+06,0,0,0,438,3954
1.73342e+06,0,0,0,566,3826
1.73379e+06,0,0,0,310,4082
1.7446e+06,0,0,0,566,3826
1.75015e+06,0,0,0,1206,3186
1.75015e+06,0,0,0,566,3826
1.75025e+06,0,0,0,1206,3186
1.75025e+06,0,0,0,566,3826
1.75067e+06,0,0,0,815,3577
1.75359e+06,0,0,0,683,3709
1.7645e+06,0,0,0,815,3577
1.76478e+06,0,0,0,2863,1529
1.76478e+06,0,0,0,1839,2553
1.76478e+06,0,0,0,815,3577
1.76478e+06,0,0,0,566,3826
1.76478e+06,0,0,0,438,3954
1.77568e+06,0,0,0,566,3826
1.77711e+06,0,0,0,1590,2802
1.77748e+06,0,0,0,2230,2162
1.77749e+06,0,0,0,182,4210
1.77802e+06,0,0,0,822,3570
1.77802e+06,0,0,0,20,4372
1.77933e+06,0,0,0,1044,3348
1.77933e+06,0,0,0,20,4372
1.7902e+06,0,0,0,1044,3348
1.80708e+06,0,0,0,1846,2546
1.80709e+06,0,0,0,734,3658
1.80709e+06,0,0,0,478,3914
1.81254e+06,0,0,0,222,4170
1.82379e+06,0,0,0,478,3914
1.82875e+06,0,0,0,734,3658
1.83434e+06,0,0,0,2782,1610
1.83434e+06,0,0,0,1907,2485
1.83434e+06,0,0,0,1651,2741
1.83434e+06,0,0,0,1395,2997
1.83434e+06,0,0,0,1139,3253
1.83434e+06,0,0,0,883,3509
1.83434e+06,0,0,0,627,3765
1.83434e+06,0,0,0,371,4021
1.83434e+06,0,0,0,115,4277
1.845e+06,0,0,0,371,4021
1.84524e+06,0,0,0,627,3765
1.84733e+06,0,0,0,883,3509
1.8501e+06,0,0,0,1139,3253
1.85057e+06,0,0,0,1395,2997
1.85166e+06,0,0,0,1651,2741
1.85206e+06,0,0,0,1907,2485
1.85709e+06,0,0,0,1779,2613
1.85709e+06,0,0,0,1651,2741
1.85709e+06,0,0,0,1523,2869
1.85722e+06,0,0,0,1395,2997
1.85723e+06,0,0,0,1267,3125
1.85723e+06,0,0,0,1139,3253
1.85744e+06,0,0,0,1011,3381
1.85744e+06,0,0,0,883,3509
1.85744e+06,0,0,0,755,3637
1.85778e+06,0,0,0,1004,3388
1.85802e+06,0,0,0,748,3644
1.86111e+06,0,0,0,620,3772
1.86111e+06,0,0,0,492,3900
1.86111e+06,0,0,0,364,4028
1.86131e+06,0,0,0,236,4156
1.86131e+06,0,0,0,108,4284
1.86529e+06,0,0,0,357,4035
1.8653e+06,0,0,0,229,4163
1.86764e+06,0,0,0,357,4035
1.86766e+06,0,0,0,485,3907
1.86766e+06,0,0,0,613,3779
1.86776e+06,0,0,0,741,3651
1.86778e+06,0,0,0,869,3523
1.8678e+06,0,0,0,997,3395
1.86785e+06,0,0,0,1125,3267
1.86785e+06,0,0,0,1253,3139
1.86786e+06,0,0,0,1381,3011
1.87169e+06,0,0,0,1509,2883
1.8717e+06,0,0,0,1637,2755
1.8719e+06,0,0,0,1765,2627
1.87196e+06,0,0,0,1893,2499
1.87199e+06,0,0,0,2021,2371
1.87594e+06,0,0,0,2149,2243
1.87967e+06,0,0,0,2405,1987
1.8915e+06,0,0,0,3280,1112
1.8915e+06,0,0,0,100,4292
1.8937e+06,0,0,0,1212,3180
1.89371e+06,0,0,0,1084,3308
1.89371e+06,0,0,0,956,3436
1.89371e+06,0,0,0,828,3564
1.90455e+06,0,0,0,956,3436
1.90458e+06,0,0,0,1084,3308
1.90464e+06,0,0,0,1212,3180
1.90648e+06,0,0,0,4392,0
1.90648e+06,0,0,0,1212,3180
1.90648e+06,0,0,0,956,3436
1.90648e+06,0,0,0,444,3948
1.90648e+06,0,0,0,316,4076
1.90648e+06,0,0,0,188,4204
1.90648e+06,0,0,0,60,4332
1.9173e+06,0,0,0,188,4204
1.91732e+06,0,0,0,316,4076
1.91732e+06,0,0,0,444,3948
1.92456e+06,0,0,0,3624,768
1.92457e+06,0,0,0,3112,1280
1.92457e+06,0,0,0,2600,1792
1.92457e+06,0,0,0,2088,2304
1.92457e+06,0,0,0,1064,3328
1.92457e+06,0,0,0,808,3584
1.92821e+06,0,0,0,1064,3328
1.92822e+06,0,0,0,189,4203
1.9286e+06,0,0,0,701,3691
1.93552e+06,0,0,0,1725,2667
1.93552e+06,0,0,0,725,3667
1.93552e+06,0,0,0,597,3795
1.94283e+06,0,0,0,1109,3283
1.94626e+06,0,0,0,1365,3027
1.94627e+06,0,0,0,1493,2899
1.94745e+06,0,0,0,2005,2387
1.94745e+06,0,0,0,2517,1875
1.94746e+06,0,0,0,469,3923
1.94746e+06,0,0,0,341,4051
1.95501e+06,0,0,0,213,4179
1.95802e+06,0,0,0,341,4051
1.96544e+06,0,0,0,469,3923
1.98523e+06,0,0,0,341,4051
1.98529e+06,0,0,0,213,4179
1.99172e+06,0,0,0,85,4307
1.99578e+06,0,0,0,213,4179
1.99579e+06,0,0,0,341,4051
2.00209e+06,0,0,0,469,3923
2.00495e+06,0,0,0,1344,3048
2.00495e+06,0,0,0,469,3923
2.00495e+06,0,0,0,341,4051
2.00495e+06,0,0,0,213,4179
2.00495e+06,0,0,0,85,4307
2.01527e+06,0,0,0,213,4179
2.01527e+06,0,0,0,85,4307
2.01528e+06,0,0,0,213,4179
2.01528e+06,0,0,0,85,4307
2.01548e+06,0,0,0,213,4179
2.01548e+06,0,0,0,85,4307
2.02213e+06,0,0,0,1085,3307
2.02213e+06,0,0,0,957,3435
2.02213e+06,0,0,0,829,3563
2.02213e+06,0,0,0,701,3691
2.02213e+06,0,0,0,573,3819
2.02583e+06,0,0,0,701,3691
2.0259e+06,0,0,0,829,3563
2.02605e+06,0,0,0,957,3435
2.0325e+06,0,0,0,1085,3307
2.03265e+06,0,0,0,1213,3179
2.03271e+06,0,0,0,1341,3051
2.03281e+06,0,0,0,1469,2923
2.034e+06,0,0,0,3517,875
2.034e+06,0,0,0,1469,2923
2.034e+06,0,0,0,357,4035
2.034e+06,0,0,0,229,4163
2.034e+06,0,0,0,101,4291
2.04428e+06,0,0,0,229,4163
2.0446e+06,0,0,0,357,4035
2.0446e+06,0,0,0,42,4350
2.05546e+06,0,0,0,357,4035
2.05919e+06,0,0,0,229,4163
2.06656e+06,0,0,0,101,4291
2.06979e+06,0,0,0,229,4163
2.06979e+06,0,0,0,101,4291
2.07706e+06,0,0,0,229,4163
2.0804e+06,0,0,0,357,4035
2.08484e+06,0,0,0,1232,3160
2.08484e+06,0,0,0,720,3672
2.08484e+06,0,0,0,208,4184
2.08484e+06,0,0,0,80,4312
2.09545e+06,0,0,0,208,4184
2.09545e+06,0,0,0,80,4312
2.1059e+06,0,0,0,208,4184
2.10777e+06,0,0,0,720,3672
2.10804e+06,0,0,0,1232,3160
2.10805e+06,0,0,0,357,4035
2.10805e+06,0,0,0,229,4163
2.10805e+06,0,0,0,101,4291
2.11862e+06,0,0,0,229,4163
2.11867e+06,0,0,0,357,4035
2.11867e+06,0,0,0,101,4291
2.119e+06,0,0,0,2149,2243
2.119e+06,0,0,0,2021,2371
2.119e+06,0,0,0,1893,2499
2.119e+06,0,0,0,869,3523
2.1205e+06,0,0,0,1981,2411
2.1205e+06,0,0,0,957,3435
2.12956e+06,0,0,0,1085,3307
2.12956e+06,0,0,0,61,4331
2.12959e+06,0,0,0,189,4203
2.13098e+06,0,0,0,1213,3179
2.13099e+06,0,0,0,73,4319
2.14033e+06,0,0,0,329,4063
2.14204e+06,0,0,0,1353,3039
2.14205e+06,0,0,0,213,4179
2.14516e+06,0,0,0,1353,3039
2.14517e+06,0,0,0,213,4179
2.1561e+06,0,0,0,1353,3039
2.15772e+06,0,0,0,2377,2015
2.15894e+06,0,0,0,3517,875
2.15894e+06,0,0,0,337,4055
2.15894e+06,0,0,0,81,4311
2.18068e+06,0,0,0,337,4055
2.18069e+06,0,0,0,81,4311
2.18216e+06,0,0,0,3261,1131
2.18216e+06,0,0,0,3005,1387
2.18216e+06,0,0,0,2749,1643
2.18216e+06,0,0,0,2493,1899
2.18216e+06,0,0,0,1981,2411
2.18216e+06,0,0,0,1179,3213
2.18477e+06,0,0,0,2054,2338
2.18909e+06,0,0,0,1798,2594
2.1971e+06,0,0,0,1670,2722
2.20237e+06,0,0,0,1926,2466
2.20384e+06,0,0,0,2182,2210
2.20384e+06,0,0,0,2438,1954
2.20387e+06,0,0,0,2694,1698
2.20746e+06,0,0,0,2822,1570
2.20799e+06,0,0,0,2694,1698
2.21075e+06,0,0,0,2950,1442
2.21358e+06,0,0,0,3462,930
2.21856e+06,0,0,0,3590,802
2.22281e+06,0,0,0,3334,1058
2.23569e+06,0,0,0,3206,1186
2.23771e+06,0,0,0,2950,1442
2.23796e+06,0,0,0,1838,2554
2.24452e+06,0,0,0,2094,2298
2.24659e+06,0,0,0,2222,2170
2.25062e+06,0,0,0,2094,2298
2.255e+06,0,0,0,1838,2554
2.25512e+06,0,0,0,1582,2810
2.25524e+06,0,0,0,1326,3066
2.25633e+06,0,0,0,1070,3322
2.25939e+06,0,0,0,1326,3066
2.25953e+06,0,0,0,1070,3322
2.26091e+06,0,0,0,1872,2520
2.26121e+06,0,0,0,2000,2392
2.26138e+06,0,0,0,1872,2520
2.26262e+06,0,0,0,1616,2776
2.27125e+06,0,0,0,1488,2904
2.27184e+06,0,0,0,1360,3032
2.27201e+06,0,0,0,1488,2904
2.27677e+06,0,0,0,1744,2648
2.27692e+06,0,0,0,2000,2392
2.27797e+06,0,0,0,2256,2136
2.27811e+06,0,0,0,2512,1880
2.2812e+06,0,0,0,2768,1624
2.2818e+06,0,0,0,2896,1496
2.28201e+06,0,0,0,2768,1624
2.28215e+06,0,0,0,2896,1496
2.2823e+06,0,0,0,2094,2298
2.28311e+06,0,0,0,1292,3100
2.28353e+06,0,0,0,1164,3228
2.28403e+06,0,0,0,362,4030
2.28427e+06,0,0,0,618,3774
2.29259e+06,0,0,0,746,3646
2.29402e+06,0,0,0,874,3518
2.29403e+06,0,0,0,72,4320
2.30254e+06,0,0,0,874,3518
2.30476e+06,0,0,0,1676,2716
2.30476e+06,0,0,0,564,3828
2.30476e+06,0,0,0,436,3956
2.30476e+06,0,0,0,308,4084
2.30476e+06,0,0,0,180,4212
2.30506e+06,0,0,0,52,4340
2.30572e+06,0,0,0,854,3538
2.30754e+06,0,0,0,726,3666
2.31515e+06,0,0,0,854,3538
2.31529e+06,0,0,0,982,3410
2.31532e+06,0,0,0,1110,3282
2.31564e+06,0,0,0,1238,3154
2.31811e+06,0,0,0,1366,3026
2.31929e+06,0,0,0,2478,1914
2.32448e+06,0,0,0,3590,802
2.32448e+06,0,0,0,410,3982
2.32448e+06,0,0,0,282,4110
2.32448e+06,0,0,0,154,4238
2.33504e+06,0,0,0,282,4110
2.33505e+06,0,0,0,410,3982
2.33529e+06,0,0,0,3590,802
2.33529e+06,0,0,0,410,3982
2.33529e+06,0,0,0,282,4110
2.33733e+06,0,0,0,1084,3308
2.34566e+06,0,0,0,1212,3180
2.34583e+06,0,0,0,4392,0
2.34583e+06,0,0,0,1212,3180
2.35421e+06,0,0,0,1084,3308
2.36478e+06,0,0,0,1212,3180
2.3674e+06,0,0,0,4392,0
2.3674e+06,0,0,0,542,3850
2.3674e+06,0,0,0,414,3978
2.3781e+06,0,0,0,542,3850
2.37909e+06,0,0,0,4392,0
2.37909e+06,0,0,0,542,3850
2.39019e+06,0,0,0,4392,0
2.3902e+06,0,0,0,542,3850
2.40037e+06,0,0,0,4392,0
2.40037e+06,0,0,0,542,3850
2.40037e+06,0,0,0,414,3978
2.40037e+06,0,0,0,286,4106
2.411e+06,0,0,0,414,3978
2.41234e+06,0,0,0,542,3850
2.42015e+06,0,0,0,4392,0
2.42016e+06,0,0,0,3517,875
2.42016e+06,0,0,0,2493,1899
2.42016e+06,0,0,0,2492,1900
2.42016e+06,0,0,0,1468,2924
2.42016e+06,0,0,0,444,3948
2.42016e+06,0,0,0,188,4204
2.42016e+06,0,0,0,187,4205
2.44178e+06,0,0,0,443,3949
2.44179e+06,0,0,0,194,4198
2.44181e+06,0,0,0,195,4197
2.44181e+06,0,0,0,196,4196
2.44196e+06,0,0,0,68,4324
2.45279e+06,0,0,0,196,4196
2.45279e+06,0,0,0,68,4324
2.46322e+06,0,0,0,196,4196
2.46322e+06,0,0,0,68,4324
2.46705e+06,0,0,0,1092,3300
2.46706e+06,0,0,0,68,4324
2.47377e+06,0,0,0,196,4196
2.47378e+06,0,0,0,68,4324
2.47385e+06,0,0,0,1092,3300
2.47385e+06,0,0,0,580,3812
2.47385e+06,0,0,0,324,4068
2.47385e+06,0,0,0,196,4196
2.47527e+06,0,0,0,1220,3172
2.48035e+06,0,0,0,1092,3300
2.48433e+06,0,0,0,964,3428
2.4845e+06,0,0,0,1092,3300
2.48464e+06,0,0,0,1220,3172
2.48475e+06,0,0,0,1732,2660
2.48547e+06,0,0,0,2756,1636
2.48593e+06,0,0,0,3005,1387
2.49107e+06,0,0,0,3133,1259
2.49497e+06,0,0,0,3261,1131
2.4955e+06,0,0,0,3517,875
2.49604e+06,0,0,0,4392,0
2.49604e+06,0,0,0,296,4096
2.49604e+06,0,0,0,40,4352
2.51922e+06,0,0,0,296,4096
2.51922e+06,0,0,0,168,4224
2.51922e+06,0,0,0,40,4352
2.53009e+06,0,0,0,168,4224
2.53009e+06,0,0,0,40,4352
2.5301e+06,0,0,0,168,4224
2.53011e+06,0,0,0,40,4352
2.54056e+06,0,0,0,168,4224
2.54095e+06,0,0,0,296,4096
2.55029e+06,0,0,0,4392,0
2.5503e+06,0,0,0,3368,1024
2.5503e+06,0,0,0,2344,2048
2.5503e+06,0,0,0,1320,3072
2.5503e+06,0,0,0,808,3584
2.5503e+06,0,0,0,296,4096
2.5503e+06,0,0,0,40,4352
2.57198e+06,0,0,0,296,4096
2.57315e+06,0,0,0,808,3584
2.57315e+06,0,0,0,296,4096
2.57334e+06,0,0,0,808,3584
2.57334e+06,0,0,0,296,4096
2.57334e+06,0,0,0,168,4224
2.57334e+06,0,0,0,40,4352
2.58396e+06,0,0,0,168,4224
2.58413e+06,0,0,0,296,4096
2.58436e+06,0,0,0,1320,3072
2.58437e+06,0,0,0,445,3947
2.58437e+06,0,0,0,317,4075
2.58437e+06,0,0,0,61,4331
2.59524e+06,0,0,0,189,4203
2.59527e+06,0,0,0,445,3947
2.59618e+06,0,0,0,957,3435
2.59618e+06,0,0,0,445,3947
2.59619e+06,0,0,0,957,3435
2.59619e+06,0,0,0,445,3947
2.59619e+06,0,0,0,317,4075
2.59619e+06,0,0,0,189,4203
2.59619e+06,0,0,0,61,4331
2.60672e+06,0,0,0,189,4203
2.60678e+06,0,0,0,317,4075
2.60683e+06,0,0,0,445,3947
2.61169e+06,0,0,0,1469,2923
2.61169e+06,0,0,0,957,3435
2.61169e+06,0,0,0,445,3947
2.61169e+06,0,0,0,189,4203
2.61169e+06,0,0,0,55,4337
2.61916e+06,0,0,0,567,3825
2.61917e+06,0,0,0,311,4081
2.61917e+06,0,0,0,55,4337
2.62689e+06,0,0,0,567,3825
2.6269e+06,0,0,0,55,4337
2.63319e+06,0,0,0,1079,3313
2.6332e+06,0,0,0,55,4337
2.63344e+06,0,0,0,311,4081
2.63345e+06,0,0,0,183,4209
2.63345e+06,0,0,0,55,4337
2.63485e+06,0,0,0,189,4203
2.63485e+06,0,0,0,61,4331
2.63654e+06,0,0,0,573,3819
2.63654e+06,0,0,0,445,3947
2.63654e+06,0,0,0,317,4075
2.63654e+06,0,0,0,189,4203
2.63654e+06,0,0,0,61,4331
2.6409e+06,0,0,0,317,4075
2.6409e+06,0,0,0,189,4203
2.6409e+06,0,0,0,61,4331
2.64092e+06,0,0,0,317,4075
2.64092e+06,0,0,0,189,4203
2.64092e+06,0,0,0,61,4331
2.64239e+06,0,0,0,573,3819
2.6424e+06,0,0,0,445,3947
2.6424e+06,0,0,0,317,4075
2.6424e+06,0,0,0,189,4203
2.6424e+06,0,0,0,61,4331
2.64388e+06,0,0,0,189,4203
2.64388e+06,0,0,0,61,4331
2.64413e+06,0,0,0,189,4203
2.64543e+06,0,0,0,317,4075
2.64543e+06,0,0,0,67,4325
2.6461e+06,0,0,0,1091,3301
2.6461e+06,0,0,0,67,4325
2.6471e+06,0,0,0,195,4197
2.64726e+06,0,0,0,323,4069
2.64742e+06,0,0,0,451,3941
2.64745e+06,0,0,0,579,3813
2.64991e+06,0,0,0,1091,3301
2.65177e+06,0,0,0,1219,3173
2.65179e+06,0,0,0,1347,3045
2.6518e+06,0,0,0,1475,2917
2.6518e+06,0,0,0,1603,2789
2.65325e+06,0,0,0,1731,2661
2.65325e+06,0,0,0,1859,2533
2.65328e+06,0,0,0,1987,2405
2.65334e+06,0,0,0,2115,2277
2.65468e+06,0,0,0,2243,2149
2.65631e+06,0,0,0,2493,1899
2.65697e+06,0,0,0,3517,875
2.65996e+06,0,0,0,4392,0
2.65997e+06,0,0,0,296,4096
2.65997e+06,0,0,0,47,4345
2.65997e+06,0,0,0,42,4350
2.65997e+06,0,0,0,37,4355
2.65997e+06,0,0,0,32,4360
2.65997e+06,0,0,0,27,4365
2.65997e+06,0,0,0,22,4370
2.67798e+06,0,0,0,17,4375
2.67798e+06,0,0,0,12,4380
2.67798e+06,0,0,0,7,4385
2.6816e+06,0,0,0,12,4380
2.68163e+06,0,0,0,17,4375
2.68165e+06,0,0,0,22,4370
2.68167e+06,0,0,0,27,4365
2.6817e+06,0,0,0,32,4360
2.68989e+06,0,0,0,281,4111
2.69678e+06,0,0,0,286,4106
2.69681e+06,0,0,0,291,4101
2.69684e+06,0,0,0,296,4096
2.70642e+06,0,0,0,4392,0
2.70642e+06,0,0,0,296,4096
2.7172e+06,0,0,0,4392,0
2.7172e+06,0,0,0,296,4096
2.7172e+06,0,0,0,47,4345
2.72982e+06,0,0,0,42,4350
2.72982e+06,0,0,0,37,4355
2.74069e+06,0,0,0,42,4350
2.74076e+06,0,0,0,47,4345
2.76006e+06,0,0,0,296,4096
2.77887e+06,0,0,0,40,4352
2.80053e+06,0,0,0,296,4096
2.80372e+06,0,0,0,4392,0
2.80372e+06,0,0,0,296,4096
2.80372e+06,0,0,0,47,4345
2.81902e+06,0,0,0,42,4350
2.81903e+06,0,0,0,37,4355
2.81903e+06,0,0,0,32,4360
2.81903e+06,0,0,0,27,4365
2.83793e+06,0,0,0,32,4360
2.83796e+06,0,0,0,37,4355
2.83883e+06,0,0,0,42,4350
2.83886e+06,0,0,0,47,4345
2.89165e+06,0,0,0,4143,249
2.89166e+06,0,0,0,3631,761
2.89166e+06,0,0,0,3119,1273
2.89166e+06,0,0,0,2607,1785
2.89166e+06,0,0,0,2095,2297
2.89166e+06,0,0,0,1583,2809
2.89166e+06,0,0,0,1071,3321
2.89166e+06,0,0,0,559,3833
2.89166e+06,0,0,0,47,4345
2.89166e+06,0,0,0,22,4370
2.89246e+06,0,0,0,271,4121
2.89246e+06,0,0,0,15,4377
2.91332e+06,0,0,0,40,4352
2.91413e+06,0,0,0,296,4096
2.91455e+06,0,0,0,808,3584
2.91456e+06,0,0,0,1320,3072
2.91457e+06,0,0,0,1832,2560
2.92236e+06,0,0,0,2344,2048
2.9241e+06,0,0,0,2856,1536
2.92411e+06,0,0,0,3368,1024
2.92411e+06,0,0,0,188,4204
2.92412e+06,0,0,0,700,3692
2.92415e+06,0,0,0,1212,3180
2.92416e+06,0,0,0,188,4204
2.94092e+06,0,0,0,3368,1024
2.94092e+06,0,0,0,2228,2164
2.94092e+06,0,0,0,1204,3188
2.9515e+06,0,0,0,2228,2164
2.95701e+06,0,0,0,3368,1024
2.95882e+06,0,0,0,4392,0
2.95882e+06,0,0,0,364,4028
2.95882e+06,0,0,0,115,4277
2.97199e+06,0,0,0,4143,249
2.97199e+06,0,0,0,3894,498
2.97199e+06,0,0,0,3382,1010
2.97199e+06,0,0,0,3126,1266
2.97199e+06,0,0,0,2870,1522
2.97652e+06,0,0,0,2486,1906
2.97738e+06,0,0,0,2102,2290
2.98708e+06,0,0,0,1974,2418
2.98712e+06,0,0,0,1846,2546
2.99366e+06,0,0,0,2102,2290
2.99367e+06,0,0,0,2358,2034
2.99787e+06,0,0,0,2870,1522
2.9979e+06,0,0,0,2998,1394
2.99794e+06,0,0,0,3126,1266
3.00004e+06,0,0,0,3510,882
3.00099e+06,0,0,0,3894,498
3.00272e+06,0,0,0,4143,249
3.00272e+06,0,0,0,47,4345
3.04588e+06,0,0,0,46,4346
3.05676e+06,0,0,0,47,4345
3.07052e+06,0,0,0,296,4096
3.07928e+06,0,0,0,4392,0
3.07928e+06,0,0,0,296,4096
3.07928e+06,0,0,0,47,4345
3.10059e+06,0,0,0,296,4096
3.10059e+06,0,0,0,46,4346
3.11145e+06,0,0,0,296,4096
3.11145e+06,0,0,0,40,4352
3.12237e+06,0,0,0,296,4096
3.12845e+06,0,0,0,4392,0
3.12845e+06,0,0,0,2344,2048
3.12845e+06,0,0,0,1469,2923
3.12845e+06,0,0,0,667,3725
3.12845e+06,0,0,0,283,4109
3.12845e+06,0,0,0,155,4237
3.12845e+06,0,0,0,27,4365
3.12845e+06,0,0,0,26,4366
3.13922e+06,0,0,0,154,4238
3.13922e+06,0,0,0,26,4366
3.13928e+06,0,0,0,154,4238
3.13929e+06,0,0,0,26,4366
3.14675e+06,0,0,0,27,4365
3.14768e+06,0,0,0,411,3981
3.14769e+06,0,0,0,162,4230
3.14769e+06,0,0,0,34,4358
3.15008e+06,0,0,0,162,4230
3.15009e+06,0,0,0,34,4358
3.15014e+06,0,0,0,836,3556
3.15015e+06,0,0,0,34,4358
3.15015e+06,0,0,0,162,4230
3.15855e+06,0,0,0,290,4102
3.15855e+06,0,0,0,41,4351
3.16093e+06,0,0,0,169,4223
3.17186e+06,0,0,0,971,3421
3.17186e+06,0,0,0,169,4223
3.17796e+06,0,0,0,418,3974
3.17797e+06,0,0,0,162,4230
3.17805e+06,0,0,0,34,4358
3.18889e+06,0,0,0,162,4230
3.18889e+06,0,0,0,34,4358
3.19359e+06,0,0,0,836,3556
3.19359e+06,0,0,0,586,3806
3.19962e+06,0,0,0,842,3550
3.19972e+06,0,0,0,970,3422
3.20244e+06,0,0,0,1219,3173
3.20244e+06,0,0,0,195,4197
3.20445e+06,0,0,0,445,3947
3.21274e+06,0,0,0,1469,2923
3.2135e+06,0,0,0,3517,875
3.21387e+06,0,0,0,4392,0
3.21387e+06,0,0,0,542,3850
3.21569e+06,0,0,0,414,3978
3.21598e+06,0,0,0,286,4106
3.21913e+06,0,0,0,158,4234
3.22652e+06,0,0,0,286,4106
3.22681e+06,0,0,0,414,3978
3.22998e+06,0,0,0,542,3850
3.23304e+06,0,0,0,4392,0
3.23304e+06,0,0,0,3590,802
3.23304e+06,0,0,0,2566,1826
3.23304e+06,0,0,0,2310,2082
3.23304e+06,0,0,0,2054,2338
3.23304e+06,0,0,0,1798,2594
3.23304e+06,0,0,0,1542,2850
3.23304e+06,0,0,0,1286,3106
3.23304e+06,0,0,0,1030,3362
3.23304e+06,0,0,0,774,3618
3.23304e+06,0,0,0,518,3874
3.23304e+06,0,0,0,262,4130
3.23304e+06,0,0,0,6,4386
3.24672e+06,0,0,0,1030,3362
3.24673e+06,0,0,0,228,4164
3.25468e+06,0,0,0,484,3908
3.25469e+06,0,0,0,740,3652
3.2547e+06,0,0,0,996,3396
3.2547e+06,0,0,0,1252,3140
3.2547e+06,0,0,0,450,3942
3.2547e+06,0,0,0,50,4342
3.25471e+06,0,0,0,306,4086
3.25473e+06,0,0,0,562,3830
3.25473e+06,0,0,0,1364,3028
3.25473e+06,0,0,0,1620,2772
3.25473e+06,0,0,0,1220,3172
3.25473e+06,0,0,0,971,3421
3.25473e+06,0,0,0,843,3549
3.25473e+06,0,0,0,715,3677
3.25473e+06,0,0,0,459,3933
3.25473e+06,0,0,0,331,4061
3.25473e+06,0,0,0,203,4189
3.25473e+06,0,0,0,75,4317
3.25474e+06,0,0,0,331,4061
3.25474e+06,0,0,0,203,4189
3.25474e+06,0,0,0,459,3933
3.25481e+06,0,0,0,715,3677
3.26548e+06,0,0,0,843,3549
3.2655e+06,0,0,0,971,3421
3.26557e+06,0,0,0,1099,3293
3.26558e+06,0,0,0,1227,3165
3.26562e+06,0,0,0,1355,3037
3.26564e+06,0,0,0,1611,2781
3.26595e+06,0,0,0,1739,2653
3.2684e+06,0,0,0,2541,1851
3.2684e+06,0,0,0,493,3899
3.2684e+06,0,0,0,237,4155
3.27642e+06,0,0,0,1039,3353
3.27642e+06,0,0,0,15,4377
3.27875e+06,0,0,0,415,3977
3.27875e+06,0,0,0,166,4226
3.28016e+06,0,0,0,566,3826
3.28016e+06,0,0,0,54,4338
3.28424e+06,0,0,0,303,4089
3.2901e+06,0,0,0,559,3833
3.2901e+06,0,0,0,59,4333
3.29098e+06,0,0,0,1083,3309
3.29098e+06,0,0,0,571,3821
3.29098e+06,0,0,0,59,4333
3.30083e+06,0,0,0,571,3821
3.30083e+06,0,0,0,59,4333
3.31397e+06,0,0,0,571,3821
3.31397e+06,0,0,0,59,4333
3.31397e+06,0,0,0,58,4334
3.31397e+06,0,0,0,57,4335
3.31437e+06,0,0,0,569,3823
3.31437e+06,0,0,0,57,4335
3.31701e+06,0,0,0,2105,2287
3.31702e+06,0,0,0,1849,2543
3.31702e+06,0,0,0,1593,2799
3.31702e+06,0,0,0,1081,3311
3.31702e+06,0,0,0,825,3567
3.31702e+06,0,0,0,697,3695
3.31702e+06,0,0,0,569,3823
3.31702e+06,0,0,0,313,4079
3.31702e+06,0,0,0,185,4207
3.31702e+06,0,0,0,57,4335
3.31957e+06,0,0,0,557,3835
3.31957e+06,0,0,0,429,3963
3.31957e+06,0,0,0,179,4213
3.31957e+06,0,0,0,51,4341
3.32392e+06,0,0,0,300,4092
3.32392e+06,0,0,0,50,4342
3.3262e+06,0,0,0,562,3830
3.3262e+06,0,0,0,434,3958
3.32743e+06,0,0,0,562,3830
3.32786e+06,0,0,0,690,3702
3.32788e+06,0,0,0,818,3574
3.3279e+06,0,0,0,946,3446
3.33041e+06,0,0,0,1074,3318
3.33046e+06,0,0,0,1324,3068
3.33049e+06,0,0,0,1452,2940
3.33484e+06,0,0,0,1702,2690
3.33563e+06,0,0,0,1703,2689
3.33568e+06,0,0,0,1704,2688
3.33649e+06,0,0,0,1832,2560
3.33669e+06,0,0,0,2344,2048
3.33732e+06,0,0,0,2600,1792
3.33743e+06,0,0,0,3112,1280
3.33864e+06,0,0,0,3368,1024
3.33866e+06,0,0,0,3624,768
3.33867e+06,0,0,0,3880,512
3.33927e+06,0,0,0,4392,0
3.33927e+06,0,0,0,296,4096
3.37978e+06,0,0,0,286,4106
3.39061e+06,0,0,0,296,4096
3.39062e+06,0,0,0,40,4352
3.40494e+06,0,0,0,296,4096
3.42337e+06,0,0,0,4392,0
3.42337e+06,0,0,0,296,4096
3.42337e+06,0,0,0,47,4345
3.42337e+06,0,0,0,37,4355
3.44502e+06,0,0,0,47,4345
3.47138e+06,0,0,0,4143,249
3.47139e+06,0,0,0,3503,889
3.47139e+06,0,0,0,2628,1764
3.47139e+06,0,0,0,580,3812
3.47139e+06,0,0,0,331,4061
3.47139e+06,0,0,0,82,4310
3.49322e+06,0,0,0,722,3670
3.50325e+06,0,0,0,712,3680
3.52392e+06,0,0,0,456,3936
3.52493e+06,0,0,0,466,3926
3.53943e+06,0,0,0,210,4182
3.54094e+06,0,0,0,459,3933
3.54197e+06,0,0,0,715,3677
3.54949e+06,0,0,0,1590,2802
3.55027e+06,0,0,0,1846,2546
3.55421e+06,0,0,0,2095,2297
3.55658e+06,0,0,0,4143,249
3.55658e+06,0,0,0,47,4345
3.59816e+06,0,0,0,296,4096
3.61631e+06,0,0,0,4392,0
3.61631e+06,0,0,0,296,4096
3.61631e+06,0,0,0,47,4345
3.67631e+06,0,0,0,4143,249
3.67631e+06,0,0,0,3887,505
3.67631e+06,0,0,0,3503,889
3.67631e+06,0,0,0,3119,1273
3.67631e+06,0,0,0,2863,1529
3.67631e+06,0,0,0,2351,2041
3.67631e+06,0,0,0,2095,2297
3.67631e+06,0,0,0,1071,3321
3.67631e+06,0,0,0,815,3577
3.67631e+06,0,0,0,566,3826
3.67631e+06,0,0,0,310,4082
3.67631e+06,0,0,0,54,4338
3.68724e+06,0,0,0,566,3826
3.68727e+06,0,0,0,822,3570
3.68727e+06,0,0,0,20,4372
3.69082e+06,0,0,0,276,4116
3.69083e+06,0,0,0,20,4372
3.69166e+06,0,0,0,1044,3348
3.69168e+06,0,0,0,20,4372
3.69187e+06,0,0,0,276,4116
3.69275e+06,0,0,0,525,3867
3.69795e+06,0,0,0,781,3611
3.69795e+06,0,0,0,1037,3355
3.69804e+06,0,0,0,1293,3099
3.69975e+06,0,0,0,1677,2715
3.70043e+06,0,0,0,2061,2331
3.70619e+06,0,0,0,3085,1307
3.70623e+06,0,0,0,2829,1563
3.70623e+06,0,0,0,2573,1819
3.70788e+06,0,0,0,2189,2203
3.71007e+06,0,0,0,1805,2587
3.71248e+06,0,0,0,2061,2331
3.72157e+06,0,0,0,2317,2075
3.72165e+06,0,0,0,2573,1819
3.72747e+06,0,0,0,2572,1820
3.73154e+06,0,0,0,2956,1436
3.732e+06,0,0,0,2828,1564
3.73365e+06,0,0,0,3212,1180
3.73601e+06,0,0,0,3084,1308
3.73751e+06,0,0,0,3085,1307
3.73824e+06,0,0,0,3080,1312
3.73869e+06,0,0,0,2831,1561
3.74201e+06,0,0,0,2575,1817
3.74201e+06,0,0,0,2319,2073
3.74288e+06,0,0,0,2447,1945
3.74689e+06,0,0,0,2575,1817
3.76286e+06,0,0,0,2824,1568
3.76377e+06,0,0,0,3080,1312
3.7638e+06,0,0,0,3336,1056
3.77192e+06,0,0,0,4138,254
3.77797e+06,0,0,0,4010,382
3.78202e+06,0,0,0,4259,133
3.78839e+06,0,0,0,3875,517
3.78839e+06,0,0,0,3491,901
3.78839e+06,0,0,0,3107,1285
3.78883e+06,0,0,0,3235,1157
3.79412e+06,0,0,0,3240,1152
3.79763e+06,0,0,0,2216,2176
3.79945e+06,0,0,0,1967,2425
3.81198e+06,0,0,0,2351,2041
3.81198e+06,0,0,0,303,4089
3.8122e+06,0,0,0,687,3705
3.8123e+06,0,0,0,1071,3321
3.81329e+06,0,0,0,1320,3072
3.81933e+06,0,0,0,2344,2048
3.81933e+06,0,0,0,296,4096
3.81933e+06,0,0,0,291,4101
3.81933e+06,0,0,0,163,4229
3.81933e+06,0,0,0,31,4361
3.8296e+06,0,0,0,36,4356
3.83019e+06,0,0,0,164,4228
3.83021e+06,0,0,0,296,4096
3.83112e+06,0,0,0,2344,2048
3.83112e+06,0,0,0,296,4096
3.83825e+06,0,0,0,2344,2048
3.83825e+06,0,0,0,296,4096
3.83825e+06,0,0,0,168,4224
3.84917e+06,0,0,0,296,4096
3.85003e+06,0,0,0,2344,2048
3.85004e+06,0,0,0,296,4096
3.85725e+06,0,0,0,2344,2048
3.85725e+06,0,0,0,296,4096
3.86901e+06,0,0,0,2344,2048
3.86901e+06,0,0,0,296,4096
3.87618e+06,0,0,0,2344,2048
3.87618e+06,0,0,0,296,4096
3.88796e+06,0,0,0,2344,2048
3.88796e+06,0,0,0,296,4096
3.8951e+06,0,0,0,2344,2048
3.8951e+06,0,0,0,296,4096
3.90681e+06,0,0,0,2344,2048
3.90682e+06,0,0,0,296,4096
3.91409e+06,0,0,0,2344,2048
3.9141e+06,0,0,0,296,4096
3.9141e+06,0,0,0,40,4352
3.925e+06,0,0,0,296,4096
3.92577e+06,0,0,0,2344,2048
3.92578e+06,0,0,0,296,4096
3.93298e+06,0,0,0,2344,2048
3.93298e+06,0,0,0,296,4096
3.94466e+06,0,0,0,2344,2048
3.94466e+06,0,0,0,296,4096
3.95206e+06,0,0,0,2344,2048
3.95206e+06,0,0,0,296,4096
3.96369e+06,0,0,0,2344,2048
3.96369e+06,0,0,0,296,4096
3.97096e+06,0,0,0,2344,2048
3.97096e+06,0,0,0,296,4096
3.97096e+06,0,0,0,55,4337
3.98301e+06,0,0,0,2103,2289
3.98302e+06,0,0,0,1591,2801
3.98302e+06,0,0,0,1079,3313
3.98302e+06,0,0,0,823,3569
3.98302e+06,0,0,0,567,3825
3.98302e+06,0,0,0,311,4081
3.98854e+06,0,0,0,2359,2033
3.98855e+06,0,0,0,1402,2990
4.00219e+06,0,0,0,2359,2033
4.00219e+06,0,0,0,327,4065
4.00219e+06,0,0,0,71,4321
4.00476e+06,0,0,0,327,4065
4.00591e+06,0,0,0,839,3553
4.00593e+06,0,0,0,1351,3041
4.01739e+06,0,0,0,1607,2785
4.01822e+06,0,0,0,3639,753
4.01822e+06,0,0,0,1607,2785
4.01822e+06,0,0,0,1222,3170
4.01822e+06,0,0,0,420,3972
4.03315e+06,0,0,0,805,3587
4.04138e+06,0,0,0,2837,1555
4.06953e+06,0,0,0,3093,1299
4.06956e+06,0,0,0,3349,1043
4.08861e+06,0,0,0,3590,802
4.09034e+06,0,0,0,4392,0
4.09034e+06,0,0,0,542,3850
4.11447e+06,0,0,0,4392,0
4.11448e+06,0,0,0,542,3850
4.14411e+06,0,0,0,4392,0
