time,nb_sleeping,nb_switching_on,nb_switching_off,nb_idle,nb_computing
0.00240003,0,0,0,4360,32
0.00300004,0,0,0,3960,432
0.00360005,0,0,0,3560,832
0.00420006,0,0,0,3484,908
0.00480006,0,0,0,1948,2444
0.00540007,0,0,0,1872,2520
0.00600008,0,0,0,848,3544
0.00660009,0,0,0,592,3800
0.0072001,0,0,0,496,3896
0.0078001,0,0,0,488,3904
0.00840011,0,0,0,412,3980
0.00900012,0,0,0,380,4012
0.00960013,0,0,0,348,4044
0.0102001,0,0,0,316,4076
0.0108001,0,0,0,188,4204
0.0114002,0,0,0,156,4236
0.0120002,0,0,0,148,4244
0.0126002,0,0,0,52,4340
0.0132002,0,0,0,20,4372
0.0138002,0,0,0,4,4388
10643,0,0,0,20,4372
10754,0,0,0,96,4296
10898,0,0,0,128,4264
11035,0,0,0,160,4232
11093,0,0,0,236,4156
11275,0,0,0,268,4124
11278,0,0,0,12,4380
11876,0,0,0,268,4124
12732,0,0,0,300,4092
13261,0,0,0,396,3996
14473,0,0,0,428,3964
14475,0,0,0,828,3564
14502,0,0,0,860,3532
14512,0,0,0,1260,3132
14514,0,0,0,1336,3056
14518,0,0,0,312,4080
17177,0,0,0,408,3984
20177,0,0,0,416,3976
20554,0,0,0,424,3968
21760,0,0,0,552,3840
22265,0,0,0,2088,2304
22268,0,0,0,1064,3328
22268,0,0,0,808,3584
22268,0,0,0,606,3786
22268,0,0,0,478,3914
22268,0,0,0,350,4042
22268,0,0,0,318,4074
22268,0,0,0,310,4082
22268,0,0,0,278,4114
22268,0,0,0,182,4210
22268,0,0,0,174,4218
22924,0,0,0,1198,3194
22927,0,0,0,798,3594
22927,0,0,0,722,3670
22927,0,0,0,721,3671
22927,0,0,0,593,3799
22927,0,0,0,592,3800
22927,0,0,0,464,3928
22927,0,0,0,432,3960
22927,0,0,0,368,4024
22927,0,0,0,272,4120
32980,0,0,0,528,3864
32983,0,0,0,16,4376
33168,0,0,0,272,4120
34092,0,0,0,348,4044
35343,0,0,0,412,3980
35420,0,0,0,508,3884
35783,0,0,0,710,3682
36769,0,0,0,742,3650
36839,0,0,0,774,3618
36866,0,0,0,902,3490
36963,0,0,0,1030,3362
36966,0,0,0,6,4386
37095,0,0,0,38,4354
37409,0,0,0,39,4353
37427,0,0,0,439,3953
37430,0,0,0,363,4029
37430,0,0,0,107,4285
37430,0,0,0,99,4293
37430,0,0,0,67,4325
37430,0,0,0,35,4357
40436,0,0,0,131,4261
40439,0,0,0,3,4389
42265,0,0,0,11,4381
42540,0,0,0,19,4373
43933,0,0,0,147,4245
43936,0,0,0,115,4277
44607,0,0,0,243,4149
44644,0,0,0,244,4148
47958,0,0,0,320,4072
49347,0,0,0,576,3816
49350,0,0,0,174,4218
49350,0,0,0,46,4346
50086,0,0,0,78,4314
50381,0,0,0,110,4282
57479,0,0,0,118,4274
57656,0,0,0,150,4242
58128,0,0,0,1174,3218
58131,0,0,0,772,3620
58131,0,0,0,644,3748
58131,0,0,0,544,3848
58131,0,0,0,416,3976
58131,0,0,0,288,4104
58131,0,0,0,160,4232
58131,0,0,0,32,4360
62166,0,0,0,160,4232
62169,0,0,0,32,4360
71029,0,0,0,160,4232
71032,0,0,0,32,4360
75016,0,0,0,160,4232
75019,0,0,0,32,4360
76267,0,0,0,544,3848
76270,0,0,0,416,3976
76270,0,0,0,340,4052
76270,0,0,0,244,4148
76270,0,0,0,212,4180
76851,0,0,0,340,4052
79820,0,0,0,468,3924
79823,0,0,0,68,4324
79823,0,0,0,4,4388
79837,0,0,0,132,4260
79840,0,0,0,68,4324
79840,0,0,0,60,4332
79875,0,0,0,188,4204
79878,0,0,0,60,4332
79878,0,0,0,28,4364
80784,0,0,0,128,4264
80787,0,0,0,52,4340
80787,0,0,0,20,4372
83847,0,0,0,148,4244
89197,0,0,0,244,4148
89487,0,0,0,276,4116
89490,0,0,0,20,4372
90313,0,0,0,148,4244
90626,0,0,0,180,4212
90723,0,0,0,244,4148
91133,0,0,0,276,4116
91136,0,0,0,20,4372
91136,0,0,0,12,4380
91741,0,0,0,88,4304
92036,0,0,0,152,4240
92039,0,0,0,56,4336
92039,0,0,0,24,4368
92651,0,0,0,426,3966
92654,0,0,0,26,4366
92654,0,0,0,10,4382
94304,0,0,0,410,3982
94307,0,0,0,282,4110
94307,0,0,0,206,4186
94307,0,0,0,78,4314
95297,0,0,0,154,4238
95300,0,0,0,26,4366
95514,0,0,0,154,4238
95517,0,0,0,26,4366
96741,0,0,0,154,4238
96744,0,0,0,26,4366
99821,0,0,0,34,4358
101018,0,0,0,1058,3334
101021,0,0,0,930,3462
101021,0,0,0,866,3526
101021,0,0,0,802,3590
101021,0,0,0,706,3686
101021,0,0,0,674,3718
101021,0,0,0,666,3726
101021,0,0,0,658,3734
101021,0,0,0,402,3990
101021,0,0,0,146,4246
101021,0,0,0,70,4322
101021,0,0,0,38,4354
101415,0,0,0,440,3952
101418,0,0,0,340,4052
101418,0,0,0,240,4152
101418,0,0,0,112,4280
101558,0,0,0,240,4152
105358,0,0,0,316,4076
105429,0,0,0,412,3980
106508,0,0,0,444,3948
106952,0,0,0,460,3932
107160,0,0,0,860,3532
107163,0,0,0,220,4172
107163,0,0,0,188,4204
108663,0,0,0,444,3948
108666,0,0,0,188,4204
109164,0,0,0,444,3948
109167,0,0,0,188,4204
111199,0,0,0,196,4196
111456,0,0,0,452,3940
111459,0,0,0,196,4196
111459,0,0,0,164,4228
111811,0,0,0,240,4152
111836,0,0,0,496,3896
111839,0,0,0,240,4152
112135,0,0,0,272,4120
112138,0,0,0,16,4376
112138,0,0,0,8,4384
112973,0,0,0,136,4256
113614,0,0,0,264,4128
113617,0,0,0,8,4384
113681,0,0,0,72,4320
113856,0,0,0,200,4192
113919,0,0,0,264,4128
113922,0,0,0,8,4384
115080,0,0,0,136,4256
115520,0,0,0,168,4224
115554,0,0,0,176,4216
116004,0,0,0,304,4088
116007,0,0,0,48,4344
118490,0,0,0,80,4312
118808,0,0,0,720,3672
118811,0,0,0,464,3928
118811,0,0,0,400,3992
118811,0,0,0,203,4189
118900,0,0,0,299,4093
118903,0,0,0,95,4297
118903,0,0,0,19,4373
119081,0,0,0,147,4245
119084,0,0,0,83,4309
120807,0,0,0,211,4181
121267,0,0,0,219,4173
123159,0,0,0,319,4073
123163,0,0,0,419,3973
123166,0,0,0,19,4373
123451,0,0,0,1043,3349
123454,0,0,0,180,4212
123454,0,0,0,176,4216
123454,0,0,0,144,4248
123454,0,0,0,80,4312
123454,0,0,0,4,4388
124145,0,0,0,260,4132
124148,0,0,0,196,4196
124148,0,0,0,132,4260
124148,0,0,0,124,4268
124375,0,0,0,380,4012
125960,0,0,0,412,3980
126457,0,0,0,668,3724
126460,0,0,0,156,4236
127560,0,0,0,412,3980
128124,0,0,0,668,3724
128127,0,0,0,156,4236
128841,0,0,0,412,3980
128844,0,0,0,229,4163
128844,0,0,0,153,4239
129175,0,0,0,409,3983
129178,0,0,0,153,4239
129178,0,0,0,121,4271
130013,0,0,0,197,4195
130016,0,0,0,6,4386
131654,0,0,0,70,4322
132410,0,0,0,78,4314
132880,0,0,0,334,4058
132883,0,0,0,133,4259
133294,0,0,0,197,4195
133626,0,0,0,453,3939
133629,0,0,0,197,4195
133629,0,0,0,5,4387
134605,0,0,0,81,4311
136598,0,0,0,145,4247
137267,0,0,0,149,4243
137463,0,0,0,213,4179
137466,0,0,0,11,4381
137927,0,0,0,43,4349
137942,0,0,0,107,4285
138563,0,0,0,507,3885
138566,0,0,0,302,4090
138566,0,0,0,270,4122
139201,0,0,0,1133,3259
139204,0,0,0,733,3659
139204,0,0,0,725,3667
139204,0,0,0,645,3747
139204,0,0,0,245,4147
139204,0,0,0,213,4179
139204,0,0,0,197,4195
139204,0,0,0,165,4227
139204,0,0,0,101,4291
139204,0,0,0,69,4323
139204,0,0,0,61,4331
139980,0,0,0,258,4134
139983,0,0,0,130,4262
140579,0,0,0,334,4058
143340,0,0,0,410,3982
143343,0,0,0,10,4382
143665,0,0,0,42,4350
144157,0,0,0,50,4342
144645,0,0,0,306,4086
148179,0,0,0,818,3574
148182,0,0,0,418,3974
148182,0,0,0,410,3982
148182,0,0,0,10,4382
149664,0,0,0,42,4350
149833,0,0,0,225,4167
149879,0,0,0,737,3655
150128,0,0,0,817,3575
151653,0,0,0,881,3511
151693,0,0,0,1072,3320
153238,0,0,0,1104,3288
153671,0,0,0,1136,3256
153687,0,0,0,1152,3240
153695,0,0,0,1184,3208
153709,0,0,0,1584,2808
153712,0,0,0,48,4344
153712,0,0,0,16,4376
153780,0,0,0,416,3976
153783,0,0,0,16,4376
154101,0,0,0,218,4174
154104,0,0,0,17,4375
154558,0,0,0,218,4174
155306,0,0,0,474,3918
155309,0,0,0,218,4174
155309,0,0,0,90,4302
155313,0,0,0,282,4110
156189,0,0,0,487,3905
157847,0,0,0,887,3505
159309,0,0,0,895,3497
159670,0,0,0,1023,3369
159791,0,0,0,1031,3361
159794,0,0,0,7,4385
161573,0,0,0,15,4377
162688,0,0,0,415,3977
162713,0,0,0,815,3577
162716,0,0,0,303,4089
165073,0,0,0,703,3689
165076,0,0,0,191,4201
165515,0,0,0,392,4000
165518,0,0,0,136,4256
165518,0,0,0,72,4320
165518,0,0,0,40,4352
168245,0,0,0,72,4320
168248,0,0,0,12,4380
168565,0,0,0,268,4124
175303,0,0,0,780,3612
175306,0,0,0,380,4012
175306,0,0,0,124,4268
175605,0,0,0,156,4236
176053,0,0,0,1692,2700
176056,0,0,0,1436,2956
176056,0,0,0,924,3468
176056,0,0,0,860,3532
176056,0,0,0,796,3596
176056,0,0,0,732,3660
176056,0,0,0,668,3724
176056,0,0,0,604,3788
176056,0,0,0,540,3852
176056,0,0,0,476,3916
176056,0,0,0,412,3980
176056,0,0,0,348,4044
176056,0,0,0,284,4108
176056,0,0,0,220,4172
176056,0,0,0,156,4236
176056,0,0,0,92,4300
176056,0,0,0,28,4364
176703,0,0,0,156,4236
176706,0,0,0,92,4300
176706,0,0,0,28,4364
178343,0,0,0,92,4300
178346,0,0,0,28,4364
179129,0,0,0,88,4304
179132,0,0,0,24,4368
180426,0,0,0,536,3856
180429,0,0,0,472,3920
180429,0,0,0,408,3984
180429,0,0,0,344,4048
180429,0,0,0,216,4176
180429,0,0,0,88,4304
182836,0,0,0,1112,3280
182839,0,0,0,712,3680
187145,0,0,0,1224,3168
187207,0,0,0,1480,2912
189833,0,0,0,1880,2512
189836,0,0,0,344,4048
189836,0,0,0,216,4176
189836,0,0,0,88,4304
194859,0,0,0,344,4048
194862,0,0,0,216,4176
194862,0,0,0,88,4304
194974,0,0,0,152,4240
194977,0,0,0,24,4368
197730,0,0,0,88,4304
197731,0,0,0,152,4240
197731,0,0,0,216,4176
197732,0,0,0,280,4112
197736,0,0,0,344,4048
197738,0,0,0,408,3984
197742,0,0,0,472,3920
197747,0,0,0,536,3856
197749,0,0,0,600,3792
197757,0,0,0,472,3920
197757,0,0,0,344,4048
197757,0,0,0,216,4176
197757,0,0,0,88,4304
197758,0,0,0,152,4240
197761,0,0,0,24,4368
197775,0,0,0,88,4304
197791,0,0,0,152,4240
197794,0,0,0,24,4368
197810,0,0,0,88,4304
198326,0,0,0,488,3904
198329,0,0,0,360,4032
198329,0,0,0,232,4160
198329,0,0,0,104,4288
198387,0,0,0,168,4224
198390,0,0,0,40,4352
198400,0,0,0,104,4288
198570,0,0,0,360,4032
198573,0,0,0,232,4160
198573,0,0,0,104,4288
198573,0,0,0,40,4352
198684,0,0,0,104,4288
198687,0,0,0,40,4352
199952,0,0,0,168,4224
200045,0,0,0,232,4160
200477,0,0,0,360,4032
200665,0,0,0,488,3904
200668,0,0,0,88,4304
200668,0,0,0,24,4368
200812,0,0,0,88,4304
200815,0,0,0,24,4368
202111,0,0,0,88,4304
202114,0,0,0,24,4368
202115,0,0,0,88,4304
202115,0,0,0,216,4176
202121,0,0,0,152,4240
202121,0,0,0,88,4304
202121,0,0,0,24,4368
205611,0,0,0,152,4240
205614,0,0,0,88,4304
205614,0,0,0,24,4368
205614,0,0,0,16,4376
205836,0,0,0,144,4248
205839,0,0,0,16,4376
205870,0,0,0,144,4248
205873,0,0,0,112,4280
205873,0,0,0,80,4312
205873,0,0,0,16,4376
207864,0,0,0,144,4248
207867,0,0,0,112,4280
208473,0,0,0,240,4152
210364,0,0,0,368,4024
210615,0,0,0,496,3896
210618,0,0,0,112,4280
210893,0,0,0,240,4152
212083,0,0,0,1776,2616
212086,0,0,0,1520,2872
212478,0,0,0,1648,2744
212626,0,0,0,1776,2616
212722,0,0,0,1904,2488
213470,0,0,0,2032,2360
213915,0,0,0,2160,2232
214450,0,0,0,2288,2104
214976,0,0,0,2416,1976
215190,0,0,0,2816,1576
219961,0,0,0,2848,1544
220277,0,0,0,2912,1480
220353,0,0,0,2976,1416
220383,0,0,0,3040,1352
221100,0,0,0,3072,1320
222348,0,0,0,3104,1288
222370,0,0,0,3168,1224
222521,0,0,0,3232,1160
223809,0,0,0,3296,1096
224759,0,0,0,3360,1032
224762,0,0,0,3424,968
224913,0,0,0,3488,904
225646,0,0,0,3496,896
227319,0,0,0,3560,832
227584,0,0,0,3688,704
228437,0,0,0,3752,640
228694,0,0,0,4008,384
229266,0,0,0,3496,896
229390,0,0,0,3480,912
233431,0,0,0,2904,1488
234317,0,0,0,2872,1520
234324,0,0,0,2856,1536
236279,0,0,0,2344,2048
236907,0,0,0,2216,2176
237073,0,0,0,1704,2688
238943,0,0,0,1696,2696
239695,0,0,0,1632,2760
240252,0,0,0,1600,2792
240656,0,0,0,1616,2776
242335,0,0,0,1552,2840
244252,0,0,0,1152,3240
244431,0,0,0,1076,3316
245265,0,0,0,1092,3300
245303,0,0,0,1476,2916
245738,0,0,0,1316,3076
246648,0,0,0,292,4100
247167,0,0,0,804,3588
248826,0,0,0,836,3556
251433,0,0,0,1348,3044
251698,0,0,0,1220,3172
252477,0,0,0,1284,3108
252574,0,0,0,1252,3140
252704,0,0,0,1220,3172
252833,0,0,0,1188,3204
254754,0,0,0,1220,3172
255031,0,0,0,1296,3096
255125,0,0,0,1216,3176
257933,0,0,0,1280,3112
258606,0,0,0,1408,2984
258753,0,0,0,1344,3048
258908,0,0,0,1352,3040
259742,0,0,0,1752,2640
260263,0,0,0,1676,2716
263850,0,0,0,1164,3228
264396,0,0,0,780,3612
265145,0,0,0,266,4126
266779,0,0,0,298,4094
266977,0,0,0,378,4014
267066,0,0,0,410,3982
267439,0,0,0,570,3822
267442,0,0,0,58,4334
267442,0,0,0,50,4342
267919,0,0,0,82,4310
270473,0,0,0,146,4246
272409,0,0,0,222,4170
272561,0,0,0,734,3658
272564,0,0,0,334,4058
273401,0,0,0,462,3930
273404,0,0,0,62,4330
273404,0,0,0,46,4346
274559,0,0,0,38,4354
275296,0,0,0,422,3970
275456,0,0,0,346,4046
276721,0,0,0,330,4062
276754,0,0,0,906,3486
277810,0,0,0,1418,2974
281059,0,0,0,1386,3006
281119,0,0,0,1354,3038
282684,0,0,0,1034,3358
283080,0,0,0,970,3422
283082,0,0,0,906,3486
283695,0,0,0,842,3550
283707,0,0,0,778,3614
284309,0,0,0,714,3678
284310,0,0,0,650,3742
284369,0,0,0,666,3726
284918,0,0,0,602,3790
284920,0,0,0,538,3854
285528,0,0,0,474,3918
285529,0,0,0,410,3982
286826,0,0,0,486,3906
287079,0,0,0,886,3506
287940,0,0,0,1286,3106
288018,0,0,0,1302,3090
288717,0,0,0,1310,3082
289160,0,0,0,1822,2570
291466,0,0,0,1746,2646
292046,0,0,0,1730,2662
292343,0,0,0,1722,2670
295050,0,0,0,1594,2798
295052,0,0,0,1466,2926
295053,0,0,0,1338,3054
295054,0,0,0,1210,3182
295055,0,0,0,1082,3310
295056,0,0,0,954,3438
295057,0,0,0,826,3566
295058,0,0,0,698,3694
295059,0,0,0,570,3822
295070,0,0,0,442,3950
295072,0,0,0,314,4078
295073,0,0,0,186,4206
295074,0,0,0,58,4334
295164,0,0,0,90,4302
295197,0,0,0,122,4270
296243,0,0,0,130,4262
296246,0,0,0,2,4390
299620,0,0,0,322,4070
299623,0,0,0,194,4198
299623,0,0,0,66,4326
302369,0,0,0,142,4250
302372,0,0,0,14,4378
302644,0,0,0,30,4362
304771,0,0,0,94,4298
304787,0,0,0,158,4234
304790,0,0,0,30,4362
305390,0,0,0,94,4298
305404,0,0,0,158,4234
305407,0,0,0,30,4362
306008,0,0,0,94,4298
306025,0,0,0,158,4234
306028,0,0,0,30,4362
306432,0,0,0,158,4234
306543,0,0,0,286,4106
306567,0,0,0,414,3978
306615,0,0,0,478,3914
306633,0,0,0,542,3850
306636,0,0,0,30,4362
306662,0,0,0,158,4234
306704,0,0,0,286,4106
306746,0,0,0,414,3978
306749,0,0,0,14,4378
306750,0,0,0,142,4250
306753,0,0,0,66,4326
306778,0,0,0,194,4198
306873,0,0,0,322,4070
306924,0,0,0,450,3942
307064,0,0,0,578,3814
307236,0,0,0,642,3750
307384,0,0,0,770,3622
307952,0,0,0,370,4022
307990,0,0,0,498,3894
308374,0,0,0,562,3830
309153,0,0,0,690,3702
309490,0,0,0,1204,3188
311621,0,0,0,1332,3060
312159,0,0,0,1460,2932
312609,0,0,0,1444,2948
312787,0,0,0,1452,2940
313957,0,0,0,1580,2812
313987,0,0,0,1504,2888
315725,0,0,0,1496,2896
316303,0,0,0,1624,2768
317030,0,0,0,1752,2640
317435,0,0,0,2776,1616
317800,0,0,0,2852,1540
318552,0,0,0,2980,1412
321264,0,0,0,3380,1012
321554,0,0,0,3316,1076
321555,0,0,0,3252,1140
322437,0,0,0,3652,740
323253,0,0,0,3668,724
325088,0,0,0,3744,648
325159,0,0,0,3680,712
325167,0,0,0,3616,776
326037,0,0,0,3608,784
326249,0,0,0,3532,860
327924,0,0,0,3516,876
327968,0,0,0,2492,1900
328196,0,0,0,2476,1916
328708,0,0,0,2444,1948
328787,0,0,0,2412,1980
328904,0,0,0,2380,2012
328983,0,0,0,2348,2044
331616,0,0,0,2284,2108
331747,0,0,0,2220,2172
332892,0,0,0,2156,2236
334168,0,0,0,1752,2640
334251,0,0,0,1348,3044
334349,0,0,0,944,3448
335823,0,0,0,952,3440
336057,0,0,0,824,3568
337414,0,0,0,816,3576
337707,0,0,0,892,3500
338503,0,0,0,1916,2476
338975,0,0,0,1932,2460
340642,0,0,0,1948,2444
342409,0,0,0,1548,2844
342859,0,0,0,1580,2812
342976,0,0,0,1612,2780
343024,0,0,0,1644,2748
343088,0,0,0,1568,2824
343227,0,0,0,1632,2760
343262,0,0,0,1696,2696
343738,0,0,0,1728,2664
345946,0,0,0,1792,2600
346101,0,0,0,1856,2536
346585,0,0,0,1728,2664
346609,0,0,0,1600,2792
346643,0,0,0,1472,2920
346662,0,0,0,1344,3048
346684,0,0,0,1216,3176
346895,0,0,0,1280,3112
347125,0,0,0,1408,2984
347193,0,0,0,1472,2920
347790,0,0,0,1536,2856
348646,0,0,0,1544,2848
349958,0,0,0,2056,2336
350721,0,0,0,2024,2368
350781,0,0,0,1992,2400
350853,0,0,0,1960,2432
351072,0,0,0,1944,2448
354583,0,0,0,2020,2372
355079,0,0,0,484,3908
356921,0,0,0,884,3508
358119,0,0,0,892,3500
360481,0,0,0,816,3576
361870,0,0,0,832,3560
363694,0,0,0,824,3568
365001,0,0,0,856,3536
365185,0,0,0,984,3408
365448,0,0,0,1112,3280
365772,0,0,0,1144,3248
365785,0,0,0,1272,3120
365812,0,0,0,1304,3088
365923,0,0,0,1272,3120
366041,0,0,0,1240,3152
366304,0,0,0,1368,3024
366605,0,0,0,1496,2896
367257,0,0,0,1432,2960
368796,0,0,0,1400,2992
370043,0,0,0,1392,3000
372807,0,0,0,1376,3016
373034,0,0,0,1300,3092
373070,0,0,0,1376,3016
377654,0,0,0,1780,2612
378365,0,0,0,2184,2208
378624,0,0,0,2588,1804
380384,0,0,0,2620,1772
380440,0,0,0,2652,1740
380548,0,0,0,2684,1708
381787,0,0,0,2748,1644
383505,0,0,0,2348,2044
383516,0,0,0,2424,1968
383784,0,0,0,2360,2032
383786,0,0,0,2296,2096
384388,0,0,0,2232,2160
384389,0,0,0,2168,2224
385406,0,0,0,2176,2216
386013,0,0,0,2144,2248
386046,0,0,0,2080,2312
388261,0,0,0,2096,2296
390644,0,0,0,2104,2288
393687,0,0,0,2028,2364
394495,0,0,0,1900,2492
396561,0,0,0,1772,2620
396562,0,0,0,1644,2748
396563,0,0,0,1516,2876
396574,0,0,0,1388,3004
396575,0,0,0,1260,3132
396576,0,0,0,1132,3260
396578,0,0,0,1004,3388
396579,0,0,0,876,3516
396581,0,0,0,748,3644
396582,0,0,0,620,3772
396584,0,0,0,492,3900
398009,0,0,0,892,3500
400543,0,0,0,924,3468
400595,0,0,0,988,3404
401254,0,0,0,980,3412
402765,0,0,0,964,3428
404881,0,0,0,1040,3352
404906,0,0,0,964,3428
405467,0,0,0,1028,3364
405488,0,0,0,1092,3300
406086,0,0,0,1156,3236
406098,0,0,0,1220,3172
408996,0,0,0,1188,3204
410784,0,0,0,1060,3332
411041,0,0,0,996,3396
411048,0,0,0,932,3460
411062,0,0,0,1060,3332
411062,0,0,0,996,3396
411065,0,0,0,868,3524
411072,0,0,0,804,3588
411082,0,0,0,770,3622
411085,0,0,0,736,3656
411258,0,0,0,864,3528
411421,0,0,0,736,3656
411507,0,0,0,864,3528
411554,0,0,0,992,3400
411583,0,0,0,1120,3272
411612,0,0,0,1248,3144
411681,0,0,0,1120,3272
411725,0,0,0,1248,3144
411776,0,0,0,1376,3016
411797,0,0,0,1504,2888
411905,0,0,0,1632,2760
412014,0,0,0,1568,2824
412023,0,0,0,1504,2888
416181,0,0,0,1632,2760
416615,0,0,0,1556,2836
416625,0,0,0,1632,2760
416811,0,0,0,1760,2632
417125,0,0,0,1632,2760
417277,0,0,0,1648,2744
418780,0,0,0,1520,2872
420491,0,0,0,1512,2880
420916,0,0,0,1000,3392
421747,0,0,0,1008,3384
421794,0,0,0,1000,3392
423481,0,0,0,1032,3360
423960,0,0,0,1096,3296
424464,0,0,0,1224,3168
424524,0,0,0,1288,3104
424641,0,0,0,1352,3040
424643,0,0,0,1416,2976
425398,0,0,0,553,3839
425574,0,0,0,587,3805
426147,0,0,0,555,3837
426609,0,0,0,589,3803
426963,0,0,0,717,3675
427005,0,0,0,845,3547
427008,0,0,0,77,4315
427219,0,0,0,205,4187
427317,0,0,0,281,4111
433718,0,0,0,345,4047
433722,0,0,0,409,3983
433725,0,0,0,9,4383
435420,0,0,0,521,3871
435423,0,0,0,457,3935
435423,0,0,0,393,3999
435423,0,0,0,317,4075
435574,0,0,0,445,3947
438830,0,0,0,573,3819
439739,0,0,0,509,3883
439934,0,0,0,1372,3020
440638,0,0,0,1404,2988
440937,0,0,0,2940,1452
442122,0,0,0,2948,1444
442183,0,0,0,2956,1436
442209,0,0,0,2444,1948
443569,0,0,0,2316,2076
443571,0,0,0,2188,2204
443845,0,0,0,2124,2268
443846,0,0,0,2060,2332
444448,0,0,0,1996,2396
444449,0,0,0,1932,2460
446108,0,0,0,2008,2384
446657,0,0,0,2000,2392
446734,0,0,0,1924,2468
446852,0,0,0,1860,2532
446854,0,0,0,1796,2596
448215,0,0,0,2196,2196
451793,0,0,0,2180,2212
452531,0,0,0,2052,2340
452553,0,0,0,1924,2468
453661,0,0,0,2052,2340
453897,0,0,0,1796,2596
453920,0,0,0,1924,2468
454182,0,0,0,1860,2532
454240,0,0,0,1924,2468
457139,0,0,0,1988,2404
457141,0,0,0,2052,2340
457903,0,0,0,2128,2264
459396,0,0,0,2000,2392
459416,0,0,0,1744,2648
459434,0,0,0,1232,3160
462536,0,0,0,1248,3144
464978,0,0,0,1312,3080
465560,0,0,0,1376,3016
465561,0,0,0,1440,2952
465763,0,0,0,1364,3028
466131,0,0,0,1428,2964
466214,0,0,0,1492,2900
466597,0,0,0,2260,2132
466948,0,0,0,2268,2124
467705,0,0,0,2260,2132
468403,0,0,0,2388,2004
468406,0,0,0,2644,1748
468479,0,0,0,2580,1812
468480,0,0,0,2516,1876
468585,0,0,0,2580,1812
468588,0,0,0,2644,1748
469376,0,0,0,2772,1620
476446,0,0,0,2848,1544
477574,0,0,0,2772,1620
479886,0,0,0,2708,1684
479887,0,0,0,2644,1748
481084,0,0,0,2772,1620
481130,0,0,0,3284,1108
481146,0,0,0,3540,852
483489,0,0,0,3476,916
483490,0,0,0,3412,980
485536,0,0,0,3924,468
488409,0,0,0,3932,460
488515,0,0,0,3924,468
489022,0,0,0,4000,392
489059,0,0,0,3924,468
489200,0,0,0,3892,500
489261,0,0,0,3860,532
489315,0,0,0,3828,564
489363,0,0,0,3796,596
489415,0,0,0,3764,628
489460,0,0,0,3732,660
489511,0,0,0,3700,692
490176,0,0,0,3764,628
490191,0,0,0,3828,564
490704,0,0,0,3764,628
490705,0,0,0,3700,692
494311,0,0,0,3636,756
494312,0,0,0,3572,820
494713,0,0,0,3444,948
497465,0,0,0,3412,980
498099,0,0,0,3378,1014
498100,0,0,0,3344,1048
498220,0,0,0,3280,1112
498234,0,0,0,3216,1176
498243,0,0,0,3152,1240
498255,0,0,0,3088,1304
500158,0,0,0,3072,1320
500491,0,0,0,3148,1244
501596,0,0,0,3212,1180
501598,0,0,0,3276,1116
501783,0,0,0,3200,1192
501940,0,0,0,3072,1320
502120,0,0,0,3008,1384
502121,0,0,0,2944,1448
503237,0,0,0,2976,1416
503319,0,0,0,3008,1384
503414,0,0,0,3040,1352
503438,0,0,0,3072,1320
503487,0,0,0,3104,1288
503587,0,0,0,3136,1256
503635,0,0,0,3168,1224
504526,0,0,0,3104,1288
504578,0,0,0,3040,1352
505179,0,0,0,2976,1416
505181,0,0,0,2912,1480
505202,0,0,0,2976,1416
506086,0,0,0,2464,1928
506120,0,0,0,2528,1864
506420,0,0,0,2512,1880
506463,0,0,0,2496,1896
506587,0,0,0,2480,1912
506623,0,0,0,2464,1928
506661,0,0,0,2448,1944
506715,0,0,0,2432,1960
506755,0,0,0,2416,1976
506798,0,0,0,2400,1992
508503,0,0,0,2408,1984
508528,0,0,0,2440,1952
508624,0,0,0,2432,1960
510666,0,0,0,2448,1944
511107,0,0,0,2512,1880
511196,0,0,0,2576,1816
511632,0,0,0,2640,1752
511734,0,0,0,2704,1688
512405,0,0,0,2768,1624
512435,0,0,0,2844,1548
512442,0,0,0,2908,1484
512603,0,0,0,2942,1450
512622,0,0,0,2976,1416
513557,0,0,0,2900,1492
516008,0,0,0,2964,1428
516015,0,0,0,3028,1364
516411,0,0,0,3156,1236
516496,0,0,0,3172,1220
516593,0,0,0,3108,1284
516595,0,0,0,3044,1348
517008,0,0,0,3556,836
517242,0,0,0,3572,820
517457,0,0,0,3588,804
517536,0,0,0,3604,788
517740,0,0,0,3620,772
517748,0,0,0,3636,756
517818,0,0,0,3652,740
517845,0,0,0,3668,724
521114,0,0,0,2644,1748
521955,0,0,0,2260,2132
523273,0,0,0,2196,2196
523292,0,0,0,2132,2260
523634,0,0,0,2260,2132
523826,0,0,0,2324,2068
523831,0,0,0,2388,2004
524488,0,0,0,2464,1928
524530,0,0,0,2388,2004
525827,0,0,0,2132,2260
526252,0,0,0,2196,2196
526262,0,0,0,2260,2132
526888,0,0,0,2324,2068
526908,0,0,0,2388,2004
528750,0,0,0,2396,1996
531176,0,0,0,2388,2004
534004,0,0,0,2324,2068
534006,0,0,0,2260,2132
535729,0,0,0,2336,2056
535862,0,0,0,2400,1992
536218,0,0,0,2464,1928
536554,0,0,0,2388,2004
538159,0,0,0,2644,1748
538280,0,0,0,2708,1684
538303,0,0,0,2772,1620
539298,0,0,0,2644,1748
547061,0,0,0,2568,1824
547170,0,0,0,2644,1748
548333,0,0,0,3668,724
551241,0,0,0,3676,716
553172,0,0,0,3804,588
555696,0,0,0,3868,524
555725,0,0,0,3932,460
557978,0,0,0,4008,384
558040,0,0,0,4392,0
569182,0,0,0,4316,76
580910,0,0,0,4392,0
604969,0,0,0,4328,64
608263,0,0,0,4252,140
610458,0,0,0,4188,204
610558,0,0,0,4156,236
610655,0,0,0,4124,268
610713,0,0,0,4092,300
610760,0,0,0,4060,332
610814,0,0,0,4028,364
610859,0,0,0,3996,396
610912,0,0,0,3964,428
619452,0,0,0,4028,364
619606,0,0,0,4104,288
622024,0,0,0,4168,224
624795,0,0,0,4200,192
624879,0,0,0,4232,160
624996,0,0,0,4264,128
625073,0,0,0,4296,96
625546,0,0,0,4328,64
625816,0,0,0,4360,32
625821,0,0,0,4392,0
628167,0,0,0,4328,64
628185,0,0,0,4264,128
636248,0,0,0,4188,204
640885,0,0,0,4252,140
641290,0,0,0,4316,76
641481,0,0,0,4284,108
647107,0,0,0,4360,32
652359,0,0,0,4392,0
667048,0,0,0,4328,64
667062,0,0,0,4264,128
670170,0,0,0,4188,204
678378,0,0,0,4124,268
680085,0,0,0,4188,204
680274,0,0,0,4252,140
680469,0,0,0,3389,1003
681225,0,0,0,3465,927
686445,0,0,0,3449,943
686485,0,0,0,3433,959
686525,0,0,0,3417,975
686563,0,0,0,3401,991
686597,0,0,0,3385,1007
686982,0,0,0,3369,1023
690439,0,0,0,3433,959
691679,0,0,0,3369,1023
691681,0,0,0,3305,1087
691695,0,0,0,3241,1151
691697,0,0,0,3177,1215
691699,0,0,0,3113,1279
691701,0,0,0,3049,1343
691702,0,0,0,2985,1407
691704,0,0,0,2921,1471
697359,0,0,0,2937,1455
697414,0,0,0,2953,1439
697501,0,0,0,2969,1423
697655,0,0,0,2985,1407
697730,0,0,0,3001,1391
698279,0,0,0,3017,1375
701744,0,0,0,2941,1451
711648,0,0,0,3005,1387
711824,0,0,0,3069,1323
712414,0,0,0,3037,1355
713082,0,0,0,3113,1279
713373,0,0,0,3177,1215
713398,0,0,0,3241,1151
713399,0,0,0,3305,1087
713400,0,0,0,3369,1023
713409,0,0,0,3433,959
713418,0,0,0,3497,895
713677,0,0,0,3421,971
719283,0,0,0,4284,108
725344,0,0,0,4360,32
725832,0,0,0,4352,40
727232,0,0,0,4276,116
727833,0,0,0,4308,84
730481,0,0,0,3908,484
734115,0,0,0,3844,548
738398,0,0,0,3920,472
738960,0,0,0,3844,548
744978,0,0,0,3908,484
744997,0,0,0,4308,84
746003,0,0,0,4316,76
749376,0,0,0,4308,84
749525,0,0,0,4384,8
749536,0,0,0,4308,84
749928,0,0,0,4180,212
749937,0,0,0,4052,340
749938,0,0,0,3924,468
749939,0,0,0,3796,596
749940,0,0,0,3668,724
749941,0,0,0,3540,852
749942,0,0,0,3412,980
749943,0,0,0,3284,1108
749944,0,0,0,3156,1236
749946,0,0,0,3028,1364
750033,0,0,0,2900,1492
750035,0,0,0,2772,1620
750036,0,0,0,2644,1748
750037,0,0,0,2516,1876
750038,0,0,0,2388,2004
750039,0,0,0,2260,2132
750042,0,0,0,2132,2260
750052,0,0,0,2004,2388
755686,0,0,0,1972,2420
757416,0,0,0,1908,2484
757429,0,0,0,1844,2548
757449,0,0,0,1780,2612
757458,0,0,0,1716,2676
757468,0,0,0,1652,2740
757488,0,0,0,1588,2804
760055,0,0,0,1460,2932
760271,0,0,0,1588,2804
760286,0,0,0,1716,2676
760368,0,0,0,1844,2548
760416,0,0,0,1972,2420
760458,0,0,0,2100,2292
760491,0,0,0,2228,2164
760614,0,0,0,2356,2036
760635,0,0,0,2484,1908
760899,0,0,0,2356,2036
761349,0,0,0,2228,2164
761472,0,0,0,2100,2292
761545,0,0,0,2176,2216
761607,0,0,0,2048,2344
764111,0,0,0,2176,2216
764621,0,0,0,2304,2088
764757,0,0,0,2432,1960
764792,0,0,0,2560,1832
764825,0,0,0,2688,1704
764856,0,0,0,2816,1576
765058,0,0,0,2944,1448
765077,0,0,0,3072,1320
765449,0,0,0,3200,1192
765755,0,0,0,3328,1064
766687,0,0,0,3264,1128
768604,0,0,0,3188,1204
769576,0,0,0,3252,1140
769638,0,0,0,3316,1076
769946,0,0,0,3324,1068
770068,0,0,0,3388,1004
770196,0,0,0,3452,940
770246,0,0,0,3516,876
770495,0,0,0,3580,812
771233,0,0,0,3612,780
771922,0,0,0,3512,880
771961,0,0,0,3412,980
771980,0,0,0,3312,1080
772528,0,0,0,3212,1180
773304,0,0,0,3148,1244
774164,0,0,0,3276,1116
776609,0,0,0,2876,1516
776611,0,0,0,2476,1916
777060,0,0,0,2348,2044
777762,0,0,0,2476,1916
777811,0,0,0,2604,1788
777888,0,0,0,2732,1660
777951,0,0,0,2796,1596
778088,0,0,0,2924,1468
778489,0,0,0,2916,1476
779850,0,0,0,2992,1400
779909,0,0,0,2916,1476
781608,0,0,0,2884,1508
786142,0,0,0,2820,1572
786145,0,0,0,2756,1636
787745,0,0,0,3156,1236
787762,0,0,0,3556,836
787789,0,0,0,3620,772
788019,0,0,0,3106,1286
789030,0,0,0,3042,1350
789031,0,0,0,2978,1414
789645,0,0,0,2914,1478
789646,0,0,0,2850,1542
790256,0,0,0,2786,1606
790257,0,0,0,2722,1670
790460,0,0,0,2798,1594
791298,0,0,0,1774,2618
793333,0,0,0,1698,2694
793683,0,0,0,1798,2594
793714,0,0,0,1898,2494
794251,0,0,0,1998,2394
794569,0,0,0,2098,2294
796109,0,0,0,2130,2262
797201,0,0,0,2258,2134
799011,0,0,0,2266,2126
799953,0,0,0,2330,2062
799957,0,0,0,2394,1998
800380,0,0,0,2330,2062
804330,0,0,0,2406,1986
805844,0,0,0,3430,962
805854,0,0,0,3302,1090
806946,0,0,0,3226,1166
807517,0,0,0,3194,1198
810154,0,0,0,2938,1454
811372,0,0,0,3002,1390
811659,0,0,0,3066,1326
811690,0,0,0,3130,1262
811707,0,0,0,3194,1198
811732,0,0,0,3186,1206
811959,0,0,0,3250,1142
811962,0,0,0,3314,1078
812277,0,0,0,3378,1014
814768,0,0,0,3314,1078
815046,0,0,0,1266,3126
817657,0,0,0,882,3510
817993,0,0,0,958,3434
818176,0,0,0,882,3510
820330,0,0,0,1010,3382
820419,0,0,0,1266,3126
823130,0,0,0,1298,3094
825678,0,0,0,1234,3158
825680,0,0,0,1170,3222
826055,0,0,0,1234,3158
826495,0,0,0,3282,1110
828675,0,0,0,3026,1366
828795,0,0,0,3102,1290
832137,0,0,0,3110,1282
832157,0,0,0,3102,1290
832284,0,0,0,3616,776
834397,0,0,0,3540,852
839310,0,0,0,3796,596
839455,0,0,0,3668,724
842144,0,0,0,1620,2772
843992,0,0,0,1492,2900
844010,0,0,0,1364,3028
844840,0,0,0,1440,2952
847353,0,0,0,1504,2888
847395,0,0,0,1568,2824
848025,0,0,0,1492,2900
848707,0,0,0,980,3412
848965,0,0,0,852,3540
848999,0,0,0,596,3796
849018,0,0,0,84,4308
852885,0,0,0,2132,2260
852888,0,0,0,1108,3284
852888,0,0,0,84,4308
852888,0,0,0,20,4372
853241,0,0,0,28,4364
858625,0,0,0,104,4288
858628,0,0,0,40,4352
859067,0,0,0,168,4224
859070,0,0,0,104,4288
859070,0,0,0,70,4322
859070,0,0,0,36,4356
859070,0,0,0,4,4388
859634,0,0,0,516,3876
859637,0,0,0,508,3884
860946,0,0,0,892,3500
860949,0,0,0,380,4012
865746,0,0,0,508,3884
866611,0,0,0,636,3756
866614,0,0,0,124,4268
866614,0,0,0,92,4300
870686,0,0,0,604,3788
870697,0,0,0,732,3660
870715,0,0,0,988,3404
872749,0,0,0,1052,3340
872752,0,0,0,28,4364
872938,0,0,0,540,3852
872941,0,0,0,28,4364
873555,0,0,0,62,4330
873564,0,0,0,96,4296
873582,0,0,0,128,4264
874576,0,0,0,192,4200
880120,0,0,0,200,4192
880339,0,0,0,264,4128
881098,0,0,0,776,3616
881131,0,0,0,808,3584
887228,0,0,0,1832,2560
887231,0,0,0,808,3584
887231,0,0,0,680,3712
887231,0,0,0,616,3776
887231,0,0,0,552,3840
887231,0,0,0,544,3848
887231,0,0,0,288,4104
887418,0,0,0,800,3592
891190,0,0,0,672,3720
892338,0,0,0,640,3752
895696,0,0,0,632,3760
895841,0,0,0,120,4272
897731,0,0,0,376,4016
899701,0,0,0,120,4272
899752,0,0,0,56,4336
900579,0,0,0,1080,3312
900582,0,0,0,1016,3376
900582,0,0,0,952,3440
900582,0,0,0,888,3504
901558,0,0,0,824,3568
901559,0,0,0,760,3632
901736,0,0,0,888,3504
903970,0,0,0,824,3568
903971,0,0,0,760,3632
905689,0,0,0,888,3504
906523,0,0,0,1912,2480
906851,0,0,0,1944,2448
907529,0,0,0,1952,2440
908911,0,0,0,2016,2376
908917,0,0,0,2080,2312
910303,0,0,0,2336,2056
915848,0,0,0,2344,2048
917568,0,0,0,2856,1536
919693,0,0,0,2848,1544
921459,0,0,0,2912,1480
922281,0,0,0,2976,1416
922287,0,0,0,3040,1352
922389,0,0,0,3104,1288
923250,0,0,0,3168,1224
923288,0,0,0,3232,1160
925667,0,0,0,3296,1096
926615,0,0,0,3360,1032
927351,0,0,0,3328,1064
927424,0,0,0,3200,1192
929014,0,0,0,3176,1216
929193,0,0,0,3152,1240
933005,0,0,0,3076,1316
933087,0,0,0,3012,1380
933107,0,0,0,2948,1444
933116,0,0,0,2884,1508
933128,0,0,0,2820,1572
933144,0,0,0,2756,1636
933153,0,0,0,2692,1700
933407,0,0,0,2628,1764
933426,0,0,0,2564,1828
933446,0,0,0,2500,1892
933455,0,0,0,2436,1956
933467,0,0,0,2372,2020
933475,0,0,0,2308,2084
933589,0,0,0,2052,2340
936397,0,0,0,1988,2404
936398,0,0,0,1924,2468
939550,0,0,0,1796,2596
940091,0,0,0,1668,2724
941173,0,0,0,1676,2716
941764,0,0,0,1708,2684
942055,0,0,0,1692,2700
942057,0,0,0,1676,2716
942474,0,0,0,813,3579
942654,0,0,0,781,3611
943215,0,0,0,857,3535
943500,0,0,0,849,3543
943528,0,0,0,873,3519
943707,0,0,0,897,3495
945051,0,0,0,961,3431
945248,0,0,0,1025,3367
945412,0,0,0,1089,3303
945504,0,0,0,1153,3239
945799,0,0,0,1217,3175
946019,0,0,0,1153,3239
946020,0,0,0,1089,3303
946020,0,0,0,1153,3239
946190,0,0,0,1217,3175
946541,0,0,0,1281,3111
946552,0,0,0,1217,3175
946676,0,0,0,1281,3111
946700,0,0,0,1249,3143
946759,0,0,0,1313,3079
946778,0,0,0,1377,3015
947083,0,0,0,1441,2951
948107,0,0,0,1697,2695
948166,0,0,0,1825,2567
949338,0,0,0,1793,2599
952052,0,0,0,1921,2471
955383,0,0,0,1845,2547
955518,0,0,0,1973,2419
956333,0,0,0,1397,2995
956535,0,0,0,1365,3027
956537,0,0,0,1333,3059
956539,0,0,0,1301,3091
956541,0,0,0,1269,3123
956543,0,0,0,1285,3107
956569,0,0,0,1301,3091
957143,0,0,0,1333,3059
958096,0,0,0,1397,2995
958098,0,0,0,1461,2931
959167,0,0,0,949,3443
960554,0,0,0,917,3475
961219,0,0,0,949,3443
961985,0,0,0,1013,3379
963658,0,0,0,981,3411
963980,0,0,0,989,3403
964789,0,0,0,1021,3371
965894,0,0,0,765,3627
966065,0,0,0,841,3551
967716,0,0,0,905,3487
967721,0,0,0,969,3423
969042,0,0,0,961,3431
971954,0,0,0,833,3559
973742,0,0,0,1857,2535
974904,0,0,0,1601,2791
975044,0,0,0,1633,2759
976055,0,0,0,1569,2823
976056,0,0,0,1505,2887
976514,0,0,0,1537,2855
976627,0,0,0,1793,2599
978223,0,0,0,1825,2567
978246,0,0,0,1857,2535
978262,0,0,0,1889,2503
978269,0,0,0,1921,2471
980621,0,0,0,1521,2871
980856,0,0,0,1489,2903
980890,0,0,0,2001,2391
981721,0,0,0,1937,2455
985829,0,0,0,2193,2199
986451,0,0,0,2321,2071
986730,0,0,0,2193,2199
989519,0,0,0,2201,2191
990026,0,0,0,2193,2199
995130,0,0,0,2593,1799
995373,0,0,0,2625,1767
995767,0,0,0,3488,904
995877,0,0,0,3456,936
996205,0,0,0,3520,872
997758,0,0,0,3584,808
998716,0,0,0,3648,744
999618,0,0,0,4224,168
1.0022e+06,0,0,0,4352,40
1.00907e+06,0,0,0,4288,104
1.00908e+06,0,0,0,4224,168
1.00956e+06,0,0,0,3824,568
1.01025e+06,0,0,0,3832,560
1.0103e+06,0,0,0,3824,568
1.01041e+06,0,0,0,3856,536
1.01452e+06,0,0,0,3600,792
1.01696e+06,0,0,0,3568,824
1.01723e+06,0,0,0,3440,952
1.01744e+06,0,0,0,3364,1028
1.01761e+06,0,0,0,3300,1092
1.01761e+06,0,0,0,3236,1156
1.01761e+06,0,0,0,3172,1220
1.01762e+06,0,0,0,3108,1284
1.01918e+06,0,0,0,3084,1308
1.01928e+06,0,0,0,3020,1372
1.01929e+06,0,0,0,2956,1436
1.02219e+06,0,0,0,2444,1948
1.02223e+06,0,0,0,2380,2012
1.02409e+06,0,0,0,2780,1612
1.02863e+06,0,0,0,2856,1536
1.03009e+06,0,0,0,2792,1600
1.03009e+06,0,0,0,2728,1664
1.03023e+06,0,0,0,2984,1408
1.03045e+06,0,0,0,2992,1400
1.03048e+06,0,0,0,2984,1408
1.03069e+06,0,0,0,2920,1472
1.03069e+06,0,0,0,2856,1536
1.03076e+06,0,0,0,2920,1472
1.03146e+06,0,0,0,2952,1440
1.03171e+06,0,0,0,3080,1312
1.03189e+06,0,0,0,3144,1248
1.03199e+06,0,0,0,3112,1280
1.03386e+06,0,0,0,3136,1256
1.03774e+06,0,0,0,3200,1192
1.03929e+06,0,0,0,3264,1128
1.03931e+06,0,0,0,3328,1064
1.03931e+06,0,0,0,3392,1000
1.03934e+06,0,0,0,3456,936
1.04074e+06,0,0,0,3380,1012
1.04099e+06,0,0,0,3444,948
1.04099e+06,0,0,0,3508,884
1.04227e+06,0,0,0,2836,1556
1.04325e+06,0,0,0,2868,1524
1.04386e+06,0,0,0,3380,1012
1.04566e+06,0,0,0,3252,1140
1.04567e+06,0,0,0,2740,1652
1.04573e+06,0,0,0,1716,2676
1.04918e+06,0,0,0,1684,2708
1.04928e+06,0,0,0,1652,2740
1.05178e+06,0,0,0,1716,2676
1.0518e+06,0,0,0,1780,2612
1.05224e+06,0,0,0,1748,2644
1.05225e+06,0,0,0,1756,2636
1.0524e+06,0,0,0,1820,2572
1.0524e+06,0,0,0,1884,2508
1.05295e+06,0,0,0,1960,2432
1.05312e+06,0,0,0,1884,2508
1.05884e+06,0,0,0,1756,2636
1.06232e+06,0,0,0,1500,2892
1.06367e+06,0,0,0,1532,2860
1.06376e+06,0,0,0,1564,2828
1.06404e+06,0,0,0,1640,2752
1.06409e+06,0,0,0,1564,2828
1.06484e+06,0,0,0,1556,2836
1.06675e+06,0,0,0,1588,2804
1.06736e+06,0,0,0,1716,2676
1.06753e+06,0,0,0,1684,2708
1.06772e+06,0,0,0,1652,2740
1.06778e+06,0,0,0,1620,2772
1.06971e+06,0,0,0,1236,3156
1.07031e+06,0,0,0,1172,3220
1.07031e+06,0,0,0,1108,3284
1.07424e+06,0,0,0,1236,3156
1.07443e+06,0,0,0,1492,2900
1.07657e+06,0,0,0,1568,2824
1.07752e+06,0,0,0,1504,2888
1.07752e+06,0,0,0,1440,2952
1.08207e+06,0,0,0,1472,2920
1.08221e+06,0,0,0,1504,2888
1.0823e+06,0,0,0,1536,2856
1.08246e+06,0,0,0,1408,2984
1.08274e+06,0,0,0,1332,3060
1.0851e+06,0,0,0,1340,3052
1.08895e+06,0,0,0,1852,2540
1.09033e+06,0,0,0,1844,2548
1.092e+06,0,0,0,1908,2484
1.09201e+06,0,0,0,1972,2420
1.09414e+06,0,0,0,2048,2344
1.09554e+06,0,0,0,1984,2408
1.09554e+06,0,0,0,1920,2472
1.09698e+06,0,0,0,2048,2344
1.09812e+06,0,0,0,1920,2472
1.09846e+06,0,0,0,1888,2504
1.09846e+06,0,0,0,1856,2536
1.09923e+06,0,0,0,1920,2472
1.09925e+06,0,0,0,1984,2408
1.09975e+06,0,0,0,1952,2440
1.10089e+06,0,0,0,1920,2472
1.10185e+06,0,0,0,1856,2536
1.10185e+06,0,0,0,1792,2600
1.10186e+06,0,0,0,1728,2664
1.10187e+06,0,0,0,1680,2712
1.10188e+06,0,0,0,1616,2776
1.10189e+06,0,0,0,1552,2840
1.10191e+06,0,0,0,1488,2904
1.10197e+06,0,0,0,1424,2968
1.10216e+06,0,0,0,1408,2984
1.10573e+06,0,0,0,1332,3060
1.10727e+06,0,0,0,1300,3092
1.1103e+06,0,0,0,1308,3084
1.11131e+06,0,0,0,1052,3340
1.11263e+06,0,0,0,1180,3212
1.11298e+06,0,0,0,1212,3180
1.11299e+06,0,0,0,1244,3148
1.11305e+06,0,0,0,1628,2764
1.11333e+06,0,0,0,1596,2796
1.11425e+06,0,0,0,1628,2764
1.11425e+06,0,0,0,1692,2700
1.11436e+06,0,0,0,1756,2636
1.11443e+06,0,0,0,1820,2572
1.11455e+06,0,0,0,1884,2508
1.11463e+06,0,0,0,1948,2444
1.11488e+06,0,0,0,2012,2380
1.11492e+06,0,0,0,2076,2316
1.11537e+06,0,0,0,2108,2284
1.11593e+06,0,0,0,1532,2860
1.11627e+06,0,0,0,1608,2784
1.11638e+06,0,0,0,1656,2736
1.11664e+06,0,0,0,1672,2720
1.1168e+06,0,0,0,1640,2752
1.11708e+06,0,0,0,1564,2828
1.11721e+06,0,0,0,1628,2764
1.11724e+06,0,0,0,1692,2700
1.11938e+06,0,0,0,1684,2708
1.12123e+06,0,0,0,2708,1684
1.12178e+06,0,0,0,2740,1652
1.12373e+06,0,0,0,2996,1396
1.12715e+06,0,0,0,2964,1428
1.12727e+06,0,0,0,2932,1460
1.12727e+06,0,0,0,2900,1492
1.12749e+06,0,0,0,2868,1524
1.12776e+06,0,0,0,2836,1556
1.12786e+06,0,0,0,2868,1524
1.12824e+06,0,0,0,2944,1448
1.12856e+06,0,0,0,2880,1512
1.12856e+06,0,0,0,2816,1576
1.12877e+06,0,0,0,3488,904
1.12977e+06,0,0,0,3424,968
1.12977e+06,0,0,0,3360,1032
1.1311e+06,0,0,0,3392,1000
1.13195e+06,0,0,0,2880,1512
1.13441e+06,0,0,0,2860,1532
1.13608e+06,0,0,0,2828,1564
1.13942e+06,0,0,0,2836,1556
1.14005e+06,0,0,0,2580,1812
1.14069e+06,0,0,0,2504,1888
1.14166e+06,0,0,0,2536,1856
1.1418e+06,0,0,0,2568,1824
1.14181e+06,0,0,0,2600,1792
1.14309e+06,0,0,0,1600,2792
1.1431e+06,0,0,0,1632,2760
1.14326e+06,0,0,0,1664,2728
1.14663e+06,0,0,0,1656,2736
1.14892e+06,0,0,0,1676,2716
1.15024e+06,0,0,0,1740,2652
1.15025e+06,0,0,0,1804,2588
1.1506e+06,0,0,0,1836,2556
1.15083e+06,0,0,0,1580,2812
1.15147e+06,0,0,0,1644,2748
1.15148e+06,0,0,0,1708,2684
1.15164e+06,0,0,0,1784,2608
1.15165e+06,0,0,0,1708,2684
1.1524e+06,0,0,0,1452,2940
1.15248e+06,0,0,0,1708,2684
1.15253e+06,0,0,0,1452,2940
1.15331e+06,0,0,0,1068,3324
1.15365e+06,0,0,0,1580,2812
1.15553e+06,0,0,0,1452,2940
1.15882e+06,0,0,0,1068,3324
1.15925e+06,0,0,0,1644,2748
1.16099e+06,0,0,0,1580,2812
1.16099e+06,0,0,0,1516,2876
1.16211e+06,0,0,0,1440,2952
1.16213e+06,0,0,0,1516,2876
1.1628e+06,0,0,0,1452,2940
1.1628e+06,0,0,0,1388,3004
1.1646e+06,0,0,0,1324,3068
1.1646e+06,0,0,0,1260,3132
1.1648e+06,0,0,0,1516,2876
1.16521e+06,0,0,0,1452,2940
1.16521e+06,0,0,0,1388,3004
1.16674e+06,0,0,0,1380,3012
1.16676e+06,0,0,0,1388,3004
1.16746e+06,0,0,0,1644,2748
1.16873e+06,0,0,0,1900,2492
1.16905e+06,0,0,0,2028,2364
1.17064e+06,0,0,0,1964,2428
1.17064e+06,0,0,0,1900,2492
1.17343e+06,0,0,0,1976,2416
1.17396e+06,0,0,0,1900,2492
1.17611e+06,0,0,0,1772,2620
1.18267e+06,0,0,0,1836,2556
1.18273e+06,0,0,0,1900,2492
1.18445e+06,0,0,0,1836,2556
1.18445e+06,0,0,0,1772,2620
1.18451e+06,0,0,0,1836,2556
1.18453e+06,0,0,0,1900,2492
1.18459e+06,0,0,0,1500,2892
1.18505e+06,0,0,0,1436,2956
1.18505e+06,0,0,0,1372,3020
1.18522e+06,0,0,0,1448,2944
1.18528e+06,0,0,0,1372,3020
1.18626e+06,0,0,0,1308,3084
1.18626e+06,0,0,0,1244,3148
1.18631e+06,0,0,0,1308,3084
1.18631e+06,0,0,0,1372,3020
1.18641e+06,0,0,0,2372,2020
1.18646e+06,0,0,0,1348,3044
1.1869e+06,0,0,0,1412,2980
1.18691e+06,0,0,0,1420,2972
1.18693e+06,0,0,0,1484,2908
1.18694e+06,0,0,0,1476,2916
1.18747e+06,0,0,0,1412,2980
1.18747e+06,0,0,0,1348,3044
1.18967e+06,0,0,0,1476,2916
1.18973e+06,0,0,0,1348,3044
1.19087e+06,0,0,0,1316,3076
1.19093e+06,0,0,0,1289,3103
1.1915e+06,0,0,0,777,3615
1.19228e+06,0,0,0,713,3679
1.19228e+06,0,0,0,649,3743
1.19233e+06,0,0,0,713,3679
1.19235e+06,0,0,0,777,3615
1.19603e+06,0,0,0,853,3539
1.19663e+06,0,0,0,1237,3155
1.19907e+06,0,0,0,1637,2755
1.2021e+06,0,0,0,2021,2371
1.20328e+06,0,0,0,2149,2243
1.20336e+06,0,0,0,2021,2371
1.2037e+06,0,0,0,1989,2403
1.20373e+06,0,0,0,1957,2435
1.20378e+06,0,0,0,1925,2467
1.20379e+06,0,0,0,1893,2499
1.2054e+06,0,0,0,1925,2467
1.20543e+06,0,0,0,1952,2440
1.20615e+06,0,0,0,2016,2376
1.20617e+06,0,0,0,2080,2312
1.20675e+06,0,0,0,2048,2344
1.20676e+06,0,0,0,2112,2280
1.20677e+06,0,0,0,2176,2216
1.20756e+06,0,0,0,2184,2208
1.20759e+06,0,0,0,2176,2216
1.20795e+06,0,0,0,2240,2152
1.20798e+06,0,0,0,2186,2206
1.20801e+06,0,0,0,2250,2142
1.20808e+06,0,0,0,2214,2178
1.20918e+06,0,0,0,2278,2114
1.20919e+06,0,0,0,2134,2258
1.2092e+06,0,0,0,2198,2194
1.21046e+06,0,0,0,2122,2270
1.21321e+06,0,0,0,2634,1758
1.21396e+06,0,0,0,2698,1694
1.21397e+06,0,0,0,2762,1630
1.21623e+06,0,0,0,2634,1758
1.21638e+06,0,0,0,2602,1790
1.21694e+06,0,0,0,2730,1662
1.21821e+06,0,0,0,2762,1630
1.21824e+06,0,0,0,2794,1598
1.2183e+06,0,0,0,2826,1566
1.2183e+06,0,0,0,2858,1534
1.22076e+06,0,0,0,2602,1790
1.22125e+06,0,0,0,2634,1758
1.22164e+06,0,0,0,2710,1682
1.22181e+06,0,0,0,2634,1758
1.22339e+06,0,0,0,2688,1704
1.22362e+06,0,0,0,2724,1668
1.22755e+06,0,0,0,2732,1660
1.22757e+06,0,0,0,2724,1668
1.22931e+06,0,0,0,2688,1704
1.22936e+06,0,0,0,2634,1758
1.23091e+06,0,0,0,2666,1726
1.23093e+06,0,0,0,2810,1582
1.23164e+06,0,0,0,3066,1326
1.23195e+06,0,0,0,3034,1358
1.23203e+06,0,0,0,3002,1390
1.23315e+06,0,0,0,2926,1466
1.23316e+06,0,0,0,3002,1390
1.23428e+06,0,0,0,2490,1902
1.23753e+06,0,0,0,2618,1774
1.23938e+06,0,0,0,2490,1902
1.24143e+06,0,0,0,2458,1934
1.24333e+06,0,0,0,2442,1950
1.24356e+06,0,0,0,2518,1874
1.24359e+06,0,0,0,2442,1950
1.24383e+06,0,0,0,2478,1914
1.24386e+06,0,0,0,2532,1860
1.24644e+06,0,0,0,2564,1828
1.24655e+06,0,0,0,2596,1796
1.24763e+06,0,0,0,2212,2180
1.24782e+06,0,0,0,2204,2188
1.24785e+06,0,0,0,2212,2180
1.24997e+06,0,0,0,3236,1156
1.25402e+06,0,0,0,3268,1124
1.25599e+06,0,0,0,3780,612
1.25785e+06,0,0,0,3796,596
1.25811e+06,0,0,0,3872,520
1.26106e+06,0,0,0,4000,392
1.26789e+06,0,0,0,3488,904
1.26861e+06,0,0,0,3496,896
1.26869e+06,0,0,0,3488,904
1.27679e+06,0,0,0,3456,936
1.28552e+06,0,0,0,3328,1064
1.2868e+06,0,0,0,3252,1140
1.28805e+06,0,0,0,2996,1396
1.28879e+06,0,0,0,3004,1388
1.28883e+06,0,0,0,2996,1396
1.28958e+06,0,0,0,3508,884
1.28963e+06,0,0,0,2996,1396
1.29092e+06,0,0,0,3380,1012
1.2913e+06,0,0,0,3412,980
1.29629e+06,0,0,0,3348,1044
1.29629e+06,0,0,0,3284,1108
1.2969e+06,0,0,0,3220,1172
1.2969e+06,0,0,0,3156,1236
1.29751e+06,0,0,0,3092,1300
1.29751e+06,0,0,0,3028,1364
1.29792e+06,0,0,0,3104,1288
1.29811e+06,0,0,0,3040,1352
1.29811e+06,0,0,0,2976,1416
1.29833e+06,0,0,0,2900,1492
1.29846e+06,0,0,0,3028,1364
1.29852e+06,0,0,0,2900,1492
1.29873e+06,0,0,0,2836,1556
1.29873e+06,0,0,0,2772,1620
1.29934e+06,0,0,0,2708,1684
1.29934e+06,0,0,0,2644,1748
1.29994e+06,0,0,0,2580,1812
1.29994e+06,0,0,0,2516,1876
1.30055e+06,0,0,0,2452,1940
1.30055e+06,0,0,0,2388,2004
1.30065e+06,0,0,0,2372,2020
1.30115e+06,0,0,0,2308,2084
1.30115e+06,0,0,0,2244,2148
1.30175e+06,0,0,0,2180,2212
1.30176e+06,0,0,0,2116,2276
1.30834e+06,0,0,0,1732,2660
1.30902e+06,0,0,0,1724,2668
1.30902e+06,0,0,0,1732,2660
1.30973e+06,0,0,0,1988,2404
1.30983e+06,0,0,0,2064,2328
1.30985e+06,0,0,0,1988,2404
1.31131e+06,0,0,0,2500,1892
1.31196e+06,0,0,0,2628,1764
1.31206e+06,0,0,0,2500,1892
1.31374e+06,0,0,0,1988,2404
1.31515e+06,0,0,0,2004,2388
1.31799e+06,0,0,0,2068,2324
1.318e+06,0,0,0,2132,2260
1.31857e+06,0,0,0,2068,2324
1.31857e+06,0,0,0,2004,2388
1.31859e+06,0,0,0,2068,2324
1.31859e+06,0,0,0,2132,2260
1.31917e+06,0,0,0,2068,2324
1.31918e+06,0,0,0,2004,2388
1.31919e+06,0,0,0,2068,2324
1.31919e+06,0,0,0,2132,2260
1.31979e+06,0,0,0,2196,2196
1.31984e+06,0,0,0,2260,2132
1.32039e+06,0,0,0,2196,2196
1.32039e+06,0,0,0,2132,2260
1.32041e+06,0,0,0,2196,2196
1.32041e+06,0,0,0,2260,2132
1.32077e+06,0,0,0,2336,2056
1.3208e+06,0,0,0,2260,2132
1.321e+06,0,0,0,2196,2196
1.321e+06,0,0,0,2132,2260
1.32102e+06,0,0,0,2196,2196
1.32104e+06,0,0,0,2260,2132
1.32162e+06,0,0,0,2324,2068
1.32164e+06,0,0,0,2388,2004
1.32225e+06,0,0,0,2452,1940
1.32229e+06,0,0,0,2516,1876
1.32281e+06,0,0,0,2452,1940
1.32281e+06,0,0,0,2388,2004
1.32282e+06,0,0,0,2452,1940
1.32284e+06,0,0,0,2516,1876
1.32343e+06,0,0,0,2580,1812
1.32347e+06,0,0,0,2644,1748
1.32438e+06,0,0,0,2599,1793
1.32442e+06,0,0,0,2545,1847
1.3247e+06,0,0,0,2513,1879
1.32522e+06,0,0,0,2641,1751
1.32688e+06,0,0,0,2513,1879
1.32889e+06,0,0,0,2129,2263
1.32924e+06,0,0,0,2121,2271
1.32924e+06,0,0,0,2129,2263
1.33226e+06,0,0,0,2053,2339
1.33228e+06,0,0,0,2129,2263
1.33542e+06,0,0,0,2641,1751
1.3371e+06,0,0,0,2673,1719
1.33887e+06,0,0,0,2718,1674
1.33891e+06,0,0,0,2772,1620
1.34024e+06,0,0,0,2708,1684
1.34024e+06,0,0,0,2644,1748
1.34026e+06,0,0,0,2708,1684
1.34031e+06,0,0,0,2772,1620
1.34032e+06,0,0,0,2900,1492
1.3404e+06,0,0,0,2772,1620
1.34086e+06,0,0,0,2836,1556
1.34089e+06,0,0,0,2900,1492
1.34145e+06,0,0,0,2836,1556
1.34145e+06,0,0,0,2772,1620
1.34208e+06,0,0,0,2836,1556
1.34211e+06,0,0,0,2900,1492
1.34268e+06,0,0,0,2964,1428
1.34269e+06,0,0,0,3028,1364
1.34403e+06,0,0,0,2952,1440
1.34404e+06,0,0,0,3028,1364
1.34446e+06,0,0,0,2964,1428
1.34446e+06,0,0,0,2900,1492
1.34451e+06,0,0,0,2964,1428
1.34452e+06,0,0,0,3028,1364
1.34566e+06,0,0,0,2964,1428
1.34566e+06,0,0,0,2900,1492
1.34808e+06,0,0,0,2836,1556
1.34808e+06,0,0,0,2772,1620
1.34945e+06,0,0,0,2780,1612
1.3497e+06,0,0,0,2772,1620
1.35163e+06,0,0,0,3156,1236
1.35379e+06,0,0,0,3284,1108
1.35455e+06,0,0,0,3360,1032
1.35455e+06,0,0,0,3284,1108
1.35655e+06,0,0,0,3266,1126
1.35659e+06,0,0,0,3239,1153
1.35697e+06,0,0,0,3207,1185
1.36194e+06,0,0,0,3271,1121
1.36195e+06,0,0,0,3335,1057
1.36313e+06,0,0,0,3399,993
1.36319e+06,0,0,0,3463,929
1.366e+06,0,0,0,3539,853
1.36615e+06,0,0,0,3603,789
1.3662e+06,0,0,0,3667,725
1.36737e+06,0,0,0,3731,661
1.36739e+06,0,0,0,3795,597
1.36976e+06,0,0,0,3859,533
1.36978e+06,0,0,0,3923,469
1.36992e+06,0,0,0,3931,461
1.37104e+06,0,0,0,3949,443
1.37108e+06,0,0,0,3976,416
1.37148e+06,0,0,0,4008,384
1.37223e+06,0,0,0,4392,0
1.40782e+06,0,0,0,4136,256
1.41892e+06,0,0,0,4060,332
1.4223e+06,0,0,0,4316,76
1.42343e+06,0,0,0,4060,332
1.42937e+06,0,0,0,4052,340
1.4301e+06,0,0,0,4128,264
1.43026e+06,0,0,0,4052,340
1.43835e+06,0,0,0,3988,404
1.43837e+06,0,0,0,3924,468
1.43837e+06,0,0,0,3860,532
1.43837e+06,0,0,0,3796,596
1.43838e+06,0,0,0,3732,660
1.43838e+06,0,0,0,3668,724
1.4384e+06,0,0,0,3604,788
1.43841e+06,0,0,0,3540,852
1.43935e+06,0,0,0,2677,1715
1.43976e+06,0,0,0,2549,1843
1.43976e+06,0,0,0,2421,1971
1.43976e+06,0,0,0,2293,2099
1.43977e+06,0,0,0,2165,2227
1.43977e+06,0,0,0,2037,2355
1.43977e+06,0,0,0,1909,2483
1.43977e+06,0,0,0,1781,2611
1.43977e+06,0,0,0,1653,2739
1.43977e+06,0,0,0,1525,2867
1.43977e+06,0,0,0,1397,2995
1.43977e+06,0,0,0,1269,3123
1.43978e+06,0,0,0,1141,3251
1.43978e+06,0,0,0,1013,3379
1.44054e+06,0,0,0,1089,3303
1.44055e+06,0,0,0,961,3431
1.44055e+06,0,0,0,885,3507
1.44055e+06,0,0,0,757,3635
1.44055e+06,0,0,0,629,3763
1.44055e+06,0,0,0,501,3891
1.44055e+06,0,0,0,373,4019
1.44055e+06,0,0,0,245,4147
1.44055e+06,0,0,0,117,4275
1.44151e+06,0,0,0,373,4019
1.44156e+06,0,0,0,117,4275
1.44218e+06,0,0,0,85,4307
1.4496e+06,0,0,0,21,4371
1.44992e+06,0,0,0,29,4363
1.45018e+06,0,0,0,157,4235
1.45018e+06,0,0,0,93,4299
1.45018e+06,0,0,0,29,4363
1.45045e+06,0,0,0,157,4235
1.45045e+06,0,0,0,93,4299
1.45045e+06,0,0,0,29,4363
1.45049e+06,0,0,0,157,4235
1.45049e+06,0,0,0,93,4299
1.45049e+06,0,0,0,29,4363
1.451e+06,0,0,0,157,4235
1.45101e+06,0,0,0,93,4299
1.45101e+06,0,0,0,29,4363
1.45101e+06,0,0,0,13,4379
1.45101e+06,0,0,0,5,4387
1.45114e+06,0,0,0,133,4259
1.45114e+06,0,0,0,5,4387
1.45155e+06,0,0,0,81,4311
1.4516e+06,0,0,0,209,4183
1.45161e+06,0,0,0,81,4311
1.45185e+06,0,0,0,209,4183
1.45185e+06,0,0,0,81,4311
1.45239e+06,0,0,0,209,4183
1.45239e+06,0,0,0,81,4311
1.45275e+06,0,0,0,209,4183
1.45275e+06,0,0,0,81,4311
1.4529e+06,0,0,0,209,4183
1.4529e+06,0,0,0,81,4311
1.45305e+06,0,0,0,209,4183
1.45306e+06,0,0,0,81,4311
1.45514e+06,0,0,0,209,4183
1.45515e+06,0,0,0,81,4311
1.45539e+06,0,0,0,209,4183
1.4554e+06,0,0,0,81,4311
1.45555e+06,0,0,0,209,4183
1.45556e+06,0,0,0,81,4311
1.45626e+06,0,0,0,209,4183
1.45627e+06,0,0,0,81,4311
1.45628e+06,0,0,0,209,4183
1.45628e+06,0,0,0,81,4311
1.45628e+06,0,0,0,5,4387
1.45669e+06,0,0,0,37,4355
1.45742e+06,0,0,0,165,4227
1.45743e+06,0,0,0,101,4291
1.45743e+06,0,0,0,77,4315
1.45794e+06,0,0,0,45,4347
1.45845e+06,0,0,0,173,4219
1.45921e+06,0,0,0,45,4347
1.45969e+06,0,0,0,301,4091
1.45977e+06,0,0,0,45,4347
1.45999e+06,0,0,0,173,4219
1.46005e+06,0,0,0,237,4155
1.46005e+06,0,0,0,301,4091
1.46005e+06,0,0,0,365,4027
1.46008e+06,0,0,0,429,3963
1.46008e+06,0,0,0,45,4347
1.46009e+06,0,0,0,109,4283
1.46011e+06,0,0,0,173,4219
1.46012e+06,0,0,0,237,4155
1.46012e+06,0,0,0,301,4091
1.4602e+06,0,0,0,269,4123
1.46037e+06,0,0,0,261,4131
1.46048e+06,0,0,0,389,4003
1.46181e+06,0,0,0,325,4067
1.46229e+06,0,0,0,389,4003
1.46253e+06,0,0,0,453,3939
1.46258e+06,0,0,0,517,3875
1.4634e+06,0,0,0,581,3811
1.46343e+06,0,0,0,517,3875
1.46344e+06,0,0,0,453,3939
1.46356e+06,0,0,0,517,3875
1.46363e+06,0,0,0,581,3811
1.46381e+06,0,0,0,645,3747
1.4639e+06,0,0,0,709,3683
1.46404e+06,0,0,0,645,3747
1.46404e+06,0,0,0,581,3811
1.46428e+06,0,0,0,645,3747
1.46466e+06,0,0,0,581,3811
1.46466e+06,0,0,0,517,3875
1.46482e+06,0,0,0,133,4259
1.46527e+06,0,0,0,69,4323
1.46527e+06,0,0,0,5,4387
1.46549e+06,0,0,0,21,4371
1.46721e+06,0,0,0,97,4295
1.46721e+06,0,0,0,33,4359
1.46829e+06,0,0,0,57,4335
1.47118e+06,0,0,0,121,4271
1.47119e+06,0,0,0,57,4335
1.47209e+06,0,0,0,65,4327
1.47209e+06,0,0,0,1,4391
1.47237e+06,0,0,0,65,4327
1.47237e+06,0,0,0,1,4391
1.47244e+06,0,0,0,33,4359
1.4733e+06,0,0,0,161,4231
1.4733e+06,0,0,0,97,4295
1.4733e+06,0,0,0,33,4359
1.4733e+06,0,0,0,3,4389
1.47358e+06,0,0,0,131,4261
1.47358e+06,0,0,0,55,4337
1.47379e+06,0,0,0,183,4209
1.4738e+06,0,0,0,119,4273
1.4738e+06,0,0,0,55,4337
1.47407e+06,0,0,0,183,4209
1.47407e+06,0,0,0,119,4273
1.47407e+06,0,0,0,55,4337
1.47448e+06,0,0,0,183,4209
1.47449e+06,0,0,0,119,4273
1.47449e+06,0,0,0,55,4337
1.47449e+06,0,0,0,31,4361
1.47461e+06,0,0,0,159,4233
1.47461e+06,0,0,0,95,4297
1.47472e+06,0,0,0,127,4265
1.47476e+06,0,0,0,255,4137
1.47501e+06,0,0,0,511,3881
1.47567e+06,0,0,0,491,3901
1.47685e+06,0,0,0,619,3773
1.4771e+06,0,0,0,747,3645
1.47728e+06,0,0,0,875,3517
1.47889e+06,0,0,0,1003,3389
1.47891e+06,0,0,0,1131,3261
1.48078e+06,0,0,0,1139,3253
1.4809e+06,0,0,0,1267,3125
1.48352e+06,0,0,0,1297,3095
1.48427e+06,0,0,0,1373,3019
1.48512e+06,0,0,0,1437,2955
1.48574e+06,0,0,0,1501,2891
1.48574e+06,0,0,0,1565,2827
1.48574e+06,0,0,0,29,4363
1.48607e+06,0,0,0,93,4299
1.48628e+06,0,0,0,956,3436
1.48629e+06,0,0,0,556,3836
1.48629e+06,0,0,0,156,4236
1.48629e+06,0,0,0,148,4244
1.48629e+06,0,0,0,124,4268
1.48629e+06,0,0,0,92,4300
1.48629e+06,0,0,0,60,4332
1.48694e+06,0,0,0,124,4268
1.48701e+06,0,0,0,188,4204
1.48701e+06,0,0,0,60,4332
1.48701e+06,0,0,0,30,4362
1.48732e+06,0,0,0,94,4298
1.48749e+06,0,0,0,158,4234
1.48753e+06,0,0,0,178,4214
1.48789e+06,0,0,0,202,4190
1.48828e+06,0,0,0,266,4126
1.48889e+06,0,0,0,330,4062
1.49288e+06,0,0,0,394,3998
1.49379e+06,0,0,0,458,3934
1.495e+06,0,0,0,522,3870
1.49505e+06,0,0,0,586,3806
1.49549e+06,0,0,0,650,3742
1.49554e+06,0,0,0,714,3678
1.49577e+06,0,0,0,778,3614
1.49578e+06,0,0,0,842,3550
1.49592e+06,0,0,0,906,3486
1.49619e+06,0,0,0,970,3422
1.49619e+06,0,0,0,1034,3358
1.49771e+06,0,0,0,1058,3334
1.49814e+06,0,0,0,1458,2934
1.49817e+06,0,0,0,1858,2534
1.50121e+06,0,0,0,1888,2504
1.50338e+06,0,0,0,2272,2120
1.50777e+06,0,0,0,2280,2112
1.50799e+06,0,0,0,2312,2080
1.50799e+06,0,0,0,2344,2048
1.5087e+06,0,0,0,2472,1920
1.50906e+06,0,0,0,2856,1536
1.57254e+06,0,0,0,4392,0
