job_id,workload_name,profile,submission_time,requested_number_of_resources,requested_time,success,final_state,starting_time,execution_time,finish_time,waiting_time,turnaround_time,stretch,allocated_resources,consumed_energy,metadata
36_0_1,w0,profile_36,0.000000,256,21600.000000,1,COMPLETED_SUCCESSFULLY,0.010200,20241.000000,20241.010200,0.010200,20241.010200,1.000001,3969-4224,-1.000000,""
13_0_1,w0,profile_13,0.000000,256,21608.000000,1,COMPLETED_SUCCESSFULLY,0.004800,21607.000000,21607.004800,0.004800,21607.004800,1.000000,1024-1279,-1.000000,""
14_0_1,w0,profile_14,0.000000,256,21610.000000,1,COMPLETED_SUCCESSFULLY,0.005400,21609.000000,21609.005400,0.005400,21609.005400,1.000000,1280-1535,-1.000000,""
0_0_1,w0,profile_0,0.000000,256,21628.000000,1,COMPLETED_SUCCESSFULLY,0.002400,21627.000000,21627.002400,0.002400,21627.002400,1.000000,0-255,-1.000000,""
12_0_1,w0,profile_12,0.000000,256,21629.000000,1,COMPLETED_SUCCESSFULLY,0.004200,21628.000000,21628.004200,0.004200,21628.004200,1.000000,768-1023,-1.000000,""
15_0_1,w0,profile_15,0.000000,256,21644.000000,1,COMPLETED_SUCCESSFULLY,0.006000,21643.000000,21643.006000,0.006000,21643.006000,1.000000,1536-1791,-1.000000,""
16_0_1,w0,profile_16,0.000000,256,21676.000000,1,COMPLETED_SUCCESSFULLY,0.006600,21675.000000,21675.006600,0.006600,21675.006600,1.000000,1792-2047,-1.000000,""
17_0_1,w0,profile_17,0.000000,256,21676.000000,1,COMPLETED_SUCCESSFULLY,0.007200,21675.000000,21675.007200,0.007200,21675.007200,1.000000,2048-2303,-1.000000,""
11_0_1,w0,profile_11,0.000000,256,21693.000000,1,COMPLETED_SUCCESSFULLY,0.003600,21692.000000,21692.003600,0.003600,21692.003600,1.000000,512-767,-1.000000,""
20_0_1,w0,profile_20,0.000000,1024,21711.000000,1,COMPLETED_SUCCESSFULLY,0.009600,21710.000000,21710.009600,0.009600,21710.009600,1.000000,2945-3968,-1.000000,""
10_0_1,w0,profile_10,0.000000,256,21723.000000,1,COMPLETED_SUCCESSFULLY,0.003000,21722.000000,21722.003000,0.003000,21722.003000,1.000000,256-511,-1.000000,""
1_0_1,w0,profile_1,0.000000,256,22836.000000,1,COMPLETED_SUCCESSFULLY,0.009000,22835.000000,22835.009000,0.009000,22835.009000,1.000000,2689-2944,-1.000000,""
18_0_1,w0,profile_18,0.000000,384,32400.000000,1,COMPLETED_SUCCESSFULLY,0.007800,24770.000000,24770.007800,0.007800,24770.007800,1.000000,2304-2687,-1.000000,""
21_0_1,w0,profile_21,0.000000,438,28800.000000,1,COMPLETED_SUCCESSFULLY,21613.007500,21182.000000,42795.007500,21613.007500,42795.007500,2.020348,1024-1461,-1.000000,""
28_0_1,w0,profile_28,0.000000,802,21699.000000,1,COMPLETED_SUCCESSFULLY,21725.004650,21698.000000,43423.004650,21725.004650,43423.004650,2.001245,256-511 3289-3834,-1.000000,""
27_0_1,w0,profile_27,0.000000,300,21740.000000,1,COMPLETED_SUCCESSFULLY,21713.011850,21739.000000,43452.011850,21713.011850,43452.011850,1.998805,2989-3288,-1.000000,""
26_0_1,w0,profile_26,0.000000,300,21775.000000,1,COMPLETED_SUCCESSFULLY,21713.011250,21774.000000,43487.011250,21713.011250,43487.011250,1.997199,512-767 2945-2988,-1.000000,""
25_0_1,w0,profile_25,0.000000,438,28800.000000,1,COMPLETED_SUCCESSFULLY,21681.009900,21842.000000,43523.009900,21681.009900,43523.009900,1.992629,1900-2303 4333-4366,-1.000000,""
24_0_1,w0,profile_24,0.000000,438,28800.000000,1,COMPLETED_SUCCESSFULLY,21681.009300,22690.000000,44371.009300,21681.009300,44371.009300,1.955531,950-1023 1536-1899,-1.000000,""
23_0_1,w0,profile_23,0.000000,438,28800.000000,1,COMPLETED_SUCCESSFULLY,21633.005100,22888.000000,44521.005100,21633.005100,44521.005100,1.945168,0-255 768-949,-1.000000,""
29_0_1,w0,profile_29,0.000000,256,21788.000000,1,COMPLETED_SUCCESSFULLY,22838.010650,21787.000000,44625.010650,22838.010650,44625.010650,2.048240,2689-2944,-1.000000,""
22_0_1,w0,profile_22,0.000000,438,28800.000000,1,COMPLETED_SUCCESSFULLY,21613.008100,23320.000000,44933.008100,21613.008100,44933.008100,1.926801,1462-1535 3969-4332,-1.000000,""
2_0_1,w0,profile_2,0.000000,256,21619.000000,1,COMPLETED_SUCCESSFULLY,24773.009450,21618.000000,46391.009450,24773.009450,46391.009450,2.145944,2304-2559,-1.000000,""
32_0_1,w0,profile_32,0.000000,540,22330.000000,1,COMPLETED_SUCCESSFULLY,43455.013500,22329.000000,65784.013500,43455.013500,65784.013500,2.946124,2989-3288 3492-3731,-1.000000,""
34_0_1,w0,profile_34,0.000000,540,21600.000000,1,COMPLETED_SUCCESSFULLY,44374.010950,21429.000000,65803.010950,44374.010950,65803.010950,3.070746,950-1023 1536-2001,-1.000000,""
33_0_1,w0,profile_33,0.000000,540,22716.000000,1,COMPLETED_SUCCESSFULLY,43490.012900,22715.000000,66205.012900,43490.012900,66205.012900,2.914594,512-767 2945-2988 3732-3968 4367-4369,-1.000000,""
35_0_1,w0,profile_35,0.000000,540,22573.000000,1,COMPLETED_SUCCESSFULLY,44524.006750,22572.000000,67096.006750,44524.006750,67096.006750,2.972533,0-255 768-949 2002-2103,-1.000000,""
37_0_1,w0,profile_37,0.000000,256,22945.000000,1,COMPLETED_SUCCESSFULLY,44524.007350,22944.000000,67468.007350,44524.007350,67468.007350,2.940551,2104-2303 4333-4366 4370-4391,-1.000000,""
19_0_1,w0,profile_19,0.000000,1,73277.000000,1,COMPLETED_SUCCESSFULLY,0.008400,73276.000000,73276.008400,0.008400,73276.008400,1.000000,2688,-1.000000,""
38_0_1,w0,profile_38,0.000000,640,43348.000000,1,COMPLETED_SUCCESSFULLY,44936.009750,43347.000000,88283.009750,44936.009750,88283.009750,2.036658,1462-1535 2689-2944 3969-4278,-1.000000,""
3_0_1,w0,profile_3,0.000000,256,22820.000000,1,COMPLETED_SUCCESSFULLY,65787.015750,22819.000000,88606.015750,65787.015750,88606.015750,3.882993,3245-3288 3492-3703,-1.000000,""
30_0_1,w0,profile_30,0.000000,1,72112.000000,1,COMPLETED_SUCCESSFULLY,24773.010050,72111.000000,96884.010050,24773.010050,96884.010050,1.343540,2560,-1.000000,""
39_0_1,w0,profile_39,0.000000,512,32504.000000,1,COMPLETED_SUCCESSFULLY,65787.015150,32503.000000,98290.015150,65787.015150,98290.015150,3.024029,2304-2559 2989-3244,-1.000000,""
40_0_1,w0,profile_40,0.000000,512,32558.000000,1,COMPLETED_SUCCESSFULLY,65806.012600,32557.000000,98363.012600,65806.012600,98363.012600,3.021255,950-1023 1536-1973,-1.000000,""
31_0_1,w0,profile_31,0.000000,1024,86400.000000,1,COMPLETED_SUCCESSFULLY,43426.006300,58606.000000,102032.006300,43426.006300,102032.006300,1.740982,256-511 1024-1461 2561-2687 3289-3491,-1.000000,""
5_0_1,w0,profile_5,0.000000,256,21614.000000,1,COMPLETED_SUCCESSFULLY,88286.012600,21613.000000,109899.012600,88286.012600,109899.012600,5.084857,4081-4336,-1.000000,""
4_0_1,w0,profile_4,0.000000,256,21641.000000,1,COMPLETED_SUCCESSFULLY,88286.012000,21640.000000,109926.012000,88286.012000,109926.012000,5.079760,2926-2944 3844-4080,-1.000000,""
6_0_1,w0,profile_6,0.000000,256,21600.000000,1,COMPLETED_SUCCESSFULLY,88609.017400,21587.000000,110196.017400,88609.017400,110196.017400,5.104740,3245-3288 3492-3703,-1.000000,""
42_0_1,w0,profile_42,0.000000,512,28936.000000,1,COMPLETED_SUCCESSFULLY,88286.011400,28935.000000,117221.011400,88286.011400,117221.011400,4.051184,1462-1535 2104-2303 2688-2925,-1.000000,""
7_0_1,w0,profile_7,0.000000,256,21600.000000,1,COMPLETED_SUCCESSFULLY,98293.016800,21582.000000,119875.016800,98293.016800,119875.016800,5.554398,2304-2559,-1.000000,""
8_0_1,w0,profile_8,0.000000,256,21662.000000,1,COMPLETED_SUCCESSFULLY,98293.017400,21661.000000,119954.017400,98293.017400,119954.017400,5.537788,2560 2989-3243,-1.000000,""
9_0_1,w0,profile_9,0.000000,256,21647.000000,1,COMPLETED_SUCCESSFULLY,98366.014250,21646.000000,120012.014250,98366.014250,120012.014250,5.544304,950-1023 1536-1717,-1.000000,""
44_0_1,w0,profile_44,47636.000000,438,28800.000000,1,COMPLETED_SUCCESSFULLY,102035.008550,23530.000000,125565.008550,54399.008550,77929.008550,3.311900,1408-1461 1718-1973 2561-2687 3244,-1.000000,""
45_0_1,w0,profile_45,47667.000000,438,28800.000000,1,COMPLETED_SUCCESSFULLY,109902.014250,22336.000000,132238.014250,62235.014250,84571.014250,3.786310,3289-3491 4081-4315,-1.000000,""
46_0_1,w0,profile_46,47726.000000,438,28800.000000,1,COMPLETED_SUCCESSFULLY,110199.019050,24416.000000,134615.019050,62473.019050,86889.019050,3.558692,2926-2944 3245-3288 3492-3703 3844-4006,-1.000000,""
43_0_1,w0,profile_43,24133.000000,640,36125.000000,1,COMPLETED_SUCCESSFULLY,102035.007950,36124.000000,138159.007950,77902.007950,114026.007950,3.156517,256-511 1024-1407,-1.000000,""
47_0_1,w0,profile_47,47759.000000,438,28800.000000,1,COMPLETED_SUCCESSFULLY,117224.013050,22745.000000,139969.013050,69465.013050,92210.013050,4.054078,1462-1535 2104-2303 2688-2851,-1.000000,""
49_0_1,w0,profile_49,60169.000000,256,21720.000000,1,COMPLETED_SUCCESSFULLY,119957.019050,21719.000000,141676.019050,59788.019050,81507.019050,3.752798,2560 2989-3243,-1.000000,""
48_0_1,w0,profile_48,47803.000000,438,28800.000000,1,COMPLETED_SUCCESSFULLY,119878.018450,23690.000000,143568.018450,72075.018450,95765.018450,4.042424,2304-2559 2852-2925 4007-4080 4316-4349,-1.000000,""
50_0_1,w0,profile_50,131970.000000,802,21600.000000,1,COMPLETED_SUCCESSFULLY,132241.015900,20912.000000,153153.015900,271.015900,21183.015900,1.012960,950-1023 1408-1461 1536-1973 2561-2687 3244 3289-3396,-1.000000,""
41_0_1,w0,profile_41,0.000000,1008,86537.000000,1,COMPLETED_SUCCESSFULLY,67099.008400,86536.000000,153635.008400,67099.008400,153635.008400,1.775388,0-255 512-949 1974-2103 2945-2988 3704-3843,-1.000000,""
51_0_1,w0,profile_51,135396.000000,256,21693.000000,1,COMPLETED_SUCCESSFULLY,135396.001800,21692.000000,157088.001800,0.001800,21692.001800,1.000000,2926-2944 3245-3288 3397-3589,-1.000000,""
52_0_1,w0,profile_52,141009.000000,257,21726.000000,1,COMPLETED_SUCCESSFULLY,141009.001800,21725.000000,162734.001800,0.001800,21725.001800,1.000000,256-511 1024,-1.000000,""
56_0_1,w0,profile_56,217306.000000,640,43319.000000,1,COMPLETED_SUCCESSFULLY,217306.001800,43318.000000,260624.001800,0.001800,43318.001800,1.000000,3072-3711,-1.000000,""
57_0_1,w0,profile_57,220655.000000,640,43608.000000,1,COMPLETED_SUCCESSFULLY,220655.001800,43607.000000,264262.001800,0.001800,43607.001800,1.000000,3712-4351,-1.000000,""
59_0_1,w0,profile_59,223437.000000,256,21697.000000,1,COMPLETED_SUCCESSFULLY,260627.004050,21696.000000,282323.004050,37190.004050,58886.004050,2.714141,3456-3711,-1.000000,""
60_0_1,w0,profile_60,223440.000000,256,21623.000000,1,COMPLETED_SUCCESSFULLY,264265.003450,21622.000000,285887.003450,40825.003450,62447.003450,2.888123,3712-3967,-1.000000,""
61_0_1,w0,profile_61,223443.000000,256,21677.000000,1,COMPLETED_SUCCESSFULLY,264265.004050,21676.000000,285941.004050,40822.004050,62498.004050,2.883281,3968-4223,-1.000000,""
58_0_1,w0,profile_58,221582.000000,384,32400.000000,1,COMPLETED_SUCCESSFULLY,260627.003450,30377.000000,291004.003450,39045.003450,69422.003450,2.285348,3072-3455,-1.000000,""
53_0_1,w0,profile_53,214861.000000,1024,86400.000000,1,COMPLETED_SUCCESSFULLY,214861.001800,84988.000000,299849.001800,0.001800,84988.001800,1.000000,0-1023,-1.000000,""
54_0_1,w0,profile_54,214903.000000,1024,86400.000000,1,COMPLETED_SUCCESSFULLY,214903.001800,84992.000000,299895.001800,0.001800,84992.001800,1.000000,1024-2047,-1.000000,""
55_0_1,w0,profile_55,215034.000000,1024,86400.000000,1,COMPLETED_SUCCESSFULLY,215034.001800,84960.000000,299994.001800,0.001800,84960.001800,1.000000,2048-3071,-1.000000,""
62_0_1,w0,profile_62,223445.000000,256,21603.000000,1,COMPLETED_SUCCESSFULLY,282326.005700,21602.000000,303928.005700,58881.005700,80483.005700,3.725720,3456-3711,-1.000000,""
63_0_1,w0,profile_63,223466.000000,256,21610.000000,1,COMPLETED_SUCCESSFULLY,285890.005100,21609.000000,307499.005100,62424.005100,84033.005100,3.888797,3712-3967,-1.000000,""
64_0_1,w0,profile_64,223471.000000,256,21607.000000,1,COMPLETED_SUCCESSFULLY,285944.005700,21606.000000,307550.005700,62473.005700,84079.005700,3.891466,3968-4223,-1.000000,""
65_0_1,w0,profile_65,223500.000000,256,21614.000000,1,COMPLETED_SUCCESSFULLY,291007.005100,21613.000000,312620.005100,67507.005100,89120.005100,4.123444,3072-3327,-1.000000,""
66_0_1,w0,profile_66,223505.000000,256,21677.000000,1,COMPLETED_SUCCESSFULLY,291007.005700,21676.000000,312683.005700,67502.005700,89178.005700,4.114136,3328-3455 4224-4351,-1.000000,""
72_0_1,w0,profile_72,227481.000000,438,28800.000000,1,COMPLETED_SUCCESSFULLY,299997.003450,20767.000000,320764.003450,72516.003450,93283.003450,4.491886,2031-2468,-1.000000,""
69_0_1,w0,profile_69,223552.000000,256,21600.000000,1,COMPLETED_SUCCESSFULLY,299852.004650,21589.000000,321441.004650,76300.004650,97889.004650,4.534207,512-767,-1.000000,""
67_0_1,w0,profile_67,223509.000000,256,21648.000000,1,COMPLETED_SUCCESSFULLY,299852.003450,21647.000000,321499.003450,76343.003450,97990.003450,4.526724,0-255,-1.000000,""
68_0_1,w0,profile_68,223550.000000,256,21652.000000,1,COMPLETED_SUCCESSFULLY,299852.004050,21651.000000,321503.004050,76302.004050,97953.004050,4.524179,256-511,-1.000000,""
70_0_1,w0,profile_70,227440.000000,438,28800.000000,1,COMPLETED_SUCCESSFULLY,299898.003450,22898.000000,322796.003450,72458.003450,95356.003450,4.164381,768-1205,-1.000000,""
73_0_1,w0,profile_73,227521.000000,438,28800.000000,1,COMPLETED_SUCCESSFULLY,299997.004050,23264.000000,323261.004050,72476.004050,95740.004050,4.115372,2469-2906,-1.000000,""
74_0_1,w0,profile_74,227567.000000,438,28800.000000,1,COMPLETED_SUCCESSFULLY,303931.007350,22636.000000,326567.007350,76364.007350,99000.007350,4.373565,2907-3071 3456-3711 4352-4368,-1.000000,""
75_0_1,w0,profile_75,227614.000000,438,28800.000000,1,COMPLETED_SUCCESSFULLY,307553.007350,24146.000000,331699.007350,79939.007350,104085.007350,4.310652,3712-4149,-1.000000,""
76_0_1,w0,profile_76,238124.000000,512,32536.000000,1,COMPLETED_SUCCESSFULLY,312686.007350,32535.000000,345221.007350,74562.007350,107097.007350,3.291748,3072-3455 4150-4277,-1.000000,""
78_0_1,w0,profile_78,342623.000000,257,21724.000000,1,COMPLETED_SUCCESSFULLY,342623.001800,21723.000000,364346.001800,0.001800,21723.001800,1.000000,768-1024,-1.000000,""
71_0_1,w0,profile_71,227481.000000,825,85800.000000,1,COMPLETED_SUCCESSFULLY,299898.004050,76388.000000,376286.004050,72417.004050,148805.004050,1.948015,1206-2030,-1.000000,""
77_0_1,w0,profile_77,257447.000000,1280,87755.000000,1,COMPLETED_SUCCESSFULLY,321506.005700,87754.000000,409260.005700,64059.005700,151813.005700,1.729984,0-767 2031-2468 4278-4351,-1.000000,""
79_0_1,w0,profile_79,399611.000000,512,28929.000000,1,COMPLETED_SUCCESSFULLY,399611.001800,28928.000000,428539.001800,0.001800,28928.001800,1.000000,768-1279,-1.000000,""
80_0_1,w0,profile_80,399871.000000,512,33750.000000,1,COMPLETED_SUCCESSFULLY,399871.001800,33749.000000,433620.001800,0.001800,33749.001800,1.000000,1280-1791,-1.000000,""
81_0_1,w0,profile_81,426078.000000,438,28800.000000,1,COMPLETED_SUCCESSFULLY,426078.001800,23187.000000,449265.001800,0.001800,23187.001800,1.000000,0-437,-1.000000,""
85_0_1,w0,profile_85,426169.000000,438,28800.000000,1,COMPLETED_SUCCESSFULLY,426169.001800,23259.000000,449428.001800,0.001800,23259.001800,1.000000,3550-3987,-1.000000,""
83_0_1,w0,profile_83,426128.000000,438,28800.000000,1,COMPLETED_SUCCESSFULLY,426128.001800,23406.000000,449534.001800,0.001800,23406.001800,1.000000,2287-2724,-1.000000,""
86_0_1,w0,profile_86,426214.000000,438,28800.000000,1,COMPLETED_SUCCESSFULLY,428542.003450,22302.000000,450844.003450,2328.003450,24630.003450,1.104385,768-1205,-1.000000,""
87_0_1,w0,profile_87,426273.000000,438,28800.000000,1,COMPLETED_SUCCESSFULLY,428542.004050,24784.000000,453326.004050,2269.004050,27053.004050,1.091551,1206-1279 3988-4351,-1.000000,""
93_0_1,w0,profile_93,473614.000000,256,21686.000000,1,COMPLETED_SUCCESSFULLY,473614.001800,21685.000000,495299.001800,0.001800,21685.001800,1.000000,4125-4380,-1.000000,""
82_0_1,w0,profile_82,426117.000000,825,85800.000000,1,COMPLETED_SUCCESSFULLY,426117.001800,75337.000000,501454.001800,0.001800,75337.001800,1.000000,438-767 1792-2286,-1.000000,""
84_0_1,w0,profile_84,426157.000000,825,85800.000000,1,COMPLETED_SUCCESSFULLY,426157.001800,78689.000000,504846.001800,0.001800,78689.001800,1.000000,2725-3549,-1.000000,""
92_0_1,w0,profile_92,426477.000000,438,28800.000000,1,COMPLETED_SUCCESSFULLY,501457.004050,23111.000000,524568.004050,74980.004050,98091.004050,4.244343,1900-2286 4125-4175,-1.000000,""
91_0_1,w0,profile_91,426431.000000,438,28800.000000,1,COMPLETED_SUCCESSFULLY,501457.003450,23648.000000,525105.003450,75026.003450,98674.003450,4.172615,438-767 1792-1899,-1.000000,""
88_0_1,w0,profile_88,426338.000000,825,85800.000000,1,COMPLETED_SUCCESSFULLY,449268.003450,76079.000000,525347.003450,22930.003450,99009.003450,1.301397,0-437 1280-1666,-1.000000,""
94_0_1,w0,profile_94,475307.000000,256,21707.000000,1,COMPLETED_SUCCESSFULLY,504849.003450,21706.000000,526555.003450,29542.003450,51248.003450,2.361006,2725-2980,-1.000000,""
89_0_1,w0,profile_89,426373.000000,825,85800.000000,1,COMPLETED_SUCCESSFULLY,449537.003450,78081.000000,527618.003450,23164.003450,101245.003450,1.296666,1667-1791 2287-2724 3550-3811,-1.000000,""
90_0_1,w0,profile_90,426418.000000,825,85800.000000,1,COMPLETED_SUCCESSFULLY,453329.005700,76836.000000,530165.005700,26911.005700,103747.005700,1.350240,768-1279 3812-4124,-1.000000,""
95_0_1,w0,profile_95,545468.000000,256,20286.000000,1,COMPLETED_SUCCESSFULLY,545468.001800,20285.000000,565753.001800,0.001800,20285.001800,1.000000,0-255,-1.000000,""
97_0_1,w0,profile_97,609054.000000,256,21742.000000,1,COMPLETED_SUCCESSFULLY,609054.001800,21741.000000,630795.001800,0.001800,21741.001800,1.000000,256-511,-1.000000,""
96_0_1,w0,profile_96,608946.000000,256,23142.000000,1,COMPLETED_SUCCESSFULLY,608946.001800,23141.000000,632087.001800,0.001800,23141.001800,1.000000,0-255,-1.000000,""
99_0_1,w0,profile_99,647883.000000,256,21771.000000,1,COMPLETED_SUCCESSFULLY,647883.001800,21770.000000,669653.001800,0.001800,21770.001800,1.000000,1-256,-1.000000,""
105_0_1,w0,profile_105,652608.000000,438,28800.000000,1,COMPLETED_SUCCESSFULLY,652608.001800,21758.000000,674366.001800,0.001800,21758.001800,1.000000,2797-3234,-1.000000,""
108_0_1,w0,profile_108,653051.000000,256,21714.000000,1,COMPLETED_SUCCESSFULLY,653051.001800,21713.000000,674764.001800,0.001800,21713.001800,1.000000,4111-4366,-1.000000,""
103_0_1,w0,profile_103,652514.000000,438,28800.000000,1,COMPLETED_SUCCESSFULLY,652514.001800,22824.000000,675338.001800,0.001800,22824.001800,1.000000,1921-2358,-1.000000,""
107_0_1,w0,profile_107,652688.000000,438,28800.000000,1,COMPLETED_SUCCESSFULLY,652688.001800,22953.000000,675641.001800,0.001800,22953.001800,1.000000,3673-4110,-1.000000,""
104_0_1,w0,profile_104,652552.000000,438,28800.000000,1,COMPLETED_SUCCESSFULLY,652552.001800,24120.000000,676672.001800,0.001800,24120.001800,1.000000,2359-2796,-1.000000,""
106_0_1,w0,profile_106,652647.000000,438,28800.000000,1,COMPLETED_SUCCESSFULLY,652647.001800,24442.000000,677089.001800,0.001800,24442.001800,1.000000,3235-3672,-1.000000,""
101_0_1,w0,profile_101,652237.000000,512,28935.000000,1,COMPLETED_SUCCESSFULLY,652237.001800,28934.000000,681171.001800,0.001800,28934.001800,1.000000,897-1408,-1.000000,""
102_0_1,w0,profile_102,652346.000000,512,33741.000000,1,COMPLETED_SUCCESSFULLY,652346.001800,33740.000000,686086.001800,0.001800,33740.001800,1.000000,1409-1920,-1.000000,""
100_0_1,w0,profile_100,649939.000000,640,43293.000000,1,COMPLETED_SUCCESSFULLY,649939.001800,43292.000000,693231.001800,0.001800,43292.001800,1.000000,257-896,-1.000000,""
111_0_1,w0,profile_111,655655.000000,256,21721.000000,1,COMPLETED_SUCCESSFULLY,675341.003450,21720.000000,697061.003450,19686.003450,41406.003450,1.906354,1921-2176,-1.000000,""
110_0_1,w0,profile_110,653626.000000,438,28800.000000,1,COMPLETED_SUCCESSFULLY,674767.003450,22450.000000,697217.003450,21141.003450,43591.003450,1.941693,2979-3234 4111-4292,-1.000000,""
109_0_1,w0,profile_109,653587.000000,438,28800.000000,1,COMPLETED_SUCCESSFULLY,674369.003450,24666.000000,699035.003450,20782.003450,45448.003450,1.842536,1-256 2797-2978,-1.000000,""
113_0_1,w0,profile_113,665018.000000,512,22918.000000,1,COMPLETED_SUCCESSFULLY,676675.003450,22917.000000,699592.003450,11657.003450,34574.003450,1.508662,2359-2796 4313-4386,-1.000000,""
115_0_1,w0,profile_115,669860.000000,256,21719.000000,1,COMPLETED_SUCCESSFULLY,681174.004050,21718.000000,702892.004050,11314.004050,33032.004050,1.520951,3235-3490,-1.000000,""
114_0_1,w0,profile_114,665146.000000,512,23029.000000,1,COMPLETED_SUCCESSFULLY,681174.003450,23028.000000,704202.003450,16028.003450,39056.003450,1.696022,897-1408,-1.000000,""
116_0_1,w0,profile_116,682884.000000,256,23162.000000,1,COMPLETED_SUCCESSFULLY,686089.003450,23161.000000,709250.003450,3205.003450,26366.003450,1.138379,1409-1664,-1.000000,""
98_0_1,w0,profile_98,644869.000000,1,73215.000000,1,COMPLETED_SUCCESSFULLY,644869.001800,73214.000000,718083.001800,0.001800,73214.001800,1.000000,0,-1.000000,""
112_0_1,w0,profile_112,660186.000000,640,43344.000000,1,COMPLETED_SUCCESSFULLY,675644.003450,43343.000000,718987.003450,15458.003450,58801.003450,1.356644,2177-2358 3673-4110 4293-4312,-1.000000,""
120_0_1,w0,profile_120,700407.000000,256,21717.000000,1,COMPLETED_SUCCESSFULLY,704205.005700,21716.000000,725921.005700,3798.005700,25514.005700,1.174894,3511-3672 4111-4204,-1.000000,""
117_0_1,w0,profile_117,699673.000000,1024,86400.000000,1,COMPLETED_SUCCESSFULLY,699673.001800,48980.000000,748653.001800,0.001800,48980.001800,1.000000,1-896 1665-1792,-1.000000,""
121_0_1,w0,profile_121,727782.000000,256,21766.000000,1,COMPLETED_SUCCESSFULLY,727782.001800,21765.000000,749547.001800,0.001800,21765.001800,1.000000,0 1409-1663,-1.000000,""
122_0_1,w0,profile_122,728012.000000,256,21752.000000,1,COMPLETED_SUCCESSFULLY,728012.001800,21751.000000,749763.001800,0.001800,21751.001800,1.000000,1664 2177-2358 3511-3583,-1.000000,""
123_0_1,w0,profile_123,733249.000000,256,21752.000000,1,COMPLETED_SUCCESSFULLY,733249.001800,21751.000000,755000.001800,0.001800,21751.001800,1.000000,3584-3839,-1.000000,""
118_0_1,w0,profile_118,699691.000000,1024,86400.000000,1,COMPLETED_SUCCESSFULLY,699691.001800,56062.000000,755753.001800,0.001800,56062.001800,1.000000,1793-2176 2359-2998,-1.000000,""
124_0_1,w0,profile_124,735557.000000,256,21652.000000,1,COMPLETED_SUCCESSFULLY,735557.001800,21651.000000,757208.001800,0.001800,21651.001800,1.000000,3840-4095,-1.000000,""
119_0_1,w0,profile_119,699709.000000,1024,86400.000000,1,COMPLETED_SUCCESSFULLY,704205.005100,62725.000000,766930.005100,4496.005100,67221.005100,1.071678,897-1408 2999-3510,-1.000000,""
126_0_1,w0,profile_126,754949.000000,256,21673.000000,1,COMPLETED_SUCCESSFULLY,754949.001800,21672.000000,776621.001800,0.001800,21672.001800,1.000000,0-255,-1.000000,""
128_0_1,w0,profile_128,768559.000000,256,21723.000000,1,COMPLETED_SUCCESSFULLY,768559.001800,21722.000000,790281.001800,0.001800,21722.001800,1.000000,896-1151,-1.000000,""
129_0_1,w0,profile_129,768697.000000,256,21734.000000,1,COMPLETED_SUCCESSFULLY,768697.001800,21733.000000,790430.001800,0.001800,21733.001800,1.000000,1152-1407,-1.000000,""
130_0_1,w0,profile_130,777222.000000,256,21768.000000,1,COMPLETED_SUCCESSFULLY,777222.001800,21767.000000,798989.001800,0.001800,21767.001800,1.000000,0-255,-1.000000,""
127_0_1,w0,profile_127,756989.000000,640,44630.000000,1,COMPLETED_SUCCESSFULLY,756989.001800,44629.000000,801618.001800,0.001800,44629.001800,1.000000,256-895,-1.000000,""
131_0_1,w0,profile_131,789613.000000,256,21643.000000,1,COMPLETED_SUCCESSFULLY,789613.001800,21642.000000,811255.001800,0.001800,21642.001800,1.000000,1408-1663,-1.000000,""
125_0_1,w0,profile_125,746513.000000,1,73422.000000,1,COMPLETED_SUCCESSFULLY,746513.001800,73421.000000,819934.001800,0.001800,73421.001800,1.000000,4096,-1.000000,""
135_0_1,w0,profile_135,824553.000000,256,21771.000000,1,COMPLETED_SUCCESSFULLY,824553.001800,21770.000000,846323.001800,0.001800,21770.001800,1.000000,642-897,-1.000000,""
136_0_1,w0,profile_136,824599.000000,256,21733.000000,1,COMPLETED_SUCCESSFULLY,824599.001800,21732.000000,846331.001800,0.001800,21732.001800,1.000000,898-1153,-1.000000,""
137_0_1,w0,profile_137,826123.000000,256,22922.000000,1,COMPLETED_SUCCESSFULLY,826123.001800,22921.000000,849044.001800,0.001800,22921.001800,1.000000,1154-1409,-1.000000,""
138_0_1,w0,profile_138,826744.000000,512,30584.000000,1,COMPLETED_SUCCESSFULLY,826744.001800,30583.000000,857327.001800,0.001800,30583.001800,1.000000,1410-1921,-1.000000,""
132_0_1,w0,profile_132,820767.000000,640,44634.000000,1,COMPLETED_SUCCESSFULLY,820767.001800,44633.000000,865400.001800,0.001800,44633.001800,1.000000,0-639,-1.000000,""
139_0_1,w0,profile_139,845789.000000,256,21736.000000,1,COMPLETED_SUCCESSFULLY,845789.001800,21735.000000,867524.001800,0.001800,21735.001800,1.000000,1922-2177,-1.000000,""
133_0_1,w0,profile_133,821772.000000,1,56700.000000,1,COMPLETED_SUCCESSFULLY,821772.001800,46468.000000,868240.001800,0.001800,46468.001800,1.000000,640,-1.000000,""
140_0_1,w0,profile_140,847083.000000,256,21710.000000,1,COMPLETED_SUCCESSFULLY,847083.001800,21709.000000,868792.001800,0.001800,21709.001800,1.000000,642-897,-1.000000,""
141_0_1,w0,profile_141,847194.000000,256,21690.000000,1,COMPLETED_SUCCESSFULLY,847194.001800,21689.000000,868883.001800,0.001800,21689.001800,1.000000,898-1153,-1.000000,""
142_0_1,w0,profile_142,848486.000000,256,21679.000000,1,COMPLETED_SUCCESSFULLY,848486.001800,21678.000000,870164.001800,0.001800,21678.001800,1.000000,2178-2433,-1.000000,""
145_0_1,w0,profile_145,862279.000000,438,28800.000000,1,COMPLETED_SUCCESSFULLY,862279.001800,23066.000000,885345.001800,0.001800,23066.001800,1.000000,2542-2979,-1.000000,""
143_0_1,w0,profile_143,862197.000000,438,28800.000000,1,COMPLETED_SUCCESSFULLY,862197.001800,23454.000000,885651.001800,0.001800,23454.001800,1.000000,1154-1591,-1.000000,""
146_0_1,w0,profile_146,862308.000000,438,28800.000000,1,COMPLETED_SUCCESSFULLY,862308.001800,23981.000000,886289.001800,0.001800,23981.001800,1.000000,2980-3417,-1.000000,""
144_0_1,w0,profile_144,862238.000000,438,28800.000000,1,COMPLETED_SUCCESSFULLY,862238.001800,24648.000000,886886.001800,0.001800,24648.001800,1.000000,1592-1921 2434-2541,-1.000000,""
147_0_1,w0,profile_147,862346.000000,438,28800.000000,1,COMPLETED_SUCCESSFULLY,862346.001800,24634.000000,886980.001800,0.001800,24634.001800,1.000000,3418-3855,-1.000000,""
148_0_1,w0,profile_148,866820.000000,256,22899.000000,1,COMPLETED_SUCCESSFULLY,866820.001800,22898.000000,889718.001800,0.001800,22898.001800,1.000000,0-255,-1.000000,""
149_0_1,w0,profile_149,871463.000000,256,21730.000000,1,COMPLETED_SUCCESSFULLY,871463.001800,21729.000000,893192.001800,0.001800,21729.001800,1.000000,256-511,-1.000000,""
134_0_1,w0,profile_134,823973.000000,1,72117.000000,1,COMPLETED_SUCCESSFULLY,823973.001800,72116.000000,896089.001800,0.001800,72116.001800,1.000000,641,-1.000000,""
150_0_1,w0,profile_150,897675.000000,512,32884.000000,1,COMPLETED_SUCCESSFULLY,897675.001800,32883.000000,930558.001800,0.001800,32883.001800,1.000000,0-511,-1.000000,""
151_0_1,w0,profile_151,901988.000000,1024,37349.000000,1,COMPLETED_SUCCESSFULLY,901988.001800,37348.000000,939336.001800,0.001800,37348.001800,1.000000,512-1535,-1.000000,""
156_0_1,w0,profile_156,936014.000000,256,21600.000000,1,COMPLETED_SUCCESSFULLY,936014.001800,20226.000000,956240.001800,0.001800,20226.001800,1.000000,3269-3524,-1.000000,""
157_0_1,w0,profile_157,936117.000000,512,21600.000000,1,COMPLETED_SUCCESSFULLY,936117.001800,21028.000000,957145.001800,0.001800,21028.001800,1.000000,3525-4036,-1.000000,""
158_0_1,w0,profile_158,941324.000000,256,22912.000000,1,COMPLETED_SUCCESSFULLY,941324.001800,22911.000000,964235.001800,0.001800,22911.001800,1.000000,512-767,-1.000000,""
160_0_1,w0,profile_160,944469.000000,438,28800.000000,1,COMPLETED_SUCCESSFULLY,944469.001800,23612.000000,968081.001800,0.001800,23612.001800,1.000000,1206-1535 4037-4144,-1.000000,""
159_0_1,w0,profile_159,944434.000000,438,28800.000000,1,COMPLETED_SUCCESSFULLY,944434.001800,23863.000000,968297.001800,0.001800,23863.001800,1.000000,768-1205,-1.000000,""
155_0_1,w0,profile_155,933295.000000,640,44635.000000,1,COMPLETED_SUCCESSFULLY,933295.001800,44634.000000,977929.001800,0.001800,44634.001800,1.000000,0-511 3141-3268,-1.000000,""
161_0_1,w0,profile_161,944556.000000,438,28800.000000,1,COMPLETED_SUCCESSFULLY,956243.003450,23146.000000,979389.003450,11687.003450,34833.003450,1.504925,3269-3524 4145-4326,-1.000000,""
154_0_1,w0,profile_154,916121.000000,1,73437.000000,1,COMPLETED_SUCCESSFULLY,916121.001800,73436.000000,989557.001800,0.001800,73436.001800,1.000000,3140,-1.000000,""
153_0_1,w0,profile_153,913379.000000,802,86558.000000,1,COMPLETED_SUCCESSFULLY,913379.001800,86557.000000,999936.001800,0.001800,86557.001800,1.000000,2338-3139,-1.000000,""
152_0_1,w0,profile_152,913082.000000,802,87771.000000,1,COMPLETED_SUCCESSFULLY,913082.001800,87770.000000,1000852.001800,0.001800,87770.001800,1.000000,1536-2337,-1.000000,""
165_0_1,w0,profile_165,1011306.000000,256,21600.000000,1,COMPLETED_SUCCESSFULLY,1011306.001800,20590.000000,1031896.001800,0.001800,20590.001800,1.000000,1536-1791,-1.000000,""
164_0_1,w0,profile_164,1011245.000000,256,21600.000000,1,COMPLETED_SUCCESSFULLY,1011245.001800,20870.000000,1032115.001800,0.001800,20870.001800,1.000000,1280-1535,-1.000000,""
163_0_1,w0,profile_163,1011198.000000,256,21600.000000,1,COMPLETED_SUCCESSFULLY,1011198.001800,21118.000000,1032316.001800,0.001800,21118.001800,1.000000,1024-1279,-1.000000,""
162_0_1,w0,profile_162,1003670.000000,1024,86400.000000,1,COMPLETED_SUCCESSFULLY,1003670.001800,35920.000000,1039590.001800,0.001800,35920.001800,1.000000,0-1023,-1.000000,""
170_0_1,w0,profile_170,1029793.000000,438,28800.000000,1,COMPLETED_SUCCESSFULLY,1029793.001800,23039.000000,1052832.001800,0.001800,23039.001800,1.000000,3746-4183,-1.000000,""
168_0_1,w0,profile_168,1029708.000000,438,28800.000000,1,COMPLETED_SUCCESSFULLY,1029708.001800,23195.000000,1052903.001800,0.001800,23195.001800,1.000000,2870-3307,-1.000000,""
169_0_1,w0,profile_169,1029742.000000,438,28800.000000,1,COMPLETED_SUCCESSFULLY,1029742.001800,23800.000000,1053542.001800,0.001800,23800.001800,1.000000,3308-3745,-1.000000,""
171_0_1,w0,profile_171,1030939.000000,256,21761.000000,1,COMPLETED_SUCCESSFULLY,1031899.003450,21760.000000,1053659.003450,960.003450,22720.003450,1.044118,1536-1791,-1.000000,""
167_0_1,w0,profile_167,1029665.000000,438,28800.000000,1,COMPLETED_SUCCESSFULLY,1029665.001800,24854.000000,1054519.001800,0.001800,24854.001800,1.000000,2432-2869,-1.000000,""
166_0_1,w0,profile_166,1020070.000000,640,43200.000000,1,COMPLETED_SUCCESSFULLY,1020070.001800,41622.000000,1061692.001800,0.001800,41622.001800,1.000000,1792-2431,-1.000000,""
172_0_1,w0,profile_172,1046576.000000,256,21767.000000,1,COMPLETED_SUCCESSFULLY,1046576.001800,21766.000000,1068342.001800,0.001800,21766.001800,1.000000,0-255,-1.000000,""
173_0_1,w0,profile_173,1046693.000000,256,21775.000000,1,COMPLETED_SUCCESSFULLY,1046693.001800,21774.000000,1068467.001800,0.001800,21774.001800,1.000000,256-511,-1.000000,""
174_0_1,w0,profile_174,1080331.000000,256,21804.000000,1,COMPLETED_SUCCESSFULLY,1080331.001800,21803.000000,1102134.001800,0.001800,21803.001800,1.000000,0-255,-1.000000,""
175_0_1,w0,profile_175,1080407.000000,256,21752.000000,1,COMPLETED_SUCCESSFULLY,1080407.001800,21751.000000,1102158.001800,0.001800,21751.001800,1.000000,256-511,-1.000000,""
176_0_1,w0,profile_176,1085288.000000,256,21721.000000,1,COMPLETED_SUCCESSFULLY,1085288.001800,21720.000000,1107008.001800,0.001800,21720.001800,1.000000,512-767,-1.000000,""
179_0_1,w0,profile_179,1092575.000000,256,21600.000000,1,COMPLETED_SUCCESSFULLY,1092575.001800,20565.000000,1113140.001800,0.001800,20565.001800,1.000000,1536-1791,-1.000000,""
177_0_1,w0,profile_177,1092542.000000,256,21600.000000,1,COMPLETED_SUCCESSFULLY,1092542.001800,20835.000000,1113377.001800,0.001800,20835.001800,1.000000,768-1023,-1.000000,""
178_0_1,w0,profile_178,1092557.000000,512,21762.000000,1,COMPLETED_SUCCESSFULLY,1092557.001800,21761.000000,1114318.001800,0.001800,21761.001800,1.000000,1024-1535,-1.000000,""
180_0_1,w0,profile_180,1114551.000000,438,28800.000000,1,COMPLETED_SUCCESSFULLY,1114551.001800,22735.000000,1137286.001800,0.001800,22735.001800,1.000000,0-437,-1.000000,""
183_0_1,w0,profile_183,1114694.000000,438,28800.000000,1,COMPLETED_SUCCESSFULLY,1114694.001800,22786.000000,1137480.001800,0.001800,22786.001800,1.000000,1314-1751,-1.000000,""
181_0_1,w0,profile_181,1114608.000000,438,28800.000000,1,COMPLETED_SUCCESSFULLY,1114608.001800,23731.000000,1138339.001800,0.001800,23731.001800,1.000000,438-875,-1.000000,""
182_0_1,w0,profile_182,1114661.000000,438,28928.000000,1,COMPLETED_SUCCESSFULLY,1114661.001800,28927.000000,1143588.001800,0.001800,28927.001800,1.000000,876-1313,-1.000000,""
185_0_1,w0,profile_185,1132804.000000,256,21676.000000,1,COMPLETED_SUCCESSFULLY,1132804.001800,21675.000000,1154479.001800,0.001800,21675.001800,1.000000,2008-2263,-1.000000,""
184_0_1,w0,profile_184,1132722.000000,256,22948.000000,1,COMPLETED_SUCCESSFULLY,1132722.001800,22947.000000,1155669.001800,0.001800,22947.001800,1.000000,1752-2007,-1.000000,""
186_0_1,w0,profile_186,1133553.000000,640,43372.000000,1,COMPLETED_SUCCESSFULLY,1133553.001800,43371.000000,1176924.001800,0.001800,43371.001800,1.000000,2264-2903,-1.000000,""
187_0_1,w0,profile_187,1168257.000000,256,21785.000000,1,COMPLETED_SUCCESSFULLY,1168257.001800,21784.000000,1190041.001800,0.001800,21784.001800,1.000000,0-255,-1.000000,""
189_0_1,w0,profile_189,1176695.000000,256,21721.000000,1,COMPLETED_SUCCESSFULLY,1176695.001800,21720.000000,1198415.001800,0.001800,21720.001800,1.000000,1081-1336,-1.000000,""
195_0_1,w0,profile_195,1184821.000000,256,21765.000000,1,COMPLETED_SUCCESSFULLY,1198418.003450,21764.000000,1220182.003450,13597.003450,35361.003450,1.624747,1081-1336,-1.000000,""
196_0_1,w0,profile_196,1191165.000000,328,22945.000000,1,COMPLETED_SUCCESSFULLY,1220185.005100,22944.000000,1243129.005100,29020.005100,51964.005100,2.264819,1081-1336 4154-4225,-1.000000,""
190_0_1,w0,profile_190,1177375.000000,1,73266.000000,1,COMPLETED_SUCCESSFULLY,1177375.001800,73265.000000,1250640.001800,0.001800,73265.001800,1.000000,1337,-1.000000,""
188_0_1,w0,profile_188,1175306.000000,825,85800.000000,1,COMPLETED_SUCCESSFULLY,1175306.001800,75664.000000,1250970.001800,0.001800,75664.001800,1.000000,256-1080,-1.000000,""
192_0_1,w0,profile_192,1181060.000000,1024,86400.000000,1,COMPLETED_SUCCESSFULLY,1181060.001800,85003.000000,1266063.001800,0.001800,85003.001800,1.000000,2362-3385,-1.000000,""
191_0_1,w0,profile_191,1181030.000000,1024,86400.000000,1,COMPLETED_SUCCESSFULLY,1181030.001800,86209.000000,1267239.001800,0.001800,86209.001800,1.000000,1338-2361,-1.000000,""
193_0_1,w0,profile_193,1181097.000000,1024,86400.000000,1,COMPLETED_SUCCESSFULLY,1190044.003450,85023.000000,1275067.003450,8947.003450,93970.003450,1.105230,0-255 3386-4153,-1.000000,""
199_0_1,w0,profile_199,1191814.000000,256,21600.000000,1,COMPLETED_SUCCESSFULLY,1266066.004650,20323.000000,1286389.004650,74252.004650,94575.004650,4.653595,2960-3215,-1.000000,""
197_0_1,w0,profile_197,1191167.000000,328,21737.000000,1,COMPLETED_SUCCESSFULLY,1266066.003450,21736.000000,1287802.003450,74899.003450,96635.003450,4.445850,1280-1337 2362-2631,-1.000000,""
198_0_1,w0,profile_198,1191168.000000,328,21743.000000,1,COMPLETED_SUCCESSFULLY,1266066.004050,21742.000000,1287808.004050,74898.004050,96640.004050,4.444853,2632-2959,-1.000000,""
201_0_1,w0,profile_201,1201229.000000,256,21600.000000,1,COMPLETED_SUCCESSFULLY,1267242.004050,21224.000000,1288466.004050,66013.004050,87237.004050,4.110300,2163-2361 3216-3272,-1.000000,""
202_0_1,w0,profile_202,1201230.000000,256,21684.000000,1,COMPLETED_SUCCESSFULLY,1267242.004650,21683.000000,1288925.004650,66012.004650,87695.004650,4.044413,3273-3385 4154-4296,-1.000000,""
203_0_1,w0,profile_203,1201231.000000,256,21600.000000,1,COMPLETED_SUCCESSFULLY,1275070.005100,20169.000000,1295239.005100,73839.005100,94008.005100,4.661015,0-255,-1.000000,""
205_0_1,w0,profile_205,1204557.000000,256,21730.000000,1,COMPLETED_SUCCESSFULLY,1275070.006300,21729.000000,1296799.006300,70513.006300,92242.006300,4.245111,3642-3897,-1.000000,""
204_0_1,w0,profile_204,1204299.000000,256,21769.000000,1,COMPLETED_SUCCESSFULLY,1275070.005700,21768.000000,1296838.005700,70771.005700,92539.005700,4.251149,3386-3641,-1.000000,""
206_0_1,w0,profile_206,1211888.000000,256,21853.000000,1,COMPLETED_SUCCESSFULLY,1275070.006900,21852.000000,1296922.006900,63182.006900,85034.006900,3.891360,3898-4153,-1.000000,""
207_0_1,w0,profile_207,1211919.000000,256,21751.000000,1,COMPLETED_SUCCESSFULLY,1286392.006300,21750.000000,1308142.006300,74473.006300,96223.006300,4.424046,2960-3215,-1.000000,""
208_0_1,w0,profile_208,1256838.000000,256,21600.000000,1,COMPLETED_SUCCESSFULLY,1287805.005100,21510.000000,1309315.005100,30967.005100,52477.005100,2.439656,1280-1337 2362-2559,-1.000000,""
210_0_1,w0,profile_210,1287517.000000,256,21772.000000,1,COMPLETED_SUCCESSFULLY,1287811.005700,21771.000000,1309582.005700,294.005700,22065.005700,1.013504,2561-2816,-1.000000,""
194_0_1,w0,profile_194,1181213.000000,1024,86400.000000,1,COMPLETED_SUCCESSFULLY,1250973.003450,85009.000000,1335982.003450,69760.003450,154769.003450,1.820619,256-1279,-1.000000,""
200_0_1,w0,profile_200,1200354.000000,825,85800.000000,1,COMPLETED_SUCCESSFULLY,1267242.003450,74448.000000,1341690.003450,66888.003450,141336.003450,1.898453,1338-2162,-1.000000,""
209_0_1,w0,profile_209,1258579.000000,1,73258.000000,1,COMPLETED_SUCCESSFULLY,1287805.005700,73257.000000,1361062.005700,29226.005700,102483.005700,1.398952,2560,-1.000000,""
212_0_1,w0,profile_212,1341978.000000,256,21741.000000,1,COMPLETED_SUCCESSFULLY,1341978.001800,21740.000000,1363718.001800,0.001800,21740.001800,1.000000,4097-4352,-1.000000,""
211_0_1,w0,profile_211,1337793.000000,4096,86400.000000,1,COMPLETED_SUCCESSFULLY,1341693.005100,32553.000000,1374246.005100,3900.005100,36453.005100,1.119805,0-2559 2561-4096,-1.000000,""
213_0_1,w0,profile_213,1343822.000000,256,21693.000000,1,COMPLETED_SUCCESSFULLY,1363721.003450,21692.000000,1385413.003450,19899.003450,41591.003450,1.917343,2560 4097-4351,-1.000000,""
222_0_1,w0,profile_222,1369213.000000,256,21600.000000,1,COMPLETED_SUCCESSFULLY,1374249.010950,20822.000000,1395071.010950,5036.010950,25858.010950,1.241860,2561-2816,-1.000000,""
218_0_1,w0,profile_218,1357161.000000,256,21635.000000,1,COMPLETED_SUCCESSFULLY,1374249.008550,21634.000000,1395883.008550,17088.008550,38722.008550,1.789868,1536-1791,-1.000000,""
221_0_1,w0,profile_221,1368264.000000,256,21706.000000,1,COMPLETED_SUCCESSFULLY,1374249.010350,21705.000000,1395954.010350,5985.010350,27690.010350,1.275743,2304-2559,-1.000000,""
220_0_1,w0,profile_220,1368262.000000,256,21733.000000,1,COMPLETED_SUCCESSFULLY,1374249.009750,21732.000000,1395981.009750,5987.009750,27719.009750,1.275493,2048-2303,-1.000000,""
223_0_1,w0,profile_223,1370673.000000,256,21739.000000,1,COMPLETED_SUCCESSFULLY,1374249.011550,21738.000000,1395987.011550,3576.011550,25314.011550,1.164505,2817-3072,-1.000000,""
219_0_1,w0,profile_219,1368260.000000,256,21754.000000,1,COMPLETED_SUCCESSFULLY,1374249.009150,21753.000000,1396002.009150,5989.009150,27742.009150,1.275319,1792-2047,-1.000000,""
215_0_1,w0,profile_215,1349870.000000,256,22150.000000,1,COMPLETED_SUCCESSFULLY,1374249.006750,22149.000000,1396398.006750,24379.006750,46528.006750,2.100682,0-255,-1.000000,""
224_0_1,w0,profile_224,1376934.000000,438,27000.000000,1,COMPLETED_SUCCESSFULLY,1376934.001800,20104.000000,1397038.001800,0.001800,20104.001800,1.000000,3073-3510,-1.000000,""
216_0_1,w0,profile_216,1354731.000000,256,22946.000000,1,COMPLETED_SUCCESSFULLY,1374249.007350,22945.000000,1397194.007350,19518.007350,42463.007350,1.850643,256-511,-1.000000,""
225_0_1,w0,profile_225,1391558.000000,256,21755.000000,1,COMPLETED_SUCCESSFULLY,1391558.001800,21754.000000,1413312.001800,0.001800,21754.001800,1.000000,2560 3511-3765,-1.000000,""
226_0_1,w0,profile_226,1396513.000000,256,22962.000000,1,COMPLETED_SUCCESSFULLY,1396513.001800,22961.000000,1419474.001800,0.001800,22961.001800,1.000000,0-255,-1.000000,""
217_0_1,w0,profile_217,1355325.000000,1024,86400.000000,1,COMPLETED_SUCCESSFULLY,1374249.007950,57503.000000,1431752.007950,18924.007950,76427.007950,1.329096,512-1535,-1.000000,""
214_0_1,w0,profile_214,1345407.000000,1,72121.000000,1,COMPLETED_SUCCESSFULLY,1363721.004050,72120.000000,1435841.004050,18314.004050,90434.004050,1.253938,4352,-1.000000,""
228_0_1,w0,profile_228,1428497.000000,256,21682.000000,1,COMPLETED_SUCCESSFULLY,1428497.001800,21681.000000,1450178.001800,0.001800,21681.001800,1.000000,0-255,-1.000000,""
229_0_1,w0,profile_229,1428497.000000,256,21715.000000,1,COMPLETED_SUCCESSFULLY,1428497.002400,21714.000000,1450211.002400,0.002400,21714.002400,1.000000,2105-2360,-1.000000,""
230_0_1,w0,profile_230,1429584.000000,256,21711.000000,1,COMPLETED_SUCCESSFULLY,1429584.001800,21710.000000,1451294.001800,0.001800,21710.001800,1.000000,2361-2616,-1.000000,""
231_0_1,w0,profile_231,1430002.000000,512,21723.000000,1,COMPLETED_SUCCESSFULLY,1430002.001800,21722.000000,1451724.001800,0.001800,21722.001800,1.000000,2617-3128,-1.000000,""
232_0_1,w0,profile_232,1436435.000000,256,23042.000000,1,COMPLETED_SUCCESSFULLY,1436435.001800,23041.000000,1459476.001800,0.001800,23041.001800,1.000000,512-767,-1.000000,""
234_0_1,w0,profile_234,1439312.000000,256,21612.000000,1,COMPLETED_SUCCESSFULLY,1439312.001800,21611.000000,1460923.001800,0.001800,21611.001800,1.000000,1408-1535 3129-3256,-1.000000,""
227_0_1,w0,profile_227,1400227.000000,825,85800.000000,1,COMPLETED_SUCCESSFULLY,1400227.001800,70454.000000,1470681.001800,0.001800,70454.001800,1.000000,256-511 1536-2104,-1.000000,""
236_0_1,w0,profile_236,1441612.000000,512,22923.000000,1,COMPLETED_SUCCESSFULLY,1450214.004050,22922.000000,1473136.004050,8602.004050,31524.004050,1.375273,0-255 2105-2360,-1.000000,""
237_0_1,w0,profile_237,1441693.000000,512,21703.000000,1,COMPLETED_SUCCESSFULLY,1451727.003450,21702.000000,1473429.003450,10034.003450,31736.003450,1.462354,2361-2872,-1.000000,""
238_0_1,w0,profile_238,1442080.000000,256,21716.000000,1,COMPLETED_SUCCESSFULLY,1451727.004050,21715.000000,1473442.004050,9647.004050,31362.004050,1.444255,2873-3128,-1.000000,""
233_0_1,w0,profile_233,1436892.000000,640,43322.000000,1,COMPLETED_SUCCESSFULLY,1436892.001800,43321.000000,1480213.001800,0.001800,43321.001800,1.000000,768-1407,-1.000000,""
235_0_1,w0,profile_235,1439451.000000,1024,86400.000000,1,COMPLETED_SUCCESSFULLY,1439451.001800,72310.000000,1511761.001800,0.001800,72310.001800,1.000000,3257-4280,-1.000000,""
241_0_1,w0,profile_241,1520806.000000,256,21743.000000,1,COMPLETED_SUCCESSFULLY,1520806.001800,21742.000000,1542548.001800,0.001800,21742.001800,1.000000,1650-1905,-1.000000,""
243_0_1,w0,profile_243,1539148.000000,281,21600.000000,1,COMPLETED_SUCCESSFULLY,1539148.001800,21051.000000,1560199.001800,0.001800,21051.001800,1.000000,1907-2187,-1.000000,""
239_0_1,w0,profile_239,1474423.000000,825,85917.000000,1,COMPLETED_SUCCESSFULLY,1474423.001800,85916.000000,1560339.001800,0.001800,85916.001800,1.000000,0-767 1408-1464,-1.000000,""
240_0_1,w0,profile_240,1488567.000000,825,85800.000000,1,COMPLETED_SUCCESSFULLY,1488567.001800,73669.000000,1562236.001800,0.001800,73669.001800,1.000000,768-1407 1465-1649,-1.000000,""
242_0_1,w0,profile_242,1521775.000000,1,73280.000000,1,COMPLETED_SUCCESSFULLY,1521775.001800,73279.000000,1595054.001800,0.001800,73279.001800,1.000000,1906,-1.000000,""
244_0_1,w0,profile_244,1544217.000000,825,85800.000000,1,COMPLETED_SUCCESSFULLY,1544217.001800,85172.000000,1629389.001800,0.001800,85172.001800,1.000000,1650-1905 2188-2756,-1.000000,""
246_0_1,w0,profile_246,1629629.000000,256,21698.000000,1,COMPLETED_SUCCESSFULLY,1629629.001800,21697.000000,1651326.001800,0.001800,21697.001800,1.000000,825-1080,-1.000000,""
247_0_1,w0,profile_247,1629883.000000,256,21763.000000,1,COMPLETED_SUCCESSFULLY,1629883.001800,21762.000000,1651645.001800,0.001800,21762.001800,1.000000,1081-1336,-1.000000,""
248_0_1,w0,profile_248,1630038.000000,256,21758.000000,1,COMPLETED_SUCCESSFULLY,1630038.001800,21757.000000,1651795.001800,0.001800,21757.001800,1.000000,1337-1592,-1.000000,""
249_0_1,w0,profile_249,1630242.000000,256,21746.000000,1,COMPLETED_SUCCESSFULLY,1630242.001800,21745.000000,1651987.001800,0.001800,21745.001800,1.000000,1593-1848,-1.000000,""
250_0_1,w0,profile_250,1630467.000000,256,21742.000000,1,COMPLETED_SUCCESSFULLY,1630467.001800,21741.000000,1652208.001800,0.001800,21741.001800,1.000000,1849-2104,-1.000000,""
251_0_1,w0,profile_251,1631040.000000,256,21745.000000,1,COMPLETED_SUCCESSFULLY,1631040.001800,21744.000000,1652784.001800,0.001800,21744.001800,1.000000,2105-2360,-1.000000,""
252_0_1,w0,profile_252,1642719.000000,256,21718.000000,1,COMPLETED_SUCCESSFULLY,1642719.001800,21717.000000,1664436.001800,0.001800,21717.001800,1.000000,2361-2616,-1.000000,""
254_0_1,w0,profile_254,1661632.000000,384,32400.000000,1,COMPLETED_SUCCESSFULLY,1661632.001800,22837.000000,1684469.001800,0.001800,22837.001800,1.000000,1209-1592,-1.000000,""
245_0_1,w0,profile_245,1615631.000000,825,85800.000000,1,COMPLETED_SUCCESSFULLY,1615631.001800,69211.000000,1684842.001800,0.001800,69211.001800,1.000000,0-824,-1.000000,""
253_0_1,w0,profile_253,1660236.000000,384,32400.000000,1,COMPLETED_SUCCESSFULLY,1660236.001800,24685.000000,1684921.001800,0.001800,24685.001800,1.000000,825-1208,-1.000000,""
255_0_1,w0,profile_255,1715362.000000,320,21720.000000,1,COMPLETED_SUCCESSFULLY,1715362.001800,21719.000000,1737081.001800,0.001800,21719.001800,1.000000,0-319,-1.000000,""
256_0_1,w0,profile_256,1735853.000000,256,21735.000000,1,COMPLETED_SUCCESSFULLY,1735853.001800,21734.000000,1757587.001800,0.001800,21734.001800,1.000000,320-575,-1.000000,""
257_0_1,w0,profile_257,1743453.000000,512,32400.000000,1,COMPLETED_SUCCESSFULLY,1743453.001800,24024.000000,1767477.001800,0.001800,24024.001800,1.000000,0-319 576-767,-1.000000,""
258_0_1,w0,profile_258,1825941.000000,256,21682.000000,1,COMPLETED_SUCCESSFULLY,1825941.001800,21681.000000,1847622.001800,0.001800,21681.001800,1.000000,0-255,-1.000000,""
259_0_1,w0,profile_259,1826007.000000,256,21717.000000,1,COMPLETED_SUCCESSFULLY,1826007.001800,21716.000000,1847723.001800,0.001800,21716.001800,1.000000,256-511,-1.000000,""
260_0_1,w0,profile_260,1826138.000000,256,21707.000000,1,COMPLETED_SUCCESSFULLY,1826138.001800,21706.000000,1847844.001800,0.001800,21706.001800,1.000000,512-767,-1.000000,""
261_0_1,w0,profile_261,1826197.000000,256,21741.000000,1,COMPLETED_SUCCESSFULLY,1826197.001800,21740.000000,1847937.001800,0.001800,21740.001800,1.000000,768-1023,-1.000000,""
262_0_1,w0,profile_262,1826230.000000,256,21736.000000,1,COMPLETED_SUCCESSFULLY,1826230.001800,21735.000000,1847965.001800,0.001800,21735.001800,1.000000,1024-1279,-1.000000,""
264_0_1,w0,profile_264,1826335.000000,256,21714.000000,1,COMPLETED_SUCCESSFULLY,1826335.001800,21713.000000,1848048.001800,0.001800,21713.001800,1.000000,1536-1791,-1.000000,""
263_0_1,w0,profile_263,1826305.000000,256,21768.000000,1,COMPLETED_SUCCESSFULLY,1826305.001800,21767.000000,1848072.001800,0.001800,21767.001800,1.000000,1280-1535,-1.000000,""
265_0_1,w0,profile_265,1826443.000000,256,21729.000000,1,COMPLETED_SUCCESSFULLY,1826443.001800,21728.000000,1848171.001800,0.001800,21728.001800,1.000000,1792-2047,-1.000000,""
266_0_1,w0,profile_266,1868440.000000,256,21715.000000,1,COMPLETED_SUCCESSFULLY,1868440.001800,21714.000000,1890154.001800,0.001800,21714.001800,1.000000,0-255,-1.000000,""
267_0_1,w0,profile_267,1881137.000000,256,21684.000000,1,COMPLETED_SUCCESSFULLY,1881137.001800,21683.000000,1902820.001800,0.001800,21683.001800,1.000000,256-511,-1.000000,""
270_0_1,w0,profile_270,1882897.000000,256,21600.000000,1,COMPLETED_SUCCESSFULLY,1882897.001800,21591.000000,1904488.001800,0.001800,21591.001800,1.000000,1024-1279,-1.000000,""
271_0_1,w0,profile_271,1882900.000000,256,21615.000000,1,COMPLETED_SUCCESSFULLY,1882900.001800,21614.000000,1904514.001800,0.001800,21614.001800,1.000000,1280-1535,-1.000000,""
269_0_1,w0,profile_269,1882894.000000,256,21637.000000,1,COMPLETED_SUCCESSFULLY,1882894.001800,21636.000000,1904530.001800,0.001800,21636.001800,1.000000,768-1023,-1.000000,""
268_0_1,w0,profile_268,1882891.000000,256,21718.000000,1,COMPLETED_SUCCESSFULLY,1882891.001800,21717.000000,1904608.001800,0.001800,21717.001800,1.000000,512-767,-1.000000,""
272_0_1,w0,profile_272,1888416.000000,1024,27000.000000,1,COMPLETED_SUCCESSFULLY,1888416.001800,21347.000000,1909763.001800,0.001800,21347.001800,1.000000,1536-2559,-1.000000,""
273_0_1,w0,profile_273,1899586.000000,1344,21726.000000,1,COMPLETED_SUCCESSFULLY,1899586.001800,21725.000000,1921311.001800,0.001800,21725.001800,1.000000,0-255 2560-3647,-1.000000,""
276_0_1,w0,profile_276,1956878.000000,256,21693.000000,1,COMPLETED_SUCCESSFULLY,1956878.001800,21692.000000,1978570.001800,0.001800,21692.001800,1.000000,1650-1905,-1.000000,""
274_0_1,w0,profile_274,1926624.000000,825,85800.000000,1,COMPLETED_SUCCESSFULLY,1926624.001800,56210.000000,1982834.001800,0.001800,56210.001800,1.000000,0-824,-1.000000,""
277_0_1,w0,profile_277,1964139.000000,512,33751.000000,1,COMPLETED_SUCCESSFULLY,1964139.001800,33750.000000,1997889.001800,0.001800,33750.001800,1.000000,1906-2417,-1.000000,""
280_0_1,w0,profile_280,1976250.000000,256,21716.000000,1,COMPLETED_SUCCESSFULLY,1976250.001800,21715.000000,1997965.001800,0.001800,21715.001800,1.000000,2937-3192,-1.000000,""
279_0_1,w0,profile_279,1976132.000000,256,22922.000000,1,COMPLETED_SUCCESSFULLY,1976132.001800,22921.000000,1999053.001800,0.001800,22921.001800,1.000000,2681-2936,-1.000000,""
281_0_1,w0,profile_281,1978032.000000,256,21740.000000,1,COMPLETED_SUCCESSFULLY,1978032.001800,21739.000000,1999771.001800,0.001800,21739.001800,1.000000,3193-3448,-1.000000,""
283_0_1,w0,profile_283,1993664.000000,281,21600.000000,1,COMPLETED_SUCCESSFULLY,1993664.001800,21074.000000,2014738.001800,0.001800,21074.001800,1.000000,0-280,-1.000000,""
275_0_1,w0,profile_275,1956240.000000,825,85800.000000,1,COMPLETED_SUCCESSFULLY,1956240.001800,62049.000000,2018289.001800,0.001800,62049.001800,1.000000,825-1649,-1.000000,""
282_0_1,w0,profile_282,1981355.000000,825,85800.000000,1,COMPLETED_SUCCESSFULLY,1981355.001800,64746.000000,2046101.001800,0.001800,64746.001800,1.000000,1650-1905 3449-4017,-1.000000,""
287_0_1,w0,profile_287,2046794.000000,256,21702.000000,1,COMPLETED_SUCCESSFULLY,2046794.001800,21701.000000,2068495.001800,0.001800,21701.001800,1.000000,1650-1905,-1.000000,""
288_0_1,w0,profile_288,2046877.000000,256,21707.000000,1,COMPLETED_SUCCESSFULLY,2046877.001800,21706.000000,2068583.001800,0.001800,21706.001800,1.000000,1907-2162,-1.000000,""
289_0_1,w0,profile_289,2046918.000000,256,21732.000000,1,COMPLETED_SUCCESSFULLY,2046918.001800,21731.000000,2068649.001800,0.001800,21731.001800,1.000000,2163-2417 2681,-1.000000,""
290_0_1,w0,profile_290,2046959.000000,256,21692.000000,1,COMPLETED_SUCCESSFULLY,2046959.001800,21691.000000,2068650.001800,0.001800,21691.001800,1.000000,2682-2937,-1.000000,""
291_0_1,w0,profile_291,2047096.000000,256,21690.000000,1,COMPLETED_SUCCESSFULLY,2047096.001800,21689.000000,2068785.001800,0.001800,21689.001800,1.000000,2938-3193,-1.000000,""
292_0_1,w0,profile_292,2047118.000000,256,21688.000000,1,COMPLETED_SUCCESSFULLY,2047118.001800,21687.000000,2068805.001800,0.001800,21687.001800,1.000000,3194-3449,-1.000000,""
293_0_1,w0,profile_293,2047163.000000,256,21733.000000,1,COMPLETED_SUCCESSFULLY,2047163.001800,21732.000000,2068895.001800,0.001800,21732.001800,1.000000,3450-3705,-1.000000,""
294_0_1,w0,profile_294,2058813.000000,256,21600.000000,1,COMPLETED_SUCCESSFULLY,2058813.001800,21219.000000,2080032.001800,0.001800,21219.001800,1.000000,3706-3961,-1.000000,""
295_0_1,w0,profile_295,2059699.000000,256,21600.000000,1,COMPLETED_SUCCESSFULLY,2059699.001800,21443.000000,2081142.001800,0.001800,21443.001800,1.000000,3962-4217,-1.000000,""
296_0_1,w0,profile_296,2063414.000000,256,21609.000000,1,COMPLETED_SUCCESSFULLY,2068498.003450,21608.000000,2090106.003450,5084.003450,26692.003450,1.235283,1650-1905,-1.000000,""
278_0_1,w0,profile_278,1975822.000000,263,324000.000000,1,COMPLETED_SUCCESSFULLY,1975822.001800,122691.000000,2098513.001800,0.001800,122691.001800,1.000000,2418-2680,-1.000000,""
298_0_1,w0,profile_298,2080620.000000,256,21698.000000,1,COMPLETED_SUCCESSFULLY,2080620.001800,21697.000000,2102317.001800,0.001800,21697.001800,1.000000,3194-3449,-1.000000,""
299_0_1,w0,profile_299,2086758.000000,256,21703.000000,1,COMPLETED_SUCCESSFULLY,2086758.001800,21702.000000,2108460.001800,0.001800,21702.001800,1.000000,3450-3705,-1.000000,""
286_0_1,w0,profile_286,2045626.000000,825,85800.000000,1,COMPLETED_SUCCESSFULLY,2045626.001800,65191.000000,2110817.001800,0.001800,65191.001800,1.000000,826-1649 1906,-1.000000,""
284_0_1,w0,profile_284,2045081.000000,1,73257.000000,1,COMPLETED_SUCCESSFULLY,2045081.001800,73256.000000,2118337.001800,0.001800,73256.001800,1.000000,0,-1.000000,""
285_0_1,w0,profile_285,2045512.000000,825,85800.000000,1,COMPLETED_SUCCESSFULLY,2045512.001800,77715.000000,2123227.001800,0.001800,77715.001800,1.000000,1-825,-1.000000,""
301_0_1,w0,profile_301,2097352.000000,825,85800.000000,1,COMPLETED_SUCCESSFULLY,2108463.003450,30014.000000,2138477.003450,11111.003450,41125.003450,1.370194,2418-2680 3194-3705 4275-4324,-1.000000,""
297_0_1,w0,profile_297,2064192.000000,1024,86400.000000,1,COMPLETED_SUCCESSFULLY,2068788.003450,72659.000000,2141447.003450,4596.003450,77255.003450,1.063254,1907-2417 2681-3193,-1.000000,""
304_0_1,w0,profile_304,2128039.000000,256,21688.000000,1,COMPLETED_SUCCESSFULLY,2128039.001800,21687.000000,2149726.001800,0.001800,21687.001800,1.000000,1024-1279,-1.000000,""
305_0_1,w0,profile_305,2128188.000000,256,21721.000000,1,COMPLETED_SUCCESSFULLY,2128188.001800,21720.000000,2149908.001800,0.001800,21720.001800,1.000000,1280-1535,-1.000000,""
300_0_1,w0,profile_300,2097341.000000,825,85800.000000,1,COMPLETED_SUCCESSFULLY,2097341.001800,63947.000000,2161288.001800,0.001800,63947.001800,1.000000,1650-1905 3706-4274,-1.000000,""
306_0_1,w0,profile_306,2132473.000000,256,21683.000000,1,COMPLETED_SUCCESSFULLY,2141450.005700,21682.000000,2163132.005700,8977.005700,30659.005700,1.414030,2816-3071,-1.000000,""
307_0_1,w0,profile_307,2140186.000000,1024,27000.000000,1,COMPLETED_SUCCESSFULLY,2149911.003450,21612.000000,2171523.003450,9725.003450,31337.003450,1.449982,1024-1535 3072-3583,-1.000000,""
308_0_1,w0,profile_308,2142415.000000,20,22512.000000,1,COMPLETED_SUCCESSFULLY,2149911.004050,22511.000000,2172422.004050,7496.004050,30007.004050,1.332993,3584-3603,-1.000000,""
309_0_1,w0,profile_309,2147518.000000,20,22547.000000,1,COMPLETED_SUCCESSFULLY,2149911.004650,22546.000000,2172457.004650,2393.004650,24939.004650,1.106139,3604-3623,-1.000000,""
313_0_1,w0,profile_313,2170127.000000,20,21302.000000,1,COMPLETED_SUCCESSFULLY,2171526.006300,21301.000000,2192827.006300,1399.006300,22700.006300,1.065678,3149-3168,-1.000000,""
314_0_1,w0,profile_314,2171821.000000,20,21300.000000,1,COMPLETED_SUCCESSFULLY,2171821.001800,21284.000000,2193105.001800,0.001800,21284.001800,1.000000,3169-3188,-1.000000,""
312_0_1,w0,profile_312,2164968.000000,20,22527.000000,1,COMPLETED_SUCCESSFULLY,2171526.005700,22526.000000,2194052.005700,6558.005700,29084.005700,1.291131,3129-3148,-1.000000,""
315_0_1,w0,profile_315,2176379.000000,281,21600.000000,1,COMPLETED_SUCCESSFULLY,2176379.001800,21022.000000,2197401.001800,0.001800,21022.001800,1.000000,3189-3469,-1.000000,""
302_0_1,w0,profile_302,2121360.000000,1024,86400.000000,1,COMPLETED_SUCCESSFULLY,2123230.003450,85036.000000,2208266.003450,1870.003450,86906.003450,1.021991,0-1023,-1.000000,""
311_0_1,w0,profile_311,2154209.000000,825,86100.000000,1,COMPLETED_SUCCESSFULLY,2171526.005100,36792.000000,2208318.005100,17317.005100,54109.005100,1.470673,1024-1535 2816-3128,-1.000000,""
303_0_1,w0,profile_303,2121397.000000,1024,86400.000000,1,COMPLETED_SUCCESSFULLY,2141450.005100,85076.000000,2226526.005100,20053.005100,105129.005100,1.235707,1536-1649 1906-2815,-1.000000,""
317_0_1,w0,profile_317,2212691.000000,256,21703.000000,1,COMPLETED_SUCCESSFULLY,2212691.001800,21702.000000,2234393.001800,0.001800,21702.001800,1.000000,825-1080,-1.000000,""
318_0_1,w0,profile_318,2212702.000000,256,21693.000000,1,COMPLETED_SUCCESSFULLY,2212702.001800,21692.000000,2234394.001800,0.001800,21692.001800,1.000000,1081-1336,-1.000000,""
310_0_1,w0,profile_310,2153861.000000,825,86100.000000,1,COMPLETED_SUCCESSFULLY,2161291.003450,82326.000000,2243617.003450,7430.003450,89756.003450,1.090251,1650-1905 3624-4192,-1.000000,""
319_0_1,w0,profile_319,2247068.000000,256,21703.000000,1,COMPLETED_SUCCESSFULLY,2247068.001800,21702.000000,2268770.001800,0.001800,21702.001800,1.000000,825-1080,-1.000000,""
320_0_1,w0,profile_320,2247357.000000,256,21695.000000,1,COMPLETED_SUCCESSFULLY,2247357.001800,21694.000000,2269051.001800,0.001800,21694.001800,1.000000,1081-1336,-1.000000,""
321_0_1,w0,profile_321,2247509.000000,256,21699.000000,1,COMPLETED_SUCCESSFULLY,2247509.001800,21698.000000,2269207.001800,0.001800,21698.001800,1.000000,1337-1592,-1.000000,""
324_0_1,w0,profile_324,2269521.000000,31,21317.000000,1,COMPLETED_SUCCESSFULLY,2269521.001800,21316.000000,2290837.001800,0.001800,21316.001800,1.000000,825-855,-1.000000,""
316_0_1,w0,profile_316,2212626.000000,825,86220.000000,1,COMPLETED_SUCCESSFULLY,2212626.001800,86219.000000,2298845.001800,0.001800,86219.001800,1.000000,0-824,-1.000000,""
325_0_1,w0,profile_325,2279549.000000,48,21307.000000,1,COMPLETED_SUCCESSFULLY,2279549.001800,21306.000000,2300855.001800,0.001800,21306.001800,1.000000,856-903,-1.000000,""
326_0_1,w0,profile_326,2286055.000000,58,21329.000000,1,COMPLETED_SUCCESSFULLY,2286055.001800,21328.000000,2307383.001800,0.001800,21328.001800,1.000000,904-961,-1.000000,""
327_0_1,w0,profile_327,2286116.000000,20,21307.000000,1,COMPLETED_SUCCESSFULLY,2286116.001800,21306.000000,2307422.001800,0.001800,21306.001800,1.000000,962-981,-1.000000,""
328_0_1,w0,profile_328,2286116.000000,20,21311.000000,1,COMPLETED_SUCCESSFULLY,2286116.002400,21310.000000,2307426.002400,0.002400,21310.002400,1.000000,982-1001,-1.000000,""
329_0_1,w0,profile_329,2286188.000000,20,21319.000000,1,COMPLETED_SUCCESSFULLY,2286188.001800,21318.000000,2307506.001800,0.001800,21318.001800,1.000000,1002-1021,-1.000000,""
330_0_1,w0,profile_330,2289775.000000,20,21300.000000,1,COMPLETED_SUCCESSFULLY,2289775.001800,21299.000000,2311074.001800,0.001800,21299.001800,1.000000,1022-1041,-1.000000,""
331_0_1,w0,profile_331,2289851.000000,20,21324.000000,1,COMPLETED_SUCCESSFULLY,2289851.001800,21323.000000,2311174.001800,0.001800,21323.001800,1.000000,1042-1061,-1.000000,""
332_0_1,w0,profile_332,2289914.000000,31,21359.000000,1,COMPLETED_SUCCESSFULLY,2289914.001800,21358.000000,2311272.001800,0.001800,21358.001800,1.000000,1062-1092,-1.000000,""
333_0_1,w0,profile_333,2289984.000000,20,21308.000000,1,COMPLETED_SUCCESSFULLY,2289984.001800,21307.000000,2311291.001800,0.001800,21307.001800,1.000000,1093-1112,-1.000000,""
334_0_1,w0,profile_334,2290058.000000,5,21300.000000,1,COMPLETED_SUCCESSFULLY,2290058.001800,21283.000000,2311341.001800,0.001800,21283.001800,1.000000,1113-1117,-1.000000,""
335_0_1,w0,profile_335,2292997.000000,7,21330.000000,1,COMPLETED_SUCCESSFULLY,2292997.001800,21329.000000,2314326.001800,0.001800,21329.001800,1.000000,825-831,-1.000000,""
323_0_1,w0,profile_323,2262919.000000,825,86100.000000,1,COMPLETED_SUCCESSFULLY,2262919.001800,61010.000000,2323929.001800,0.001800,61010.001800,1.000000,2418-3242,-1.000000,""
336_0_1,w0,profile_336,2311305.000000,2,21300.000000,1,COMPLETED_SUCCESSFULLY,2311305.001800,21284.000000,2332589.001800,0.001800,21284.001800,1.000000,0-1,-1.000000,""
337_0_1,w0,profile_337,2311371.000000,1,21300.000000,1,COMPLETED_SUCCESSFULLY,2311371.001800,21293.000000,2332664.001800,0.001800,21293.001800,1.000000,2,-1.000000,""
338_0_1,w0,profile_338,2313261.000000,9,21403.000000,1,COMPLETED_SUCCESSFULLY,2313261.001800,21402.000000,2334663.001800,0.001800,21402.001800,1.000000,3-11,-1.000000,""
339_0_1,w0,profile_339,2313531.000000,1024,27000.000000,1,COMPLETED_SUCCESSFULLY,2313531.001800,22121.000000,2335652.001800,0.001800,22121.001800,1.000000,12-824 832-1042,-1.000000,""
340_0_1,w0,profile_340,2314497.000000,7,21300.000000,1,COMPLETED_SUCCESSFULLY,2314497.001800,21281.000000,2335778.001800,0.001800,21281.001800,1.000000,825-831,-1.000000,""
341_0_1,w0,profile_341,2315416.000000,20,21300.000000,1,COMPLETED_SUCCESSFULLY,2315416.001800,21281.000000,2336697.001800,0.001800,21281.001800,1.000000,1043-1062,-1.000000,""
344_0_1,w0,profile_344,2318063.000000,8,21325.000000,1,COMPLETED_SUCCESSFULLY,2318063.001800,21324.000000,2339387.001800,0.001800,21324.001800,1.000000,4363-4370,-1.000000,""
346_0_1,w0,profile_346,2323743.000000,20,21300.000000,1,COMPLETED_SUCCESSFULLY,2323932.004050,21289.000000,2345221.004050,189.004050,21478.004050,1.008878,2674-2693,-1.000000,""
345_0_1,w0,profile_345,2321285.000000,256,21696.000000,1,COMPLETED_SUCCESSFULLY,2323932.003450,21695.000000,2345627.003450,2647.003450,24342.003450,1.122010,2418-2673,-1.000000,""
322_0_1,w0,profile_322,2262902.000000,825,86201.000000,1,COMPLETED_SUCCESSFULLY,2262902.001800,86200.000000,2349102.001800,0.001800,86200.001800,1.000000,1593-2417,-1.000000,""
347_0_1,w0,profile_347,2339844.000000,20,21300.000000,1,COMPLETED_SUCCESSFULLY,2339844.001800,21288.000000,2361132.001800,0.001800,21288.001800,1.000000,0-19,-1.000000,""
348_0_1,w0,profile_348,2342249.000000,20,22505.000000,1,COMPLETED_SUCCESSFULLY,2342249.001800,22504.000000,2364753.001800,0.001800,22504.001800,1.000000,20-39,-1.000000,""
349_0_1,w0,profile_349,2345859.000000,256,21696.000000,1,COMPLETED_SUCCESSFULLY,2345859.001800,21695.000000,2367554.001800,0.001800,21695.001800,1.000000,40-295,-1.000000,""
350_0_1,w0,profile_350,2346852.000000,20,21300.000000,1,COMPLETED_SUCCESSFULLY,2346852.001800,21283.000000,2368135.001800,0.001800,21283.001800,1.000000,296-315,-1.000000,""
351_0_1,w0,profile_351,2347751.000000,8,21300.000000,1,COMPLETED_SUCCESSFULLY,2347751.001800,21282.000000,2369033.001800,0.001800,21282.001800,1.000000,316-323,-1.000000,""
342_0_1,w0,profile_342,2316568.000000,825,86100.000000,1,COMPLETED_SUCCESSFULLY,2316568.001800,81290.000000,2397858.001800,0.001800,81290.001800,1.000000,1063-1592 3243-3537,-1.000000,""
352_0_1,w0,profile_352,2377456.000000,20,22497.000000,1,COMPLETED_SUCCESSFULLY,2377456.001800,22496.000000,2399952.001800,0.001800,22496.001800,1.000000,0-19,-1.000000,""
353_0_1,w0,profile_353,2377502.000000,20,22515.000000,1,COMPLETED_SUCCESSFULLY,2377502.001800,22514.000000,2400016.001800,0.001800,22514.001800,1.000000,20-39,-1.000000,""
343_0_1,w0,profile_343,2316631.000000,825,86100.000000,1,COMPLETED_SUCCESSFULLY,2316631.001800,83544.000000,2400175.001800,0.001800,83544.001800,1.000000,3538-4362,-1.000000,""
354_0_1,w0,profile_354,2377886.000000,20,22491.000000,1,COMPLETED_SUCCESSFULLY,2377886.001800,22490.000000,2400376.001800,0.001800,22490.001800,1.000000,40-59,-1.000000,""
355_0_1,w0,profile_355,2385735.000000,256,21600.000000,1,COMPLETED_SUCCESSFULLY,2385735.001800,20019.000000,2405754.001800,0.001800,20019.001800,1.000000,60-315,-1.000000,""
356_0_1,w0,profile_356,2386869.000000,256,21728.000000,1,COMPLETED_SUCCESSFULLY,2386869.001800,21727.000000,2408596.001800,0.001800,21727.001800,1.000000,316-571,-1.000000,""
357_0_1,w0,profile_357,2386927.000000,256,21706.000000,1,COMPLETED_SUCCESSFULLY,2386927.001800,21705.000000,2408632.001800,0.001800,21705.001800,1.000000,572-827,-1.000000,""
358_0_1,w0,profile_358,2387112.000000,256,21734.000000,1,COMPLETED_SUCCESSFULLY,2387112.001800,21733.000000,2408845.001800,0.001800,21733.001800,1.000000,828-1062 1593-1613,-1.000000,""
359_0_1,w0,profile_359,2387139.000000,256,21712.000000,1,COMPLETED_SUCCESSFULLY,2387139.001800,21711.000000,2408850.001800,0.001800,21711.001800,1.000000,1614-1869,-1.000000,""
362_0_1,w0,profile_362,2393025.000000,512,21682.000000,1,COMPLETED_SUCCESSFULLY,2397861.003450,21681.000000,2419542.003450,4836.003450,26517.003450,1.223053,1063-1574,-1.000000,""
363_0_1,w0,profile_363,2395176.000000,1,86400.000000,1,COMPLETED_SUCCESSFULLY,2397861.004050,48746.000000,2446607.004050,2685.004050,51431.004050,1.055082,1575,-1.000000,""
364_0_1,w0,profile_364,2406200.000000,1024,84000.000000,1,COMPLETED_SUCCESSFULLY,2406200.001800,43285.000000,2449485.001800,0.001800,43285.001800,1.000000,0-315 1576-1592 2895-3585,-1.000000,""
361_0_1,w0,profile_361,2392433.000000,1024,64820.000000,1,COMPLETED_SUCCESSFULLY,2392433.001800,64819.000000,2457252.001800,0.001800,64819.001800,1.000000,1871-2894,-1.000000,""
360_0_1,w0,profile_360,2388733.000000,1,73224.000000,1,COMPLETED_SUCCESSFULLY,2388733.001800,73223.000000,2461956.001800,0.001800,73223.001800,1.000000,1870,-1.000000,""
365_0_1,w0,profile_365,2411462.000000,1024,86400.000000,1,COMPLETED_SUCCESSFULLY,2411462.001800,54029.000000,2465491.001800,0.001800,54029.001800,1.000000,316-1062 1593-1869,-1.000000,""
370_0_1,w0,profile_370,2468529.000000,256,21759.000000,1,COMPLETED_SUCCESSFULLY,2468529.001800,21758.000000,2490287.001800,0.001800,21758.001800,1.000000,1672-1870 4097-4153,-1.000000,""
369_0_1,w0,profile_369,2462755.000000,1,86400.000000,1,COMPLETED_SUCCESSFULLY,2465494.004050,45599.000000,2511093.004050,2739.004050,48338.004050,1.060067,1671,-1.000000,""
371_0_1,w0,profile_371,2468569.000000,256,21699.000000,1,COMPLETED_SUCCESSFULLY,2490290.003450,21698.000000,2511988.003450,21721.003450,43419.003450,2.001060,1672-1870 4097-4153,-1.000000,""
372_0_1,w0,profile_372,2468624.000000,256,21727.000000,1,COMPLETED_SUCCESSFULLY,2511991.005100,21726.000000,2533717.005100,43367.005100,65093.005100,2.996088,1671-1870 4097-4152,-1.000000,""
366_0_1,w0,profile_366,2411688.000000,2048,87721.000000,1,COMPLETED_SUCCESSFULLY,2449488.003450,87720.000000,2537208.003450,37800.003450,125520.003450,1.430917,0-315 1063-1592 2895-4096,-1.000000,""
367_0_1,w0,profile_367,2412818.000000,1024,86535.000000,1,COMPLETED_SUCCESSFULLY,2457255.003450,86534.000000,2543789.003450,44437.003450,130971.003450,1.513521,1871-2894,-1.000000,""
368_0_1,w0,profile_368,2421213.000000,825,86100.000000,1,COMPLETED_SUCCESSFULLY,2465494.003450,82590.000000,2548084.003450,44281.003450,126871.003450,1.536155,316-1062 1593-1670,-1.000000,""
373_0_1,w0,profile_373,2468686.000000,256,21694.000000,1,COMPLETED_SUCCESSFULLY,2533720.006750,21693.000000,2555413.006750,65034.006750,86727.006750,3.997926,1671-1870 4097-4152,-1.000000,""
375_0_1,w0,profile_375,2471818.000000,256,21600.000000,1,COMPLETED_SUCCESSFULLY,2537211.005700,20868.000000,2558079.005700,65393.005700,86261.005700,4.133650,256-315 1063-1258,-1.000000,""
377_0_1,w0,profile_377,2474661.000000,256,21696.000000,1,COMPLETED_SUCCESSFULLY,2537211.006900,21695.000000,2558906.006900,62550.006900,84245.006900,3.883153,1260-1515,-1.000000,""
378_0_1,w0,profile_378,2474780.000000,256,21725.000000,1,COMPLETED_SUCCESSFULLY,2537211.007500,21724.000000,2558935.007500,62431.007500,84155.007500,3.873827,1516-1592 2895-3073,-1.000000,""
381_0_1,w0,profile_381,2490129.000000,256,21730.000000,1,COMPLETED_SUCCESSFULLY,2537211.009300,21729.000000,2558940.009300,47082.009300,68811.009300,3.166782,3970-4096 4153-4281,-1.000000,""
374_0_1,w0,profile_374,2468705.000000,256,21742.000000,1,COMPLETED_SUCCESSFULLY,2537211.005100,21741.000000,2558952.005100,68506.005100,90247.005100,4.151005,0-255,-1.000000,""
379_0_1,w0,profile_379,2489735.000000,384,32400.000000,1,COMPLETED_SUCCESSFULLY,2537211.008100,25473.000000,2562684.008100,47476.008100,72949.008100,2.863778,3074-3457,-1.000000,""
383_0_1,w0,profile_383,2492944.000000,256,21683.000000,1,COMPLETED_SUCCESSFULLY,2543792.005700,21682.000000,2565474.005700,50848.005700,72530.005700,3.345171,2127-2382,-1.000000,""
382_0_1,w0,profile_382,2490264.000000,256,21697.000000,1,COMPLETED_SUCCESSFULLY,2543792.005100,21696.000000,2565488.005100,53528.005100,75224.005100,3.467183,1871-2126,-1.000000,""
384_0_1,w0,profile_384,2493006.000000,256,22914.000000,1,COMPLETED_SUCCESSFULLY,2543792.006300,22913.000000,2566705.006300,50786.006300,73699.006300,3.216471,2383-2638,-1.000000,""
385_0_1,w0,profile_385,2493124.000000,256,22936.000000,1,COMPLETED_SUCCESSFULLY,2543792.006900,22935.000000,2566727.006900,50668.006900,73603.006900,3.209200,2639-2894,-1.000000,""
380_0_1,w0,profile_380,2489962.000000,512,32400.000000,1,COMPLETED_SUCCESSFULLY,2537211.008700,31371.000000,2568582.008700,47249.008700,78620.008700,2.506137,3458-3969,-1.000000,""
388_0_1,w0,profile_388,2503612.000000,256,21600.000000,1,COMPLETED_SUCCESSFULLY,2548087.006300,20931.000000,2569018.006300,44475.006300,65406.006300,3.124839,892-1062 1593-1670 4282-4288,-1.000000,""
387_0_1,w0,profile_387,2494846.000000,320,21700.000000,1,COMPLETED_SUCCESSFULLY,2548087.005700,21699.000000,2569786.005700,53241.005700,74940.005700,3.453616,572-891,-1.000000,""
386_0_1,w0,profile_386,2493185.000000,256,21710.000000,1,COMPLETED_SUCCESSFULLY,2548087.005100,21709.000000,2569796.005100,54902.005100,76611.005100,3.528997,316-571,-1.000000,""
392_0_1,w0,profile_392,2518493.000000,258,22264.000000,1,COMPLETED_SUCCESSFULLY,2562687.010350,22263.000000,2584950.010350,44194.010350,66457.010350,2.985088,3387-3457 3970-4096 4153-4212,-1.000000,""
393_0_1,w0,profile_393,2532168.000000,256,21731.000000,1,COMPLETED_SUCCESSFULLY,2565477.007350,21730.000000,2587207.007350,33309.007350,55039.007350,2.532858,2127-2382,-1.000000,""
394_0_1,w0,profile_394,2557201.000000,256,21748.000000,1,COMPLETED_SUCCESSFULLY,2565491.006750,21747.000000,2587238.006750,8290.006750,30037.006750,1.381202,1871-2126,-1.000000,""
395_0_1,w0,profile_395,2557239.000000,256,21722.000000,1,COMPLETED_SUCCESSFULLY,2566708.007950,21721.000000,2588429.007950,9469.007950,31190.007950,1.435938,2383-2638,-1.000000,""
396_0_1,w0,profile_396,2557278.000000,256,21700.000000,1,COMPLETED_SUCCESSFULLY,2566730.008550,21699.000000,2588429.008550,9452.008550,31151.008550,1.435597,2639-2894,-1.000000,""
398_0_1,w0,profile_398,2560565.000000,256,21692.000000,1,COMPLETED_SUCCESSFULLY,2568585.010950,21691.000000,2590276.010950,8020.010950,29711.010950,1.369739,3714-3969,-1.000000,""
397_0_1,w0,profile_397,2557305.000000,256,21720.000000,1,COMPLETED_SUCCESSFULLY,2568585.010350,21719.000000,2590304.010350,11280.010350,32999.010350,1.519361,3458-3713,-1.000000,""
399_0_1,w0,profile_399,2560857.000000,256,21750.000000,1,COMPLETED_SUCCESSFULLY,2569021.007950,21749.000000,2590770.007950,8164.007950,29913.007950,1.375374,892-1062 1593-1670 4213-4219,-1.000000,""
400_0_1,w0,profile_400,2576916.000000,1024,21681.000000,1,COMPLETED_SUCCESSFULLY,2587210.009000,21680.000000,2608890.009000,10294.009000,31974.009000,1.474816,316-891 2127-2382 3387-3457 3970-4090,-1.000000,""
401_0_1,w0,profile_401,2585136.000000,256,21724.000000,1,COMPLETED_SUCCESSFULLY,2587241.008400,21723.000000,2608964.008400,2105.008400,23828.008400,1.096902,1871-2126,-1.000000,""
376_0_1,w0,profile_376,2473680.000000,1,72098.000000,1,COMPLETED_SUCCESSFULLY,2537211.006300,72097.000000,2609308.006300,63531.006300,135628.006300,1.881188,1259,-1.000000,""
403_0_1,w0,profile_403,2587284.000000,256,22894.000000,1,COMPLETED_SUCCESSFULLY,2588435.011250,22893.000000,2611328.011250,1151.011250,24044.011250,1.050278,2639-2894,-1.000000,""
402_0_1,w0,profile_402,2587249.000000,256,22907.000000,1,COMPLETED_SUCCESSFULLY,2588435.010650,22906.000000,2611341.010650,1186.010650,24092.010650,1.051777,2383-2638,-1.000000,""
404_0_1,w0,profile_404,2587364.000000,256,21731.000000,1,COMPLETED_SUCCESSFULLY,2590279.012600,21730.000000,2612009.012600,2915.012600,24645.012600,1.134147,3714-3969,-1.000000,""
405_0_1,w0,profile_405,2587400.000000,256,21722.000000,1,COMPLETED_SUCCESSFULLY,2590307.012000,21721.000000,2612028.012000,2907.012000,24628.012000,1.133834,3458-3713,-1.000000,""
406_0_1,w0,profile_406,2587516.000000,256,22971.000000,1,COMPLETED_SUCCESSFULLY,2590773.009600,22970.000000,2613743.009600,3257.009600,26227.009600,1.141794,892-1062 1593-1670 4091-4096 4153,-1.000000,""
407_0_1,w0,profile_407,2587549.000000,256,21717.000000,1,COMPLETED_SUCCESSFULLY,2608893.010650,21716.000000,2630609.010650,21344.010650,43060.010650,1.982870,316-571,-1.000000,""
410_0_1,w0,profile_410,2603623.000000,20,21347.000000,1,COMPLETED_SUCCESSFULLY,2611344.012900,21346.000000,2632690.012900,7721.012900,29067.012900,1.361708,4267-4286,-1.000000,""
389_0_1,w0,profile_389,2508339.000000,1,86400.000000,1,COMPLETED_SUCCESSFULLY,2548087.006900,86000.000000,2634087.006900,39748.006900,125748.006900,1.462186,4289,-1.000000,""
411_0_1,w0,profile_411,2609638.000000,512,32400.000000,1,COMPLETED_SUCCESSFULLY,2612031.013650,22382.000000,2634413.013650,2393.013650,24775.013650,1.106917,3458-3969,-1.000000,""
390_0_1,w0,profile_390,2509817.000000,825,86100.000000,1,COMPLETED_SUCCESSFULLY,2558909.008550,81865.000000,2640774.008550,49092.008550,130957.008550,1.599670,256-315 1063-1258 1260-1515 1671-1870 4097-4152 4290-4346,-1.000000,""
391_0_1,w0,profile_391,2509818.000000,825,86100.000000,1,COMPLETED_SUCCESSFULLY,2562687.009750,81046.000000,2643733.009750,52869.009750,133915.009750,1.652333,0-255 1516-1592 2895-3386,-1.000000,""
413_0_1,w0,profile_413,2625091.000000,20,21300.000000,1,COMPLETED_SUCCESSFULLY,2634416.015900,21289.000000,2655705.015900,9325.015900,30614.015900,1.438020,3593-3612,-1.000000,""
414_0_1,w0,profile_414,2626722.000000,20,21322.000000,1,COMPLETED_SUCCESSFULLY,2634416.016500,21321.000000,2655737.016500,7694.016500,29015.016500,1.360866,3613-3632,-1.000000,""
415_0_1,w0,profile_415,2642030.000000,256,21716.000000,1,COMPLETED_SUCCESSFULLY,2642030.001800,21715.000000,2663745.001800,0.001800,21715.001800,1.000000,256-315 1063-1258,-1.000000,""
417_0_1,w0,profile_417,2642210.000000,256,21716.000000,1,COMPLETED_SUCCESSFULLY,2642210.001800,21715.000000,2663925.001800,0.001800,21715.001800,1.000000,1671-1870 3633-3688,-1.000000,""
416_0_1,w0,profile_416,2642186.000000,256,22997.000000,1,COMPLETED_SUCCESSFULLY,2642186.001800,22996.000000,2665182.001800,0.001800,22996.001800,1.000000,1260-1515,-1.000000,""
418_0_1,w0,profile_418,2644757.000000,256,21600.000000,1,COMPLETED_SUCCESSFULLY,2644757.001800,21185.000000,2665942.001800,0.001800,21185.001800,1.000000,0-255,-1.000000,""
419_0_1,w0,profile_419,2647999.000000,256,21744.000000,1,COMPLETED_SUCCESSFULLY,2647999.001800,21743.000000,2669742.001800,0.001800,21743.001800,1.000000,1516-1592 2895-3073,-1.000000,""
420_0_1,w0,profile_420,2648101.000000,4,22485.000000,1,COMPLETED_SUCCESSFULLY,2648101.001800,22484.000000,2670585.001800,0.001800,22484.001800,1.000000,3074-3077,-1.000000,""
421_0_1,w0,profile_421,2650417.000000,256,21725.000000,1,COMPLETED_SUCCESSFULLY,2650417.001800,21724.000000,2672141.001800,0.001800,21724.001800,1.000000,3078-3333,-1.000000,""
412_0_1,w0,profile_412,2610932.000000,640,43200.000000,1,COMPLETED_SUCCESSFULLY,2634416.015300,39993.000000,2674409.015300,23484.015300,63477.015300,1.587203,316-571 892-1062 1593-1670 3458-3592,-1.000000,""
423_0_1,w0,profile_423,2663532.000000,256,21737.000000,1,COMPLETED_SUCCESSFULLY,2663532.001800,21736.000000,2685268.001800,0.001800,21736.001800,1.000000,3335-3386 3593-3632 3689-3852,-1.000000,""
424_0_1,w0,profile_424,2663590.000000,256,21736.000000,1,COMPLETED_SUCCESSFULLY,2663590.001800,21735.000000,2685325.001800,0.001800,21735.001800,1.000000,3853-3969 4091-4153 4267-4342,-1.000000,""
425_0_1,w0,profile_425,2667600.000000,256,22831.000000,1,COMPLETED_SUCCESSFULLY,2667600.001800,22830.000000,2690430.001800,0.001800,22830.001800,1.000000,0-255,-1.000000,""
426_0_1,w0,profile_426,2667952.000000,256,22948.000000,1,COMPLETED_SUCCESSFULLY,2667952.002400,22947.000000,2690899.002400,0.002400,22947.002400,1.000000,256-315 1063-1258,-1.000000,""
408_0_1,w0,profile_408,2592028.000000,825,86100.000000,1,COMPLETED_SUCCESSFULLY,2608893.011250,82454.000000,2691347.011250,16865.011250,99319.011250,1.204538,572-891 2127-2382 3387-3457 3970-4090 4154-4210,-1.000000,""
409_0_1,w0,profile_409,2592041.000000,825,86100.000000,1,COMPLETED_SUCCESSFULLY,2611344.012300,82010.000000,2693354.012300,19303.012300,101313.012300,1.235374,1259 1871-2126 2383-2894 4211-4266,-1.000000,""
422_0_1,w0,profile_422,2651103.000000,1,72139.000000,1,COMPLETED_SUCCESSFULLY,2651103.001800,72138.000000,2723241.001800,0.001800,72138.001800,1.000000,3334,-1.000000,""
