time,nb_sleeping,nb_switching_on,nb_switching_off,nb_idle,nb_computing
0.00240003,0,0,0,3368,1024
0.00300004,0,0,0,3304,1088
0.00360005,0,0,0,2279,2113
0.00420006,0,0,0,1254,3138
0.00480006,0,0,0,1190,3202
0.00540007,0,0,0,1126,3266
0.00600008,0,0,0,1062,3330
0.00660009,0,0,0,998,3394
0.0072001,0,0,0,902,3490
0.0078001,0,0,0,774,3618
0.00840011,0,0,0,646,3746
0.00900012,0,0,0,582,3810
0.00960013,0,0,0,454,3938
0.0102001,0,0,0,406,3986
0.0108001,0,0,0,342,4050
0.0114002,0,0,0,278,4114
0.0120002,0,0,0,214,4178
0.0126002,0,0,0,150,4242
0.0132002,0,0,0,86,4306
0.0138002,0,0,0,22,4370
11207,0,0,0,118,4274
11210,0,0,0,54,4338
11968,0,0,0,102,4290
11971,0,0,0,38,4354
14476,0,0,0,102,4290
14477,0,0,0,166,4226
14478,0,0,0,230,4162
14478,0,0,0,294,4098
14480,0,0,0,358,4034
14482,0,0,0,422,3970
14483,0,0,0,486,3906
14491,0,0,0,550,3842
14492,0,0,0,614,3778
14496,0,0,0,678,3714
14506,0,0,0,614,3778
14506,0,0,0,550,3842
14506,0,0,0,486,3906
14506,0,0,0,422,3970
14506,0,0,0,358,4034
14506,0,0,0,294,4098
14506,0,0,0,230,4162
14506,0,0,0,166,4226
14506,0,0,0,102,4290
14506,0,0,0,38,4354
14517,0,0,0,102,4290
14520,0,0,0,38,4354
15145,0,0,0,1062,3330
15148,0,0,0,998,3394
15148,0,0,0,934,3458
15148,0,0,0,870,3522
15148,0,0,0,806,3586
15148,0,0,0,742,3650
15148,0,0,0,678,3714
15148,0,0,0,550,3842
15148,0,0,0,422,3970
15148,0,0,0,326,4066
15148,0,0,0,198,4194
15148,0,0,0,70,4322
15148,0,0,0,6,4386
21691,0,0,0,134,4258
21691,0,0,0,262,4130
21694,0,0,0,326,4066
21700,0,0,0,198,4194
21700,0,0,0,150,4242
21700,0,0,0,54,4338
21710,0,0,0,182,4210
21713,0,0,0,54,4338
25711,0,0,0,118,4274
25714,0,0,0,54,4338
25981,0,0,0,150,4242
25984,0,0,0,86,4306
25984,0,0,0,22,4370
26471,0,0,0,86,4306
26474,0,0,0,22,4370
28989,0,0,0,86,4306
28992,0,0,0,22,4370
28994,0,0,0,86,4306
28994,0,0,0,150,4242
28994,0,0,0,214,4178
28994,0,0,0,278,4114
28996,0,0,0,342,4050
29009,0,0,0,406,3986
29012,0,0,0,342,4050
29012,0,0,0,278,4114
29012,0,0,0,214,4178
29012,0,0,0,86,4306
29013,0,0,0,150,4242
29016,0,0,0,22,4370
29017,0,0,0,86,4306
29018,0,0,0,150,4242
29023,0,0,0,102,4290
29637,0,0,0,166,4226
29637,0,0,0,230,4162
29660,0,0,0,294,4098
29661,0,0,0,358,4034
29661,0,0,0,422,3970
32694,0,0,0,518,3874
32697,0,0,0,6,4386
33224,0,0,0,54,4338
36191,0,0,0,118,4274
36819,0,0,0,246,4146
36833,0,0,0,374,4018
36836,0,0,0,438,3954
36842,0,0,0,566,3826
36845,0,0,0,54,4338
36849,0,0,0,182,4210
36852,0,0,0,54,4338
37967,0,0,0,118,4274
40188,0,0,0,182,4210
40191,0,0,0,54,4338
40473,0,0,0,118,4274
40473,0,0,0,182,4210
40479,0,0,0,54,4338
40479,0,0,0,6,4386
40955,0,0,0,70,4322
40958,0,0,0,6,4386
41117,0,0,0,54,4338
43409,0,0,0,182,4210
43410,0,0,0,310,4082
43415,0,0,0,246,4146
43415,0,0,0,182,4210
43415,0,0,0,118,4274
43415,0,0,0,54,4338
43471,0,0,0,118,4274
43474,0,0,0,54,4338
43492,0,0,0,118,4274
43494,0,0,0,182,4210
43498,0,0,0,118,4274
43498,0,0,0,54,4338
44540,0,0,0,566,3826
44543,0,0,0,502,3890
44543,0,0,0,438,3954
44543,0,0,0,374,4018
44543,0,0,0,310,4082
44543,0,0,0,246,4146
44543,0,0,0,182,4210
44543,0,0,0,118,4274
44543,0,0,0,54,4338
48850,0,0,0,566,3826
48853,0,0,0,502,3890
48853,0,0,0,438,3954
48853,0,0,0,374,4018
48853,0,0,0,310,4082
48853,0,0,0,246,4146
48853,0,0,0,182,4210
48853,0,0,0,118,4274
48853,0,0,0,22,4370
50705,0,0,0,86,4306
51643,0,0,0,214,4178
51645,0,0,0,342,4050
51649,0,0,0,214,4178
51649,0,0,0,86,4306
51649,0,0,0,38,4354
53649,0,0,0,86,4306
58817,0,0,0,150,4242
58820,0,0,0,54,4338
58836,0,0,0,118,4274
58856,0,0,0,182,4210
58859,0,0,0,54,4338
59014,0,0,0,118,4274
59016,0,0,0,182,4210
59016,0,0,0,246,4146
59016,0,0,0,310,4082
59017,0,0,0,374,4018
59029,0,0,0,246,4146
59029,0,0,0,118,4274
59057,0,0,0,182,4210
59060,0,0,0,54,4338
59111,0,0,0,118,4274
59114,0,0,0,54,4338
59135,0,0,0,118,4274
59138,0,0,0,54,4338
59680,0,0,0,182,4210
59764,0,0,0,278,4114
59954,0,0,0,342,4050
59954,0,0,0,406,3986
60154,0,0,0,470,3922
62672,0,0,0,534,3858
63019,0,0,0,662,3730
63307,0,0,0,790,3602
63329,0,0,0,854,3538
63332,0,0,0,918,3474
63343,0,0,0,982,3410
63345,0,0,0,1046,3346
63349,0,0,0,22,4370
63360,0,0,0,86,4306
63363,0,0,0,22,4370
63366,0,0,0,86,4306
63369,0,0,0,22,4370
63836,0,0,0,70,4322
63839,0,0,0,6,4386
66217,0,0,0,70,4322
66220,0,0,0,6,4386
68992,0,0,0,1031,3361
68995,0,0,0,967,3425
68995,0,0,0,903,3489
68995,0,0,0,839,3553
68995,0,0,0,775,3617
68995,0,0,0,711,3681
68995,0,0,0,199,4193
68995,0,0,0,97,4295
69849,0,0,0,193,4199
71458,0,0,0,257,4135
73341,0,0,0,385,4007
73354,0,0,0,513,3879
73357,0,0,0,1,4391
73586,0,0,0,65,4327
74549,0,0,0,129,4263
74552,0,0,0,1,4391
77839,0,0,0,65,4327
78330,0,0,0,129,4263
78798,0,0,0,193,4199
79874,0,0,0,705,3687
79877,0,0,0,193,4199
79877,0,0,0,65,4327
79877,0,0,0,17,4375
80550,0,0,0,145,4247
80553,0,0,0,17,4375
80728,0,0,0,81,4311
80729,0,0,0,209,4183
80734,0,0,0,81,4311
80751,0,0,0,209,4183
80754,0,0,0,337,4055
80757,0,0,0,209,4183
80757,0,0,0,113,4279
83483,0,0,0,177,4215
83486,0,0,0,49,4343
83487,0,0,0,113,4279
83503,0,0,0,177,4215
83509,0,0,0,241,4151
84383,0,0,0,305,4087
86644,0,0,0,433,3959
87493,0,0,0,1458,2934
87496,0,0,0,946,3446
87496,0,0,0,818,3574
87496,0,0,0,690,3702
87496,0,0,0,562,3830
87496,0,0,0,514,3878
87496,0,0,0,386,4006
91431,0,0,0,898,3494
91434,0,0,0,386,4006
91456,0,0,0,514,3878
91459,0,0,0,2,4390
91591,0,0,0,130,4262
91594,0,0,0,34,4358
91608,0,0,0,130,4262
91611,0,0,0,2,4390
92362,0,0,0,130,4262
92365,0,0,0,82,4310
92398,0,0,0,130,4262
95738,0,0,0,258,4134
97967,0,0,0,770,3622
97970,0,0,0,258,4134
97970,0,0,0,130,4262
97970,0,0,0,2,4390
99288,0,0,0,130,4262
99291,0,0,0,2,4390
99452,0,0,0,130,4262
99455,0,0,0,34,4358
99824,0,0,0,82,4310
99953,0,0,0,594,3798
99956,0,0,0,466,3926
99956,0,0,0,338,4054
99956,0,0,0,210,4182
99956,0,0,0,82,4310
99956,0,0,0,34,4358
100195,0,0,0,162,4230
100198,0,0,0,34,4358
100581,0,0,0,162,4230
101140,0,0,0,290,4102
102266,0,0,0,386,4006
104020,0,0,0,434,3958
104173,0,0,0,562,3830
108329,0,0,0,664,3728
109437,0,0,0,1176,3216
109510,0,0,0,1688,2704
109535,0,0,0,2200,2192
109538,0,0,0,152,4240
109538,0,0,0,24,4368
109625,0,0,0,152,4240
109628,0,0,0,56,4336
110000,0,0,0,1080,3312
110003,0,0,0,952,3440
110003,0,0,0,824,3568
110003,0,0,0,696,3696
110003,0,0,0,568,3824
110003,0,0,0,520,3872
110003,0,0,0,424,3968
110003,0,0,0,296,4096
110003,0,0,0,168,4224
110267,0,0,0,264,4128
110327,0,0,0,392,4000
111480,0,0,0,440,3952
111672,0,0,0,568,3824
111675,0,0,0,56,4336
111675,0,0,0,8,4384
112103,0,0,0,136,4256
112106,0,0,0,8,4384
112706,0,0,0,136,4256
112709,0,0,0,40,4352
118299,0,0,0,168,4224
118302,0,0,0,40,4352
120075,0,0,0,136,4256
120078,0,0,0,8,4384
120746,0,0,0,104,4288
121622,0,0,0,152,4240
121625,0,0,0,24,4368
121665,0,0,0,152,4240
121668,0,0,0,24,4368
121905,0,0,0,152,4240
121908,0,0,0,88,4304
121908,0,0,0,24,4368
123277,0,0,0,536,3856
123280,0,0,0,472,3920
123303,0,0,0,520,3872
123306,0,0,0,8,4384
123397,0,0,0,104,4288
123400,0,0,0,40,4352
129635,0,0,0,168,4224
129638,0,0,0,104,4288
129638,0,0,0,40,4352
131240,0,0,0,168,4224
131243,0,0,0,104,4288
131243,0,0,0,40,4352
131692,0,0,0,168,4224
131693,0,0,0,296,4096
131698,0,0,0,232,4160
131698,0,0,0,168,4224
131698,0,0,0,104,4288
131698,0,0,0,40,4352
131705,0,0,0,168,4224
131708,0,0,0,104,4288
131714,0,0,0,232,4160
131714,0,0,0,360,4032
132175,0,0,0,2408,1984
132178,0,0,0,1896,2496
132178,0,0,0,1832,2560
132178,0,0,0,1768,2624
132178,0,0,0,1704,2688
132178,0,0,0,1640,2752
132178,0,0,0,1576,2816
132178,0,0,0,1512,2880
132178,0,0,0,1448,2944
132178,0,0,0,1400,2992
132178,0,0,0,1336,3056
132178,0,0,0,1272,3120
132178,0,0,0,760,3632
132178,0,0,0,632,3760
132178,0,0,0,504,3888
132178,0,0,0,456,3936
133804,0,0,0,584,3808
133807,0,0,0,72,4320
136378,0,0,0,136,4256
137306,0,0,0,200,4192
137778,0,0,0,264,4128
137878,0,0,0,328,4064
138701,0,0,0,456,3936
141778,0,0,0,584,3808
141781,0,0,0,72,4320
143322,0,0,0,200,4192
143325,0,0,0,104,4288
143325,0,0,0,40,4352
143370,0,0,0,168,4224
143373,0,0,0,104,4288
143373,0,0,0,40,4352
143758,0,0,0,88,4304
143761,0,0,0,24,4368
144131,0,0,0,88,4304
144131,0,0,0,152,4240
144137,0,0,0,88,4304
144137,0,0,0,24,4368
144412,0,0,0,72,4320
144415,0,0,0,8,4384
144681,0,0,0,520,3872
144684,0,0,0,456,3936
144684,0,0,0,392,4000
144684,0,0,0,328,4064
144684,0,0,0,264,4128
144684,0,0,0,200,4192
144684,0,0,0,136,4256
144684,0,0,0,72,4320
144684,0,0,0,8,4384
144995,0,0,0,520,3872
144998,0,0,0,392,4000
144998,0,0,0,328,4064
144998,0,0,0,264,4128
144998,0,0,0,200,4192
144998,0,0,0,136,4256
144998,0,0,0,72,4320
145720,0,0,0,136,4256
145723,0,0,0,8,4384
146177,0,0,0,72,4320
146179,0,0,0,136,4256
146181,0,0,0,200,4192
146186,0,0,0,136,4256
146186,0,0,0,88,4304
146187,0,0,0,152,4240
146190,0,0,0,56,4336
146197,0,0,0,120,4272
146652,0,0,0,184,4208
146656,0,0,0,248,4144
146657,0,0,0,312,4080
146663,0,0,0,376,4016
146666,0,0,0,440,3952
146674,0,0,0,504,3888
146675,0,0,0,568,3824
146679,0,0,0,632,3760
146683,0,0,0,120,4272
146687,0,0,0,184,4208
146688,0,0,0,248,4144
146693,0,0,0,120,4272
152665,0,0,0,632,3760
152668,0,0,0,504,3888
152668,0,0,0,376,4016
152668,0,0,0,248,4144
152668,0,0,0,120,4272
153870,0,0,0,248,4144
153873,0,0,0,120,4272
153890,0,0,0,248,4144
154561,0,0,0,344,4048
157599,0,0,0,440,3952
157824,0,0,0,504,3888
157869,0,0,0,568,3824
157869,0,0,0,632,3760
157875,0,0,0,120,4272
158199,0,0,0,168,4224
158236,0,0,0,232,4160
158634,0,0,0,296,4096
158637,0,0,0,360,4032
158911,0,0,0,424,3968
159162,0,0,0,488,3904
159164,0,0,0,552,3840
159167,0,0,0,616,3776
159168,0,0,0,680,3712
159174,0,0,0,168,4224
159187,0,0,0,232,4160
159189,0,0,0,296,4096
159194,0,0,0,360,4032
159200,0,0,0,424,3968
159479,0,0,0,488,3904
159495,0,0,0,552,3840
159498,0,0,0,40,4352
159499,0,0,0,104,4288
159500,0,0,0,168,4224
159500,0,0,0,232,4160
159508,0,0,0,168,4224
159508,0,0,0,104,4288
159508,0,0,0,40,4352
160784,0,0,0,104,4288
160787,0,0,0,40,4352
164141,0,0,0,168,4224
164144,0,0,0,104,4288
164144,0,0,0,40,4352
164212,0,0,0,168,4224
164215,0,0,0,104,4288
164215,0,0,0,40,4352
168784,0,0,0,552,3840
168787,0,0,0,488,3904
168787,0,0,0,424,3968
168787,0,0,0,360,4032
168787,0,0,0,296,4096
168787,0,0,0,232,4160
168787,0,0,0,168,4224
168787,0,0,0,104,4288
168787,0,0,0,40,4352
169351,0,0,0,168,4224
169354,0,0,0,104,4288
169354,0,0,0,40,4352
170053,0,0,0,552,3840
170056,0,0,0,488,3904
170056,0,0,0,424,3968
170056,0,0,0,376,4016
170056,0,0,0,280,4112
170056,0,0,0,216,4176
170056,0,0,0,152,4240
170056,0,0,0,88,4304
170056,0,0,0,24,4368
170382,0,0,0,536,3856
170385,0,0,0,472,3920
170385,0,0,0,408,3984
170385,0,0,0,344,4048
170385,0,0,0,280,4112
170385,0,0,0,216,4176
170385,0,0,0,152,4240
170385,0,0,0,24,4368
173985,0,0,0,88,4304
173988,0,0,0,40,4352
174362,0,0,0,168,4224
174365,0,0,0,40,4352
174376,0,0,0,168,4224
174378,0,0,0,296,4096
174379,0,0,0,424,3968
174385,0,0,0,328,4064
174385,0,0,0,200,4192
174385,0,0,0,72,4320
174894,0,0,0,136,4256
174897,0,0,0,8,4384
174899,0,0,0,72,4320
175261,0,0,0,136,4256
175264,0,0,0,8,4384
175466,0,0,0,520,3872
175469,0,0,0,456,3936
175469,0,0,0,392,4000
175469,0,0,0,328,4064
175469,0,0,0,264,4128
175469,0,0,0,200,4192
175469,0,0,0,136,4256
175469,0,0,0,72,4320
175469,0,0,0,8,4384
175564,0,0,0,136,4256
175567,0,0,0,72,4320
175567,0,0,0,8,4384
176411,0,0,0,520,3872
176414,0,0,0,392,4000
176414,0,0,0,328,4064
176414,0,0,0,200,4192
176414,0,0,0,72,4320
178637,0,0,0,136,4256
178638,0,0,0,200,4192
178643,0,0,0,72,4320
178643,0,0,0,24,4368
178711,0,0,0,88,4304
179635,0,0,0,152,4240
179638,0,0,0,56,4336
181122,0,0,0,152,4240
181125,0,0,0,88,4304
181125,0,0,0,24,4368
181998,0,0,0,72,4320
182001,0,0,0,8,4384
183265,0,0,0,72,4320
183268,0,0,0,8,4384
183280,0,0,0,72,4320
183282,0,0,0,136,4256
183284,0,0,0,200,4192
183289,0,0,0,136,4256
183289,0,0,0,72,4320
183289,0,0,0,8,4384
183299,0,0,0,72,4320
183300,0,0,0,136,4256
183305,0,0,0,72,4320
183305,0,0,0,8,4384
183845,0,0,0,72,4320
183848,0,0,0,8,4384
183866,0,0,0,72,4320
183869,0,0,0,8,4384
184230,0,0,0,72,4320
184233,0,0,0,8,4384
184367,0,0,0,72,4320
184370,0,0,0,8,4384
184534,0,0,0,72,4320
184537,0,0,0,8,4384
184548,0,0,0,72,4320
184549,0,0,0,136,4256
184552,0,0,0,200,4192
184557,0,0,0,136,4256
184557,0,0,0,72,4320
184557,0,0,0,8,4384
184573,0,0,0,72,4320
184576,0,0,0,8,4384
184883,0,0,0,72,4320
184883,0,0,0,136,4256
184883,0,0,0,200,4192
184892,0,0,0,136,4256
184892,0,0,0,72,4320
184902,0,0,0,136,4256
184904,0,0,0,200,4192
184906,0,0,0,264,4128
184911,0,0,0,136,4256
184911,0,0,0,88,4304
185451,0,0,0,152,4240
185454,0,0,0,24,4368
185569,0,0,0,72,4320
186342,0,0,0,168,4224
186345,0,0,0,40,4352
189939,0,0,0,104,4288
189940,0,0,0,168,4224
189942,0,0,0,232,4160
189948,0,0,0,104,4288
189950,0,0,0,168,4224
189953,0,0,0,40,4352
189966,0,0,0,104,4288
189974,0,0,0,200,4192
189977,0,0,0,72,4320
190543,0,0,0,120,4272
190546,0,0,0,24,4368
190877,0,0,0,88,4304
190888,0,0,0,152,4240
190890,0,0,0,216,4176
190891,0,0,0,728,3664
190897,0,0,0,600,3792
190897,0,0,0,552,3840
190897,0,0,0,456,3936
190928,0,0,0,520,3872
190931,0,0,0,8,4384
191007,0,0,0,72,4320
191148,0,0,0,136,4256
192384,0,0,0,264,4128
195599,0,0,0,328,4064
195619,0,0,0,392,4000
196092,0,0,0,520,3872
196095,0,0,0,8,4384
196110,0,0,0,136,4256
196113,0,0,0,72,4320
196113,0,0,0,8,4384
196449,0,0,0,56,4336
196497,0,0,0,120,4272
196500,0,0,0,56,4336
196622,0,0,0,184,4208
196625,0,0,0,120,4272
196625,0,0,0,56,4336
196988,0,0,0,184,4208
196991,0,0,0,120,4272
196991,0,0,0,56,4336
197202,0,0,0,184,4208
197205,0,0,0,120,4272
197205,0,0,0,56,4336
197761,0,0,0,120,4272
197764,0,0,0,56,4336
197781,0,0,0,120,4272
197784,0,0,0,56,4336
197800,0,0,0,120,4272
197802,0,0,0,184,4208
197805,0,0,0,312,4080
197809,0,0,0,248,4144
197809,0,0,0,184,4208
197809,0,0,0,120,4272
197809,0,0,0,56,4336
197817,0,0,0,120,4272
197818,0,0,0,184,4208
197823,0,0,0,120,4272
197823,0,0,0,56,4336
198106,0,0,0,184,4208
198108,0,0,0,312,4080
198112,0,0,0,248,4144
198112,0,0,0,184,4208
198112,0,0,0,56,4336
198116,0,0,0,184,4208
198320,0,0,0,248,4144
198361,0,0,0,312,4080
198739,0,0,0,376,4016
198867,0,0,0,440,3952
199052,0,0,0,504,3888
199091,0,0,0,568,3824
199093,0,0,0,632,3760
199097,0,0,0,696,3696
199100,0,0,0,184,4208
199100,0,0,0,56,4336
199110,0,0,0,120,4272
199387,0,0,0,184,4208
199390,0,0,0,56,4336
199429,0,0,0,120,4272
201125,0,0,0,216,4176
201128,0,0,0,88,4304
201479,0,0,0,184,4208
201482,0,0,0,56,4336
202174,0,0,0,104,4288
206619,0,0,0,232,4160
206622,0,0,0,104,4288
206622,0,0,0,8,4384
206970,0,0,0,520,3872
206973,0,0,0,264,4128
206973,0,0,0,136,4256
207165,0,0,0,264,4128
208041,0,0,0,392,4000
209030,0,0,0,904,3488
209033,0,0,0,392,4000
209033,0,0,0,264,4128
210617,0,0,0,328,4064
210636,0,0,0,392,4000
211023,0,0,0,456,3936
211108,0,0,0,520,3872
211147,0,0,0,584,3808
211473,0,0,0,648,3744
211513,0,0,0,712,3680
211648,0,0,0,840,3552
211667,0,0,0,968,3424
211685,0,0,0,1096,3296
211688,0,0,0,72,4320
211745,0,0,0,136,4256
211748,0,0,0,200,4192
211984,0,0,0,328,4064
212246,0,0,0,392,4000
212275,0,0,0,456,3936
212292,0,0,0,520,3872
212294,0,0,0,584,3808
212311,0,0,0,648,3744
212312,0,0,0,712,3680
212323,0,0,0,776,3616
212325,0,0,0,840,3552
212631,0,0,0,904,3488
212632,0,0,0,968,3424
217175,0,0,0,1480,2912
217178,0,0,0,456,3936
218624,0,0,0,552,3840
219790,0,0,0,680,3712
220811,0,0,0,808,3584
221096,0,0,0,936,3456
221611,0,0,0,1064,3328
221614,0,0,0,40,4352
222402,0,0,0,296,4096
222405,0,0,0,200,4192
223163,0,0,0,328,4064
223726,0,0,0,456,3936
223729,0,0,0,72,4320
225925,0,0,0,584,3808
225928,0,0,0,200,4192
225928,0,0,0,136,4256
225928,0,0,0,72,4320
225928,0,0,0,8,4384
228329,0,0,0,136,4256
228332,0,0,0,72,4320
228332,0,0,0,8,4384
229435,0,0,0,136,4256
229438,0,0,0,72,4320
229438,0,0,0,8,4384
233281,0,0,0,104,4288
233284,0,0,0,8,4384
240402,0,0,0,72,4320
240424,0,0,0,136,4256
241337,0,0,0,200,4192
242817,0,0,0,264,4128
242831,0,0,0,328,4064
243592,0,0,0,424,3968
243935,0,0,0,488,3904
243959,0,0,0,552,3840
243962,0,0,0,40,4352
255776,0,0,0,552,3840
255779,0,0,0,424,3968
255779,0,0,0,296,4096
255779,0,0,0,200,4192
255779,0,0,0,136,4256
255779,0,0,0,72,4320
255779,0,0,0,8,4384
255927,0,0,0,1032,3360
255930,0,0,0,968,3424
255930,0,0,0,904,3488
255930,0,0,0,840,3552
255930,0,0,0,776,3616
255930,0,0,0,712,3680
255930,0,0,0,648,3744
255930,0,0,0,584,3808
255930,0,0,0,520,3872
255930,0,0,0,456,3936
255930,0,0,0,392,4000
255930,0,0,0,328,4064
255930,0,0,0,264,4128
255930,0,0,0,200,4192
255930,0,0,0,136,4256
255930,0,0,0,72,4320
255930,0,0,0,8,4384
261502,0,0,0,1032,3360
261505,0,0,0,904,3488
261505,0,0,0,648,3744
261505,0,0,0,520,3872
261505,0,0,0,392,4000
261505,0,0,0,264,4128
261505,0,0,0,136,4256
261505,0,0,0,8,4384
265844,0,0,0,1032,3360
265847,0,0,0,904,3488
265847,0,0,0,648,3744
265847,0,0,0,552,3840
265847,0,0,0,488,3904
265847,0,0,0,424,3968
265847,0,0,0,360,4032
265847,0,0,0,296,4096
265847,0,0,0,232,4160
265847,0,0,0,168,4224
265847,0,0,0,104,4288
265847,0,0,0,40,4352
267193,0,0,0,136,4256
267196,0,0,0,72,4320
267196,0,0,0,8,4384
268075,0,0,0,392,4000
268078,0,0,0,328,4064
268078,0,0,0,264,4128
268078,0,0,0,200,4192
268078,0,0,0,136,4256
268078,0,0,0,72,4320
270168,0,0,0,456,3936
270252,0,0,0,520,3872
270259,0,0,0,584,3808
270262,0,0,0,56,4336
270262,0,0,0,32,4360
270262,0,0,0,8,4384
270284,0,0,0,72,4320
270287,0,0,0,48,4344
270287,0,0,0,24,4368
270396,0,0,0,88,4304
270407,0,0,0,152,4240
270407,0,0,0,216,4176
270413,0,0,0,120,4272
270413,0,0,0,96,4296
270413,0,0,0,72,4320
270413,0,0,0,48,4344
270413,0,0,0,24,4368
270415,0,0,0,88,4304
270419,0,0,0,152,4240
270422,0,0,0,24,4368
270426,0,0,0,88,4304
270426,0,0,0,152,4240
270429,0,0,0,216,4176
270429,0,0,0,280,4112
270431,0,0,0,344,4048
270438,0,0,0,408,3984
270439,0,0,0,472,3920
270446,0,0,0,536,3856
270447,0,0,0,600,3792
270448,0,0,0,664,3728
270456,0,0,0,536,3856
270459,0,0,0,600,3792
275856,0,0,0,856,3536
276379,0,0,0,952,3440
276393,0,0,0,1208,3184
276396,0,0,0,184,4208
277465,0,0,0,312,4080
278388,0,0,0,440,3952
280328,0,0,0,504,3888
280332,0,0,0,568,3824
280336,0,0,0,632,3760
280336,0,0,0,696,3696
280338,0,0,0,760,3632
280338,0,0,0,824,3568
280350,0,0,0,888,3504
280355,0,0,0,952,3440
281162,0,0,0,1048,3344
281165,0,0,0,24,4368
281682,0,0,0,88,4304
281686,0,0,0,152,4240
282565,0,0,0,216,4176
282568,0,0,0,280,4112
282570,0,0,0,344,4048
282592,0,0,0,408,3984
282594,0,0,0,472,3920
283203,0,0,0,600,3792
283208,0,0,0,728,3664
283219,0,0,0,856,3536
284143,0,0,0,984,3408
284146,0,0,0,1112,3280
284149,0,0,0,88,4304
284150,0,0,0,216,4176
284153,0,0,0,88,4304
284175,0,0,0,112,4280
284195,0,0,0,136,4256
284198,0,0,0,8,4384
284217,0,0,0,32,4360
284283,0,0,0,56,4336
284324,0,0,0,80,4312
284364,0,0,0,104,4288
284383,0,0,0,128,4264
284385,0,0,0,152,4240
284389,0,0,0,24,4368
288484,0,0,0,152,4240
288487,0,0,0,24,4368
288568,0,0,0,152,4240
288571,0,0,0,24,4368
291077,0,0,0,152,4240
291080,0,0,0,24,4368
302876,0,0,0,1048,3344
302879,0,0,0,984,3408
302879,0,0,0,920,3472
302879,0,0,0,856,3536
302879,0,0,0,792,3600
302879,0,0,0,728,3664
302879,0,0,0,664,3728
302879,0,0,0,600,3792
302879,0,0,0,536,3856
302879,0,0,0,472,3920
302879,0,0,0,408,3984
302879,0,0,0,344,4048
302879,0,0,0,280,4112
302879,0,0,0,216,4176
302879,0,0,0,152,4240
302879,0,0,0,88,4304
302879,0,0,0,24,4368
305862,0,0,0,152,4240
305865,0,0,0,88,4304
305865,0,0,0,24,4368
306094,0,0,0,152,4240
306097,0,0,0,88,4304
306821,0,0,0,216,4176
306824,0,0,0,120,4272
310189,0,0,0,248,4144
310192,0,0,0,56,4336
310275,0,0,0,184,4208
310278,0,0,0,120,4272
310278,0,0,0,56,4336
312782,0,0,0,184,4208
312785,0,0,0,120,4272
312785,0,0,0,56,4336
313534,0,0,0,584,3808
313537,0,0,0,520,3872
313537,0,0,0,456,3936
313537,0,0,0,392,4000
313537,0,0,0,328,4064
313537,0,0,0,264,4128
313537,0,0,0,200,4192
313537,0,0,0,136,4256
313537,0,0,0,72,4320
313537,0,0,0,8,4384
317358,0,0,0,72,4320
317361,0,0,0,8,4384
317363,0,0,0,72,4320
317367,0,0,0,136,4256
317370,0,0,0,8,4384
317371,0,0,0,72,4320
317373,0,0,0,136,4256
317377,0,0,0,200,4192
317377,0,0,0,264,4128
317377,0,0,0,328,4064
317379,0,0,0,392,4000
317389,0,0,0,368,4024
317389,0,0,0,344,4048
317389,0,0,0,320,4072
317389,0,0,0,296,4096
317389,0,0,0,272,4120
317389,0,0,0,248,4144
317389,0,0,0,224,4168
317389,0,0,0,200,4192
317389,0,0,0,104,4288
317391,0,0,0,168,4224
317394,0,0,0,232,4160
317394,0,0,0,296,4096
317400,0,0,0,168,4224
317400,0,0,0,104,4288
317400,0,0,0,40,4352
317407,0,0,0,104,4288
317410,0,0,0,168,4224
317412,0,0,0,232,4160
317416,0,0,0,168,4224
317416,0,0,0,104,4288
317615,0,0,0,200,4192
317618,0,0,0,72,4320
318301,0,0,0,136,4256
318304,0,0,0,8,4384
320344,0,0,0,72,4320
320364,0,0,0,136,4256
320367,0,0,0,8,4384
320616,0,0,0,72,4320
320753,0,0,0,1096,3296
320756,0,0,0,968,3424
320756,0,0,0,840,3552
320756,0,0,0,816,3576
320756,0,0,0,792,3600
320756,0,0,0,768,3624
320756,0,0,0,744,3648
320756,0,0,0,720,3672
320756,0,0,0,696,3696
320756,0,0,0,672,3720
320756,0,0,0,648,3744
320756,0,0,0,552,3840
320756,0,0,0,488,3904
320756,0,0,0,424,3968
320756,0,0,0,360,4032
320756,0,0,0,296,4096
320756,0,0,0,232,4160
320756,0,0,0,168,4224
320756,0,0,0,104,4288
320756,0,0,0,40,4352
320756,0,0,0,16,4376
323222,0,0,0,1040,3352
323225,0,0,0,912,3480
323225,0,0,0,888,3504
323225,0,0,0,864,3528
323225,0,0,0,840,3552
323225,0,0,0,712,3680
323225,0,0,0,584,3808
324776,0,0,0,648,3744
324776,0,0,0,712,3680
327270,0,0,0,776,3616
327308,0,0,0,840,3552
328011,0,0,0,904,3488
328026,0,0,0,968,3424
328037,0,0,0,1032,3360
328040,0,0,0,1096,3296
328043,0,0,0,72,4320
328043,0,0,0,8,4384
328056,0,0,0,72,4320
328059,0,0,0,8,4384
328063,0,0,0,104,4288
328066,0,0,0,40,4352
328941,0,0,0,104,4288
328943,0,0,0,168,4224
328947,0,0,0,104,4288
328947,0,0,0,40,4352
329118,0,0,0,104,4288
329121,0,0,0,40,4352
329219,0,0,0,104,4288
329222,0,0,0,40,4352
331335,0,0,0,64,4328
331338,0,0,0,0,4392
331349,0,0,0,24,4368
331352,0,0,0,48,4344
331364,0,0,0,72,4320
331368,0,0,0,96,4296
331386,0,0,0,120,4272
331387,0,0,0,144,4248
331392,0,0,0,16,4376
331434,0,0,0,40,4352
331863,0,0,0,104,4288
331884,0,0,0,168,4224
331887,0,0,0,40,4352
331900,0,0,0,104,4288
331903,0,0,0,168,4224
331906,0,0,0,40,4352
331913,0,0,0,104,4288
332914,0,0,0,296,4096
332917,0,0,0,168,4224
332917,0,0,0,40,4352
334725,0,0,0,64,4328
334766,0,0,0,88,4304
334932,0,0,0,112,4280
335236,0,0,0,176,4216
335239,0,0,0,48,4344
335248,0,0,0,112,4280
335251,0,0,0,48,4344
335253,0,0,0,112,4280
335256,0,0,0,176,4216
335256,0,0,0,240,4152
335257,0,0,0,304,4088
335258,0,0,0,368,4024
335260,0,0,0,392,4000
335260,0,0,0,488,3904
335265,0,0,0,512,3880
335277,0,0,0,448,3944
335277,0,0,0,384,4008
335277,0,0,0,320,4072
335277,0,0,0,256,4136
335277,0,0,0,192,4200
335277,0,0,0,128,4264
335277,0,0,0,64,4328
335277,0,0,0,0,4392
335281,0,0,0,24,4368
335281,0,0,0,48,4344
335676,0,0,0,72,4320
335679,0,0,0,8,4384
335695,0,0,0,32,4360
336159,0,0,0,96,4296
336162,0,0,0,32,4360
336644,0,0,0,160,4232
336647,0,0,0,96,4296
336647,0,0,0,32,4360
337203,0,0,0,56,4336
337265,0,0,0,80,4312
337301,0,0,0,104,4288
339107,0,0,0,232,4160
339415,0,0,0,296,4096
339421,0,0,0,360,4032
340012,0,0,0,488,3904
340205,0,0,0,552,3840
340208,0,0,0,24,4368
340228,0,0,0,88,4304
340245,0,0,0,216,4176
340248,0,0,0,88,4304
340362,0,0,0,152,4240
340500,0,0,0,216,4176
340912,0,0,0,280,4112
342072,0,0,0,408,3984
342075,0,0,0,24,4368
342457,0,0,0,152,4240
342475,0,0,0,280,4112
342499,0,0,0,344,4048
343498,0,0,0,472,3920
343501,0,0,0,88,4304
343501,0,0,0,24,4368
344844,0,0,0,152,4240
344847,0,0,0,88,4304
344847,0,0,0,24,4368
344867,0,0,0,152,4240
344870,0,0,0,88,4304
344870,0,0,0,24,4368
348782,0,0,0,88,4304
348785,0,0,0,24,4368
349754,0,0,0,88,4304
349755,0,0,0,152,4240
349755,0,0,0,216,4176
349756,0,0,0,280,4112
349764,0,0,0,344,4048
349769,0,0,0,280,4112
349769,0,0,0,216,4176
349769,0,0,0,152,4240
349769,0,0,0,88,4304
349769,0,0,0,24,4368
349780,0,0,0,88,4304
349783,0,0,0,24,4368
349793,0,0,0,88,4304
349796,0,0,0,24,4368
349815,0,0,0,88,4304
349818,0,0,0,24,4368
349925,0,0,0,88,4304
349928,0,0,0,24,4368
350158,0,0,0,88,4304
350161,0,0,0,24,4368
350694,0,0,0,88,4304
350697,0,0,0,24,4368
352038,0,0,0,88,4304
352041,0,0,0,24,4368
353103,0,0,0,152,4240
353106,0,0,0,88,4304
353106,0,0,0,24,4368
353619,0,0,0,152,4240
353622,0,0,0,88,4304
353622,0,0,0,24,4368
354528,0,0,0,152,4240
354531,0,0,0,88,4304
354531,0,0,0,24,4368
354610,0,0,0,152,4240
354610,0,0,0,280,4112
354616,0,0,0,216,4176
354616,0,0,0,152,4240
354616,0,0,0,24,4368
356944,0,0,0,152,4240
356947,0,0,0,24,4368
358897,0,0,0,88,4304
359319,0,0,0,152,4240
359322,0,0,0,24,4368
359356,0,0,0,88,4304
361159,0,0,0,216,4176
361162,0,0,0,116,4276
362884,0,0,0,180,4212
362887,0,0,0,52,4340
363290,0,0,0,116,4276
364269,0,0,0,180,4212
364271,0,0,0,244,4148
364275,0,0,0,116,4276
364310,0,0,0,180,4212
364313,0,0,0,52,4340
364407,0,0,0,116,4276
364653,0,0,0,180,4212
364656,0,0,0,52,4340
364656,0,0,0,28,4364
364656,0,0,0,4,4388
365214,0,0,0,68,4324
365217,0,0,0,44,4348
365217,0,0,0,20,4372
365220,0,0,0,84,4308
365220,0,0,0,148,4244
365226,0,0,0,124,4268
365226,0,0,0,100,4292
365226,0,0,0,76,4316
365226,0,0,0,52,4340
365352,0,0,0,116,4276
365355,0,0,0,52,4340
366526,0,0,0,116,4276
366529,0,0,0,52,4340
366529,0,0,0,36,4356
366547,0,0,0,100,4292
367595,0,0,0,164,4228
367598,0,0,0,36,4356
367600,0,0,0,100,4292
368108,0,0,0,164,4228
368109,0,0,0,228,4164
368114,0,0,0,100,4292
369014,0,0,0,164,4228
369017,0,0,0,36,4356
369021,0,0,0,100,4292
372052,0,0,0,200,4192
372055,0,0,0,72,4320
372250,0,0,0,1096,3296
372253,0,0,0,968,3424
372253,0,0,0,904,3488
372253,0,0,0,840,3552
372253,0,0,0,776,3616
372253,0,0,0,712,3680
372253,0,0,0,648,3744
372253,0,0,0,584,3808
372253,0,0,0,520,3872
372253,0,0,0,456,3936
372253,0,0,0,392,4000
372253,0,0,0,328,4064
372253,0,0,0,304,4088
372253,0,0,0,176,4216
372253,0,0,0,152,4240
372253,0,0,0,128,4264
372253,0,0,0,104,4288
372253,0,0,0,80,4312
372253,0,0,0,56,4336
372253,0,0,0,32,4360
372253,0,0,0,8,4384
372387,0,0,0,72,4320
372390,0,0,0,8,4384
373748,0,0,0,72,4320
373751,0,0,0,8,4384
376307,0,0,0,136,4256
376310,0,0,0,8,4384
376322,0,0,0,72,4320
376342,0,0,0,136,4256
376345,0,0,0,8,4384
377388,0,0,0,32,4360
377523,0,0,0,56,4336
377944,0,0,0,80,4312
377985,0,0,0,104,4288
377992,0,0,0,128,4264
377995,0,0,0,0,4392
377997,0,0,0,24,4368
378048,0,0,0,48,4344
378674,0,0,0,176,4216
378677,0,0,0,48,4344
379208,0,0,0,72,4320
381011,0,0,0,88,4304
381943,0,0,0,216,4176
381946,0,0,0,88,4304
381946,0,0,0,24,4368
383487,0,0,0,552,3840
383490,0,0,0,488,3904
383490,0,0,0,424,3968
383490,0,0,0,360,4032
383490,0,0,0,328,4064
383490,0,0,0,264,4128
383490,0,0,0,200,4192
383490,0,0,0,136,4256
383490,0,0,0,72,4320
383490,0,0,0,8,4384
384953,0,0,0,32,4360
384955,0,0,0,56,4336
384976,0,0,0,80,4312
384979,0,0,0,16,4376
385015,0,0,0,40,4352
385049,0,0,0,64,4328
385050,0,0,0,88,4304
385055,0,0,0,24,4368
385071,0,0,0,48,4344
385071,0,0,0,72,4320
385077,0,0,0,8,4384
385369,0,0,0,392,4000
385372,0,0,0,328,4064
385372,0,0,0,264,4128
385372,0,0,0,200,4192
385372,0,0,0,136,4256
385372,0,0,0,72,4320
385372,0,0,0,8,4384
385526,0,0,0,136,4256
385529,0,0,0,72,4320
385529,0,0,0,8,4384
385568,0,0,0,136,4256
385571,0,0,0,72,4320
385571,0,0,0,8,4384
385971,0,0,0,136,4256
385974,0,0,0,72,4320
385974,0,0,0,8,4384
386008,0,0,0,136,4256
386011,0,0,0,112,4280
386011,0,0,0,88,4304
386011,0,0,0,64,4328
386011,0,0,0,40,4352
386011,0,0,0,16,4376
387065,0,0,0,80,4312
387068,0,0,0,56,4336
387068,0,0,0,32,4360
387068,0,0,0,8,4384
387725,0,0,0,392,4000
387728,0,0,0,328,4064
387728,0,0,0,264,4128
387728,0,0,0,200,4192
387728,0,0,0,136,4256
387728,0,0,0,8,4384
388217,0,0,0,72,4320
389301,0,0,0,200,4192
389816,0,0,0,328,4064
390716,0,0,0,456,3936
390719,0,0,0,72,4320
393761,0,0,0,200,4192
393935,0,0,0,264,4128
393937,0,0,0,328,4064
393939,0,0,0,392,4000
393939,0,0,0,456,3936
393940,0,0,0,520,3872
393941,0,0,0,584,3808
393941,0,0,0,648,3744
393941,0,0,0,712,3680
393947,0,0,0,776,3616
393949,0,0,0,904,3488
393950,0,0,0,968,3424
393962,0,0,0,1096,3296
393971,0,0,0,712,3680
393971,0,0,0,648,3744
393971,0,0,0,584,3808
393971,0,0,0,552,3840
393971,0,0,0,528,3864
393971,0,0,0,512,3880
393971,0,0,0,488,3904
393971,0,0,0,464,3928
393971,0,0,0,440,3952
393971,0,0,0,416,3976
393971,0,0,0,392,4000
393971,0,0,0,368,4024
393971,0,0,0,240,4152
393971,0,0,0,112,4280
394079,0,0,0,176,4216
394082,0,0,0,48,4344
395432,0,0,0,112,4280
397969,0,0,0,176,4216
397972,0,0,0,48,4344
397972,0,0,0,32,4360
397978,0,0,0,64,4328
397981,0,0,0,0,4392
397991,0,0,0,64,4328
397992,0,0,0,128,4264
397994,0,0,0,192,4200
397994,0,0,0,256,4136
398001,0,0,0,384,4008
398006,0,0,0,352,4040
398006,0,0,0,288,4104
398006,0,0,0,264,4128
398006,0,0,0,136,4256
398006,0,0,0,72,4320
398006,0,0,0,8,4384
398046,0,0,0,136,4256
398049,0,0,0,104,4288
398721,0,0,0,128,4264
398761,0,0,0,152,4240
398762,0,0,0,176,4216
398765,0,0,0,200,4192
398841,0,0,0,224,4168
398854,0,0,0,288,4104
399483,0,0,0,352,4040
399560,0,0,0,416,3976
399579,0,0,0,480,3912
399700,0,0,0,608,3784
399819,0,0,0,632,3760
399840,0,0,0,656,3736
399840,0,0,0,680,3712
399859,0,0,0,744,3648
399869,0,0,0,808,3584
399872,0,0,0,8,4384
399875,0,0,0,72,4320
399875,0,0,0,136,4256
399876,0,0,0,200,4192
399884,0,0,0,136,4256
399884,0,0,0,72,4320
399884,0,0,0,8,4384
400031,0,0,0,72,4320
400032,0,0,0,136,4256
400037,0,0,0,72,4320
400071,0,0,0,136,4256
400072,0,0,0,200,4192
400077,0,0,0,72,4320
400077,0,0,0,56,4336
400381,0,0,0,184,4208
400384,0,0,0,120,4272
400384,0,0,0,96,4296
400384,0,0,0,32,4360
400384,0,0,0,8,4384
400474,0,0,0,72,4320
400476,0,0,0,136,4256
400480,0,0,0,112,4280
400480,0,0,0,88,4304
400480,0,0,0,64,4328
400480,0,0,0,40,4352
400480,0,0,0,16,4376
403641,0,0,0,80,4312
403643,0,0,0,208,4184
403647,0,0,0,184,4208
403647,0,0,0,56,4336
404497,0,0,0,72,4320
405171,0,0,0,136,4256
405172,0,0,0,200,4192
405177,0,0,0,72,4320
405177,0,0,0,40,4352
405181,0,0,0,104,4288
406709,0,0,0,128,4264
406712,0,0,0,0,4392
406715,0,0,0,24,4368
406733,0,0,0,48,4344
406738,0,0,0,72,4320
406756,0,0,0,96,4296
406814,0,0,0,120,4272
406816,0,0,0,144,4248
406820,0,0,0,16,4376
408459,0,0,0,48,4344
409402,0,0,0,112,4280
409405,0,0,0,48,4344
409408,0,0,0,112,4280
409408,0,0,0,176,4216
409414,0,0,0,112,4280
409436,0,0,0,240,4152
409439,0,0,0,112,4280
410370,0,0,0,176,4216
410373,0,0,0,48,4344
410716,0,0,0,72,4320
410719,0,0,0,8,4384
412452,0,0,0,24,4368
412481,0,0,0,56,4336
412572,0,0,0,88,4304
412575,0,0,0,24,4368
413145,0,0,0,48,4344
413203,0,0,0,72,4320
413206,0,0,0,8,4384
413237,0,0,0,32,4360
413277,0,0,0,56,4336
413279,0,0,0,80,4312
413283,0,0,0,104,4288
413286,0,0,0,40,4352
413314,0,0,0,64,4328
414347,0,0,0,128,4264
414350,0,0,0,0,4392
415645,0,0,0,64,4328
415648,0,0,0,0,4392
415660,0,0,0,128,4264
415660,0,0,0,256,4136
415666,0,0,0,192,4200
415666,0,0,0,128,4264
415666,0,0,0,64,4328
415788,0,0,0,192,4200
415900,0,0,0,128,4264
415901,0,0,0,64,4328
415998,0,0,0,864,3528
416266,0,0,0,736,3656
416469,0,0,0,760,3632
416530,0,0,0,824,3568
417783,0,0,0,696,3696
418544,0,0,0,568,3824
419644,0,0,0,696,3696
419659,0,0,0,760,3632
419683,0,0,0,824,3568
419685,0,0,0,888,3504
419702,0,0,0,1016,3376
419918,0,0,0,888,3504
420283,0,0,0,760,3632
420986,0,0,0,632,3760
421306,0,0,0,568,3824
421307,0,0,0,504,3888
421567,0,0,0,568,3824
421567,0,0,0,632,3760
421568,0,0,0,696,3696
421718,0,0,0,760,3632
421772,0,0,0,776,3616
421777,0,0,0,904,3488
422066,0,0,0,968,3424
422069,0,0,0,1032,3360
424132,0,0,0,1008,3384
424169,0,0,0,984,3408
424176,0,0,0,1112,3280
424249,0,0,0,1088,3304
424286,0,0,0,1064,3328
424330,0,0,0,1040,3352
424445,0,0,0,1016,3376
424503,0,0,0,992,3400
424702,0,0,0,968,3424
426860,0,0,0,1000,3392
426874,0,0,0,1128,3264
428411,0,0,0,1256,3136
428509,0,0,0,1384,3008
428516,0,0,0,1320,3072
428517,0,0,0,1256,3136
429729,0,0,0,1192,3200
429730,0,0,0,1128,3264
429733,0,0,0,1000,3392
431085,0,0,0,1064,3328
431111,0,0,0,1128,3264
431129,0,0,0,1256,3136
432038,0,0,0,1320,3072
432046,0,0,0,1448,2944
432410,0,0,0,1512,2880
434003,0,0,0,1896,2496
434256,0,0,0,1960,2432
434310,0,0,0,1832,2560
434340,0,0,0,1960,2432
434899,0,0,0,2024,2368
434981,0,0,0,2088,2304
435735,0,0,0,2024,2368
436051,0,0,0,2152,2240
436909,0,0,0,2176,2216
436969,0,0,0,2200,2192
437006,0,0,0,2224,2168
437068,0,0,0,2248,2144
437132,0,0,0,2272,2120
437206,0,0,0,2296,2096
437263,0,0,0,2320,2072
437273,0,0,0,2704,1688
437349,0,0,0,2768,1624
437352,0,0,0,2832,1560
437353,0,0,0,2896,1496
437359,0,0,0,2960,1432
437501,0,0,0,2984,1408
437548,0,0,0,2920,1472
437549,0,0,0,2856,1536
437578,0,0,0,2920,1472
437584,0,0,0,2984,1408
438446,0,0,0,2960,1432
438472,0,0,0,2936,1456
438505,0,0,0,2912,1480
438530,0,0,0,2888,1504
438568,0,0,0,2864,1528
438603,0,0,0,2840,1552
438648,0,0,0,2816,1576
438702,0,0,0,2792,1600
439489,0,0,0,2920,1472
439802,0,0,0,2792,1600
440246,0,0,0,2920,1472
440903,0,0,0,2792,1600
440936,0,0,0,2760,1632
440981,0,0,0,2744,1648
441614,0,0,0,2872,1520
441976,0,0,0,3000,1392
442018,0,0,0,2872,1520
442409,0,0,0,2744,1648
442676,0,0,0,2872,1520
442989,0,0,0,2936,1456
443183,0,0,0,2808,1584
445006,0,0,0,2872,1520
447089,0,0,0,2936,1456
447478,0,0,0,3000,1392
447676,0,0,0,3064,1328
447792,0,0,0,3128,1264
448411,0,0,0,3096,1296
448627,0,0,0,3032,1360
448653,0,0,0,3016,1376
448772,0,0,0,2984,1408
450024,0,0,0,2600,1792
450085,0,0,0,2216,2176
450196,0,0,0,2280,2112
451214,0,0,0,2304,2088
451256,0,0,0,2328,2064
451309,0,0,0,2352,2040
451314,0,0,0,2376,2016
451335,0,0,0,2400,1992
451429,0,0,0,2424,1968
451433,0,0,0,2552,1840
451472,0,0,0,2576,1816
451526,0,0,0,2600,1792
451715,0,0,0,2472,1920
452482,0,0,0,2448,1944
452519,0,0,0,2424,1968
452578,0,0,0,2400,1992
452634,0,0,0,2376,2016
452654,0,0,0,2352,2040
452673,0,0,0,2328,2064
452703,0,0,0,2304,2088
452731,0,0,0,2280,2112
453265,0,0,0,2344,2048
454148,0,0,0,2216,2176
454180,0,0,0,2344,2048
457897,0,0,0,2248,2144
458834,0,0,0,2280,2112
461508,0,0,0,2408,1984
461793,0,0,0,2024,2368
461910,0,0,0,1896,2496
462606,0,0,0,2024,2368
462623,0,0,0,2056,2336
462686,0,0,0,2072,2320
462982,0,0,0,1944,2448
463111,0,0,0,2008,2384
463158,0,0,0,2024,2368
463257,0,0,0,2056,2336
463725,0,0,0,2184,2208
464113,0,0,0,2312,2080
464412,0,0,0,2184,2208
464613,0,0,0,2120,2272
464782,0,0,0,1992,2400
464860,0,0,0,1960,2432
464875,0,0,0,2088,2304
465226,0,0,0,2112,2280
465286,0,0,0,2136,2256
465345,0,0,0,2160,2232
465385,0,0,0,2184,2208
465416,0,0,0,2208,2184
465421,0,0,0,2232,2160
465442,0,0,0,2256,2136
465508,0,0,0,2128,2264
465561,0,0,0,2152,2240
467632,0,0,0,2088,2304
467633,0,0,0,2024,2368
468766,0,0,0,1928,2464
468792,0,0,0,2024,2368
469448,0,0,0,1960,2432
469449,0,0,0,1896,2496
470053,0,0,0,1832,2560
470054,0,0,0,1768,2624
470055,0,0,0,1704,2688
470056,0,0,0,1640,2752
470660,0,0,0,1576,2816
470661,0,0,0,1512,2880
470696,0,0,0,1488,2904
470735,0,0,0,1464,2928
470756,0,0,0,1440,2952
470782,0,0,0,1416,2976
470814,0,0,0,1392,3000
470858,0,0,0,1368,3024
470891,0,0,0,1344,3048
470928,0,0,0,1320,3072
471849,0,0,0,1192,3200
471890,0,0,0,1176,3216
473405,0,0,0,1304,3088
473572,0,0,0,1176,3216
473590,0,0,0,1304,3088
473928,0,0,0,1176,3216
473929,0,0,0,1112,3280
473931,0,0,0,1048,3344
473932,0,0,0,984,3408
473934,0,0,0,920,3472
473945,0,0,0,856,3536
473947,0,0,0,792,3600
473949,0,0,0,728,3664
473966,0,0,0,664,3728
473970,0,0,0,600,3792
473991,0,0,0,536,3856
473993,0,0,0,472,3920
473995,0,0,0,408,3984
474010,0,0,0,344,4048
475987,0,0,0,408,3984
479246,0,0,0,504,3888
483464,0,0,0,528,3864
483467,0,0,0,16,4376
483481,0,0,0,40,4352
483499,0,0,0,64,4328
483581,0,0,0,88,4304
483609,0,0,0,112,4280
483612,0,0,0,16,4376
483620,0,0,0,144,4248
483679,0,0,0,168,4224
483692,0,0,0,192,4200
483721,0,0,0,216,4176
484680,0,0,0,344,4048
484683,0,0,0,88,4304
485332,0,0,0,472,3920
485335,0,0,0,344,4048
485335,0,0,0,320,4072
485335,0,0,0,296,4096
485335,0,0,0,272,4120
485335,0,0,0,248,4144
485384,0,0,0,312,4080
485387,0,0,0,56,4336
485387,0,0,0,32,4360
485387,0,0,0,8,4384
485860,0,0,0,72,4320
485863,0,0,0,48,4344
485863,0,0,0,24,4368
485943,0,0,0,88,4304
486102,0,0,0,216,4176
486363,0,0,0,232,4160
486482,0,0,0,360,4032
486542,0,0,0,392,4000
487209,0,0,0,520,3872
487212,0,0,0,8,4384
487824,0,0,0,72,4320
488276,0,0,0,136,4256
488279,0,0,0,8,4384
488415,0,0,0,72,4320
488426,0,0,0,136,4256
488429,0,0,0,8,4384
488471,0,0,0,72,4320
488472,0,0,0,136,4256
488475,0,0,0,200,4192
488476,0,0,0,264,4128
488478,0,0,0,328,4064
488486,0,0,0,200,4192
488486,0,0,0,72,4320
488486,0,0,0,40,4352
488489,0,0,0,104,4288
489317,0,0,0,168,4224
489333,0,0,0,232,4160
491155,0,0,0,296,4096
491175,0,0,0,360,4032
491729,0,0,0,424,3968
491742,0,0,0,488,3904
491759,0,0,0,552,3840
491777,0,0,0,616,3776
492349,0,0,0,680,3712
492350,0,0,0,744,3648
493327,0,0,0,1128,3264
493388,0,0,0,1512,2880
493543,0,0,0,1640,2752
494470,0,0,0,1736,2656
494520,0,0,0,1640,2752
494833,0,0,0,1768,2624
494853,0,0,0,1640,2752
495461,0,0,0,2152,2240
495526,0,0,0,2408,1984
495629,0,0,0,2536,1856
496273,0,0,0,2408,1984
496540,0,0,0,2344,2048
496541,0,0,0,2280,2112
497745,0,0,0,2216,2176
497746,0,0,0,2152,2240
497747,0,0,0,2088,2304
497748,0,0,0,2024,2368
498083,0,0,0,2048,2344
498096,0,0,0,2072,2320
498142,0,0,0,2096,2296
498147,0,0,0,2120,2272
498182,0,0,0,2144,2248
498228,0,0,0,2168,2224
498351,0,0,0,2104,2288
498352,0,0,0,2040,2352
498353,0,0,0,1976,2416
498354,0,0,0,1912,2480
498356,0,0,0,1848,2544
498357,0,0,0,1784,2608
498558,0,0,0,1808,2584
498642,0,0,0,1832,2560
499800,0,0,0,2088,2304
505095,0,0,0,1992,2400
505126,0,0,0,2088,2304
505761,0,0,0,1704,2688
505803,0,0,0,1320,3072
506967,0,0,0,1192,3200
507035,0,0,0,1320,3072
508379,0,0,0,1192,3200
508622,0,0,0,1168,3224
508655,0,0,0,1144,3248
508696,0,0,0,1120,3272
508718,0,0,0,1096,3296
508753,0,0,0,1072,3320
508782,0,0,0,1048,3344
508814,0,0,0,1024,3368
508872,0,0,0,1000,3392
509283,0,0,0,1512,2880
509971,0,0,0,1640,2752
510138,0,0,0,1768,2624
510158,0,0,0,1800,2592
510193,0,0,0,1928,2464
510195,0,0,0,2056,2336
511266,0,0,0,1928,2464
511267,0,0,0,1800,2592
511635,0,0,0,1672,2720
515148,0,0,0,1800,2592
515160,0,0,0,1672,2720
515929,0,0,0,1576,2816
515969,0,0,0,1672,2720
517963,0,0,0,1800,2592
518230,0,0,0,1864,2528
518244,0,0,0,1928,2464
519418,0,0,0,1992,2400
519435,0,0,0,2056,2336
519437,0,0,0,2120,2272
520024,0,0,0,2184,2208
520027,0,0,0,2248,2144
520040,0,0,0,2312,2080
520041,0,0,0,2376,2016
520046,0,0,0,2440,1952
520056,0,0,0,2504,1888
520204,0,0,0,2472,1920
520330,0,0,0,2536,1856
521333,0,0,0,2560,1832
521445,0,0,0,2584,1808
521592,0,0,0,2608,1784
521600,0,0,0,2632,1760
521633,0,0,0,2656,1736
522165,0,0,0,2144,2248
522437,0,0,0,2168,2224
522479,0,0,0,2192,2200
522516,0,0,0,2216,2176
522748,0,0,0,2152,2240
522765,0,0,0,2088,2304
522790,0,0,0,2024,2368
522791,0,0,0,1960,2432
522804,0,0,0,1896,2496
522851,0,0,0,1832,2560
522854,0,0,0,1768,2624
522869,0,0,0,1704,2688
522871,0,0,0,1640,2752
522885,0,0,0,1576,2816
522914,0,0,0,1512,2880
522924,0,0,0,1448,2944
522928,0,0,0,1384,3008
522931,0,0,0,1320,3072
522933,0,0,0,1256,3136
522950,0,0,0,1192,3200
522952,0,0,0,1128,3264
522954,0,0,0,1064,3328
524373,0,0,0,1040,3352
524402,0,0,0,1016,3376
524432,0,0,0,992,3400
524472,0,0,0,968,3424
524494,0,0,0,944,3448
524560,0,0,0,920,3472
524593,0,0,0,896,3496
526925,0,0,0,800,3592
526952,0,0,0,896,3496
527980,0,0,0,1280,3112
528004,0,0,0,1664,2728
528667,0,0,0,1792,2600
529869,0,0,0,1280,3112
530098,0,0,0,1408,2984
532966,0,0,0,1536,2856
532968,0,0,0,1664,2728
533358,0,0,0,1792,2600
533785,0,0,0,768,3624
534585,0,0,0,744,3648
535730,0,0,0,808,3584
536613,0,0,0,936,3456
537111,0,0,0,960,3432
537161,0,0,0,984,3408
537214,0,0,0,1008,3384
537250,0,0,0,1032,3360
537254,0,0,0,1096,3296
537272,0,0,0,1120,3272
537278,0,0,0,1184,3208
537278,0,0,0,1248,3144
537312,0,0,0,1312,3080
537337,0,0,0,1336,3056
537338,0,0,0,1360,3032
537577,0,0,0,1264,3128
537610,0,0,0,1360,3032
540255,0,0,0,1872,2520
540783,0,0,0,2384,2008
540995,0,0,0,2256,2136
541510,0,0,0,2320,2072
541892,0,0,0,2352,2040
542952,0,0,0,2328,2064
542977,0,0,0,2304,2088
542993,0,0,0,2280,2112
543056,0,0,0,2216,2176
543057,0,0,0,2152,2240
543058,0,0,0,2088,2304
543059,0,0,0,2024,2368
543060,0,0,0,1960,2432
543062,0,0,0,1896,2496
543073,0,0,0,1872,2520
543115,0,0,0,1848,2544
543195,0,0,0,1824,2568
543221,0,0,0,1800,2592
543663,0,0,0,1736,2656
543673,0,0,0,1672,2720
543674,0,0,0,1608,2784
543675,0,0,0,1544,2848
543676,0,0,0,1480,2912
543677,0,0,0,1416,2976
544279,0,0,0,1352,3040
544289,0,0,0,1288,3104
544290,0,0,0,1224,3168
544291,0,0,0,1160,3232
544292,0,0,0,1096,3296
544294,0,0,0,1032,3360
544567,0,0,0,1096,3296
544568,0,0,0,1160,3232
544587,0,0,0,1224,3168
544599,0,0,0,1288,3104
544608,0,0,0,1352,3040
544616,0,0,0,1416,2976
544616,0,0,0,1480,2912
544636,0,0,0,1544,2848
544652,0,0,0,1288,3104
544678,0,0,0,1352,3040
544865,0,0,0,1336,3056
544901,0,0,0,1272,3120
544902,0,0,0,1208,3184
545593,0,0,0,1176,3216
545598,0,0,0,1240,3152
545640,0,0,0,1304,3088
545783,0,0,0,1368,3024
546016,0,0,0,1304,3088
547483,0,0,0,1328,3064
548329,0,0,0,2352,2040
548426,0,0,0,1968,2424
548482,0,0,0,1584,2808
550647,0,0,0,1488,2904
550700,0,0,0,1584,2808
554837,0,0,0,1840,2552
556066,0,0,0,1328,3064
556122,0,0,0,1352,3040
556127,0,0,0,1376,3016
556160,0,0,0,1400,2992
556223,0,0,0,1424,2968
556297,0,0,0,1448,2944
556419,0,0,0,1472,2920
557183,0,0,0,1496,2896
557281,0,0,0,1624,2768
559310,0,0,0,1112,3280
559346,0,0,0,1128,3264
559585,0,0,0,616,3776
560337,0,0,0,592,3800
560361,0,0,0,568,3824
560396,0,0,0,544,3848
560436,0,0,0,520,3872
560476,0,0,0,496,3896
560501,0,0,0,560,3832
560514,0,0,0,536,3856
560555,0,0,0,512,3880
561361,0,0,0,608,3784
561539,0,0,0,584,3808
563763,0,0,0,488,3904
564743,0,0,0,552,3840
564745,0,0,0,616,3776
564747,0,0,0,680,3712
564763,0,0,0,744,3648
564770,0,0,0,808,3584
565349,0,0,0,872,3520
565349,0,0,0,936,3456
565351,0,0,0,1000,3392
565359,0,0,0,1064,3328
565362,0,0,0,40,4352
565397,0,0,0,104,4288
565866,0,0,0,168,4224
565969,0,0,0,232,4160
565971,0,0,0,296,4096
565975,0,0,0,360,4032
565979,0,0,0,424,3968
565980,0,0,0,488,3904
565987,0,0,0,552,3840
566539,0,0,0,616,3776
566586,0,0,0,680,3712
567274,0,0,0,712,3680
567532,0,0,0,776,3616
571186,0,0,0,1288,3104
573074,0,0,0,1312,3080
573099,0,0,0,1184,3208
573153,0,0,0,1208,3184
573199,0,0,0,1232,3160
573251,0,0,0,1256,3136
573253,0,0,0,1280,3112
573292,0,0,0,1304,3088
573313,0,0,0,1328,3064
574374,0,0,0,1352,3040
574649,0,0,0,1256,3136
574672,0,0,0,1352,3040
575050,0,0,0,1864,2528
577764,0,0,0,2376,2016
579122,0,0,0,2312,2080
579132,0,0,0,2248,2144
579133,0,0,0,2184,2208
579134,0,0,0,2120,2272
579135,0,0,0,2056,2336
579136,0,0,0,1992,2400
579589,0,0,0,1960,2432
579743,0,0,0,1896,2496
579744,0,0,0,1832,2560
581546,0,0,0,1768,2624
581547,0,0,0,1704,2688
582386,0,0,0,2088,2304
585698,0,0,0,2184,2208
587050,0,0,0,3208,1184
587445,0,0,0,3080,1312
588538,0,0,0,2984,1408
591758,0,0,0,3368,1024
593037,0,0,0,3344,1048
593058,0,0,0,3216,1176
593062,0,0,0,3192,1200
593098,0,0,0,3168,1224
593119,0,0,0,2968,1424
593119,0,0,0,2944,1448
593179,0,0,0,2920,1472
593238,0,0,0,2896,1496
593280,0,0,0,2872,1520
593375,0,0,0,2848,1544
593744,0,0,0,2976,1416
599512,0,0,0,3072,1320
599541,0,0,0,2976,1416
600767,0,0,0,2912,1480
600807,0,0,0,2976,1416
600813,0,0,0,3040,1352
600813,0,0,0,3104,1288
600814,0,0,0,3168,1224
600818,0,0,0,3232,1160
600821,0,0,0,3296,1096
601284,0,0,0,3328,1064
601369,0,0,0,3264,1128
601419,0,0,0,3328,1064
601438,0,0,0,3392,1000
601971,0,0,0,3328,1064
602582,0,0,0,3264,1128
603242,0,0,0,3328,1064
603244,0,0,0,3392,1000
605748,0,0,0,3416,976
605794,0,0,0,3440,952
605823,0,0,0,3408,984
605868,0,0,0,3432,960
605870,0,0,0,3456,936
605969,0,0,0,3480,912
605990,0,0,0,3504,888
606111,0,0,0,3528,864
606168,0,0,0,3552,840
606733,0,0,0,3040,1352
608119,0,0,0,2528,1864
609120,0,0,0,2656,1736
609855,0,0,0,2632,1760
609882,0,0,0,2608,1784
609913,0,0,0,2584,1808
609934,0,0,0,2560,1832
609960,0,0,0,2536,1856
609981,0,0,0,2512,1880
610039,0,0,0,2488,1904
610075,0,0,0,2464,1928
610414,0,0,0,2368,2024
610452,0,0,0,2464,1928
611045,0,0,0,2062,2330
611121,0,0,0,1660,2732
611205,0,0,0,1258,3134
614773,0,0,0,1130,3262
614804,0,0,0,1330,3062
615664,0,0,0,1458,2934
618773,0,0,0,1330,3062
620095,0,0,0,306,4086
621028,0,0,0,210,4182
621039,0,0,0,306,4086
621632,0,0,0,818,3574
622447,0,0,0,882,3510
622608,0,0,0,906,3486
622647,0,0,0,930,3462
622720,0,0,0,954,3438
622747,0,0,0,978,3414
622777,0,0,0,1002,3390
622805,0,0,0,1026,3366
622824,0,0,0,1090,3302
622878,0,0,0,1114,3278
622881,0,0,0,1138,3254
623055,0,0,0,1202,3190
623650,0,0,0,1266,3126
624574,0,0,0,1242,3150
624616,0,0,0,1218,3174
624650,0,0,0,1194,3198
624671,0,0,0,1170,3222
624709,0,0,0,1146,3246
624736,0,0,0,1122,3270
624756,0,0,0,1098,3294
624788,0,0,0,1074,3318
624823,0,0,0,1586,2806
626793,0,0,0,1714,2678
627499,0,0,0,1746,2646
628966,0,0,0,1730,2662
629378,0,0,0,1602,2790
629392,0,0,0,1090,3302
631597,0,0,0,1186,3206
633816,0,0,0,1122,3270
633818,0,0,0,1058,3334
634987,0,0,0,1026,3366
637369,0,0,0,1050,3342
637403,0,0,0,1074,3318
637447,0,0,0,1098,3294
637468,0,0,0,1122,3270
637515,0,0,0,1146,3246
638369,0,0,0,1170,3222
638574,0,0,0,1194,3198
638696,0,0,0,1218,3174
639146,0,0,0,834,3558
639205,0,0,0,450,3942
639493,0,0,0,322,4070
639521,0,0,0,450,3942
639524,0,0,0,466,3926
641183,0,0,0,338,4054
641189,0,0,0,82,4310
645606,0,0,0,210,4182
645609,0,0,0,82,4310
645609,0,0,0,58,4334
645609,0,0,0,34,4358
645609,0,0,0,10,4382
645844,0,0,0,412,3980
645847,0,0,0,388,4004
645847,0,0,0,364,4028
645847,0,0,0,340,4052
645847,0,0,0,316,4076
645847,0,0,0,292,4100
645847,0,0,0,196,4196
645847,0,0,0,68,4324
646100,0,0,0,580,3812
646103,0,0,0,68,4324
650192,0,0,0,1092,3300
650195,0,0,0,964,3428
650195,0,0,0,932,3460
650195,0,0,0,900,3492
650195,0,0,0,836,3556
650195,0,0,0,804,3588
650195,0,0,0,772,3620
650195,0,0,0,260,4132
653689,0,0,0,662,3730
655457,0,0,0,1064,3328
655507,0,0,0,1128,3264
655511,0,0,0,1192,3200
657476,0,0,0,1448,2944
657601,0,0,0,1480,2912
657924,0,0,0,1576,2816
658178,0,0,0,1704,2688
658374,0,0,0,1728,2664
658392,0,0,0,1752,2640
658414,0,0,0,1776,2616
658608,0,0,0,1800,2592
658608,0,0,0,1824,2568
658657,0,0,0,1848,2544
659534,0,0,0,1872,2520
659729,0,0,0,1896,2496
660517,0,0,0,2024,2368
661178,0,0,0,2056,2336
661553,0,0,0,2088,2304
662030,0,0,0,2120,2272
662606,0,0,0,1992,2400
662717,0,0,0,1864,2528
662723,0,0,0,1352,3040
662725,0,0,0,1224,3168
662735,0,0,0,712,3680
662738,0,0,0,584,3808
662743,0,0,0,456,3936
663179,0,0,0,360,4032
663381,0,0,0,488,3904
663413,0,0,0,1000,3392
664610,0,0,0,1128,3264
665833,0,0,0,1160,3232
665835,0,0,0,1224,3168
666657,0,0,0,1352,3040
668447,0,0,0,1224,3168
668782,0,0,0,1096,3296
669195,0,0,0,968,3424
669206,0,0,0,1480,2912
669611,0,0,0,1352,3040
673024,0,0,0,1288,3104
673025,0,0,0,1224,3168
673026,0,0,0,1160,3232
673028,0,0,0,1096,3296
673178,0,0,0,968,3424
673613,0,0,0,840,3552
673633,0,0,0,776,3616
673634,0,0,0,712,3680
673635,0,0,0,648,3744
673636,0,0,0,584,3808
673995,0,0,0,456,3936
674237,0,0,0,392,4000
674238,0,0,0,328,4064
674240,0,0,0,264,4128
674241,0,0,0,200,4192
674511,0,0,0,296,4096
674847,0,0,0,232,4160
674848,0,0,0,168,4224
674849,0,0,0,104,4288
674850,0,0,0,40,4352
674860,0,0,0,424,3968
675451,0,0,0,360,4032
675460,0,0,0,296,4096
676274,0,0,0,272,4120
676299,0,0,0,248,4144
676334,0,0,0,224,4168
676375,0,0,0,200,4192
676399,0,0,0,176,4216
676435,0,0,0,152,4240
676461,0,0,0,128,4264
676493,0,0,0,104,4288
678571,0,0,0,232,4160
679271,0,0,0,360,4032
679552,0,0,0,264,4128
680961,0,0,0,392,4000
681820,0,0,0,520,3872
681924,0,0,0,1032,3360
682085,0,0,0,1544,2848
683429,0,0,0,1928,2464
684314,0,0,0,2056,2336
687662,0,0,0,1928,2464
689044,0,0,0,1952,2440
689099,0,0,0,1976,2416
689139,0,0,0,2000,2392
689147,0,0,0,2024,2368
689163,0,0,0,2048,2344
689222,0,0,0,2072,2320
689230,0,0,0,2096,2296
689320,0,0,0,2120,2272
690175,0,0,0,2248,2144
690286,0,0,0,2224,2168
690324,0,0,0,2200,2192
690360,0,0,0,2176,2216
690399,0,0,0,2152,2240
690418,0,0,0,2128,2264
690438,0,0,0,2104,2288
690510,0,0,0,2232,2160
690923,0,0,0,2360,2032
691132,0,0,0,2328,2064
691341,0,0,0,2456,1936
691499,0,0,0,2552,1840
692505,0,0,0,2528,1864
692532,0,0,0,2504,1888
694716,0,0,0,2568,1824
694731,0,0,0,2632,1760
694733,0,0,0,2696,1696
694737,0,0,0,2760,1632
694924,0,0,0,2888,1504
695325,0,0,0,2952,1440
695341,0,0,0,3080,1312
695723,0,0,0,3208,1184
695922,0,0,0,3272,1120
695925,0,0,0,3336,1056
695942,0,0,0,3400,992
695948,0,0,0,3464,928
696261,0,0,0,3528,864
696267,0,0,0,3592,800
696280,0,0,0,3656,736
696302,0,0,0,3528,864
696303,0,0,0,3400,992
696468,0,0,0,3336,1056
696469,0,0,0,3272,1120
696470,0,0,0,3208,1184
696480,0,0,0,3144,1248
696531,0,0,0,3208,1184
696533,0,0,0,3272,1120
696551,0,0,0,3336,1056
696570,0,0,0,3400,992
696677,0,0,0,3272,1120
697054,0,0,0,3144,1248
697056,0,0,0,3016,1376
697081,0,0,0,2952,1440
697082,0,0,0,2888,1504
697152,0,0,0,2952,1440
697170,0,0,0,3016,1376
697436,0,0,0,2888,1504
700079,0,0,0,2760,1632
700153,0,0,0,2664,1728
700662,0,0,0,2792,1600
701383,0,0,0,2664,1728
701385,0,0,0,2536,1856
701391,0,0,0,2024,2368
703999,0,0,0,2048,2344
704016,0,0,0,2072,2320
704093,0,0,0,2096,2296
704153,0,0,0,2120,2272
704231,0,0,0,2144,2248
704289,0,0,0,2168,2224
704417,0,0,0,2200,2192
704885,0,0,0,2184,2208
705210,0,0,0,2208,2184
705298,0,0,0,2232,2160
706321,0,0,0,2200,2192
708528,0,0,0,2168,2224
708549,0,0,0,2136,2256
708589,0,0,0,2072,2320
708617,0,0,0,2040,2352
709226,0,0,0,1528,2864
711157,0,0,0,1432,2960
711168,0,0,0,1528,2864
712099,0,0,0,1464,2928
712100,0,0,0,1400,2992
712710,0,0,0,1336,3056
712711,0,0,0,1272,3120
717300,0,0,0,248,4144
717535,0,0,0,376,4016
718009,0,0,0,504,3888
718010,0,0,0,632,3760
718162,0,0,0,696,3696
718166,0,0,0,760,3632
718176,0,0,0,824,3568
718392,0,0,0,952,3440
718457,0,0,0,1080,3312
718460,0,0,0,56,4336
718753,0,0,0,184,4208
718769,0,0,0,312,4080
718771,0,0,0,376,4016
718794,0,0,0,440,3952
719104,0,0,0,504,3888
719128,0,0,0,632,3760
719253,0,0,0,1144,3248
719256,0,0,0,120,4272
719368,0,0,0,136,4256
719385,0,0,0,168,4224
719445,0,0,0,200,4192
719664,0,0,0,328,4064
721595,0,0,0,424,3968
723089,0,0,0,488,3904
724258,0,0,0,520,3872
727996,0,0,0,552,3840
728584,0,0,0,1576,2816
728587,0,0,0,552,3840
728587,0,0,0,488,3904
728587,0,0,0,424,3968
728587,0,0,0,360,4032
728587,0,0,0,296,4096
728587,0,0,0,168,4224
728587,0,0,0,104,4288
728587,0,0,0,40,4352
731850,0,0,0,552,3840
731853,0,0,0,424,3968
731853,0,0,0,296,4096
731853,0,0,0,168,4224
731853,0,0,0,40,4352
733772,0,0,0,104,4288
734420,0,0,0,168,4224
734422,0,0,0,232,4160
734426,0,0,0,104,4288
734717,0,0,0,168,4224
734720,0,0,0,40,4352
734720,0,0,0,8,4384
745350,0,0,0,40,4352
747374,0,0,0,1064,3328
747377,0,0,0,968,3424
747377,0,0,0,840,3552
747377,0,0,0,712,3680
747377,0,0,0,688,3704
747377,0,0,0,664,3728
747377,0,0,0,640,3752
747377,0,0,0,616,3776
747377,0,0,0,592,3800
747377,0,0,0,568,3824
747377,0,0,0,544,3848
747377,0,0,0,416,3976
747377,0,0,0,384,4008
747377,0,0,0,256,4136
749335,0,0,0,1280,3112
749338,0,0,0,768,3624
749338,0,0,0,640,3752
749338,0,0,0,128,4264
749338,0,0,0,104,4288
750258,0,0,0,168,4224
750261,0,0,0,40,4352
750288,0,0,0,168,4224
750291,0,0,0,232,4160
750294,0,0,0,296,4096
750294,0,0,0,360,4032
750295,0,0,0,424,3968
750303,0,0,0,296,4096
750303,0,0,0,200,4192
750303,0,0,0,168,4224
750303,0,0,0,104,4288
750303,0,0,0,40,4352
750315,0,0,0,104,4288
750318,0,0,0,40,4352
750442,0,0,0,1064,3328
750445,0,0,0,1000,3392
750445,0,0,0,936,3456
750445,0,0,0,872,3520
750445,0,0,0,808,3584
750445,0,0,0,744,3648
750445,0,0,0,616,3776
750445,0,0,0,552,3840
750445,0,0,0,488,3904
750445,0,0,0,360,4032
750445,0,0,0,232,4160
750445,0,0,0,104,4288
753547,0,0,0,232,4160
753550,0,0,0,104,4288
753567,0,0,0,232,4160
753568,0,0,0,360,4032
753573,0,0,0,232,4160
753573,0,0,0,136,4256
753585,0,0,0,264,4128
756123,0,0,0,392,4000
756126,0,0,0,8,4384
756418,0,0,0,136,4256
757852,0,0,0,168,4224
757933,0,0,0,264,4128
760175,0,0,0,288,4104
760196,0,0,0,312,4080
761121,0,0,0,336,4056
761223,0,0,0,360,4032
761266,0,0,0,384,4008
761269,0,0,0,0,4392
761303,0,0,0,24,4368
761311,0,0,0,48,4344
762060,0,0,0,144,4248
762381,0,0,0,272,4120
762448,0,0,0,400,3992
763196,0,0,0,424,3968
763734,0,0,0,552,3840
763737,0,0,0,40,4352
764742,0,0,0,136,4256
765690,0,0,0,264,4128
766449,0,0,0,392,4000
767514,0,0,0,904,3488
767960,0,0,0,1032,3360
768567,0,0,0,1544,2848
768657,0,0,0,1672,2720
769132,0,0,0,2056,2336
771983,0,0,0,2120,2272
771994,0,0,0,2152,2240
772013,0,0,0,2216,2176
772014,0,0,0,2280,2112
772121,0,0,0,2344,2048
772123,0,0,0,2408,1984
772128,0,0,0,2472,1920
772143,0,0,0,2536,1856
772146,0,0,0,2664,1728
772149,0,0,0,2792,1600
772155,0,0,0,2920,1472
772156,0,0,0,3048,1344
772164,0,0,0,3112,1280
772515,0,0,0,3016,1376
773081,0,0,0,3080,1312
773298,0,0,0,3144,1248
775278,0,0,0,3272,1120
775280,0,0,0,3400,992
780542,0,0,0,3376,1016
780573,0,0,0,3352,1040
780601,0,0,0,3328,1064
780619,0,0,0,3304,1088
780635,0,0,0,3280,1112
780660,0,0,0,3256,1136
780693,0,0,0,3232,1160
780719,0,0,0,3208,1184
783418,0,0,0,3304,1088
784893,0,0,0,3208,1184
785447,0,0,0,3720,672
787164,0,0,0,3656,736
787165,0,0,0,3592,800
787233,0,0,0,3560,832
787300,0,0,0,3496,896
787320,0,0,0,3464,928
793164,0,0,0,3448,944
793262,0,0,0,3320,1072
793790,0,0,0,2296,2096
793912,0,0,0,1272,3120
794192,0,0,0,1296,3096
794384,0,0,0,1320,3072
794384,0,0,0,1344,3048
794429,0,0,0,1368,3024
794453,0,0,0,966,3426
794472,0,0,0,564,3828
794487,0,0,0,588,3804
794519,0,0,0,186,4206
794529,0,0,0,210,4182
794544,0,0,0,234,4158
794607,0,0,0,258,4134
795618,0,0,0,354,4038
797564,0,0,0,386,4006
802701,0,0,0,450,3942
802704,0,0,0,48,4344
802941,0,0,0,80,4312
804561,0,0,0,464,3928
804564,0,0,0,62,4330
804564,0,0,0,38,4354
804564,0,0,0,14,4378
807646,0,0,0,30,4362
809787,0,0,0,94,4298
809960,0,0,0,158,4234
814962,0,0,0,286,4106
817344,0,0,0,310,4082
817346,0,0,0,334,4058
817388,0,0,0,736,3656
817391,0,0,0,334,4058
817391,0,0,0,238,4154
817391,0,0,0,38,4354
817391,0,0,0,14,4378
824001,0,0,0,1038,3354
824004,0,0,0,1014,3378
824004,0,0,0,990,3402
824004,0,0,0,966,3426
824004,0,0,0,942,3450
824004,0,0,0,918,3474
824004,0,0,0,662,3730
824004,0,0,0,534,3858
824004,0,0,0,278,4114
824004,0,0,0,150,4242
824004,0,0,0,22,4370
827710,0,0,0,118,4274
829034,0,0,0,520,3872
829037,0,0,0,392,4000
829037,0,0,0,264,4128
829037,0,0,0,136,4256
829037,0,0,0,8,4384
830175,0,0,0,32,4360
834898,0,0,0,288,4104
834901,0,0,0,32,4360
835558,0,0,0,434,3958
836725,0,0,0,458,3934
836736,0,0,0,482,3910
836805,0,0,0,506,3886
836810,0,0,0,530,3862
836813,0,0,0,18,4374
836825,0,0,0,42,4350
837067,0,0,0,1066,3326
837070,0,0,0,970,3422
837070,0,0,0,842,3550
837070,0,0,0,826,3566
837070,0,0,0,442,3950
837070,0,0,0,426,3966
837070,0,0,0,410,3982
837070,0,0,0,346,4046
837070,0,0,0,282,4110
837070,0,0,0,218,4174
837070,0,0,0,154,4238
837070,0,0,0,90,4302
837070,0,0,0,26,4366
837749,0,0,0,428,3964
837749,0,0,0,830,3562
837755,0,0,0,766,3626
837755,0,0,0,702,3690
837755,0,0,0,638,3754
837755,0,0,0,574,3818
837755,0,0,0,510,3882
837755,0,0,0,446,3946
837755,0,0,0,430,3962
837755,0,0,0,334,4058
837755,0,0,0,270,4122
837755,0,0,0,206,4186
837755,0,0,0,142,4250
837755,0,0,0,78,4314
837755,0,0,0,14,4378
839092,0,0,0,214,4178
839095,0,0,0,150,4242
839095,0,0,0,86,4306
839095,0,0,0,22,4370
844965,0,0,0,150,4242
844968,0,0,0,86,4306
844968,0,0,0,22,4370
844968,0,0,0,6,4386
845678,0,0,0,262,4130
845695,0,0,0,390,4002
845701,0,0,0,518,3874
845703,0,0,0,646,3746
845707,0,0,0,134,4258
845707,0,0,0,110,4282
845707,0,0,0,86,4306
845707,0,0,0,62,4330
845707,0,0,0,38,4354
845707,0,0,0,14,4378
846390,0,0,0,416,3976
846393,0,0,0,392,4000
846393,0,0,0,368,4024
846393,0,0,0,344,4048
846393,0,0,0,216,4176
846393,0,0,0,88,4304
847763,0,0,0,184,4208
847766,0,0,0,56,4336
848213,0,0,0,120,4272
848857,0,0,0,136,4256
848860,0,0,0,8,4384
849466,0,0,0,104,4288
850125,0,0,0,120,4272
850447,0,0,0,504,3888
850450,0,0,0,376,4016
850450,0,0,0,248,4144
850450,0,0,0,232,4160
850450,0,0,0,168,4224
850450,0,0,0,104,4288
850736,0,0,0,232,4160
850739,0,0,0,360,4032
850742,0,0,0,232,4160
850748,0,0,0,360,4032
850812,0,0,0,376,4016
852248,0,0,0,632,3760
852251,0,0,0,120,4272
854880,0,0,0,632,3760
854883,0,0,0,120,4272
855287,0,0,0,248,4144
855290,0,0,0,120,4272
855857,0,0,0,136,4256
855860,0,0,0,8,4384
856889,0,0,0,32,4360
858414,0,0,0,56,4336
858475,0,0,0,80,4312
858495,0,0,0,104,4288
858498,0,0,0,8,4384
858748,0,0,0,72,4320
858767,0,0,0,88,4304
859040,0,0,0,112,4280
859162,0,0,0,136,4256
859165,0,0,0,8,4384
859339,0,0,0,32,4360
859427,0,0,0,96,4296
859430,0,0,0,0,4392
859450,0,0,0,64,4328
859456,0,0,0,128,4264
859458,0,0,0,192,4200
859462,0,0,0,64,4328
859462,0,0,0,40,4352
859462,0,0,0,16,4376
859576,0,0,0,40,4352
859682,0,0,0,104,4288
859685,0,0,0,40,4352
859700,0,0,0,104,4288
859709,0,0,0,168,4224
859712,0,0,0,40,4352
859786,0,0,0,104,4288
860379,0,0,0,168,4224
860380,0,0,0,232,4160
860382,0,0,0,296,4096
860382,0,0,0,360,4032
860391,0,0,0,232,4160
860391,0,0,0,168,4224
860391,0,0,0,104,4288
860391,0,0,0,40,4352
860540,0,0,0,104,4288
860543,0,0,0,40,4352
860558,0,0,0,104,4288
860561,0,0,0,8,4384
860579,0,0,0,72,4320
860779,0,0,0,136,4256
860780,0,0,0,200,4192
861920,0,0,0,264,4128
862707,0,0,0,248,4144
864899,0,0,0,376,4016
866668,0,0,0,440,3952
866671,0,0,0,504,3888
867388,0,0,0,1016,3376
868095,0,0,0,1144,3248
868122,0,0,0,1272,3120
869473,0,0,0,1400,2992
869485,0,0,0,1528,2864
869556,0,0,0,1624,2768
869846,0,0,0,1560,2832
869858,0,0,0,1496,2896
869897,0,0,0,1432,2960
869899,0,0,0,1368,3024
869901,0,0,0,1304,3088
869904,0,0,0,1240,3152
869906,0,0,0,1176,3216
870054,0,0,0,1688,2704
870365,0,0,0,1784,2608
870894,0,0,0,1912,2480
871374,0,0,0,2008,2384
871496,0,0,0,2136,2256
872129,0,0,0,2152,2240
872134,0,0,0,2216,2176
872136,0,0,0,2280,2112
872152,0,0,0,2408,1984
872234,0,0,0,2432,1960
872235,0,0,0,2456,1936
873264,0,0,0,2584,1808
873819,0,0,0,3096,1296
875700,0,0,0,3000,1392
876898,0,0,0,3128,1264
881182,0,0,0,3256,1136
881394,0,0,0,3320,1072
882080,0,0,0,3384,1008
882084,0,0,0,3512,880
882103,0,0,0,3576,816
882104,0,0,0,3640,752
882249,0,0,0,3704,688
882332,0,0,0,3832,560
884407,0,0,0,3848,544
885876,0,0,0,3752,640
885907,0,0,0,3848,544
886915,0,0,0,2848,1544
887864,0,0,0,2592,1800
888085,0,0,0,2064,2328
888702,0,0,0,2000,2392
888705,0,0,0,1936,2456
888706,0,0,0,1872,2520
888722,0,0,0,1672,2720
889000,0,0,0,1640,2752
889100,0,0,0,1608,2784
889123,0,0,0,1544,2848
889307,0,0,0,1480,2912
889309,0,0,0,1416,2976
889320,0,0,0,1352,3040
889922,0,0,0,1288,3104
889924,0,0,0,1224,3168
889925,0,0,0,1160,3232
890526,0,0,0,1096,3296
890658,0,0,0,1080,3312
890968,0,0,0,824,3568
891524,0,0,0,888,3504
891531,0,0,0,952,3440
891584,0,0,0,1016,3376
891585,0,0,0,1080,3312
891587,0,0,0,1144,3248
891587,0,0,0,1208,3184
891595,0,0,0,1272,3120
893842,0,0,0,888,3504
895429,0,0,0,864,3528
895629,0,0,0,736,3656
896865,0,0,0,832,3560
897745,0,0,0,816,3576
899657,0,0,0,848,3544
901500,0,0,0,752,3640
901560,0,0,0,728,3664
902646,0,0,0,704,3688
902990,0,0,0,680,3712
903577,0,0,0,712,3680
904539,0,0,0,776,3616
905067,0,0,0,1776,2616
905184,0,0,0,1976,2416
908150,0,0,0,1992,2400
909539,0,0,0,2248,2144
909910,0,0,0,2272,2120
910337,0,0,0,2208,2184
910374,0,0,0,2272,2120
910387,0,0,0,2336,2056
910394,0,0,0,2400,1992
910939,0,0,0,2336,2056
910942,0,0,0,2272,2120
910943,0,0,0,2208,2184
910987,0,0,0,2272,2120
911008,0,0,0,2336,2056
911015,0,0,0,2400,1992
911545,0,0,0,2336,2056
911602,0,0,0,2400,1992
911630,0,0,0,2464,1928
911631,0,0,0,2528,1864
911748,0,0,0,2624,1768
912152,0,0,0,2560,1832
912154,0,0,0,2496,1896
912156,0,0,0,2432,1960
912228,0,0,0,2496,1896
912344,0,0,0,2512,1880
912640,0,0,0,2768,1624
912757,0,0,0,2704,1688
913359,0,0,0,2688,1704
915296,0,0,0,2816,1576
915493,0,0,0,2560,1832
915533,0,0,0,2304,2088
916032,0,0,0,2328,2064
917135,0,0,0,2352,2040
917331,0,0,0,2376,2016
921868,0,0,0,2280,2112
925407,0,0,0,1280,3112
925629,0,0,0,1256,3136
927376,0,0,0,1232,3160
927502,0,0,0,1208,3184
928136,0,0,0,1184,3208
931379,0,0,0,1712,2680
932020,0,0,0,1776,2616
932403,0,0,0,1872,2520
932583,0,0,0,1808,2584
932585,0,0,0,1744,2648
932586,0,0,0,1680,2712
932619,0,0,0,1744,2648
932620,0,0,0,1808,2584
932622,0,0,0,1872,2520
933187,0,0,0,1808,2584
933189,0,0,0,1744,2648
933227,0,0,0,1808,2584
933792,0,0,0,1744,2648
933802,0,0,0,1680,2712
933829,0,0,0,1744,2648
933835,0,0,0,1808,2584
933840,0,0,0,1872,2520
934409,0,0,0,1808,2584
934455,0,0,0,1872,2520
935046,0,0,0,1888,2504
937119,0,0,0,2272,2120
937182,0,0,0,2528,1864
937219,0,0,0,2784,1608
940107,0,0,0,2808,1584
941884,0,0,0,2832,1560
941989,0,0,0,2856,1536
942617,0,0,0,2880,1512
947231,0,0,0,3880,512
954259,0,0,0,3944,448
954263,0,0,0,4008,384
954273,0,0,0,4072,320
954860,0,0,0,4136,256
954863,0,0,0,4200,192
955460,0,0,0,4264,128
955490,0,0,0,4328,64
956118,0,0,0,4392,0
956678,0,0,0,4136,256
956786,0,0,0,3880,512
957036,0,0,0,3864,528
957792,0,0,0,3832,560
957839,0,0,0,3448,944
958058,0,0,0,3416,976
958119,0,0,0,3384,1008
958228,0,0,0,3352,1040
958253,0,0,0,3288,1104
961940,0,0,0,3192,1200
964702,0,0,0,3064,1328
964823,0,0,0,2936,1456
967845,0,0,0,2968,1424
969289,0,0,0,2768,1624
969368,0,0,0,2568,1824
969448,0,0,0,2368,2024
969486,0,0,0,2168,2224
969627,0,0,0,1968,2424
969654,0,0,0,1768,2624
969714,0,0,0,1568,2824
972540,0,0,0,1600,2792
972601,0,0,0,1632,2760
972736,0,0,0,1664,2728
972736,0,0,0,1728,2664
976437,0,0,0,1824,2568
977660,0,0,0,1760,2632
977662,0,0,0,1696,2696
977686,0,0,0,1632,2760
977688,0,0,0,1568,2824
978292,0,0,0,1504,2888
978294,0,0,0,1440,2952
978388,0,0,0,1696,2696
978495,0,0,0,1952,2440
978744,0,0,0,1968,2424
978896,0,0,0,1904,2488
978898,0,0,0,1840,2552
979499,0,0,0,1776,2616
979502,0,0,0,1712,2680
980592,0,0,0,1696,2696
982504,0,0,0,1632,2760
983107,0,0,0,1568,2824
984632,0,0,0,1952,2440
984885,0,0,0,2152,2240
984966,0,0,0,2280,2112
984983,0,0,0,2408,1984
985526,0,0,0,2344,2048
991053,0,0,0,2544,1848
991128,0,0,0,2744,1648
991179,0,0,0,2944,1448
991326,0,0,0,3144,1248
991349,0,0,0,3344,1048
991389,0,0,0,3544,848
993643,0,0,0,3560,832
995511,0,0,0,3304,1088
996153,0,0,0,3368,1024
997115,0,0,0,3432,960
997169,0,0,0,3392,1000
998018,0,0,0,3360,1032
998300,0,0,0,3260,1132
998316,0,0,0,3324,1068
998821,0,0,0,3388,1004
998932,0,0,0,3288,1104
999338,0,0,0,3352,1040
999338,0,0,0,3416,976
999394,0,0,0,3480,912
999448,0,0,0,3416,976
999980,0,0,0,3480,912
1.00059e+06,0,0,0,3544,848
1.00076e+06,0,0,0,3444,948
1.00119e+06,0,0,0,3508,884
1.00164e+06,0,0,0,2996,1396
1.00294e+06,0,0,0,2932,1460
1.00414e+06,0,0,0,2868,1524
1.00419e+06,0,0,0,2932,1460
1.00475e+06,0,0,0,2868,1524
1.00479e+06,0,0,0,2932,1460
1.00535e+06,0,0,0,2868,1524
1.00595e+06,0,0,0,2804,1588
1.00657e+06,0,0,0,2740,1652
1.00697e+06,0,0,0,2996,1396
1.00701e+06,0,0,0,2740,1652
1.00717e+06,0,0,0,2676,1716
1.00722e+06,0,0,0,2740,1652
1.00778e+06,0,0,0,2676,1716
1.00839e+06,0,0,0,2612,1780
1.0087e+06,0,0,0,2652,1740
1.00899e+06,0,0,0,2588,1804
1.00923e+06,0,0,0,2204,2188
1.00927e+06,0,0,0,1820,2572
1.01167e+06,0,0,0,1436,2956
1.01201e+06,0,0,0,1052,3340
1.01253e+06,0,0,0,1084,3308
1.01279e+06,0,0,0,1184,3208
1.01341e+06,0,0,0,1284,3108
1.01369e+06,0,0,0,1252,3140
1.01394e+06,0,0,0,1316,3076
1.01523e+06,0,0,0,1416,2976
1.01823e+06,0,0,0,1384,3008
1.01929e+06,0,0,0,1344,3048
1.02186e+06,0,0,0,1728,2664
1.02332e+06,0,0,0,2240,2152
1.02461e+06,0,0,0,2304,2088
1.02461e+06,0,0,0,2240,2152
1.02522e+06,0,0,0,2176,2216
1.02583e+06,0,0,0,2240,2152
1.02584e+06,0,0,0,2176,2216
1.02643e+06,0,0,0,2240,2152
1.02644e+06,0,0,0,2176,2216
1.02704e+06,0,0,0,2240,2152
1.02704e+06,0,0,0,2176,2216
1.02765e+06,0,0,0,2240,2152
1.02765e+06,0,0,0,2176,2216
1.02819e+06,0,0,0,2208,2184
1.02825e+06,0,0,0,2144,2248
1.02826e+06,0,0,0,2208,2184
1.02869e+06,0,0,0,2464,1928
1.02885e+06,0,0,0,2528,1864
1.02886e+06,0,0,0,2464,1928
1.02946e+06,0,0,0,2528,1864
1.02947e+06,0,0,0,2464,1928
1.03007e+06,0,0,0,2528,1864
1.03008e+06,0,0,0,2464,1928
1.03067e+06,0,0,0,2528,1864
1.03101e+06,0,0,0,2568,1824
1.03274e+06,0,0,0,2600,1792
1.04221e+06,0,0,0,2568,1824
1.04224e+06,0,0,0,2536,1856
1.04229e+06,0,0,0,2472,1920
1.04233e+06,0,0,0,2408,1984
1.04236e+06,0,0,0,2376,2016
1.04238e+06,0,0,0,2312,2080
1.04457e+06,0,0,0,1800,2592
1.04629e+06,0,0,0,1864,2528
1.04689e+06,0,0,0,1928,2464
1.04689e+06,0,0,0,1864,2528
1.04753e+06,0,0,0,1928,2464
1.0481e+06,0,0,0,1864,2528
1.04813e+06,0,0,0,1928,2464
1.04871e+06,0,0,0,1864,2528
1.04872e+06,0,0,0,1928,2464
1.04885e+06,0,0,0,1832,2560
1.04931e+06,0,0,0,1768,2624
1.04934e+06,0,0,0,1832,2560
1.04994e+06,0,0,0,1896,2496
1.05056e+06,0,0,0,1960,2432
1.05112e+06,0,0,0,1896,2496
1.05115e+06,0,0,0,1960,2432
1.05158e+06,0,0,0,2344,2048
1.05177e+06,0,0,0,2408,1984
1.05233e+06,0,0,0,2344,2048
1.05256e+06,0,0,0,2728,1664
1.05294e+06,0,0,0,2664,1728
1.05355e+06,0,0,0,2600,1792
1.05357e+06,0,0,0,2632,1760
1.05381e+06,0,0,0,2664,1728
1.05415e+06,0,0,0,2600,1792
1.05476e+06,0,0,0,2536,1856
1.05529e+06,0,0,0,2920,1472
1.05587e+06,0,0,0,2984,1408
1.05677e+06,0,0,0,3048,1344
1.05685e+06,0,0,0,3080,1312
1.05687e+06,0,0,0,3144,1248
1.0592e+06,0,0,0,3240,1152
1.06152e+06,0,0,0,3224,1168
1.06625e+06,0,0,0,3736,656
1.06648e+06,0,0,0,3640,752
1.06859e+06,0,0,0,3704,688
1.06979e+06,0,0,0,3768,624
1.07043e+06,0,0,0,3832,560
1.07102e+06,0,0,0,3896,496
1.07283e+06,0,0,0,3960,432
1.07398e+06,0,0,0,3896,496
1.07403e+06,0,0,0,3960,432
1.07458e+06,0,0,0,3976,416
1.07458e+06,0,0,0,3912,480
1.07463e+06,0,0,0,3976,416
1.07507e+06,0,0,0,3464,928
1.07519e+06,0,0,0,3400,992
1.07524e+06,0,0,0,3464,928
1.0758e+06,0,0,0,3400,992
1.07586e+06,0,0,0,3464,928
1.0764e+06,0,0,0,3400,992
1.07647e+06,0,0,0,3464,928
1.077e+06,0,0,0,3400,992
1.07706e+06,0,0,0,3304,1088
1.07707e+06,0,0,0,3400,992
1.07762e+06,0,0,0,3336,1056
1.07822e+06,0,0,0,3272,1120
1.07883e+06,0,0,0,3208,1184
1.07943e+06,0,0,0,3144,1248
1.08004e+06,0,0,0,3080,1312
1.08064e+06,0,0,0,3016,1376
1.08411e+06,0,0,0,2632,1760
1.08419e+06,0,0,0,2248,2144
1.08746e+06,0,0,0,2152,2240
1.08749e+06,0,0,0,2248,2144
1.09464e+06,0,0,0,1736,2656
1.09568e+06,0,0,0,1800,2592
1.09624e+06,0,0,0,1736,2656
1.09629e+06,0,0,0,1800,2592
1.09675e+06,0,0,0,2312,2080
1.09685e+06,0,0,0,2248,2144
1.09687e+06,0,0,0,2312,2080
1.09746e+06,0,0,0,2248,2144
1.09748e+06,0,0,0,2312,2080
1.09807e+06,0,0,0,2376,2016
1.09809e+06,0,0,0,2280,2112
1.09812e+06,0,0,0,2376,2016
1.09869e+06,0,0,0,2440,1952
1.09906e+06,0,0,0,1928,2464
1.0993e+06,0,0,0,1992,2400
1.09991e+06,0,0,0,2056,2336
1.10052e+06,0,0,0,2120,2272
1.10111e+06,0,0,0,2184,2208
1.10172e+06,0,0,0,2248,2144
1.10233e+06,0,0,0,2312,2080
1.10579e+06,0,0,0,2696,1696
1.10853e+06,0,0,0,2600,1792
1.10855e+06,0,0,0,2696,1696
1.11632e+06,0,0,0,3208,1184
1.11793e+06,0,0,0,3272,1120
1.11853e+06,0,0,0,3336,1056
1.11906e+06,0,0,0,3240,1152
1.1191e+06,0,0,0,3336,1056
1.11914e+06,0,0,0,3400,992
1.12074e+06,0,0,0,3912,480
1.12632e+06,0,0,0,3848,544
1.12632e+06,0,0,0,3784,608
1.12632e+06,0,0,0,3720,672
1.12632e+06,0,0,0,3656,736
1.12634e+06,0,0,0,3592,800
1.12634e+06,0,0,0,3528,864
1.12634e+06,0,0,0,3464,928
1.12634e+06,0,0,0,3400,992
1.12636e+06,0,0,0,3336,1056
1.12637e+06,0,0,0,3272,1120
1.12638e+06,0,0,0,3208,1184
1.12638e+06,0,0,0,3144,1248
1.12638e+06,0,0,0,3080,1312
1.12638e+06,0,0,0,3016,1376
1.12639e+06,0,0,0,2952,1440
1.1264e+06,0,0,0,2888,1504
1.1264e+06,0,0,0,2824,1568
1.1264e+06,0,0,0,2760,1632
1.1264e+06,0,0,0,2696,1696
1.1264e+06,0,0,0,2632,1760
1.12746e+06,0,0,0,3016,1376
1.12877e+06,0,0,0,2504,1888
1.12883e+06,0,0,0,1992,2400
1.12974e+06,0,0,0,2088,2304
1.13026e+06,0,0,0,2056,2336
1.13032e+06,0,0,0,1992,2400
1.13036e+06,0,0,0,1960,2432
1.13043e+06,0,0,0,1896,2496
1.1305e+06,0,0,0,1832,2560
1.14051e+06,0,0,0,1864,2528
1.14453e+06,0,0,0,1928,2464
1.1448e+06,0,0,0,1992,2400
1.14484e+06,0,0,0,2024,2368
1.14492e+06,0,0,0,2088,2304
1.148e+06,0,0,0,2152,2240
1.148e+06,0,0,0,2216,2176
1.14802e+06,0,0,0,2280,2112
1.14802e+06,0,0,0,2344,2048
1.14802e+06,0,0,0,2408,1984
1.14804e+06,0,0,0,2472,1920
1.14804e+06,0,0,0,2536,1856
1.14805e+06,0,0,0,2600,1792
1.14805e+06,0,0,0,2664,1728
1.14806e+06,0,0,0,2728,1664
1.14806e+06,0,0,0,2792,1600
1.14806e+06,0,0,0,2856,1536
1.14807e+06,0,0,0,2920,1472
1.14807e+06,0,0,0,2984,1408
1.14807e+06,0,0,0,3048,1344
1.14808e+06,0,0,0,3112,1280
1.14808e+06,0,0,0,3176,1216
1.14808e+06,0,0,0,3240,1152
1.14808e+06,0,0,0,3304,1088
1.14811e+06,0,0,0,3368,1024
1.15048e+06,0,0,0,3880,512
1.15053e+06,0,0,0,4392,0
1.19544e+06,0,0,0,4296,96
1.20587e+06,0,0,0,4200,192
1.20588e+06,0,0,0,4296,96
1.21631e+06,0,0,0,4392,0
1.21812e+06,0,0,0,4008,384
1.21889e+06,0,0,0,3976,416
1.22e+06,0,0,0,3944,448
1.22003e+06,0,0,0,3880,512
1.2201e+06,0,0,0,3816,576
1.2214e+06,0,0,0,3560,832
1.2214e+06,0,0,0,3496,896
1.2214e+06,0,0,0,3368,1024
1.22141e+06,0,0,0,2856,1536
1.22142e+06,0,0,0,2728,1664
1.22233e+06,0,0,0,2600,1792
1.2224e+06,0,0,0,2472,1920
1.22312e+06,0,0,0,2344,2048
1.2259e+06,0,0,0,2216,2176
1.22632e+06,0,0,0,2088,2304
1.2271e+06,0,0,0,1960,2432
1.22718e+06,0,0,0,1704,2688
1.22719e+06,0,0,0,1448,2944
1.22836e+06,0,0,0,1320,3072
1.2289e+06,0,0,0,1192,3200
1.23037e+06,0,0,0,1224,3168
1.23096e+06,0,0,0,712,3680
1.2311e+06,0,0,0,648,3744
1.23161e+06,0,0,0,712,3680
1.23448e+06,0,0,0,744,3648
1.23456e+06,0,0,0,808,3584
1.23606e+06,0,0,0,776,3616
1.2364e+06,0,0,0,904,3488
1.23669e+06,0,0,0,1032,3360
1.23715e+06,0,0,0,1096,3296
1.23761e+06,0,0,0,1352,3040
1.23797e+06,0,0,0,1336,3056
1.23903e+06,0,0,0,1848,2544
1.23929e+06,0,0,0,2104,2288
1.2393e+06,0,0,0,2360,2032
1.23986e+06,0,0,0,2744,1648
1.24256e+06,0,0,0,2488,1904
1.24261e+06,0,0,0,2232,2160
1.24341e+06,0,0,0,1848,2544
1.24353e+06,0,0,0,1464,2928
1.2439e+06,0,0,0,1208,3184
1.2439e+06,0,0,0,952,3440
1.24392e+06,0,0,0,696,3696
1.24401e+06,0,0,0,824,3568
1.24409e+06,0,0,0,952,3440
1.24417e+06,0,0,0,824,3568
1.24418e+06,0,0,0,312,4080
1.24419e+06,0,0,0,184,4208
1.24479e+06,0,0,0,312,4080
1.2449e+06,0,0,0,248,4144
1.2455e+06,0,0,0,184,4208
1.2461e+06,0,0,0,120,4272
1.24659e+06,0,0,0,152,4240
1.24774e+06,0,0,0,280,4112
1.24801e+06,0,0,0,408,3984
1.24878e+06,0,0,0,536,3856
1.24878e+06,0,0,0,8,4384
1.24937e+06,0,0,0,136,4256
1.24937e+06,0,0,0,72,4320
1.24937e+06,0,0,0,8,4384
1.25057e+06,0,0,0,136,4256
1.25058e+06,0,0,0,72,4320
1.25073e+06,0,0,0,88,4304
1.25266e+06,0,0,0,600,3792
1.25267e+06,0,0,0,344,4048
1.25267e+06,0,0,0,280,4112
1.25267e+06,0,0,0,216,4176
1.25279e+06,0,0,0,280,4112
1.25279e+06,0,0,0,24,4368
1.25517e+06,0,0,0,280,4112
1.25517e+06,0,0,0,24,4368
1.25532e+06,0,0,0,280,4112
1.25533e+06,0,0,0,24,4368
1.25588e+06,0,0,0,280,4112
1.25588e+06,0,0,0,216,4176
1.25588e+06,0,0,0,88,4304
1.25588e+06,0,0,0,24,4368
1.25623e+06,0,0,0,280,4112
1.25623e+06,0,0,0,24,4368
1.25723e+06,0,0,0,280,4112
1.25723e+06,0,0,0,24,4368
1.2587e+06,0,0,0,152,4240
1.25871e+06,0,0,0,112,4280
1.25889e+06,0,0,0,240,4152
1.26169e+06,0,0,0,752,3640
1.26169e+06,0,0,0,496,3896
1.26169e+06,0,0,0,240,4152
1.26485e+06,0,0,0,496,3896
1.26485e+06,0,0,0,240,4152
1.26489e+06,0,0,0,496,3896
1.26489e+06,0,0,0,240,4152
1.26489e+06,0,0,0,112,4280
1.26609e+06,0,0,0,496,3896
1.26638e+06,0,0,0,112,4280
1.26664e+06,0,0,0,176,4216
1.26716e+06,0,0,0,432,3960
1.26722e+06,0,0,0,496,3896
1.2678e+06,0,0,0,560,3832
1.2682e+06,0,0,0,816,3576
1.26856e+06,0,0,0,1072,3320
1.26921e+06,0,0,0,1328,3064
1.27108e+06,0,0,0,1392,3000
1.27215e+06,0,0,0,1456,2936
1.27225e+06,0,0,0,1520,2872
1.27322e+06,0,0,0,1560,2832
1.27366e+06,0,0,0,1816,2576
1.27369e+06,0,0,0,2072,2320
1.27436e+06,0,0,0,2136,2256
1.27528e+06,0,0,0,2200,2192
1.27671e+06,0,0,0,2072,2320
1.27683e+06,0,0,0,2328,2064
1.27693e+06,0,0,0,2584,1808
1.27739e+06,0,0,0,2520,1872
1.27755e+06,0,0,0,2584,1808
1.27756e+06,0,0,0,2712,1680
1.27849e+06,0,0,0,2776,1616
1.28657e+06,0,0,0,2904,1488
1.28672e+06,0,0,0,3288,1104
1.29061e+06,0,0,0,3224,1168
1.29082e+06,0,0,0,3608,784
1.29206e+06,0,0,0,4136,256
1.29394e+06,0,0,0,4008,384
1.29603e+06,0,0,0,3944,448
1.29723e+06,0,0,0,3880,512
1.29894e+06,0,0,0,3624,768
1.29896e+06,0,0,0,3368,1024
1.29897e+06,0,0,0,3112,1280
1.29898e+06,0,0,0,2856,1536
1.299e+06,0,0,0,2600,1792
1.29901e+06,0,0,0,2344,2048
1.29908e+06,0,0,0,2408,1984
1.29933e+06,0,0,0,2536,1856
1.30501e+06,0,0,0,2472,1920
1.30505e+06,0,0,0,2440,1952
1.30781e+06,0,0,0,2184,2208
1.30782e+06,0,0,0,1928,2464
1.30785e+06,0,0,0,1672,2720
1.3098e+06,0,0,0,1416,2976
1.30982e+06,0,0,0,1160,3232
1.31097e+06,0,0,0,1416,2976
1.31106e+06,0,0,0,1672,2720
1.31117e+06,0,0,0,1928,2464
1.31119e+06,0,0,0,2184,2208
1.3116e+06,0,0,0,2440,1952
1.31233e+06,0,0,0,2504,1888
1.31315e+06,0,0,0,2760,1632
1.31564e+06,0,0,0,2888,1504
1.31577e+06,0,0,0,2952,1440
1.31764e+06,0,0,0,2888,1504
1.31775e+06,0,0,0,2952,1440
1.31863e+06,0,0,0,2568,1824
1.31884e+06,0,0,0,2504,1888
1.31893e+06,0,0,0,2568,1824
1.31955e+06,0,0,0,2600,1792
1.32001e+06,0,0,0,2856,1536
1.32057e+06,0,0,0,3112,1280
1.32083e+06,0,0,0,3368,1024
1.32286e+06,0,0,0,3624,768
1.32311e+06,0,0,0,3880,512
1.33644e+06,0,0,0,3624,768
1.33932e+06,0,0,0,3688,704
1.33996e+06,0,0,0,2664,1728
1.33999e+06,0,0,0,1640,2752
1.34052e+06,0,0,0,1704,2688
1.34287e+06,0,0,0,1640,2752
1.34767e+06,0,0,0,1576,2816
1.34855e+06,0,0,0,1832,2560
1.34887e+06,0,0,0,1768,2624
1.34948e+06,0,0,0,1704,2688
1.35008e+06,0,0,0,1640,2752
1.35068e+06,0,0,0,1576,2816
1.3621e+06,0,0,0,1544,2848
1.36212e+06,0,0,0,1512,2880
1.36287e+06,0,0,0,1896,2496
1.36314e+06,0,0,0,1512,2880
1.36455e+06,0,0,0,1576,2816
1.36516e+06,0,0,0,1448,2944
1.36935e+06,0,0,0,1512,2880
1.37056e+06,0,0,0,1576,2816
1.37117e+06,0,0,0,1640,2752
1.37177e+06,0,0,0,1704,2688
1.37237e+06,0,0,0,1768,2624
1.37308e+06,0,0,0,1800,2592
1.37634e+06,0,0,0,1672,2720
1.37657e+06,0,0,0,1704,2688
1.37701e+06,0,0,0,2728,1664
1.38686e+06,0,0,0,2856,1536
1.38915e+06,0,0,0,2824,1568
1.39073e+06,0,0,0,2792,1600
1.39374e+06,0,0,0,2776,1616
1.39434e+06,0,0,0,2744,1648
1.39501e+06,0,0,0,2616,1776
1.39507e+06,0,0,0,2488,1904
1.39509e+06,0,0,0,2360,2032
1.39512e+06,0,0,0,2232,2160
1.39515e+06,0,0,0,2104,2288
1.39519e+06,0,0,0,1976,2416
1.39521e+06,0,0,0,1848,2544
1.39523e+06,0,0,0,1720,2672
1.39525e+06,0,0,0,1592,2800
1.39527e+06,0,0,0,1464,2928
1.39529e+06,0,0,0,1336,3056
1.39803e+06,0,0,0,1464,2928
1.39815e+06,0,0,0,1208,3184
1.39873e+06,0,0,0,1192,3200
1.40177e+06,0,0,0,1064,3328
1.40186e+06,0,0,0,680,3712
1.40201e+06,0,0,0,712,3680
1.40207e+06,0,0,0,744,3648
1.40331e+06,0,0,0,712,3680
1.40645e+06,0,0,0,1096,3296
1.40702e+06,0,0,0,1032,3360
1.40702e+06,0,0,0,968,3424
1.40702e+06,0,0,0,904,3488
1.40703e+06,0,0,0,840,3552
1.40703e+06,0,0,0,776,3616
1.40703e+06,0,0,0,712,3680
1.40703e+06,0,0,0,648,3744
1.40763e+06,0,0,0,584,3808
1.40763e+06,0,0,0,520,3872
1.40763e+06,0,0,0,456,3936
1.40763e+06,0,0,0,392,4000
1.40764e+06,0,0,0,328,4064
1.40764e+06,0,0,0,264,4128
1.40764e+06,0,0,0,200,4192
1.40788e+06,0,0,0,216,4176
1.40824e+06,0,0,0,152,4240
1.40824e+06,0,0,0,88,4304
1.40824e+06,0,0,0,24,4368
1.40885e+06,0,0,0,56,4336
1.41289e+06,0,0,0,72,4320
1.4129e+06,0,0,0,8,4384
1.41449e+06,0,0,0,40,4352
1.41527e+06,0,0,0,168,4224
1.41669e+06,0,0,0,296,4096
1.41675e+06,0,0,0,424,3968
1.41679e+06,0,0,0,552,3840
1.41682e+06,0,0,0,680,3712
1.41684e+06,0,0,0,808,3584
1.41689e+06,0,0,0,936,3456
1.4169e+06,0,0,0,1064,3328
1.41691e+06,0,0,0,64,4328
1.41693e+06,0,0,0,192,4200
1.41693e+06,0,0,0,64,4328
1.41695e+06,0,0,0,192,4200
1.41697e+06,0,0,0,320,4072
1.41698e+06,0,0,0,448,3944
1.41985e+06,0,0,0,704,3688
1.41985e+06,0,0,0,192,4200
1.41985e+06,0,0,0,168,4224
1.42647e+06,0,0,0,1192,3200
1.42648e+06,0,0,0,424,3968
1.42648e+06,0,0,0,40,4352
1.42648e+06,0,0,0,8,4384
1.42801e+06,0,0,0,1008,3384
1.42802e+06,0,0,0,976,3416
1.42871e+06,0,0,0,1040,3352
1.42871e+06,0,0,0,16,4376
1.42871e+06,0,0,0,80,4312
1.42872e+06,0,0,0,48,4344
1.42872e+06,0,0,0,112,4280
1.42931e+06,0,0,0,176,4216
1.42932e+06,0,0,0,240,4152
1.42932e+06,0,0,0,304,4088
1.42932e+06,0,0,0,368,4024
1.42933e+06,0,0,0,112,4280
1.42933e+06,0,0,0,176,4216
1.42935e+06,0,0,0,240,4152
1.42935e+06,0,0,0,304,4088
1.42936e+06,0,0,0,48,4344
1.42962e+06,0,0,0,112,4280
1.42967e+06,0,0,0,176,4216
1.42968e+06,0,0,0,48,4344
1.42982e+06,0,0,0,112,4280
1.42985e+06,0,0,0,176,4216
1.42993e+06,0,0,0,240,4152
1.42994e+06,0,0,0,304,4088
1.42994e+06,0,0,0,48,4344
1.43096e+06,0,0,0,112,4280
1.43322e+06,0,0,0,136,4256
1.43459e+06,0,0,0,200,4192
1.43792e+06,0,0,0,328,4064
1.43792e+06,0,0,0,72,4320
1.43792e+06,0,0,0,8,4384
1.43896e+06,0,0,0,40,4352
1.44023e+06,0,0,0,168,4224
1.44023e+06,0,0,0,104,4288
1.44023e+06,0,0,0,72,4320
1.44024e+06,0,0,0,840,3552
1.44077e+06,0,0,0,1096,3296
1.44157e+06,0,0,0,1352,3040
1.44249e+06,0,0,0,1384,3008
1.4425e+06,0,0,0,1640,2752
1.44368e+06,0,0,0,1576,2816
1.44368e+06,0,0,0,1512,2880
1.444e+06,0,0,0,1544,2848
1.44409e+06,0,0,0,2056,2336
1.44515e+06,0,0,0,2440,1952
1.45021e+06,0,0,0,2696,1696
1.45215e+06,0,0,0,2568,1824
1.4522e+06,0,0,0,2440,1952
1.45226e+06,0,0,0,2312,2080
1.45232e+06,0,0,0,2056,2336
1.45238e+06,0,0,0,1928,2464
1.45564e+06,0,0,0,1960,2432
1.4582e+06,0,0,0,1936,2456
1.4596e+06,0,0,0,2000,2392
1.4605e+06,0,0,0,1936,2456
1.4605e+06,0,0,0,1872,2520
1.46192e+06,0,0,0,1936,2456
1.4625e+06,0,0,0,2192,2200
1.46531e+06,0,0,0,2128,2264
1.46531e+06,0,0,0,2064,2328
1.46539e+06,0,0,0,2128,2264
1.46539e+06,0,0,0,2192,2200
1.46771e+06,0,0,0,2128,2264
1.46772e+06,0,0,0,2064,2328
1.46975e+06,0,0,0,2448,1944
1.47158e+06,0,0,0,2472,1920
1.47196e+06,0,0,0,2448,1944
1.47382e+06,0,0,0,2576,1816
1.47387e+06,0,0,0,2704,1688
1.47397e+06,0,0,0,2832,1560
1.47409e+06,0,0,0,2960,1432
1.47736e+06,0,0,0,2576,1816
1.47818e+06,0,0,0,2544,1848
1.4782e+06,0,0,0,2512,1880
1.47871e+06,0,0,0,2256,2136
1.4822e+06,0,0,0,2320,2072
1.48221e+06,0,0,0,2384,2008
1.48344e+06,0,0,0,1616,2776
1.48538e+06,0,0,0,1640,2752
1.48658e+06,0,0,0,1704,2688
1.48699e+06,0,0,0,1768,2624
1.48795e+06,0,0,0,1832,2560
1.48801e+06,0,0,0,1808,2584
1.48809e+06,0,0,0,1872,2520
1.48946e+06,0,0,0,1904,2488
1.49081e+06,0,0,0,1776,2616
1.49087e+06,0,0,0,1648,2744
1.49093e+06,0,0,0,1520,2872
1.49097e+06,0,0,0,1776,2616
1.4917e+06,0,0,0,1648,2744
1.49173e+06,0,0,0,1520,2872
1.49191e+06,0,0,0,1136,3256
1.49203e+06,0,0,0,1008,3384
1.49218e+06,0,0,0,880,3512
1.49226e+06,0,0,0,752,3640
1.4923e+06,0,0,0,624,3768
1.49242e+06,0,0,0,496,3896
1.49257e+06,0,0,0,368,4024
1.49268e+06,0,0,0,400,3992
1.49278e+06,0,0,0,272,4120
1.49286e+06,0,0,0,144,4248
1.49714e+06,0,0,0,80,4312
1.49714e+06,0,0,0,16,4376
1.50142e+06,0,0,0,40,4352
1.50389e+06,0,0,0,168,4224
1.50424e+06,0,0,0,296,4096
1.50425e+06,0,0,0,40,4352
1.50431e+06,0,0,0,168,4224
1.51057e+06,0,0,0,296,4096
1.51057e+06,0,0,0,40,4352
1.51339e+06,0,0,0,168,4224
1.51342e+06,0,0,0,296,4096
1.51342e+06,0,0,0,40,4352
1.51372e+06,0,0,0,168,4224
1.51387e+06,0,0,0,296,4096
1.51387e+06,0,0,0,40,4352
1.51394e+06,0,0,0,168,4224
1.51395e+06,0,0,0,40,4352
1.51398e+06,0,0,0,168,4224
1.51399e+06,0,0,0,40,4352
1.51412e+06,0,0,0,168,4224
1.51426e+06,0,0,0,296,4096
1.51454e+06,0,0,0,424,3968
1.51576e+06,0,0,0,360,4032
1.51576e+06,0,0,0,296,4096
1.51621e+06,0,0,0,1320,3072
1.51724e+06,0,0,0,1384,3008
1.51727e+06,0,0,0,1448,2944
1.51739e+06,0,0,0,1704,2688
1.52064e+06,0,0,0,2088,2304
1.52363e+06,0,0,0,2344,2048
1.52426e+06,0,0,0,2472,1920
1.52427e+06,0,0,0,2600,1792
1.52552e+06,0,0,0,2856,1536
1.52716e+06,0,0,0,3112,1280
1.52747e+06,0,0,0,2856,1536
1.52748e+06,0,0,0,2600,1792
1.52748e+06,0,0,0,2344,2048
1.52748e+06,0,0,0,2088,2304
1.52748e+06,0,0,0,1832,2560
1.52749e+06,0,0,0,1576,2816
1.52749e+06,0,0,0,1320,3072
1.5275e+06,0,0,0,1064,3328
1.53072e+06,0,0,0,552,3840
1.53278e+06,0,0,0,456,3936
1.53278e+06,0,0,0,840,3552
1.53344e+06,0,0,0,456,3936
1.53528e+06,0,0,0,520,3872
1.53584e+06,0,0,0,584,3808
1.53767e+06,0,0,0,840,3552
1.53951e+06,0,0,0,1096,3296
1.54045e+06,0,0,0,1352,3040
1.54047e+06,0,0,0,1608,2784
1.54051e+06,0,0,0,1864,2528
1.54051e+06,0,0,0,2120,2272
1.54051e+06,0,0,0,2376,2016
1.54052e+06,0,0,0,2632,1760
1.54344e+06,0,0,0,2728,1664
1.54857e+06,0,0,0,2704,1688
1.54999e+06,0,0,0,2640,1752
1.54999e+06,0,0,0,2576,1816
1.55607e+06,0,0,0,3088,1304
1.56191e+06,0,0,0,3112,1280
1.56355e+06,0,0,0,2856,1536
1.56357e+06,0,0,0,2600,1792
1.5674e+06,0,0,0,2536,1856
1.5674e+06,0,0,0,2472,1920
1.5674e+06,0,0,0,2408,1984
1.56769e+06,0,0,0,2472,1920
1.56922e+06,0,0,0,2408,1984
1.56922e+06,0,0,0,2344,2048
1.56966e+06,0,0,0,2408,1984
1.56991e+06,0,0,0,3176,1216
1.57149e+06,0,0,0,3048,1344
1.57298e+06,0,0,0,2952,1440
1.5735e+06,0,0,0,2928,1464
1.57385e+06,0,0,0,3184,1208
1.57664e+06,0,0,0,3440,952
1.57772e+06,0,0,0,3824,568
1.57874e+06,0,0,0,3888,504
1.57958e+06,0,0,0,3760,632
1.58064e+06,0,0,0,3504,888
1.58065e+06,0,0,0,3248,1144
1.58066e+06,0,0,0,2992,1400
1.58066e+06,0,0,0,2736,1656
1.58068e+06,0,0,0,2480,1912
1.5807e+06,0,0,0,2224,2168
1.58077e+06,0,0,0,2096,2296
1.58362e+06,0,0,0,2192,2200
1.58692e+06,0,0,0,2216,2176
1.58907e+06,0,0,0,2280,2112
1.58909e+06,0,0,0,2344,2048
1.58963e+06,0,0,0,1960,2432
1.58965e+06,0,0,0,1896,2496
1.58965e+06,0,0,0,1832,2560
1.58965e+06,0,0,0,1768,2624
1.58965e+06,0,0,0,1704,2688
1.58965e+06,0,0,0,1640,2752
1.59009e+06,0,0,0,616,3776
1.59025e+06,0,0,0,552,3840
1.59026e+06,0,0,0,488,3904
1.59026e+06,0,0,0,424,3968
1.59027e+06,0,0,0,360,4032
1.59027e+06,0,0,0,296,4096
1.59087e+06,0,0,0,232,4160
1.59087e+06,0,0,0,168,4224
1.59087e+06,0,0,0,104,4288
1.59089e+06,0,0,0,168,4224
1.5909e+06,0,0,0,232,4160
1.59291e+06,0,0,0,488,3904
1.59293e+06,0,0,0,744,3648
1.59295e+06,0,0,0,1000,3392
1.59304e+06,0,0,0,1256,3136
1.59305e+06,0,0,0,1160,3232
1.5932e+06,0,0,0,1288,3104
1.59369e+06,0,0,0,1544,2848
1.59388e+06,0,0,0,1800,2592
1.59616e+06,0,0,0,1928,2464
1.59964e+06,0,0,0,1904,2488
1.60126e+06,0,0,0,2032,2360
1.60371e+06,0,0,0,2128,2264
1.61069e+06,0,0,0,2064,2328
1.61069e+06,0,0,0,2000,2392
1.61129e+06,0,0,0,1936,2456
1.61129e+06,0,0,0,1872,2520
1.61129e+06,0,0,0,1808,2584
1.61132e+06,0,0,0,1872,2520
1.61135e+06,0,0,0,1936,2456
1.61135e+06,0,0,0,2000,2392
1.61137e+06,0,0,0,2064,2328
1.6114e+06,0,0,0,2128,2264
1.61189e+06,0,0,0,2064,2328
1.61189e+06,0,0,0,2000,2392
1.61189e+06,0,0,0,1936,2456
1.6119e+06,0,0,0,1872,2520
1.6119e+06,0,0,0,1808,2584
1.61194e+06,0,0,0,1872,2520
1.61196e+06,0,0,0,1936,2456
1.61196e+06,0,0,0,2000,2392
1.61196e+06,0,0,0,2064,2328
1.6122e+06,0,0,0,1552,2840
1.61256e+06,0,0,0,1616,2776
1.61257e+06,0,0,0,1680,2712
1.61258e+06,0,0,0,1744,2648
1.61286e+06,0,0,0,1808,2584
1.61301e+06,0,0,0,1832,2560
1.62249e+06,0,0,0,1896,2496
1.62306e+06,0,0,0,1960,2432
1.62358e+06,0,0,0,2024,2368
1.62432e+06,0,0,0,2088,2304
1.63231e+06,0,0,0,2024,2368
1.63239e+06,0,0,0,2088,2304
1.6324e+06,0,0,0,2152,2240
1.63291e+06,0,0,0,2536,1856
1.63291e+06,0,0,0,2472,1920
1.63297e+06,0,0,0,2536,1856
1.63352e+06,0,0,0,2472,1920
1.63358e+06,0,0,0,2536,1856
1.63358e+06,0,0,0,2600,1792
1.63359e+06,0,0,0,2664,1728
1.63391e+06,0,0,0,3176,1216
1.63392e+06,0,0,0,3152,1240
1.64373e+06,0,0,0,3088,1304
1.64374e+06,0,0,0,3024,1368
1.64374e+06,0,0,0,2960,1432
1.64411e+06,0,0,0,3024,1368
1.64434e+06,0,0,0,2960,1432
1.64555e+06,0,0,0,2896,1496
1.64616e+06,0,0,0,2832,1560
1.64616e+06,0,0,0,2768,1624
1.64616e+06,0,0,0,2704,1688
1.64677e+06,0,0,0,2640,1752
1.64728e+06,0,0,0,2664,1728
1.65459e+06,0,0,0,2728,1664
1.65518e+06,0,0,0,2664,1728
1.65519e+06,0,0,0,2728,1664
1.65588e+06,0,0,0,2472,1920
1.65611e+06,0,0,0,2344,2048
1.6564e+06,0,0,0,2216,2176
1.65643e+06,0,0,0,2088,2304
1.65699e+06,0,0,0,2024,2368
1.65786e+06,0,0,0,1768,2624
1.66283e+06,0,0,0,1256,3136
1.66322e+06,0,0,0,1232,3160
1.66361e+06,0,0,0,1168,3224
1.66541e+06,0,0,0,1232,3160
1.66543e+06,0,0,0,1296,3096
1.66544e+06,0,0,0,1360,3032
1.66603e+06,0,0,0,1424,2968
1.66661e+06,0,0,0,1360,3032
1.66722e+06,0,0,0,1296,3096
1.66726e+06,0,0,0,1360,3032
1.66783e+06,0,0,0,1296,3096
1.66786e+06,0,0,0,1360,3032
1.66787e+06,0,0,0,1424,2968
1.66787e+06,0,0,0,1488,2904
1.66821e+06,0,0,0,1744,2648
1.66844e+06,0,0,0,1680,2712
1.66847e+06,0,0,0,1744,2648
1.66905e+06,0,0,0,1680,2712
1.66906e+06,0,0,0,1616,2776
1.66906e+06,0,0,0,1552,2840
1.66919e+06,0,0,0,1808,2584
1.66966e+06,0,0,0,1744,2648
1.67076e+06,0,0,0,1360,3032
1.67443e+06,0,0,0,1424,2968
1.67657e+06,0,0,0,2448,1944
1.67663e+06,0,0,0,2472,1920
1.67685e+06,0,0,0,2536,1856
1.67687e+06,0,0,0,2472,1920
1.67687e+06,0,0,0,2408,1984
1.67687e+06,0,0,0,2344,2048
1.67747e+06,0,0,0,2280,2112
1.67747e+06,0,0,0,2216,2176
1.67748e+06,0,0,0,2152,2240
1.67779e+06,0,0,0,2280,2112
1.67809e+06,0,0,0,2408,1984
1.67813e+06,0,0,0,2536,1856
1.67867e+06,0,0,0,2600,1792
1.67928e+06,0,0,0,2536,1856
1.67952e+06,0,0,0,2472,1920
1.67952e+06,0,0,0,2408,1984
1.67952e+06,0,0,0,2344,2048
1.67952e+06,0,0,0,2280,2112
1.68195e+06,0,0,0,2024,2368
1.68203e+06,0,0,0,1624,2768
1.68454e+06,0,0,0,2136,2256
1.68829e+06,0,0,0,2200,2192
1.6883e+06,0,0,0,2136,2256
1.68891e+06,0,0,0,2200,2192
1.68952e+06,0,0,0,2264,2128
1.6901e+06,0,0,0,2200,2192
1.69012e+06,0,0,0,2264,2128
1.69071e+06,0,0,0,2200,2192
1.69073e+06,0,0,0,2264,2128
1.69074e+06,0,0,0,2328,2064
1.69077e+06,0,0,0,2392,2000
1.69134e+06,0,0,0,2456,1936
1.69257e+06,0,0,0,2712,1680
1.69402e+06,0,0,0,2776,1616
1.69402e+06,0,0,0,2840,1552
1.69402e+06,0,0,0,2904,1488
1.69404e+06,0,0,0,2968,1424
1.69659e+06,0,0,0,3368,1024
1.69855e+06,0,0,0,3432,960
1.69856e+06,0,0,0,3496,896
1.69856e+06,0,0,0,3560,832
1.69912e+06,0,0,0,3496,896
1.69912e+06,0,0,0,3432,960
1.69913e+06,0,0,0,3368,1024
1.69915e+06,0,0,0,3432,960
1.69916e+06,0,0,0,3496,896
1.69917e+06,0,0,0,3560,832
1.69973e+06,0,0,0,3496,896
1.70059e+06,0,0,0,3240,1152
1.70094e+06,0,0,0,3176,1216
1.70098e+06,0,0,0,3240,1152
1.70275e+06,0,0,0,3176,1216
1.70552e+06,0,0,0,3095,1297
1.70553e+06,0,0,0,3014,1378
1.70554e+06,0,0,0,2933,1459
1.70555e+06,0,0,0,2852,1540
1.70557e+06,0,0,0,2771,1621
1.70558e+06,0,0,0,2690,1702
1.70559e+06,0,0,0,2609,1783
1.7056e+06,0,0,0,2528,1864
1.70561e+06,0,0,0,2447,1945
1.70562e+06,0,0,0,2366,2026
1.70564e+06,0,0,0,2285,2107
1.70998e+06,0,0,0,2349,2043
1.7102e+06,0,0,0,2221,2171
1.71116e+06,0,0,0,2157,2235
1.71176e+06,0,0,0,2093,2299
1.71178e+06,0,0,0,2157,2235
1.71237e+06,0,0,0,2093,2299
1.71239e+06,0,0,0,2157,2235
1.71297e+06,0,0,0,2093,2299
1.71298e+06,0,0,0,2029,2363
1.71298e+06,0,0,0,1965,2427
1.71501e+06,0,0,0,2349,2043
1.71797e+06,0,0,0,2430,1962
1.71806e+06,0,0,0,2302,2090
1.71806e+06,0,0,0,2174,2218
1.71807e+06,0,0,0,2046,2346
1.71807e+06,0,0,0,2127,2265
1.71809e+06,0,0,0,2208,2184
1.71811e+06,0,0,0,2289,2103
1.71813e+06,0,0,0,2370,2022
1.71814e+06,0,0,0,2451,1941
1.71817e+06,0,0,0,2532,1860
1.71826e+06,0,0,0,2613,1779
1.71912e+06,0,0,0,2485,1907
1.72005e+06,0,0,0,2566,1826
1.72008e+06,0,0,0,2647,1745
1.72015e+06,0,0,0,2728,1664
1.72078e+06,0,0,0,2664,1728
1.7208e+06,0,0,0,2728,1664
1.7208e+06,0,0,0,2792,1600
1.72081e+06,0,0,0,2856,1536
1.72138e+06,0,0,0,2792,1600
1.72139e+06,0,0,0,2728,1664
1.7214e+06,0,0,0,2664,1728
1.72142e+06,0,0,0,2728,1664
1.72208e+06,0,0,0,2856,1536
1.72228e+06,0,0,0,3112,1280
1.72264e+06,0,0,0,3176,1216
1.72443e+06,0,0,0,3240,1152
1.72537e+06,0,0,0,3304,1088
1.72816e+06,0,0,0,3432,960
1.72838e+06,0,0,0,3560,832
1.72855e+06,0,0,0,3688,704
1.73154e+06,0,0,0,3752,640
1.73284e+06,0,0,0,3816,576
1.73332e+06,0,0,0,3880,512
1.73346e+06,0,0,0,3944,448
1.73405e+06,0,0,0,4008,384
1.73466e+06,0,0,0,4072,320
1.73659e+06,0,0,0,4008,384
1.73661e+06,0,0,0,3944,448
1.73662e+06,0,0,0,3880,512
1.73662e+06,0,0,0,3816,576
1.73662e+06,0,0,0,3752,640
1.73666e+06,0,0,0,3688,704
1.73672e+06,0,0,0,3624,768
1.73673e+06,0,0,0,3560,832
1.73674e+06,0,0,0,3496,896
1.73674e+06,0,0,0,3432,960
1.73675e+06,0,0,0,3368,1024
1.73684e+06,0,0,0,3304,1088
1.73685e+06,0,0,0,3240,1152
1.73686e+06,0,0,0,3176,1216
1.73686e+06,0,0,0,3112,1280
1.73686e+06,0,0,0,3048,1344
1.73694e+06,0,0,0,2984,1408
1.73832e+06,0,0,0,2600,1792
1.73983e+06,0,0,0,2664,1728
1.74015e+06,0,0,0,2728,1664
1.74071e+06,0,0,0,2792,1600
1.74177e+06,0,0,0,2920,1472
1.74507e+06,0,0,0,2664,1728
1.74508e+06,0,0,0,2536,1856
1.74527e+06,0,0,0,1536,2856
1.74753e+06,0,0,0,1600,2792
1.74754e+06,0,0,0,1664,2728
1.74754e+06,0,0,0,1728,2664
1.74757e+06,0,0,0,1792,2600
1.74757e+06,0,0,0,1856,2536
1.74758e+06,0,0,0,1920,2472
1.74975e+06,0,0,0,1984,2408
1.75016e+06,0,0,0,2048,2344
1.75081e+06,0,0,0,1792,2600
1.7512e+06,0,0,0,1856,2536
1.75123e+06,0,0,0,1920,2472
1.75123e+06,0,0,0,1984,2408
1.75125e+06,0,0,0,2048,2344
1.75134e+06,0,0,0,2112,2280
1.75136e+06,0,0,0,2176,2216
1.75148e+06,0,0,0,2240,2152
1.75192e+06,0,0,0,2304,2088
1.75229e+06,0,0,0,2223,2169
1.75229e+06,0,0,0,2142,2250
1.75246e+06,0,0,0,1886,2506
1.75247e+06,0,0,0,1630,2762
1.75348e+06,0,0,0,1694,2698
1.75573e+06,0,0,0,1662,2730
1.7583e+06,0,0,0,1918,2474
1.76011e+06,0,0,0,894,3498
1.76061e+06,0,0,0,1022,3370
1.76278e+06,0,0,0,1278,3114
1.76278e+06,0,0,0,254,4138
1.76278e+06,0,0,0,238,4154
1.76278e+06,0,0,0,222,4170
1.76278e+06,0,0,0,206,4186
1.76278e+06,0,0,0,190,4202
1.76278e+06,0,0,0,174,4218
1.76281e+06,0,0,0,110,4282
1.76283e+06,0,0,0,46,4346
1.76365e+06,0,0,0,1046,3346
1.76365e+06,0,0,0,982,3410
1.76365e+06,0,0,0,918,3474
1.76434e+06,0,0,0,886,3506
1.76471e+06,0,0,0,1142,3250
1.76518e+06,0,0,0,886,3506
1.76519e+06,0,0,0,630,3762
1.76571e+06,0,0,0,886,3506
1.76676e+06,0,0,0,967,3425
1.76681e+06,0,0,0,1048,3344
1.7694e+06,0,0,0,920,3472
1.77023e+06,0,0,0,952,3440
1.77097e+06,0,0,0,696,3696
1.77561e+06,0,0,0,440,3952
1.77563e+06,0,0,0,184,4208
1.77612e+06,0,0,0,200,4192
1.77726e+06,0,0,0,216,4176
1.77726e+06,0,0,0,232,4160
1.77729e+06,0,0,0,296,4096
1.77731e+06,0,0,0,312,4080
1.77733e+06,0,0,0,376,4016
1.77733e+06,0,0,0,392,4000
1.7776e+06,0,0,0,648,3744
1.77813e+06,0,0,0,712,3680
1.77814e+06,0,0,0,776,3616
1.77852e+06,0,0,0,1032,3360
1.77873e+06,0,0,0,968,3424
1.77882e+06,0,0,0,1000,3392
1.78162e+06,0,0,0,1384,3008
1.7829e+06,0,0,0,1640,2752
1.7839e+06,0,0,0,1768,2624
1.78893e+06,0,0,0,2024,2368
1.78943e+06,0,0,0,2280,2112
1.79415e+06,0,0,0,2344,2048
1.79467e+06,0,0,0,3368,1024
1.82019e+06,0,0,0,4392,0
