time,nb_sleeping,nb_switching_on,nb_switching_off,nb_idle,nb_computing
0.00240003,0,0,0,4136,256
0.00300004,0,0,0,4072,320
0.00360005,0,0,0,4008,384
0.00420006,0,0,0,3944,448
0.00480006,0,0,0,3880,512
0.00540007,0,0,0,3816,576
0.00600008,0,0,0,3752,640
0.00660009,0,0,0,3688,704
0.0072001,0,0,0,3624,768
0.0078001,0,0,0,3560,832
0.00840011,0,0,0,3432,960
0.00900012,0,0,0,3304,1088
0.00960013,0,0,0,3048,1344
0.0102001,0,0,0,2920,1472
0.0108001,0,0,0,2792,1600
0.0114002,0,0,0,2408,1984
0.0120002,0,0,0,2280,2112
0.0126002,0,0,0,2216,2176
0.0132002,0,0,0,2152,2240
0.0138002,0,0,0,2088,2304
0.0144002,0,0,0,2024,2368
0.0150002,0,0,0,1960,2432
0.0156002,0,0,0,1832,2560
0.0162002,0,0,0,1768,2624
0.0168002,0,0,0,1704,2688
0.0174002,0,0,0,1640,2752
0.0180002,0,0,0,1256,3136
0.0186002,0,0,0,232,4160
0.0192003,0,0,0,104,4288
20498,0,0,0,360,4032
20501,0,0,0,232,4160
20501,0,0,0,104,4288
20857,0,0,0,168,4224
20860,0,0,0,40,4352
21143,0,0,0,104,4288
21146,0,0,0,40,4352
21672,0,0,0,104,4288
21675,0,0,0,40,4352
21675,0,0,0,168,4224
21677,0,0,0,296,4096
21679,0,0,0,552,3840
21682,0,0,0,616,3776
21684,0,0,0,680,3712
21685,0,0,0,744,3648
21686,0,0,0,872,3520
21690,0,0,0,1000,3392
21690,0,0,0,1128,3264
21691,0,0,0,1192,3200
21691,0,0,0,1256,3136
21693,0,0,0,1384,3008
21693,0,0,0,1512,2880
21698,0,0,0,1576,2816
21704,0,0,0,1640,2752
21705,0,0,0,1704,2688
21706,0,0,0,1768,2624
21726,0,0,0,1704,2688
21726,0,0,0,1640,2752
21726,0,0,0,1576,2816
21726,0,0,0,1512,2880
21726,0,0,0,1448,2944
21726,0,0,0,1384,3008
21726,0,0,0,1320,3072
21726,0,0,0,1256,3136
21726,0,0,0,1192,3200
21726,0,0,0,1128,3264
21726,0,0,0,1064,3328
21726,0,0,0,936,3456
21726,0,0,0,552,3840
22122,0,0,0,488,3904
22598,0,0,0,552,3840
22616,0,0,0,616,3776
22635,0,0,0,680,3712
22726,0,0,0,616,3776
22791,0,0,0,680,3712
22828,0,0,0,744,3648
23333,0,0,0,680,3712
23938,0,0,0,616,3776
24541,0,0,0,552,3840
25144,0,0,0,488,3904
25747,0,0,0,424,3968
26348,0,0,0,360,4032
26955,0,0,0,296,4096
27864,0,0,0,168,4224
33323,0,0,0,104,4288
34526,0,0,0,40,4352
42558,0,0,0,168,4224
42561,0,0,0,104,4288
43084,0,0,0,488,3904
43143,0,0,0,616,3776
43298,0,0,0,744,3648
43305,0,0,0,1128,3264
43398,0,0,0,1192,3200
43405,0,0,0,1256,3136
43408,0,0,0,1384,3008
43418,0,0,0,1448,2944
43441,0,0,0,1512,2880
43935,0,0,0,1576,2816
44318,0,0,0,1640,2752
44323,0,0,0,1704,2688
44348,0,0,0,1768,2624
44349,0,0,0,1832,2560
44454,0,0,0,1896,2496
44473,0,0,0,1960,2432
44505,0,0,0,2024,2368
44533,0,0,0,2088,2304
44898,0,0,0,2152,2240
45031,0,0,0,2216,2176
45344,0,0,0,2280,2112
46226,0,0,0,2344,2048
46556,0,0,0,2408,1984
46832,0,0,0,2472,1920
47454,0,0,0,2536,1856
48023,0,0,0,2600,1792
48646,0,0,0,2664,1728
50475,0,0,0,2792,1600
51644,0,0,0,2664,1728
55927,0,0,0,2728,1664
56202,0,0,0,2792,1600
57169,0,0,0,2664,1728
64239,0,0,0,2728,1664
65003,0,0,0,3112,1280
69790,0,0,0,2600,1792
73346,0,0,0,2728,1664
73779,0,0,0,2664,1728
74208,0,0,0,2536,1856
74980,0,0,0,2472,1920
75582,0,0,0,2408,1984
76183,0,0,0,2344,2048
77385,0,0,0,2280,2112
77989,0,0,0,2216,2176
78869,0,0,0,2344,2048
79092,0,0,0,1944,2448
79790,0,0,0,1880,2512
80456,0,0,0,1496,2896
82684,0,0,0,1368,3024
83992,0,0,0,1304,3088
87417,0,0,0,2328,2064
88194,0,0,0,2264,2128
88826,0,0,0,2200,2192
95915,0,0,0,2328,2064
96387,0,0,0,2392,2000
97769,0,0,0,2456,1936
98319,0,0,0,2520,1872
98789,0,0,0,2584,1808
99070,0,0,0,2648,1744
99689,0,0,0,2712,1680
101490,0,0,0,2776,1616
104393,0,0,0,2904,1488
104422,0,0,0,2776,1616
105638,0,0,0,2712,1680
106247,0,0,0,2648,1744
106604,0,0,0,1624,2768
106632,0,0,0,1688,2704
106849,0,0,0,1624,2768
109885,0,0,0,1688,2704
110537,0,0,0,1752,2640
111059,0,0,0,1688,2704
112322,0,0,0,2200,2192
117664,0,0,0,2136,2256
118270,0,0,0,2072,2320
118877,0,0,0,2008,2384
122390,0,0,0,2408,1984
124696,0,0,0,2792,1600
126131,0,0,0,2920,1472
127324,0,0,0,2984,1408
127959,0,0,0,3048,1344
128556,0,0,0,3112,1280
129688,0,0,0,3048,1344
130296,0,0,0,2984,1408
132769,0,0,0,3048,1344
137538,0,0,0,2664,1728
137721,0,0,0,2536,1856
138583,0,0,0,2408,1984
139353,0,0,0,2472,1920
139942,0,0,0,2536,1856
140559,0,0,0,2600,1792
147109,0,0,0,2536,1856
147717,0,0,0,2472,1920
148326,0,0,0,2408,1984
148931,0,0,0,2344,2048
149538,0,0,0,2280,2112
150146,0,0,0,2216,2176
150753,0,0,0,2152,2240
151359,0,0,0,2088,2304
151375,0,0,0,2152,2240
151980,0,0,0,2216,2176
159408,0,0,0,2344,2048
159452,0,0,0,2216,2176
159761,0,0,0,2152,2240
160370,0,0,0,2088,2304
161213,0,0,0,2216,2176
161704,0,0,0,2088,2304
167911,0,0,0,1704,2688
168773,0,0,0,1640,2752
168795,0,0,0,1704,2688
169376,0,0,0,1640,2752
169391,0,0,0,1704,2688
169770,0,0,0,1640,2752
169774,0,0,0,1576,2816
169777,0,0,0,1512,2880
169789,0,0,0,1448,2944
169808,0,0,0,1384,3008
169987,0,0,0,1320,3072
170006,0,0,0,1384,3008
170589,0,0,0,1320,3072
171199,0,0,0,1256,3136
171560,0,0,0,1320,3072
171807,0,0,0,1256,3136
171837,0,0,0,1320,3072
172382,0,0,0,1384,3008
172417,0,0,0,1320,3072
173021,0,0,0,1256,3136
173416,0,0,0,1320,3072
174161,0,0,0,1384,3008
179125,0,0,0,1000,3392
180822,0,0,0,1384,3008
181133,0,0,0,1512,2880
181185,0,0,0,1384,3008
181431,0,0,0,1320,3072
181443,0,0,0,1384,3008
182032,0,0,0,1320,3072
183194,0,0,0,1384,3008
183410,0,0,0,1512,2880
187822,0,0,0,1384,3008
188697,0,0,0,1256,3136
190473,0,0,0,1320,3072
191038,0,0,0,1256,3136
191075,0,0,0,1320,3072
191372,0,0,0,1192,3200
191455,0,0,0,1256,3136
191476,0,0,0,1320,3072
191477,0,0,0,1384,3008
191501,0,0,0,1448,2944
191641,0,0,0,1384,3008
191686,0,0,0,1448,2944
192246,0,0,0,1384,3008
192289,0,0,0,1448,2944
192366,0,0,0,1512,2880
193075,0,0,0,2536,1856
193248,0,0,0,2472,1920
193250,0,0,0,2408,1984
193801,0,0,0,2472,1920
194587,0,0,0,2536,1856
195212,0,0,0,2600,1792
195582,0,0,0,2200,2192
195833,0,0,0,2264,2128
196164,0,0,0,1864,2528
196191,0,0,0,1464,2928
196200,0,0,0,1064,3328
197031,0,0,0,664,3728
197069,0,0,0,600,3792
197673,0,0,0,536,3856
198285,0,0,0,472,3920
198890,0,0,0,408,3984
198927,0,0,0,8,4384
202867,0,0,0,136,4256
202870,0,0,0,72,4320
203719,0,0,0,136,4256
204032,0,0,0,200,4192
207431,0,0,0,72,4320
209516,0,0,0,200,4192
211107,0,0,0,328,4064
211189,0,0,0,712,3680
212738,0,0,0,776,3616
213061,0,0,0,904,3488
213337,0,0,0,968,3424
213845,0,0,0,1032,3360
213943,0,0,0,1096,3296
214426,0,0,0,712,3680
214498,0,0,0,776,3616
216166,0,0,0,1160,3232
217268,0,0,0,1560,2832
217854,0,0,0,1960,2432
217871,0,0,0,2360,2032
217899,0,0,0,2760,1632
218000,0,0,0,2632,1760
218715,0,0,0,3032,1360
218790,0,0,0,3096,1296
219353,0,0,0,3160,1232
219743,0,0,0,3032,1360
219969,0,0,0,3096,1296
220580,0,0,0,3160,1232
220603,0,0,0,3560,832
221485,0,0,0,3432,960
224559,0,0,0,3496,896
230201,0,0,0,3624,768
232540,0,0,0,3496,896
233117,0,0,0,3432,960
233724,0,0,0,3368,1024
234332,0,0,0,3304,1088
234941,0,0,0,3240,1152
235543,0,0,0,3176,1216
236144,0,0,0,3112,1280
236749,0,0,0,3048,1344
237356,0,0,0,2984,1408
237959,0,0,0,2920,1472
238561,0,0,0,2856,1536
239321,0,0,0,2984,1408
241043,0,0,0,3112,1280
244023,0,0,0,3240,1152
251650,0,0,0,3176,1216
251654,0,0,0,3112,1280
251656,0,0,0,3048,1344
251658,0,0,0,2984,1408
251692,0,0,0,2920,1472
251696,0,0,0,2856,1536
251697,0,0,0,2792,1600
251701,0,0,0,2728,1664
251716,0,0,0,2664,1728
254234,0,0,0,2792,1600
254764,0,0,0,2664,1728
254806,0,0,0,2728,1664
255424,0,0,0,2792,1600
256009,0,0,0,2856,1536
256623,0,0,0,2920,1472
257166,0,0,0,2856,1536
257219,0,0,0,2920,1472
257724,0,0,0,3304,1088
257852,0,0,0,3368,1024
258424,0,0,0,3432,960
259046,0,0,0,3496,896
259661,0,0,0,3560,832
260263,0,0,0,3624,768
260299,0,0,0,3224,1168
260344,0,0,0,2824,1568
260361,0,0,0,2424,1968
260397,0,0,0,2024,2368
260581,0,0,0,1624,2768
260601,0,0,0,1224,3168
261974,0,0,0,1160,3232
262575,0,0,0,1096,3296
263182,0,0,0,1032,3360
263788,0,0,0,968,3424
264398,0,0,0,904,3488
265005,0,0,0,840,3552
265607,0,0,0,776,3616
266214,0,0,0,712,3680
266816,0,0,0,648,3744
267798,0,0,0,584,3808
267802,0,0,0,520,3872
267806,0,0,0,456,3936
269048,0,0,0,72,4320
273342,0,0,0,136,4256
273346,0,0,0,200,4192
273351,0,0,0,264,4128
273369,0,0,0,328,4064
273387,0,0,0,392,4000
273390,0,0,0,8,4384
273394,0,0,0,72,4320
273400,0,0,0,136,4256
273409,0,0,0,200,4192
273419,0,0,0,264,4128
276476,0,0,0,392,4000
276567,0,0,0,264,4128
278877,0,0,0,328,4064
281979,0,0,0,728,3664
281982,0,0,0,344,4048
282034,0,0,0,744,3648
282045,0,0,0,1144,3248
282088,0,0,0,1544,2848
282269,0,0,0,1944,2448
282281,0,0,0,2344,2048
283658,0,0,0,2408,1984
284260,0,0,0,2472,1920
284868,0,0,0,2536,1856
285333,0,0,0,2136,2256
285442,0,0,0,1736,2656
285490,0,0,0,1800,2592
285496,0,0,0,1400,2992
286103,0,0,0,1464,2928
286733,0,0,0,1528,2864
287284,0,0,0,1592,2800
287912,0,0,0,1656,2736
288525,0,0,0,1720,2672
288534,0,0,0,1784,2608
289499,0,0,0,1848,2544
289511,0,0,0,1912,2480
298260,0,0,0,2040,2352
298287,0,0,0,1912,2480
299182,0,0,0,2296,2096
307014,0,0,0,2696,1696
307134,0,0,0,3096,1296
307183,0,0,0,3496,896
315146,0,0,0,3112,1280
316038,0,0,0,3496,896
319978,0,0,0,3624,768
320140,0,0,0,3496,896
325273,0,0,0,3880,512
329694,0,0,0,3496,896
341830,0,0,0,3624,768
341934,0,0,0,3496,896
343838,0,0,0,3432,960
343857,0,0,0,3368,1024
343861,0,0,0,3304,1088
349339,0,0,0,3104,1288
358442,0,0,0,3488,904
359522,0,0,0,2976,1416
363606,0,0,0,3104,1288
363671,0,0,0,2976,1416
364735,0,0,0,2912,1480
364740,0,0,0,2848,1544
364754,0,0,0,2784,1608
365551,0,0,0,2848,1544
365568,0,0,0,2912,1480
365568,0,0,0,2976,1416
371017,0,0,0,3176,1216
372972,0,0,0,3560,832
378554,0,0,0,3496,896
378557,0,0,0,3432,960
378568,0,0,0,3368,1024
382392,0,0,0,3880,512
383318,0,0,0,3496,896
383479,0,0,0,3112,1280
385377,0,0,0,3240,1152
385425,0,0,0,3112,1280
386415,0,0,0,3176,1216
386438,0,0,0,3240,1152
386463,0,0,0,3304,1088
399210,0,0,0,2920,1472
400235,0,0,0,2984,1408
400255,0,0,0,3048,1344
400259,0,0,0,3112,1280
407115,0,0,0,3240,1152
407199,0,0,0,3112,1280
417681,0,0,0,3496,896
420311,0,0,0,3880,512
426764,0,0,0,4264,128
428880,0,0,0,4392,0
512541,0,0,0,4008,384
512670,0,0,0,3880,512
523046,0,0,0,3368,1024
534335,0,0,0,3496,896
546401,0,0,0,4008,384
555823,0,0,0,4392,0
558539,0,0,0,4008,384
558672,0,0,0,3624,768
572786,0,0,0,3240,1152
580387,0,0,0,3624,768
589537,0,0,0,4008,384
603171,0,0,0,3944,448
603175,0,0,0,3880,512
603200,0,0,0,3816,576
603212,0,0,0,3752,640
603307,0,0,0,3688,704
603309,0,0,0,3624,768
606363,0,0,0,3224,1168
614220,0,0,0,2840,1552
616078,0,0,0,3224,1168
616663,0,0,0,2840,1552
624858,0,0,0,2904,1488
624860,0,0,0,2968,1424
625004,0,0,0,3032,1360
625812,0,0,0,3096,1296
625913,0,0,0,3160,1232
625966,0,0,0,3224,1168
626378,0,0,0,3624,768
631249,0,0,0,3224,1168
652928,0,0,0,3624,768
656690,0,0,0,3240,1152
657503,0,0,0,3624,768
659934,0,0,0,4008,384
684984,0,0,0,3624,768
685112,0,0,0,3240,1152
687883,0,0,0,3112,1280
692573,0,0,0,2712,1680
699975,0,0,0,3096,1296
704017,0,0,0,2712,1680
704289,0,0,0,2584,1808
709562,0,0,0,2712,1680
715204,0,0,0,3112,1280
725573,0,0,0,2896,1496
726170,0,0,0,3280,1112
726882,0,0,0,3408,984
727673,0,0,0,3008,1384
728258,0,0,0,3392,1000
729908,0,0,0,3008,1384
732167,0,0,0,2960,1432
747253,0,0,0,3176,1216
747264,0,0,0,3560,832
749346,0,0,0,3960,432
753841,0,0,0,4008,384
754847,0,0,0,3624,768
770718,0,0,0,3496,896
773177,0,0,0,3880,512
776686,0,0,0,3496,896
783187,0,0,0,2824,1568
792414,0,0,0,2952,1440
797890,0,0,0,2824,1568
798121,0,0,0,3208,1184
803894,0,0,0,3080,1312
819572,0,0,0,3208,1184
819960,0,0,0,3592,800
825563,0,0,0,3720,672
825648,0,0,0,3336,1056
827722,0,0,0,3208,1184
849396,0,0,0,3336,1056
849455,0,0,0,3208,1184
857686,0,0,0,2808,1584
857775,0,0,0,2424,1968
858265,0,0,0,2024,2368
860965,0,0,0,1512,2880
861036,0,0,0,1384,3008
868914,0,0,0,1768,2624
869673,0,0,0,2440,1952
871122,0,0,0,2568,1824
871181,0,0,0,2440,1952
874473,0,0,0,2312,2080
879366,0,0,0,2712,1680
879934,0,0,0,3112,1280
882641,0,0,0,3624,768
882708,0,0,0,3752,640
884643,0,0,0,3080,1312
890309,0,0,0,2952,1440
892850,0,0,0,3080,1312
896161,0,0,0,3208,1184
899447,0,0,0,3080,1312
901045,0,0,0,3464,928
905312,0,0,0,3336,1056
911981,0,0,0,3464,928
921116,0,0,0,3592,800
922879,0,0,0,3208,1184
926988,0,0,0,3336,1056
938028,0,0,0,3208,1184
938319,0,0,0,3080,1312
949455,0,0,0,2568,1824
955905,0,0,0,2468,1924
959602,0,0,0,2368,2024
959703,0,0,0,2496,1896
959996,0,0,0,2624,1768
961392,0,0,0,2592,1800
962366,0,0,0,2560,1832
966165,0,0,0,2944,1448
967689,0,0,0,2560,1832
971110,0,0,0,3232,1160
973040,0,0,0,3744,648
977582,0,0,0,3844,548
981295,0,0,0,3944,448
983067,0,0,0,3976,416
984040,0,0,0,4008,384
988516,0,0,0,4392,0
996762,0,0,0,3992,400
997040,0,0,0,3592,800
997591,0,0,0,3192,1200
1.00129e+06,0,0,0,2792,1600
1.01843e+06,0,0,0,3192,1200
1.01872e+06,0,0,0,3592,800
1.01927e+06,0,0,0,3992,400
1.02297e+06,0,0,0,4392,0
1.03129e+06,0,0,0,4264,128
1.0313e+06,0,0,0,4136,256
1.03131e+06,0,0,0,4008,384
1.03131e+06,0,0,0,3880,512
1.03132e+06,0,0,0,3752,640
1.03132e+06,0,0,0,3624,768
1.03154e+06,0,0,0,3224,1168
1.03167e+06,0,0,0,2824,1568
1.03221e+06,0,0,0,2424,1968
1.03401e+06,0,0,0,2024,2368
1.03441e+06,0,0,0,1896,2496
1.03792e+06,0,0,0,1800,2592
1.03815e+06,0,0,0,1700,2692
1.03867e+06,0,0,0,1572,2820
1.04555e+06,0,0,0,1444,2948
1.04796e+06,0,0,0,1044,3348
1.04803e+06,0,0,0,644,3748
1.05295e+06,0,0,0,772,3620
1.05298e+06,0,0,0,900,3492
1.05299e+06,0,0,0,1028,3364
1.053e+06,0,0,0,1156,3236
1.05302e+06,0,0,0,1284,3108
1.05303e+06,0,0,0,1412,2980
1.05303e+06,0,0,0,1028,3364
1.05321e+06,0,0,0,1428,2964
1.05336e+06,0,0,0,1828,2564
1.0561e+06,0,0,0,1956,2436
1.05962e+06,0,0,0,2052,2340
1.05982e+06,0,0,0,2152,2240
1.06035e+06,0,0,0,2280,2112
1.06138e+06,0,0,0,1608,2784
1.06722e+06,0,0,0,1736,2656
1.06852e+06,0,0,0,2136,2256
1.0687e+06,0,0,0,1736,2656
1.06968e+06,0,0,0,2136,2256
1.06972e+06,0,0,0,2536,1856
1.07108e+06,0,0,0,2936,1456
1.07122e+06,0,0,0,2904,1488
1.07154e+06,0,0,0,2872,1520
1.07261e+06,0,0,0,2744,1648
1.08288e+06,0,0,0,2344,2048
1.0892e+06,0,0,0,1944,2448
1.09289e+06,0,0,0,1976,2416
1.0941e+06,0,0,0,2008,2384
1.0943e+06,0,0,0,2136,2256
1.09633e+06,0,0,0,2520,1872
1.10127e+06,0,0,0,2920,1472
1.10213e+06,0,0,0,2520,1872
1.10552e+06,0,0,0,2920,1472
1.11091e+06,0,0,0,3320,1072
1.11216e+06,0,0,0,2808,1584
1.11514e+06,0,0,0,2680,1712
1.11515e+06,0,0,0,2552,1840
1.11517e+06,0,0,0,2424,1968
1.11753e+06,0,0,0,2392,2000
1.11958e+06,0,0,0,2360,2032
1.13077e+06,0,0,0,2760,1632
1.13389e+06,0,0,0,2632,1760
1.1339e+06,0,0,0,2504,1888
1.13683e+06,0,0,0,2632,1760
1.13683e+06,0,0,0,2760,1632
1.13688e+06,0,0,0,2888,1504
1.13921e+06,0,0,0,2920,1472
1.14116e+06,0,0,0,2342,2050
1.1413e+06,0,0,0,2374,2018
1.14171e+06,0,0,0,1974,2418
1.14788e+06,0,0,0,2646,1746
1.15427e+06,0,0,0,1622,2770
1.15544e+06,0,0,0,2134,2258
1.15558e+06,0,0,0,2262,2130
1.1556e+06,0,0,0,2390,2002
1.16285e+06,0,0,0,2968,1424
1.17717e+06,0,0,0,3368,1024
1.18987e+06,0,0,0,4392,0
1.19474e+06,0,0,0,3368,1024
1.19521e+06,0,0,0,2344,2048
1.2059e+06,0,0,0,2088,2304
1.20935e+06,0,0,0,1576,2816
1.20959e+06,0,0,0,1176,3216
1.21327e+06,0,0,0,1080,3312
1.21565e+06,0,0,0,680,3712
1.22759e+06,0,0,0,936,3456
1.23499e+06,0,0,0,1032,3360
1.235e+06,0,0,0,1024,3368
1.2355e+06,0,0,0,1016,3376
1.24842e+06,0,0,0,2040,2352
1.24872e+06,0,0,0,2440,1952
1.25265e+06,0,0,0,2952,1440
1.25287e+06,0,0,0,3352,1040
1.25762e+06,0,0,0,3360,1032
1.25809e+06,0,0,0,3368,1024
1.26197e+06,0,0,0,2856,1536
1.28107e+06,0,0,0,3880,512
1.28913e+06,0,0,0,3872,520
1.29087e+06,0,0,0,4384,8
1.30942e+06,0,0,0,4392,0
