time,nb_sleeping,nb_switching_on,nb_switching_off,nb_idle,nb_computing
0.00240003,0,0,0,4067,325
0.00300004,0,0,0,3555,837
0.00360005,0,0,0,3043,1349
0.00420006,0,0,0,2787,1605
0.00480006,0,0,0,2531,1861
0.00540007,0,0,0,2275,2117
0.00600008,0,0,0,2147,2245
0.00660009,0,0,0,2019,2373
0.0072001,0,0,0,1891,2501
0.0078001,0,0,0,1763,2629
0.00840011,0,0,0,1635,2757
0.00900012,0,0,0,611,3781
0.00960013,0,0,0,355,4037
0.0102001,0,0,0,227,4165
0.0108001,0,0,0,99,4293
10206,0,0,0,355,4037
10261,0,0,0,483,3909
10523,0,0,0,611,3781
10821,0,0,0,739,3653
10823,0,0,0,1064,3328
10827,0,0,0,40,4352
10854,0,0,0,168,4224
10861,0,0,0,296,4096
10864,0,0,0,40,4352
10878,0,0,0,168,4224
10914,0,0,0,296,4096
10917,0,0,0,40,4352
11458,0,0,0,552,3840
11461,0,0,0,296,4096
11461,0,0,0,40,4352
19354,0,0,0,1064,3328
19357,0,0,0,202,4190
19357,0,0,0,74,4318
21654,0,0,0,330,4062
21655,0,0,0,586,3806
21660,0,0,0,458,3934
21660,0,0,0,330,4062
21672,0,0,0,586,3806
21675,0,0,0,74,4318
27686,0,0,0,586,3806
28207,0,0,0,842,3550
30194,0,0,0,970,3422
32488,0,0,0,1098,3294
32499,0,0,0,1226,3166
32568,0,0,0,1482,2910
32571,0,0,0,106,4286
33112,0,0,0,362,4030
33113,0,0,0,618,3774
33118,0,0,0,106,4286
33118,0,0,0,98,4294
45634,0,0,0,106,4286
54101,0,0,0,618,3774
54104,0,0,0,490,3902
54104,0,0,0,362,4030
54104,0,0,0,234,4158
54104,0,0,0,106,4286
64946,0,0,0,234,4158
64952,0,0,0,362,4030
64963,0,0,0,490,3902
64976,0,0,0,618,3774
65498,0,0,0,1130,3262
65501,0,0,0,106,4286
82873,0,0,0,1130,3262
82876,0,0,0,618,3774
82876,0,0,0,218,4174
87057,0,0,0,1242,3150
87060,0,0,0,218,4174
95287,0,0,0,618,3774
95290,0,0,0,362,4030
95290,0,0,0,234,4158
95290,0,0,0,106,4286
105289,0,0,0,968,3424
106159,0,0,0,1096,3296
106182,0,0,0,1224,3168
115106,0,0,0,1480,2912
115109,0,0,0,229,4163
119081,0,0,0,1605,2787
119084,0,0,0,581,3811
128684,0,0,0,1832,2560
128687,0,0,0,1224,3168
128687,0,0,0,616,3776
128687,0,0,0,488,3904
128687,0,0,0,360,4032
128687,0,0,0,232,4160
128687,0,0,0,104,4288
138935,0,0,0,232,4160
139045,0,0,0,360,4032
139152,0,0,0,488,3904
139530,0,0,0,616,3776
139533,0,0,0,104,4288
140766,0,0,0,1128,3264
140769,0,0,0,104,4288
142381,0,0,0,616,3776
142384,0,0,0,104,4288
143719,0,0,0,1128,3264
143722,0,0,0,872,3520
143722,0,0,0,10,4382
149656,0,0,0,618,3774
149834,0,0,0,1226,3166
149837,0,0,0,586,3806
149837,0,0,0,330,4062
149837,0,0,0,202,4190
149837,0,0,0,74,4318
157487,0,0,0,330,4062
160271,0,0,0,458,3934
160272,0,0,0,586,3806
160715,0,0,0,1226,3166
160718,0,0,0,202,4190
163592,0,0,0,714,3678
163595,0,0,0,202,4190
163595,0,0,0,74,4318
171487,0,0,0,330,4062
171490,0,0,0,202,4190
171490,0,0,0,74,4318
173018,0,0,0,586,3806
173021,0,0,0,74,4318
173990,0,0,0,202,4190
173993,0,0,0,74,4318
181962,0,0,0,202,4190
182020,0,0,0,330,4062
182315,0,0,0,1354,3038
184315,0,0,0,1482,2910
185979,0,0,0,1994,2398
186329,0,0,0,2506,1886
186332,0,0,0,458,3934
186332,0,0,0,202,4190
186332,0,0,0,74,4318
196932,0,0,0,202,4190
196935,0,0,0,74,4318
207268,0,0,0,202,4190
207271,0,0,0,74,4318
208028,0,0,0,330,4062
208031,0,0,0,202,4190
208031,0,0,0,74,4318
218128,0,0,0,202,4190
218909,0,0,0,330,4062
218986,0,0,0,458,3934
225581,0,0,0,1482,2910
225584,0,0,0,970,3422
229680,0,0,0,1832,2560
229683,0,0,0,808,3584
229683,0,0,0,296,4096
229683,0,0,0,40,4352
248448,0,0,0,296,4096
248451,0,0,0,40,4352
250809,0,0,0,552,3840
250812,0,0,0,296,4096
250812,0,0,0,168,4224
250812,0,0,0,40,4352
251308,0,0,0,1064,3328
251311,0,0,0,808,3584
251311,0,0,0,296,4096
251311,0,0,0,168,4224
251311,0,0,0,40,4352
252129,0,0,0,552,3840
252132,0,0,0,424,3968
252132,0,0,0,296,4096
252132,0,0,0,168,4224
252132,0,0,0,40,4352
261640,0,0,0,168,4224
261643,0,0,0,40,4352
261654,0,0,0,168,4224
261657,0,0,0,40,4352
262155,0,0,0,168,4224
262158,0,0,0,20,4372
262165,0,0,0,148,4244
262168,0,0,0,20,4372
262966,0,0,0,148,4244
262980,0,0,0,276,4116
262982,0,0,0,404,3988
262983,0,0,0,532,3860
270095,0,0,0,788,3604
272434,0,0,0,1044,3348
272487,0,0,0,1172,3220
272492,0,0,0,1300,3092
272630,0,0,0,1428,2964
272693,0,0,0,1576,2816
272805,0,0,0,3624,768
272808,0,0,0,1576,2816
272808,0,0,0,552,3840
272808,0,0,0,40,4352
272924,0,0,0,296,4096
272927,0,0,0,40,4352
294548,0,0,0,296,4096
295717,0,0,0,808,3584
295720,0,0,0,296,4096
295879,0,0,0,1320,3072
295882,0,0,0,808,3584
295882,0,0,0,552,3840
295882,0,0,0,40,4352
308703,0,0,0,552,3840
308706,0,0,0,40,4352
311566,0,0,0,552,3840
311569,0,0,0,424,3968
311569,0,0,0,168,4224
313399,0,0,0,2216,2176
313402,0,0,0,2024,2368
313402,0,0,0,1768,2624
313402,0,0,0,1256,3136
313402,0,0,0,744,3648
313402,0,0,0,232,4160
313402,0,0,0,104,4288
318792,0,0,0,360,4032
318795,0,0,0,232,4160
319578,0,0,0,744,3648
322420,0,0,0,872,3520
324125,0,0,0,1064,3328
324128,0,0,0,40,4352
324240,0,0,0,168,4224
324625,0,0,0,424,3968
326394,0,0,0,936,3456
328085,0,0,0,1448,2944
328088,0,0,0,424,3968
329674,0,0,0,552,3840
334973,0,0,0,808,3584
335770,0,0,0,1320,3072
336641,0,0,0,1832,2560
337242,0,0,0,2344,2048
337245,0,0,0,296,4096
337245,0,0,0,40,4352
345678,0,0,0,1064,3328
345681,0,0,0,936,3456
345681,0,0,0,808,3584
345681,0,0,0,680,3712
345681,0,0,0,168,4224
349731,0,0,0,1192,3200
349734,0,0,0,936,3456
349734,0,0,0,680,3712
349734,0,0,0,552,3840
349734,0,0,0,424,3968
349734,0,0,0,296,4096
349734,0,0,0,168,4224
349734,0,0,0,40,4352
356361,0,0,0,168,4224
356364,0,0,0,40,4352
356398,0,0,0,168,4224
356401,0,0,0,40,4352
356521,0,0,0,168,4224
356524,0,0,0,40,4352
358872,0,0,0,296,4096
359862,0,0,0,424,3968
359941,0,0,0,552,3840
359981,0,0,0,680,3712
360105,0,0,0,808,3584
360292,0,0,0,936,3456
360295,0,0,0,74,4318
366652,0,0,0,202,4190
366719,0,0,0,330,4062
366919,0,0,0,458,3934
367595,0,0,0,970,3422
367598,0,0,0,458,3934
367598,0,0,0,330,4062
367598,0,0,0,202,4190
367598,0,0,0,74,4318
372828,0,0,0,330,4062
372831,0,0,0,202,4190
372831,0,0,0,74,4318
372843,0,0,0,330,4062
372846,0,0,0,74,4318
378451,0,0,0,202,4190
378452,0,0,0,330,4062
378457,0,0,0,202,4190
378457,0,0,0,74,4318
378470,0,0,0,202,4190
378473,0,0,0,74,4318
383223,0,0,0,202,4190
383479,0,0,0,458,3934
383667,0,0,0,586,3806
388989,0,0,0,714,3678
389004,0,0,0,842,3550
389299,0,0,0,970,3422
389962,0,0,0,1482,2910
389965,0,0,0,458,3934
389965,0,0,0,202,4190
389965,0,0,0,74,4318
400394,0,0,0,202,4190
400397,0,0,0,74,4318
410567,0,0,0,202,4190
411625,0,0,0,1226,3166
411628,0,0,0,970,3422
411631,0,0,0,1226,3166
422312,0,0,0,3274,1118
422315,0,0,0,2023,2369
422315,0,0,0,1767,2625
422315,0,0,0,1511,2881
422315,0,0,0,487,3905
422315,0,0,0,359,4033
422315,0,0,0,231,4161
422315,0,0,0,103,4289
433156,0,0,0,231,4161
433174,0,0,0,359,4033
433212,0,0,0,487,3905
433306,0,0,0,743,3649
433309,0,0,0,171,4221
433309,0,0,0,43,4349
433864,0,0,0,299,4093
436299,0,0,0,555,3837
438539,0,0,0,1806,2586
438542,0,0,0,718,3674
438542,0,0,0,206,4186
443971,0,0,0,1230,3162
443974,0,0,0,206,4186
444413,0,0,0,334,4058
447531,0,0,0,1196,3196
447534,0,0,0,684,3708
447534,0,0,0,172,4220
447534,0,0,0,44,4348
458383,0,0,0,172,4220
459237,0,0,0,1260,3132
459240,0,0,0,748,3644
459240,0,0,0,236,4156
460564,0,0,0,748,3644
460837,0,0,0,1260,3132
465597,0,0,0,2284,2108
465600,0,0,0,236,4156
465600,0,0,0,108,4284
465755,0,0,0,680,3712
465758,0,0,0,552,3840
465758,0,0,0,424,3968
465758,0,0,0,296,4096
465758,0,0,0,40,4352
472778,0,0,0,552,3840
473917,0,0,0,1064,3328
476428,0,0,0,1192,3200
476590,0,0,0,1320,3072
476607,0,0,0,1448,2944
476609,0,0,0,1576,2816
476886,0,0,0,1832,2560
477276,0,0,0,2344,2048
477279,0,0,0,296,4096
477279,0,0,0,40,4352
497809,0,0,0,296,4096
497812,0,0,0,40,4352
519451,0,0,0,296,4096
519454,0,0,0,40,4352
541102,0,0,0,296,4096
550925,0,0,0,2344,2048
550928,0,0,0,296,4096
550928,0,0,0,168,4224
550928,0,0,0,40,4352
561806,0,0,0,168,4224
561850,0,0,0,296,4096
562602,0,0,0,2344,2048
562605,0,0,0,296,4096
562605,0,0,0,40,4352
584260,0,0,0,296,4096
584263,0,0,0,40,4352
605990,0,0,0,296,4096
605993,0,0,0,40,4352
627654,0,0,0,296,4096
636243,0,0,0,2344,2048
636246,0,0,0,296,4096
636246,0,0,0,40,4352
648613,0,0,0,296,4096
649026,0,0,0,2344,2048
649029,0,0,0,296,4096
649029,0,0,0,40,4352
660941,0,0,0,296,4096
660944,0,0,0,40,4352
674375,0,0,0,296,4096
674378,0,0,0,40,4352
687235,0,0,0,296,4096
687238,0,0,0,40,4352
708852,0,0,0,296,4096
708855,0,0,0,168,4224
708855,0,0,0,40,4352
719721,0,0,0,168,4224
719806,0,0,0,296,4096
721376,0,0,0,2344,2048
721379,0,0,0,296,4096
721379,0,0,0,168,4224
721379,0,0,0,40,4352
731591,0,0,0,168,4224
731660,0,0,0,296,4096
734301,0,0,0,2344,2048
734304,0,0,0,1960,2432
734304,0,0,0,1448,2944
734304,0,0,0,424,3968
734304,0,0,0,168,4224
734304,0,0,0,40,4352
744806,0,0,0,168,4224
744809,0,0,0,40,4352
750355,0,0,0,296,4096
755041,0,0,0,424,3968
755866,0,0,0,1448,2944
755869,0,0,0,424,3968
755957,0,0,0,808,3584
755960,0,0,0,296,4096
756982,0,0,0,808,3584
756985,0,0,0,296,4096
756985,0,0,0,168,4224
756985,0,0,0,40,4352
767146,0,0,0,168,4224
767493,0,0,0,296,4096
771434,0,0,0,808,3584
771437,0,0,0,424,3968
771734,0,0,0,936,3456
777475,0,0,0,1960,2432
777478,0,0,0,936,3456
777478,0,0,0,424,3968
777478,0,0,0,168,4224
777478,0,0,0,40,4352
787597,0,0,0,168,4224
787600,0,0,0,40,4352
797297,0,0,0,296,4096
798174,0,0,0,424,3968
799153,0,0,0,1448,2944
799156,0,0,0,392,4000
799905,0,0,0,904,3488
799908,0,0,0,392,4000
803895,0,0,0,776,3616
806484,0,0,0,2824,1568
806487,0,0,0,776,3616
806487,0,0,0,136,4256
806487,0,0,0,8,4384
816693,0,0,0,136,4256
822455,0,0,0,648,3744
822458,0,0,0,8,4384
829436,0,0,0,2056,2336
829439,0,0,0,1032,3360
829439,0,0,0,520,3872
839262,0,0,0,1576,2816
839265,0,0,0,552,3840
839265,0,0,0,424,3968
839265,0,0,0,296,4096
839265,0,0,0,168,4224
849321,0,0,0,296,4096
849564,0,0,0,424,3968
849614,0,0,0,552,3840
849761,0,0,0,1192,3200
849764,0,0,0,136,4256
850278,0,0,0,776,3616
850281,0,0,0,264,4128
850281,0,0,0,8,4384
852828,0,0,0,520,3872
852831,0,0,0,264,4128
852831,0,0,0,8,4384
860914,0,0,0,1032,3360
860917,0,0,0,392,4000
860917,0,0,0,264,4128
860917,0,0,0,136,4256
860917,0,0,0,8,4384
861843,0,0,0,520,3872
861846,0,0,0,207,4185
861846,0,0,0,79,4313
867527,0,0,0,335,4057
871769,0,0,0,463,3929
871776,0,0,0,591,3801
871806,0,0,0,719,3673
872762,0,0,0,847,3545
874384,0,0,0,1103,3289
874387,0,0,0,79,4313
874396,0,0,0,335,4057
874399,0,0,0,22,4370
875767,0,0,0,335,4057
875770,0,0,0,22,4370
888367,0,0,0,335,4057
888370,0,0,0,22,4370
889692,0,0,0,662,3730
889695,0,0,0,406,3986
889695,0,0,0,278,4114
889695,0,0,0,150,4242
889695,0,0,0,22,4370
891022,0,0,0,335,4057
891025,0,0,0,207,4185
896020,0,0,0,1231,3161
896023,0,0,0,719,3673
896023,0,0,0,147,4245
896023,0,0,0,19,4373
900559,0,0,0,147,4245
900562,0,0,0,19,4373
900574,0,0,0,147,4245
900577,0,0,0,19,4373
900589,0,0,0,147,4245
900592,0,0,0,19,4373
901498,0,0,0,1043,3349
901501,0,0,0,915,3477
901501,0,0,0,531,3861
901501,0,0,0,19,4373
901904,0,0,0,147,4245
902661,0,0,0,460,3932
902664,0,0,0,204,4188
902664,0,0,0,76,4316
906005,0,0,0,332,4060
906567,0,0,0,460,3932
911421,0,0,0,588,3804
911429,0,0,0,716,3676
911432,0,0,0,76,4316
911467,0,0,0,204,4188
912374,0,0,0,332,4060
913579,0,0,0,460,3932
918968,0,0,0,972,3420
918971,0,0,0,332,4060
920464,0,0,0,588,3804
923157,0,0,0,972,3420
923160,0,0,0,332,4060
923160,0,0,0,76,4316
924062,0,0,0,588,3804
924065,0,0,0,460,3932
924065,0,0,0,204,4188
928523,0,0,0,776,3616
928526,0,0,0,264,4128
928526,0,0,0,8,4384
934917,0,0,0,136,4256
936292,0,0,0,1192,3200
936295,0,0,0,936,3456
936295,0,0,0,680,3712
936295,0,0,0,552,3840
936295,0,0,0,424,3968
936295,0,0,0,296,4096
944816,0,0,0,552,3840
945398,0,0,0,808,3584
945401,0,0,0,168,4224
947135,0,0,0,296,4096
947135,0,0,0,424,3968
947179,0,0,0,552,3840
950086,0,0,0,808,3584
950089,0,0,0,168,4224
951676,0,0,0,680,3712
951679,0,0,0,40,4352
953354,0,0,0,680,3712
953357,0,0,0,40,4352
953939,0,0,0,296,4096
957877,0,0,0,552,3840
963416,0,0,0,1192,3200
963419,0,0,0,552,3840
963419,0,0,0,424,3968
963419,0,0,0,296,4096
963419,0,0,0,40,4352
963854,0,0,0,680,3712
963857,0,0,0,424,3968
963857,0,0,0,168,4224
963857,0,0,0,40,4352
974248,0,0,0,168,4224
974251,0,0,0,40,4352
974296,0,0,0,168,4224
974299,0,0,0,40,4352
974691,0,0,0,168,4224
974694,0,0,0,40,4352
984939,0,0,0,168,4224
984960,0,0,0,296,4096
985077,0,0,0,424,3968
985081,0,0,0,680,3712
985084,0,0,0,168,4224
985495,0,0,0,424,3968
985498,0,0,0,168,4224
985602,0,0,0,424,3968
985605,0,0,0,168,4224
988666,0,0,0,808,3584
988669,0,0,0,552,3840
988669,0,0,0,424,3968
990952,0,0,0,1064,3328
990955,0,0,0,552,3840
990955,0,0,0,424,3968
990955,0,0,0,296,4096
990955,0,0,0,168,4224
992639,0,0,0,808,3584
992642,0,0,0,552,3840
995344,0,0,0,1192,3200
995347,0,0,0,390,4002
1.00087e+06,0,0,0,518,3874
1.0018e+06,0,0,0,646,3746
1.00182e+06,0,0,0,774,3618
1.00189e+06,0,0,0,902,3490
1.0019e+06,0,0,0,100,4292
1.00413e+06,0,0,0,740,3652
1.0071e+06,0,0,0,996,3396
1.0071e+06,0,0,0,194,4198
1.00722e+06,0,0,0,450,3942
1.0081e+06,0,0,0,706,3686
1.00928e+06,0,0,0,962,3430
1.00928e+06,0,0,0,160,4232
1.00928e+06,0,0,0,32,4360
1.01036e+06,0,0,0,544,3848
1.01036e+06,0,0,0,416,3976
1.01036e+06,0,0,0,288,4104
1.01036e+06,0,0,0,32,4360
1.01733e+06,0,0,0,544,3848
1.01734e+06,0,0,0,288,4104
1.02014e+06,0,0,0,416,3976
1.02119e+06,0,0,0,544,3848
1.02119e+06,0,0,0,32,4360
1.02122e+06,0,0,0,160,4232
1.0243e+06,0,0,0,962,3430
1.02431e+06,0,0,0,450,3942
1.02431e+06,0,0,0,194,4198
1.02431e+06,0,0,0,66,4326
1.02496e+06,0,0,0,868,3524
1.02496e+06,0,0,0,740,3652
1.02496e+06,0,0,0,612,3780
1.02496e+06,0,0,0,356,4036
1.02496e+06,0,0,0,100,4292
1.02576e+06,0,0,0,902,3490
1.02577e+06,0,0,0,646,3746
1.02577e+06,0,0,0,390,4002
1.02577e+06,0,0,0,262,4130
1.02577e+06,0,0,0,134,4258
1.03076e+06,0,0,0,936,3456
1.03197e+06,0,0,0,1192,3200
1.03198e+06,0,0,0,168,4224
1.03526e+06,0,0,0,296,4096
1.03527e+06,0,0,0,40,4352
1.03582e+06,0,0,0,168,4224
1.03582e+06,0,0,0,40,4352
1.03585e+06,0,0,0,168,4224
1.03664e+06,0,0,0,296,4096
1.03665e+06,0,0,0,40,4352
1.03668e+06,0,0,0,168,4224
1.03896e+06,0,0,0,424,3968
1.04271e+06,0,0,0,680,3712
1.04271e+06,0,0,0,168,4224
1.04579e+06,0,0,0,680,3712
1.0458e+06,0,0,0,168,4224
1.0458e+06,0,0,0,40,4352
1.04589e+06,0,0,0,552,3840
1.0459e+06,0,0,0,272,4120
1.0459e+06,0,0,0,16,4376
1.04662e+06,0,0,0,272,4120
1.04662e+06,0,0,0,528,3864
1.04663e+06,0,0,0,272,4120
1.04663e+06,0,0,0,16,4376
1.04666e+06,0,0,0,144,4248
1.04741e+06,0,0,0,400,3992
1.04746e+06,0,0,0,656,3736
1.04746e+06,0,0,0,224,4168
1.05498e+06,0,0,0,1248,3144
1.05499e+06,0,0,0,736,3656
1.05499e+06,0,0,0,96,4296
1.05574e+06,0,0,0,608,3784
1.05575e+06,0,0,0,480,3912
1.05575e+06,0,0,0,352,4040
1.05575e+06,0,0,0,224,4168
1.05665e+06,0,0,0,352,4040
1.05665e+06,0,0,0,96,4296
1.05692e+06,0,0,0,352,4040
1.05693e+06,0,0,0,96,4296
1.05728e+06,0,0,0,352,4040
1.05728e+06,0,0,0,224,4168
1.05728e+06,0,0,0,96,4296
1.06051e+06,0,0,0,608,3784
1.0666e+06,0,0,0,736,3656
1.06661e+06,0,0,0,864,3528
1.06667e+06,0,0,0,992,3400
1.06741e+06,0,0,0,1248,3144
1.06755e+06,0,0,0,1528,2864
1.06813e+06,0,0,0,1656,2736
1.06819e+06,0,0,0,1784,2608
1.06823e+06,0,0,0,2040,2352
1.06826e+06,0,0,0,2296,2096
1.06826e+06,0,0,0,248,4144
1.06826e+06,0,0,0,120,4272
1.0751e+06,0,0,0,376,4016
1.0751e+06,0,0,0,120,4272
1.07731e+06,0,0,0,632,3760
1.07731e+06,0,0,0,120,4272
1.07848e+06,0,0,0,376,4016
1.07849e+06,0,0,0,248,4144
1.07849e+06,0,0,0,120,4272
1.07913e+06,0,0,0,248,4144
1.07914e+06,0,0,0,120,4272
1.07997e+06,0,0,0,552,3840
1.07997e+06,0,0,0,40,4352
1.08594e+06,0,0,0,296,4096
1.08935e+06,0,0,0,424,3968
1.08936e+06,0,0,0,552,3840
1.08999e+06,0,0,0,680,3712
1.09033e+06,0,0,0,1192,3200
1.09464e+06,0,0,0,1704,2688
1.09565e+06,0,0,0,2344,2048
1.09565e+06,0,0,0,296,4096
1.09565e+06,0,0,0,40,4352
1.11728e+06,0,0,0,296,4096
1.11728e+06,0,0,0,40,4352
1.13894e+06,0,0,0,296,4096
1.13895e+06,0,0,0,168,4224
1.13895e+06,0,0,0,40,4352
1.14982e+06,0,0,0,168,4224
1.14982e+06,0,0,0,296,4096
1.15338e+06,0,0,0,2344,2048
1.15339e+06,0,0,0,296,4096
1.15339e+06,0,0,0,168,4224
1.15339e+06,0,0,0,40,4352
1.16378e+06,0,0,0,168,4224
1.16378e+06,0,0,0,40,4352
1.16422e+06,0,0,0,168,4224
1.16422e+06,0,0,0,40,4352
1.17415e+06,0,0,0,168,4224
1.17489e+06,0,0,0,296,4096
1.18073e+06,0,0,0,2344,2048
1.18074e+06,0,0,0,296,4096
1.18074e+06,0,0,0,40,4352
1.20233e+06,0,0,0,296,4096
1.20233e+06,0,0,0,40,4352
1.22373e+06,0,0,0,296,4096
1.22373e+06,0,0,0,168,4224
1.22373e+06,0,0,0,40,4352
1.23434e+06,0,0,0,168,4224
1.23451e+06,0,0,0,296,4096
1.23849e+06,0,0,0,2344,2048
1.23849e+06,0,0,0,296,4096
1.23849e+06,0,0,0,168,4224
1.23849e+06,0,0,0,40,4352
1.24893e+06,0,0,0,168,4224
1.24893e+06,0,0,0,40,4352
1.24906e+06,0,0,0,168,4224
1.24906e+06,0,0,0,40,4352
1.25907e+06,0,0,0,168,4224
1.25939e+06,0,0,0,296,4096
1.26581e+06,0,0,0,2344,2048
1.26582e+06,0,0,0,296,4096
1.26582e+06,0,0,0,168,4224
1.26582e+06,0,0,0,40,4352
1.27601e+06,0,0,0,168,4224
1.27601e+06,0,0,0,40,4352
1.27627e+06,0,0,0,168,4224
1.27628e+06,0,0,0,40,4352
1.28684e+06,0,0,0,168,4224
1.28685e+06,0,0,0,40,4352
1.28711e+06,0,0,0,168,4224
1.28711e+06,0,0,0,40,4352
1.29742e+06,0,0,0,168,4224
1.29743e+06,0,0,0,40,4352
1.29771e+06,0,0,0,168,4224
1.29771e+06,0,0,0,40,4352
1.30767e+06,0,0,0,168,4224
1.30767e+06,0,0,0,40,4352
1.30822e+06,0,0,0,168,4224
1.30823e+06,0,0,0,40,4352
1.31794e+06,0,0,0,168,4224
1.31872e+06,0,0,0,296,4096
1.32361e+06,0,0,0,2344,2048
1.32361e+06,0,0,0,1320,3072
1.32361e+06,0,0,0,748,3644
1.32361e+06,0,0,0,316,4076
1.32361e+06,0,0,0,3,4389
1.34099e+06,0,0,0,316,4076
1.34532e+06,0,0,0,1340,3052
1.34532e+06,0,0,0,828,3564
1.34532e+06,0,0,0,26,4366
1.35089e+06,0,0,0,2074,2318
1.35089e+06,0,0,0,1272,3120
1.35089e+06,0,0,0,760,3632
1.3561e+06,0,0,0,1192,3200
1.35611e+06,0,0,0,168,4224
1.35612e+06,0,0,0,740,3652
1.35612e+06,0,0,0,228,4164
1.35612e+06,0,0,0,100,4292
1.36698e+06,0,0,0,228,4164
1.37418e+06,0,0,0,1030,3362
1.37418e+06,0,0,0,774,3618
1.37418e+06,0,0,0,262,4130
1.37418e+06,0,0,0,134,4258
1.37507e+06,0,0,0,646,3746
1.37507e+06,0,0,0,6,4386
1.37781e+06,0,0,0,518,3874
1.37782e+06,0,0,0,205,4187
1.37785e+06,0,0,0,1229,3163
1.37786e+06,0,0,0,717,3675
1.37786e+06,0,0,0,461,3931
1.37786e+06,0,0,0,333,4059
1.37786e+06,0,0,0,20,4372
1.37974e+06,0,0,0,822,3570
1.37974e+06,0,0,0,694,3698
1.37974e+06,0,0,0,381,4011
1.37974e+06,0,0,0,253,4139
1.37974e+06,0,0,0,125,4267
1.38502e+06,0,0,0,253,4139
1.38502e+06,0,0,0,125,4267
1.38815e+06,0,0,0,253,4139
1.38815e+06,0,0,0,125,4267
1.38858e+06,0,0,0,637,3755
1.38859e+06,0,0,0,509,3883
1.39057e+06,0,0,0,637,3755
1.39058e+06,0,0,0,765,3627
1.39059e+06,0,0,0,893,3499
1.3942e+06,0,0,0,1149,3243
1.39421e+06,0,0,0,125,4267
1.39521e+06,0,0,0,438,3954
1.39522e+06,0,0,0,182,4210
1.39531e+06,0,0,0,310,4082
1.39555e+06,0,0,0,623,3769
1.39555e+06,0,0,0,111,4281
1.39628e+06,0,0,0,367,4025
1.39701e+06,0,0,0,680,3712
1.39701e+06,0,0,0,168,4224
1.39897e+06,0,0,0,296,4096
1.3994e+06,0,0,0,808,3584
1.3994e+06,0,0,0,168,4224
1.39947e+06,0,0,0,296,4096
1.40663e+06,0,0,0,808,3584
1.40663e+06,0,0,0,296,4096
1.40663e+06,0,0,0,168,4224
1.40663e+06,0,0,0,40,4352
1.41564e+06,0,0,0,680,3712
1.41565e+06,0,0,0,552,3840
1.41565e+06,0,0,0,424,3968
1.41565e+06,0,0,0,40,4352
1.41585e+06,0,0,0,1064,3328
1.41585e+06,0,0,0,936,3456
1.41585e+06,0,0,0,808,3584
1.41585e+06,0,0,0,680,3712
1.41585e+06,0,0,0,552,3840
1.41682e+06,0,0,0,808,3584
1.41683e+06,0,0,0,168,4224
1.41754e+06,0,0,0,296,4096
1.41871e+06,0,0,0,808,3584
1.41871e+06,0,0,0,296,4096
1.41888e+06,0,0,0,424,3968
1.42657e+06,0,0,0,552,3840
1.42657e+06,0,0,0,40,4352
1.4266e+06,0,0,0,168,4224
1.42672e+06,0,0,0,296,4096
1.42672e+06,0,0,0,40,4352
1.42673e+06,0,0,0,168,4224
1.42676e+06,0,0,0,296,4096
1.42677e+06,0,0,0,40,4352
1.4281e+06,0,0,0,168,4224
1.42953e+06,0,0,0,680,3712
1.42953e+06,0,0,0,424,3968
1.42953e+06,0,0,0,168,4224
1.42966e+06,0,0,0,680,3712
1.42966e+06,0,0,0,424,3968
1.42966e+06,0,0,0,296,4096
1.42966e+06,0,0,0,168,4224
1.42966e+06,0,0,0,40,4352
1.43563e+06,0,0,0,424,3968
1.43563e+06,0,0,0,296,4096
1.44049e+06,0,0,0,424,3968
1.44049e+06,0,0,0,552,3840
1.4405e+06,0,0,0,680,3712
1.4405e+06,0,0,0,168,4224
1.44189e+06,0,0,0,680,3712
1.44189e+06,0,0,0,424,3968
1.44263e+06,0,0,0,1064,3328
1.44263e+06,0,0,0,552,3840
1.44263e+06,0,0,0,423,3969
1.44651e+06,0,0,0,551,3841
1.44839e+06,0,0,0,807,3585
1.4484e+06,0,0,0,5,4387
1.44843e+06,0,0,0,261,4131
1.44843e+06,0,0,0,133,4259
1.45118e+06,0,0,0,389,4003
1.45121e+06,0,0,0,645,3747
1.45131e+06,0,0,0,901,3491
1.45354e+06,0,0,0,1030,3362
1.45354e+06,0,0,0,6,4386
1.4588e+06,0,0,0,134,4258
1.4588e+06,0,0,0,6,4386
1.45901e+06,0,0,0,518,3874
1.45901e+06,0,0,0,262,4130
1.45901e+06,0,0,0,6,4386
1.46012e+06,0,0,0,646,3746
1.46012e+06,0,0,0,390,4002
1.46012e+06,0,0,0,262,4130
1.46012e+06,0,0,0,134,4258
1.46012e+06,0,0,0,6,4386
1.46021e+06,0,0,0,262,4130
1.46021e+06,0,0,0,134,4258
1.46021e+06,0,0,0,6,4386
1.46286e+06,0,0,0,518,3874
1.46286e+06,0,0,0,390,4002
1.46286e+06,0,0,0,262,4130
1.46286e+06,0,0,0,134,4258
1.46286e+06,0,0,0,6,4386
1.46647e+06,0,0,0,518,3874
1.46647e+06,0,0,0,390,4002
1.46933e+06,0,0,0,518,3874
1.47079e+06,0,0,0,646,3746
1.47098e+06,0,0,0,774,3618
1.47103e+06,0,0,0,902,3490
1.47104e+06,0,0,0,100,4292
1.47109e+06,0,0,0,228,4164
1.47114e+06,0,0,0,356,4036
1.47293e+06,0,0,0,484,3908
1.47326e+06,0,0,0,612,3780
1.47346e+06,0,0,0,740,3652
1.47347e+06,0,0,0,868,3524
1.47347e+06,0,0,0,66,4326
1.47526e+06,0,0,0,1090,3302
1.47526e+06,0,0,0,962,3430
1.47526e+06,0,0,0,450,3942
1.47736e+06,0,0,0,578,3814
1.47736e+06,0,0,0,66,4326
1.48054e+06,0,0,0,322,4070
1.48054e+06,0,0,0,194,4198
1.48054e+06,0,0,0,66,4326
1.48056e+06,0,0,0,322,4070
1.48057e+06,0,0,0,194,4198
1.48057e+06,0,0,0,66,4326
1.48168e+06,0,0,0,322,4070
1.48168e+06,0,0,0,194,4198
1.48168e+06,0,0,0,66,4326
1.48613e+06,0,0,0,194,4198
1.49078e+06,0,0,0,322,4070
1.49107e+06,0,0,0,450,3942
1.49131e+06,0,0,0,578,3814
1.49132e+06,0,0,0,109,4283
1.49142e+06,0,0,0,237,4155
1.49198e+06,0,0,0,365,4027
1.49198e+06,0,0,0,109,4283
1.49212e+06,0,0,0,237,4155
1.49212e+06,0,0,0,109,4283
1.49989e+06,0,0,0,911,3481
1.4999e+06,0,0,0,783,3609
1.4999e+06,0,0,0,655,3737
1.4999e+06,0,0,0,527,3865
1.4999e+06,0,0,0,399,3993
1.49997e+06,0,0,0,911,3481
1.49998e+06,0,0,0,271,4121
1.50237e+06,0,0,0,1073,3319
1.50238e+06,0,0,0,433,3959
1.50296e+06,0,0,0,561,3831
1.50774e+06,0,0,0,1073,3319
1.50774e+06,0,0,0,433,3959
1.51072e+06,0,0,0,561,3831
1.51073e+06,0,0,0,689,3703
1.51073e+06,0,0,0,49,4343
1.51075e+06,0,0,0,177,4215
1.51075e+06,0,0,0,305,4087
1.51076e+06,0,0,0,177,4215
1.51076e+06,0,0,0,49,4343
1.51366e+06,0,0,0,305,4087
1.51366e+06,0,0,0,177,4215
1.51366e+06,0,0,0,49,4343
1.52158e+06,0,0,0,177,4215
1.52161e+06,0,0,0,305,4087
1.52369e+06,0,0,0,433,3959
1.52371e+06,0,0,0,561,3831
1.52376e+06,0,0,0,1030,3362
1.52376e+06,0,0,0,390,4002
1.52376e+06,0,0,0,262,4130
1.52376e+06,0,0,0,134,4258
1.52376e+06,0,0,0,6,4386
1.53462e+06,0,0,0,134,4258
1.53462e+06,0,0,0,262,4130
1.53466e+06,0,0,0,390,4002
1.53492e+06,0,0,0,1192,3200
1.53492e+06,0,0,0,680,3712
1.54124e+06,0,0,0,1320,3072
1.54124e+06,0,0,0,320,4072
1.54359e+06,0,0,0,960,3432
1.54359e+06,0,0,0,448,3944
1.54359e+06,0,0,0,320,4072
1.54359e+06,0,0,0,192,4200
1.54359e+06,0,0,0,64,4328
1.5495e+06,0,0,0,704,3688
1.54951e+06,0,0,0,576,3816
1.54951e+06,0,0,0,448,3944
1.54951e+06,0,0,0,320,4072
1.54951e+06,0,0,0,192,4200
1.54951e+06,0,0,0,64,4328
1.55084e+06,0,0,0,704,3688
1.55085e+06,0,0,0,576,3816
1.55085e+06,0,0,0,448,3944
1.55085e+06,0,0,0,320,4072
1.55085e+06,0,0,0,192,4200
1.55085e+06,0,0,0,64,4328
1.55442e+06,0,0,0,192,4200
1.55443e+06,0,0,0,64,4328
1.55444e+06,0,0,0,192,4200
1.55445e+06,0,0,0,320,4072
1.55445e+06,0,0,0,192,4200
1.55445e+06,0,0,0,64,4328
1.55793e+06,0,0,0,576,3816
1.55793e+06,0,0,0,448,3944
1.5597e+06,0,0,0,576,3816
1.5597e+06,0,0,0,64,4328
1.55978e+06,0,0,0,192,4200
1.55978e+06,0,0,0,64,4328
1.56024e+06,0,0,0,192,4200
1.56024e+06,0,0,0,64,4328
1.56036e+06,0,0,0,192,4200
1.56036e+06,0,0,0,320,4072
1.56036e+06,0,0,0,192,4200
1.56099e+06,0,0,0,320,4072
1.56099e+06,0,0,0,448,3944
1.56099e+06,0,0,0,192,4200
1.56108e+06,0,0,0,320,4072
1.56127e+06,0,0,0,448,3944
1.56128e+06,0,0,0,576,3816
1.56424e+06,0,0,0,1216,3176
1.56424e+06,0,0,0,192,4200
1.56424e+06,0,0,0,64,4328
1.56473e+06,0,0,0,192,4200
1.56473e+06,0,0,0,64,4328
1.56519e+06,0,0,0,192,4200
1.56529e+06,0,0,0,320,4072
1.56755e+06,0,0,0,832,3560
1.56755e+06,0,0,0,320,4072
1.56755e+06,0,0,0,192,4200
1.56755e+06,0,0,0,64,4328
1.56814e+06,0,0,0,192,4200
1.56815e+06,0,0,0,64,4328
1.57064e+06,0,0,0,192,4200
1.57064e+06,0,0,0,64,4328
1.57108e+06,0,0,0,192,4200
1.57109e+06,0,0,0,64,4328
1.5712e+06,0,0,0,192,4200
1.57121e+06,0,0,0,64,4328
1.57509e+06,0,0,0,192,4200
1.57509e+06,0,0,0,64,4328
1.57561e+06,0,0,0,192,4200
1.57841e+06,0,0,0,320,4072
1.57841e+06,0,0,0,64,4328
1.57852e+06,0,0,0,192,4200
1.57852e+06,0,0,0,64,4328
1.57924e+06,0,0,0,320,4072
1.57925e+06,0,0,0,192,4200
1.57925e+06,0,0,0,64,4328
1.57939e+06,0,0,0,192,4200
1.57939e+06,0,0,0,64,4328
1.58151e+06,0,0,0,192,4200
1.58151e+06,0,0,0,64,4328
1.58185e+06,0,0,0,192,4200
1.58186e+06,0,0,0,64,4328
1.58204e+06,0,0,0,192,4200
1.58405e+06,0,0,0,704,3688
1.58405e+06,0,0,0,192,4200
1.58405e+06,0,0,0,64,4328
1.58456e+06,0,0,0,1064,3328
1.58457e+06,0,0,0,936,3456
1.58457e+06,0,0,0,808,3584
1.58457e+06,0,0,0,680,3712
1.58457e+06,0,0,0,552,3840
1.58457e+06,0,0,0,424,3968
1.58457e+06,0,0,0,296,4096
1.58457e+06,0,0,0,168,4224
1.58457e+06,0,0,0,40,4352
1.58593e+06,0,0,0,168,4224
1.58594e+06,0,0,0,40,4352
1.58928e+06,0,0,0,296,4096
1.58929e+06,0,0,0,168,4224
1.58929e+06,0,0,0,40,4352
1.58939e+06,0,0,0,168,4224
1.58939e+06,0,0,0,40,4352
1.58947e+06,0,0,0,168,4224
1.58947e+06,0,0,0,40,4352
1.58957e+06,0,0,0,168,4224
1.58957e+06,0,0,0,40,4352
1.58991e+06,0,0,0,168,4224
1.58991e+06,0,0,0,40,4352
1.59212e+06,0,0,0,552,3840
1.59212e+06,0,0,0,424,3968
1.59212e+06,0,0,0,296,4096
1.59212e+06,0,0,0,40,4352
1.59234e+06,0,0,0,168,4224
1.59266e+06,0,0,0,296,4096
1.59266e+06,0,0,0,40,4352
1.5946e+06,0,0,0,168,4224
1.59461e+06,0,0,0,296,4096
1.59467e+06,0,0,0,424,3968
1.59467e+06,0,0,0,552,3840
1.59468e+06,0,0,0,680,3712
1.59481e+06,0,0,0,808,3584
1.59482e+06,0,0,0,936,3456
1.59541e+06,0,0,0,1064,3328
1.59544e+06,0,0,0,1192,3200
1.59598e+06,0,0,0,1320,3072
1.59932e+06,0,0,0,1448,2944
1.59932e+06,0,0,0,1576,2816
1.5995e+06,0,0,0,1704,2688
1.5995e+06,0,0,0,1832,2560
1.59978e+06,0,0,0,1960,2432
1.59996e+06,0,0,0,2088,2304
1.59996e+06,0,0,0,40,4352
1.60218e+06,0,0,0,168,4224
1.60218e+06,0,0,0,40,4352
1.60302e+06,0,0,0,168,4224
1.60302e+06,0,0,0,40,4352
1.60695e+06,0,0,0,552,3840
1.60695e+06,0,0,0,424,3968
1.60695e+06,0,0,0,296,4096
1.60695e+06,0,0,0,40,4352
1.61306e+06,0,0,0,168,4224
1.61307e+06,0,0,0,40,4352
1.61381e+06,0,0,0,296,4096
1.61381e+06,0,0,0,168,4224
1.61381e+06,0,0,0,40,4352
1.61386e+06,0,0,0,168,4224
1.61386e+06,0,0,0,40,4352
1.61415e+06,0,0,0,296,4096
1.61415e+06,0,0,0,167,4225
1.61415e+06,0,0,0,39,4353
1.61781e+06,0,0,0,167,4225
1.61781e+06,0,0,0,39,4353
1.61787e+06,0,0,0,167,4225
1.61788e+06,0,0,0,39,4353
1.62392e+06,0,0,0,167,4225
1.62392e+06,0,0,0,39,4353
1.62407e+06,0,0,0,167,4225
1.62407e+06,0,0,0,39,4353
1.62412e+06,0,0,0,167,4225
1.62412e+06,0,0,0,39,4353
1.62467e+06,0,0,0,167,4225
1.62467e+06,0,0,0,39,4353
1.62475e+06,0,0,0,167,4225
1.62475e+06,0,0,0,39,4353
1.62504e+06,0,0,0,168,4224
1.62504e+06,0,0,0,40,4352
1.628e+06,0,0,0,168,4224
1.62872e+06,0,0,0,424,3968
1.62872e+06,0,0,0,552,3840
1.63444e+06,0,0,0,680,3712
1.63459e+06,0,0,0,808,3584
1.63484e+06,0,0,0,936,3456
1.63507e+06,0,0,0,1064,3328
1.63566e+06,0,0,0,1192,3200
1.63606e+06,0,0,0,1320,3072
1.63633e+06,0,0,0,2344,2048
1.63633e+06,0,0,0,296,4096
1.63633e+06,0,0,0,40,4352
1.65056e+06,0,0,0,296,4096
1.65056e+06,0,0,0,40,4352
1.66152e+06,0,0,0,296,4096
1.66152e+06,0,0,0,40,4352
1.67246e+06,0,0,0,296,4096
1.67246e+06,0,0,0,168,4224
1.67246e+06,0,0,0,40,4352
1.68326e+06,0,0,0,168,4224
1.68331e+06,0,0,0,296,4096
1.68641e+06,0,0,0,2344,2048
1.68642e+06,0,0,0,296,4096
1.68642e+06,0,0,0,40,4352
1.7081e+06,0,0,0,296,4096
1.7081e+06,0,0,0,168,4224
1.7081e+06,0,0,0,40,4352
1.71896e+06,0,0,0,168,4224
1.719e+06,0,0,0,296,4096
1.72141e+06,0,0,0,2344,2048
1.72141e+06,0,0,0,296,4096
1.72141e+06,0,0,0,40,4352
1.74312e+06,0,0,0,296,4096
1.74312e+06,0,0,0,40,4352
1.76478e+06,0,0,0,296,4096
1.77151e+06,0,0,0,2344,2048
1.77151e+06,0,0,0,1944,2448
1.77151e+06,0,0,0,1432,2960
1.77151e+06,0,0,0,496,3896
1.77151e+06,0,0,0,368,4024
1.77151e+06,0,0,0,240,4152
1.77151e+06,0,0,0,112,4280
1.78163e+06,0,0,0,240,4152
1.78164e+06,0,0,0,112,4280
1.78234e+06,0,0,0,240,4152
1.78234e+06,0,0,0,112,4280
1.78235e+06,0,0,0,240,4152
1.78235e+06,0,0,0,112,4280
1.79171e+06,0,0,0,240,4152
1.79239e+06,0,0,0,368,4024
1.79241e+06,0,0,0,496,3896
1.7931e+06,0,0,0,896,3496
1.79311e+06,0,0,0,384,4008
1.7943e+06,0,0,0,896,3496
1.7943e+06,0,0,0,384,4008
1.80304e+06,0,0,0,1320,3072
1.80304e+06,0,0,0,808,3584
1.80304e+06,0,0,0,296,4096
1.8066e+06,0,0,0,2344,2048
1.8066e+06,0,0,0,1642,2750
1.8066e+06,0,0,0,1386,3006
1.8066e+06,0,0,0,1130,3262
1.8066e+06,0,0,0,1002,3390
1.8066e+06,0,0,0,874,3518
1.8066e+06,0,0,0,362,4030
1.8066e+06,0,0,0,234,4158
1.81635e+06,0,0,0,746,3646
1.81636e+06,0,0,0,490,3902
1.81662e+06,0,0,0,618,3774
1.81662e+06,0,0,0,106,4286
1.81667e+06,0,0,0,234,4158
1.81747e+06,0,0,0,362,4030
1.81747e+06,0,0,0,63,4329
1.82109e+06,0,0,0,765,3627
1.82427e+06,0,0,0,1277,3115
1.82428e+06,0,0,0,253,4139
1.82686e+06,0,0,0,765,3627
1.82686e+06,0,0,0,125,4267
1.82824e+06,0,0,0,381,4011
1.82828e+06,0,0,0,893,3499
1.82833e+06,0,0,0,1149,3243
1.82833e+06,0,0,0,249,4143
1.82833e+06,0,0,0,121,4271
1.83333e+06,0,0,0,377,4015
1.83333e+06,0,0,0,249,4143
1.83333e+06,0,0,0,121,4271
1.83819e+06,0,0,0,633,3759
1.83819e+06,0,0,0,505,3887
1.83819e+06,0,0,0,377,4015
1.83848e+06,0,0,0,505,3887
1.83905e+06,0,0,0,1017,3375
1.83905e+06,0,0,0,315,4077
1.83905e+06,0,0,0,187,4205
1.84021e+06,0,0,0,486,3906
1.84021e+06,0,0,0,230,4162
1.84379e+06,0,0,0,358,4034
1.84424e+06,0,0,0,486,3906
1.84591e+06,0,0,0,1510,2882
1.84591e+06,0,0,0,998,3394
1.84591e+06,0,0,0,298,4094
1.84904e+06,0,0,0,426,3966
1.84907e+06,0,0,0,554,3838
1.84907e+06,0,0,0,42,4350
1.84994e+06,0,0,0,170,4222
1.84994e+06,0,0,0,42,4350
1.85876e+06,0,0,0,298,4094
1.85876e+06,0,0,0,170,4222
1.85876e+06,0,0,0,42,4350
1.86072e+06,0,0,0,744,3648
1.86072e+06,0,0,0,616,3776
1.86072e+06,0,0,0,360,4032
1.86072e+06,0,0,0,232,4160
1.86072e+06,0,0,0,104,4288
1.86084e+06,0,0,0,232,4160
1.86084e+06,0,0,0,104,4288
1.86771e+06,0,0,0,616,3776
1.86771e+06,0,0,0,488,3904
1.86771e+06,0,0,0,360,4032
1.86771e+06,0,0,0,232,4160
1.86771e+06,0,0,0,104,4288
1.86808e+06,0,0,0,744,3648
1.86809e+06,0,0,0,616,3776
1.86809e+06,0,0,0,488,3904
1.86809e+06,0,0,0,360,4032
1.86809e+06,0,0,0,232,4160
1.86809e+06,0,0,0,104,4288
1.86959e+06,0,0,0,232,4160
1.86959e+06,0,0,0,104,4288
1.86962e+06,0,0,0,232,4160
1.86962e+06,0,0,0,104,4288
1.87063e+06,0,0,0,616,3776
1.87063e+06,0,0,0,488,3904
1.87063e+06,0,0,0,360,4032
1.87082e+06,0,0,0,488,3904
1.8709e+06,0,0,0,616,3776
1.87091e+06,0,0,0,104,4288
1.87119e+06,0,0,0,804,3588
1.87119e+06,0,0,0,676,3716
1.87119e+06,0,0,0,548,3844
1.87119e+06,0,0,0,420,3972
1.87156e+06,0,0,0,548,3844
1.87156e+06,0,0,0,676,3716
1.87157e+06,0,0,0,164,4228
1.87157e+06,0,0,0,36,4356
1.87294e+06,0,0,0,936,3456
1.87294e+06,0,0,0,808,3584
1.87294e+06,0,0,0,552,3840
1.87294e+06,0,0,0,424,3968
1.87294e+06,0,0,0,168,4224
1.87776e+06,0,0,0,296,4096
1.87776e+06,0,0,0,115,4277
1.87776e+06,0,0,0,243,4149
1.87777e+06,0,0,0,371,4021
1.87779e+06,0,0,0,499,3893
1.87779e+06,0,0,0,115,4277
1.87812e+06,0,0,0,243,4149
1.87813e+06,0,0,0,115,4277
1.87814e+06,0,0,0,243,4149
1.87817e+06,0,0,0,371,4021
1.87818e+06,0,0,0,499,3893
1.8782e+06,0,0,0,627,3765
1.87821e+06,0,0,0,115,4277
1.87966e+06,0,0,0,243,4149
1.87968e+06,0,0,0,371,4021
1.88067e+06,0,0,0,499,3893
1.88069e+06,0,0,0,627,3765
1.88201e+06,0,0,0,755,3637
1.88201e+06,0,0,0,883,3509
1.88207e+06,0,0,0,1011,3381
1.88235e+06,0,0,0,1267,3125
1.88235e+06,0,0,0,243,4149
1.88245e+06,0,0,0,371,4021
1.88246e+06,0,0,0,115,4277
1.88382e+06,0,0,0,243,4149
1.88382e+06,0,0,0,115,4277
1.88387e+06,0,0,0,243,4149
1.88387e+06,0,0,0,115,4277
1.88747e+06,0,0,0,371,4021
1.88747e+06,0,0,0,243,4149
1.88747e+06,0,0,0,115,4277
1.88807e+06,0,0,0,296,4096
1.88807e+06,0,0,0,168,4224
1.88807e+06,0,0,0,40,4352
1.88896e+06,0,0,0,168,4224
1.88896e+06,0,0,0,40,4352
1.89289e+06,0,0,0,552,3840
1.89289e+06,0,0,0,424,3968
1.89289e+06,0,0,0,296,4096
1.89289e+06,0,0,0,168,4224
1.8932e+06,0,0,0,680,3712
1.8932e+06,0,0,0,296,4096
1.8932e+06,0,0,0,40,4352
1.89389e+06,0,0,0,168,4224
1.8939e+06,0,0,0,40,4352
1.89391e+06,0,0,0,168,4224
1.89468e+06,0,0,0,424,3968
1.89594e+06,0,0,0,808,3584
1.89698e+06,0,0,0,1064,3328
1.8975e+06,0,0,0,1192,3200
1.8976e+06,0,0,0,1320,3072
1.89811e+06,0,0,0,1448,2944
1.89811e+06,0,0,0,1576,2816
1.89906e+06,0,0,0,1704,2688
1.90063e+06,0,0,0,2216,2176
1.90294e+06,0,0,0,2344,2048
1.90296e+06,0,0,0,2472,1920
1.90297e+06,0,0,0,72,4320
1.903e+06,0,0,0,200,4192
1.90405e+06,0,0,0,1224,3168
1.90405e+06,0,0,0,624,3768
1.90428e+06,0,0,0,752,3640
1.90429e+06,0,0,0,52,4340
1.91126e+06,0,0,0,436,3956
1.91552e+06,0,0,0,692,3700
1.91552e+06,0,0,0,180,4212
1.91552e+06,0,0,0,52,4340
1.92637e+06,0,0,0,180,4212
1.92784e+06,0,0,0,880,3512
1.92784e+06,0,0,0,624,3768
1.92784e+06,0,0,0,176,4216
1.92935e+06,0,0,0,776,3616
1.92936e+06,0,0,0,520,3872
1.92936e+06,0,0,0,136,4256
1.92936e+06,0,0,0,8,4384
1.93743e+06,0,0,0,520,3872
1.93743e+06,0,0,0,392,4000
1.93743e+06,0,0,0,264,4128
1.93743e+06,0,0,0,136,4256
1.93743e+06,0,0,0,8,4384
1.93941e+06,0,0,0,136,4256
1.93942e+06,0,0,0,8,4384
1.9462e+06,0,0,0,2408,1984
1.94621e+06,0,0,0,2280,2112
1.94621e+06,0,0,0,2152,2240
1.94621e+06,0,0,0,2024,2368
1.94621e+06,0,0,0,1896,2496
1.94621e+06,0,0,0,1768,2624
1.94621e+06,0,0,0,1640,2752
1.94621e+06,0,0,0,1512,2880
1.94621e+06,0,0,0,1384,3008
1.94621e+06,0,0,0,1256,3136
1.94621e+06,0,0,0,744,3648
1.94621e+06,0,0,0,616,3776
1.94621e+06,0,0,0,168,4224
1.94621e+06,0,0,0,40,4352
1.94745e+06,0,0,0,168,4224
1.94746e+06,0,0,0,40,4352
1.94747e+06,0,0,0,168,4224
1.94747e+06,0,0,0,296,4096
1.94749e+06,0,0,0,424,3968
1.94749e+06,0,0,0,40,4352
1.94946e+06,0,0,0,168,4224
1.94948e+06,0,0,0,424,3968
1.94949e+06,0,0,0,168,4224
1.95058e+06,0,0,0,424,3968
1.95425e+06,0,0,0,808,3584
1.95425e+06,0,0,0,296,4096
1.95425e+06,0,0,0,168,4224
1.95425e+06,0,0,0,40,4352
1.95623e+06,0,0,0,168,4224
1.95623e+06,0,0,0,40,4352
1.95625e+06,0,0,0,168,4224
1.95625e+06,0,0,0,296,4096
1.95625e+06,0,0,0,424,3968
1.95626e+06,0,0,0,168,4224
1.95626e+06,0,0,0,296,4096
1.95626e+06,0,0,0,40,4352
1.95627e+06,0,0,0,168,4224
1.95627e+06,0,0,0,296,4096
1.95628e+06,0,0,0,40,4352
1.95638e+06,0,0,0,168,4224
1.9565e+06,0,0,0,296,4096
1.95651e+06,0,0,0,40,4352
1.95668e+06,0,0,0,488,3904
1.95668e+06,0,0,0,232,4160
1.95679e+06,0,0,0,360,4032
1.95679e+06,0,0,0,104,4288
1.95696e+06,0,0,0,232,4160
1.95827e+06,0,0,0,360,4032
1.95827e+06,0,0,0,104,4288
1.96512e+06,0,0,0,232,4160
1.96512e+06,0,0,0,360,4032
1.96512e+06,0,0,0,104,4288
1.96707e+06,0,0,0,232,4160
1.96808e+06,0,0,0,744,3648
1.96808e+06,0,0,0,232,4160
1.97123e+06,0,0,0,488,3904
1.97247e+06,0,0,0,744,3648
1.97247e+06,0,0,0,44,4348
1.97324e+06,0,0,0,300,4092
1.97325e+06,0,0,0,172,4220
1.97375e+06,0,0,0,428,3964
1.97572e+06,0,0,0,684,3708
1.97572e+06,0,0,0,236,4156
1.97572e+06,0,0,0,108,4284
1.97649e+06,0,0,0,620,3772
1.97649e+06,0,0,0,492,3900
1.97649e+06,0,0,0,364,4028
1.97649e+06,0,0,0,236,4156
1.97649e+06,0,0,0,108,4284
1.9773e+06,0,0,0,556,3836
1.9773e+06,0,0,0,428,3964
1.9773e+06,0,0,0,300,4092
1.9773e+06,0,0,0,172,4220
1.9773e+06,0,0,0,44,4348
1.97792e+06,0,0,0,300,4092
1.97793e+06,0,0,0,172,4220
1.97796e+06,0,0,0,428,3964
1.97796e+06,0,0,0,172,4220
1.97799e+06,0,0,0,428,3964
1.97799e+06,0,0,0,172,4220
1.97992e+06,0,0,0,556,3836
1.97993e+06,0,0,0,44,4348
1.98296e+06,0,0,0,300,4092
1.98296e+06,0,0,0,44,4348
1.98413e+06,0,0,0,172,4220
1.98579e+06,0,0,0,300,4092
1.9858e+06,0,0,0,44,4348
1.98653e+06,0,0,0,172,4220
1.98656e+06,0,0,0,300,4092
1.98657e+06,0,0,0,44,4348
1.98658e+06,0,0,0,172,4220
1.98727e+06,0,0,0,300,4092
1.98733e+06,0,0,0,428,3964
1.98735e+06,0,0,0,556,3836
1.98735e+06,0,0,0,44,4348
1.98735e+06,0,0,0,172,4220
1.98737e+06,0,0,0,300,4092
1.98737e+06,0,0,0,44,4348
1.98869e+06,0,0,0,172,4220
1.98869e+06,0,0,0,44,4348
1.9889e+06,0,0,0,300,4092
1.9889e+06,0,0,0,44,4348
1.98917e+06,0,0,0,300,4092
1.98917e+06,0,0,0,172,4220
1.98917e+06,0,0,0,44,4348
1.9907e+06,0,0,0,556,3836
1.9907e+06,0,0,0,428,3964
1.9907e+06,0,0,0,300,4092
1.9907e+06,0,0,0,172,4220
1.9907e+06,0,0,0,44,4348
1.99578e+06,0,0,0,744,3648
1.99579e+06,0,0,0,616,3776
1.99579e+06,0,0,0,488,3904
1.99579e+06,0,0,0,360,4032
1.99579e+06,0,0,0,232,4160
1.99579e+06,0,0,0,96,4296
1.99958e+06,0,0,0,224,4168
1.9999e+06,0,0,0,352,4040
1.99999e+06,0,0,0,480,3912
2.00012e+06,0,0,0,736,3656
2.00076e+06,0,0,0,864,3528
2.00158e+06,0,0,0,992,3400
2.00158e+06,0,0,0,1120,3272
2.00161e+06,0,0,0,1248,3144
2.00465e+06,0,0,0,1504,2888
2.00504e+06,0,0,0,2016,2376
2.00582e+06,0,0,0,2144,2248
2.00583e+06,0,0,0,2272,2120
2.00584e+06,0,0,0,2400,1992
2.00584e+06,0,0,0,2528,1864
2.00667e+06,0,0,0,2664,1728
2.00747e+06,0,0,0,2920,1472
2.00815e+06,0,0,0,3368,1024
2.00822e+06,0,0,0,3624,768
2.00892e+06,0,0,0,4136,256
2.00893e+06,0,0,0,40,4352
2.00913e+06,0,0,0,296,4096
2.00913e+06,0,0,0,24,4368
2.03088e+06,0,0,0,296,4096
2.03088e+06,0,0,0,40,4352
2.05349e+06,0,0,0,296,4096
2.05391e+06,0,0,0,4392,0
2.05392e+06,0,0,0,296,4096
2.05392e+06,0,0,0,40,4352
2.07331e+06,0,0,0,296,4096
2.07384e+06,0,0,0,4392,0
2.07385e+06,0,0,0,296,4096
2.07385e+06,0,0,0,40,4352
2.09552e+06,0,0,0,296,4096
2.09552e+06,0,0,0,160,4232
2.09552e+06,0,0,0,24,4368
2.10641e+06,0,0,0,160,4232
2.10642e+06,0,0,0,24,4368
2.10775e+06,0,0,0,160,4232
2.10775e+06,0,0,0,32,4360
2.11733e+06,0,0,0,168,4224
2.11733e+06,0,0,0,40,4352
2.11861e+06,0,0,0,168,4224
2.11861e+06,0,0,0,40,4352
2.12816e+06,0,0,0,168,4224
2.12816e+06,0,0,0,40,4352
2.12953e+06,0,0,0,168,4224
2.12953e+06,0,0,0,40,4352
2.13904e+06,0,0,0,168,4224
2.13904e+06,0,0,0,40,4352
2.14039e+06,0,0,0,168,4224
2.1404e+06,0,0,0,40,4352
2.14466e+06,0,0,0,39,4353
2.15047e+06,0,0,0,167,4225
2.15048e+06,0,0,0,39,4353
2.15233e+06,0,0,0,167,4225
2.15673e+06,0,0,0,168,4224
2.16056e+06,0,0,0,296,4096
2.16165e+06,0,0,0,4392,0
2.16166e+06,0,0,0,3880,512
2.16166e+06,0,0,0,3180,1212
2.16166e+06,0,0,0,2668,1724
2.16166e+06,0,0,0,2156,2236
2.16166e+06,0,0,0,1900,2492
2.16166e+06,0,0,0,876,3516
2.16166e+06,0,0,0,552,3840
2.16166e+06,0,0,0,94,4298
2.17255e+06,0,0,0,418,3974
2.17255e+06,0,0,0,220,4172
2.17255e+06,0,0,0,92,4300
2.17369e+06,0,0,0,550,3842
2.18261e+06,0,0,0,678,3714
2.18312e+06,0,0,0,876,3516
2.18331e+06,0,0,0,1132,3260
2.18331e+06,0,0,0,108,4284
2.18338e+06,0,0,0,1132,3260
2.18338e+06,0,0,0,876,3516
2.18338e+06,0,0,0,620,3772
2.18338e+06,0,0,0,364,4028
2.18338e+06,0,0,0,108,4284
2.18391e+06,0,0,0,620,3772
2.18391e+06,0,0,0,364,4028
2.18391e+06,0,0,0,108,4284
2.18546e+06,0,0,0,808,3584
2.18547e+06,0,0,0,552,3840
2.18547e+06,0,0,0,296,4096
2.18547e+06,0,0,0,168,4224
2.18547e+06,0,0,0,40,4352
2.19554e+06,0,0,0,168,4224
2.19554e+06,0,0,0,40,4352
2.1963e+06,0,0,0,168,4224
2.20176e+06,0,0,0,680,3712
2.20177e+06,0,0,0,424,3968
2.20177e+06,0,0,0,296,4096
2.20177e+06,0,0,0,168,4224
2.20177e+06,0,0,0,40,4352
2.20209e+06,0,0,0,552,3840
2.2021e+06,0,0,0,296,4096
2.20374e+06,0,0,0,552,3840
2.20503e+06,0,0,0,808,3584
2.20506e+06,0,0,0,1064,3328
2.20506e+06,0,0,0,1320,3072
2.20506e+06,0,0,0,296,4096
2.20511e+06,0,0,0,552,3840
2.20555e+06,0,0,0,808,3584
2.20555e+06,0,0,0,1064,3328
2.20555e+06,0,0,0,364,4028
2.20555e+06,0,0,0,236,4156
2.20641e+06,0,0,0,364,4028
2.20642e+06,0,0,0,108,4284
2.2086e+06,0,0,0,364,4028
2.20861e+06,0,0,0,108,4284
2.21261e+06,0,0,0,236,4156
2.21262e+06,0,0,0,364,4028
2.21263e+06,0,0,0,492,3900
2.21361e+06,0,0,0,748,3644
2.21634e+06,0,0,0,876,3516
2.22036e+06,0,0,0,1132,3260
2.22376e+06,0,0,0,2156,2236
2.22382e+06,0,0,0,2412,1980
2.22672e+06,0,0,0,3436,956
2.22806e+06,0,0,0,3692,700
2.22935e+06,0,0,0,4392,0
2.22935e+06,0,0,0,296,4096
2.22935e+06,0,0,0,294,4098
2.22935e+06,0,0,0,288,4104
2.22935e+06,0,0,0,286,4106
2.23949e+06,0,0,0,158,4234
2.24679e+06,0,0,0,30,4362
2.24929e+06,0,0,0,32,4360
2.24954e+06,0,0,0,38,4354
2.25036e+06,0,0,0,166,4226
2.25434e+06,0,0,0,38,4354
2.25738e+06,0,0,0,40,4352
2.25768e+06,0,0,0,168,4224
2.25768e+06,0,0,0,40,4352
2.26629e+06,0,0,0,168,4224
2.26629e+06,0,0,0,40,4352
2.2686e+06,0,0,0,168,4224
2.27709e+06,0,0,0,296,4096
2.27709e+06,0,0,0,104,4288
2.28796e+06,0,0,0,296,4096
2.29149e+06,0,0,0,4392,0
2.29149e+06,0,0,0,3496,896
2.29149e+06,0,0,0,2984,1408
2.29149e+06,0,0,0,2526,1866
2.29149e+06,0,0,0,1470,2922
2.29149e+06,0,0,0,414,3978
2.29149e+06,0,0,0,158,4234
2.30917e+06,0,0,0,1214,3178
2.30918e+06,0,0,0,926,3466
2.31314e+06,0,0,0,1182,3210
2.31314e+06,0,0,0,158,4234
2.3135e+06,0,0,0,670,3722
2.32395e+06,0,0,0,1128,3264
2.32395e+06,0,0,0,104,4288
2.33092e+06,0,0,0,392,4000
2.33092e+06,0,0,0,264,4128
2.33092e+06,0,0,0,136,4256
2.33092e+06,0,0,0,8,4384
2.34126e+06,0,0,0,136,4256
2.34126e+06,0,0,0,8,4384
2.34134e+06,0,0,0,136,4256
2.34134e+06,0,0,0,8,4384
2.34175e+06,0,0,0,136,4256
2.34176e+06,0,0,0,8,4384
2.35152e+06,0,0,0,136,4256
2.35153e+06,0,0,0,8,4384
2.35163e+06,0,0,0,136,4256
2.35164e+06,0,0,0,8,4384
2.35212e+06,0,0,0,136,4256
2.35212e+06,0,0,0,8,4384
2.36173e+06,0,0,0,136,4256
2.36173e+06,0,0,0,8,4384
2.36186e+06,0,0,0,136,4256
2.36186e+06,0,0,0,8,4384
2.36246e+06,0,0,0,136,4256
2.36246e+06,0,0,0,8,4384
2.37205e+06,0,0,0,136,4256
2.37227e+06,0,0,0,264,4128
2.37271e+06,0,0,0,392,4000
2.378e+06,0,0,0,1448,2944
2.378e+06,0,0,0,424,3968
2.37802e+06,0,0,0,1320,3072
2.37803e+06,0,0,0,808,3584
2.37803e+06,0,0,0,296,4096
2.37803e+06,0,0,0,168,4224
2.37803e+06,0,0,0,40,4352
2.38839e+06,0,0,0,168,4224
2.3886e+06,0,0,0,296,4096
2.3886e+06,0,0,0,40,4352
2.39825e+06,0,0,0,1064,3328
2.39825e+06,0,0,0,808,3584
2.39825e+06,0,0,0,552,3840
2.39825e+06,0,0,0,296,4096
2.39825e+06,0,0,0,40,4352
2.4052e+06,0,0,0,552,3840
2.4052e+06,0,0,0,296,4096
2.4052e+06,0,0,0,40,4352
2.40903e+06,0,0,0,1064,3328
2.40903e+06,0,0,0,552,3840
2.41023e+06,0,0,0,808,3584
2.41044e+06,0,0,0,1320,3072
2.41904e+06,0,0,0,936,3456
2.41987e+06,0,0,0,1192,3200
2.41989e+06,0,0,0,1448,2944
2.41992e+06,0,0,0,1704,2688
2.41996e+06,0,0,0,1960,2432
2.42307e+06,0,0,0,1704,2688
2.4269e+06,0,0,0,1960,2432
2.42693e+06,0,0,0,2216,2176
2.42754e+06,0,0,0,2088,2304
2.43082e+06,0,0,0,2600,1792
2.43448e+06,0,0,0,1576,2816
2.4345e+06,0,0,0,552,3840
2.43553e+06,0,0,0,808,3584
2.43641e+06,0,0,0,680,3712
2.43839e+06,0,0,0,808,3584
2.44658e+06,0,0,0,680,3712
2.44718e+06,0,0,0,808,3584
2.44997e+06,0,0,0,680,3712
2.4515e+06,0,0,0,1064,3328
2.45199e+06,0,0,0,936,3456
2.45216e+06,0,0,0,648,3744
2.45621e+06,0,0,0,1672,2720
2.45623e+06,0,0,0,2696,1696
2.45883e+06,0,0,0,2824,1568
2.45896e+06,0,0,0,2500,1892
2.4622e+06,0,0,0,2628,1764
2.46291e+06,0,0,0,2756,1636
2.4631e+06,0,0,0,2628,1764
2.46454e+06,0,0,0,2500,1892
2.46454e+06,0,0,0,2372,2020
2.46455e+06,0,0,0,2244,2148
2.46456e+06,0,0,0,2116,2276
2.46457e+06,0,0,0,1988,2404
2.46457e+06,0,0,0,1860,2532
2.46459e+06,0,0,0,1732,2660
2.46459e+06,0,0,0,1604,2788
2.46461e+06,0,0,0,1476,2916
2.46461e+06,0,0,0,1348,3044
2.46461e+06,0,0,0,1220,3172
2.46463e+06,0,0,0,1092,3300
2.46463e+06,0,0,0,964,3428
2.46984e+06,0,0,0,1288,3104
2.47373e+06,0,0,0,1576,2816
2.47384e+06,0,0,0,1704,2688
2.47459e+06,0,0,0,1832,2560
2.47459e+06,0,0,0,1960,2432
2.4746e+06,0,0,0,2088,2304
2.4746e+06,0,0,0,2216,2176
2.4746e+06,0,0,0,2344,2048
2.47463e+06,0,0,0,2472,1920
2.47465e+06,0,0,0,2600,1792
2.47466e+06,0,0,0,2728,1664
2.47467e+06,0,0,0,2856,1536
2.47468e+06,0,0,0,2984,1408
2.4747e+06,0,0,0,3112,1280
2.47481e+06,0,0,0,3240,1152
2.47613e+06,0,0,0,3368,1024
2.48104e+06,0,0,0,3240,1152
2.48571e+06,0,0,0,3112,1280
2.49187e+06,0,0,0,3240,1152
2.49657e+06,0,0,0,3368,1024
2.50277e+06,0,0,0,4392,0
2.50277e+06,0,0,0,296,4096
2.50277e+06,0,0,0,40,4352
2.51857e+06,0,0,0,296,4096
2.51857e+06,0,0,0,40,4352
2.53561e+06,0,0,0,296,4096
2.55507e+06,0,0,0,4392,0
2.55508e+06,0,0,0,296,4096
2.55872e+06,0,0,0,168,4224
2.56958e+06,0,0,0,296,4096
2.58189e+06,0,0,0,168,4224
2.5853e+06,0,0,0,40,4352
2.59276e+06,0,0,0,168,4224
2.59276e+06,0,0,0,40,4352
2.59622e+06,0,0,0,168,4224
2.59622e+06,0,0,0,40,4352
2.60284e+06,0,0,0,168,4224
2.60715e+06,0,0,0,296,4096
2.60808e+06,0,0,0,4392,0
2.60808e+06,0,0,0,3752,640
2.60808e+06,0,0,0,3456,936
2.60808e+06,0,0,0,3200,1192
2.60808e+06,0,0,0,2944,1448
2.60808e+06,0,0,0,2688,1704
2.60808e+06,0,0,0,2432,1960
2.60808e+06,0,0,0,2176,2216
2.60808e+06,0,0,0,2048,2344
2.60808e+06,0,0,0,1920,2472
2.60808e+06,0,0,0,896,3496
2.61894e+06,0,0,0,1152,3240
2.61894e+06,0,0,0,128,4264
2.61896e+06,0,0,0,256,4136
2.61903e+06,0,0,0,384,4008
2.62182e+06,0,0,0,640,3752
2.62943e+06,0,0,0,936,3456
2.62984e+06,0,0,0,1192,3200
2.62985e+06,0,0,0,168,4224
2.62988e+06,0,0,0,424,3968
2.62989e+06,0,0,0,680,3712
2.62989e+06,0,0,0,424,3968
2.62989e+06,0,0,0,136,4256
2.63392e+06,0,0,0,8,4384
2.64483e+06,0,0,0,136,4256
2.64794e+06,0,0,0,392,4000
2.6514e+06,0,0,0,1416,2976
2.6514e+06,0,0,0,360,4032
2.6514e+06,0,0,0,104,4288
2.6514e+06,0,0,0,744,3648
2.65154e+06,0,0,0,1768,2624
2.65154e+06,0,0,0,966,3426
2.65159e+06,0,0,0,1254,3138
2.66226e+06,0,0,0,2278,2114
2.66578e+06,0,0,0,1254,3138
2.66956e+06,0,0,0,230,4162
2.673e+06,0,0,0,486,3906
2.67318e+06,0,0,0,1288,3104
2.67478e+06,0,0,0,1160,3232
2.67907e+06,0,0,0,136,4256
2.68566e+06,0,0,0,264,4128
2.68566e+06,0,0,0,8,4384
2.68732e+06,0,0,0,1032,3360
2.68732e+06,0,0,0,776,3616
2.68732e+06,0,0,0,520,3872
2.68732e+06,0,0,0,264,4128
2.68732e+06,0,0,0,8,4384
2.69852e+06,0,0,0,264,4128
2.69852e+06,0,0,0,8,4384
2.69952e+06,0,0,0,264,4128
2.69952e+06,0,0,0,8,4384
2.69989e+06,0,0,0,264,4128
2.69989e+06,0,0,0,8,4384
2.69991e+06,0,0,0,264,4128
2.69991e+06,0,0,0,8,4384
2.69995e+06,0,0,0,264,4128
2.69995e+06,0,0,0,8,4384
2.71116e+06,0,0,0,264,4128
2.71214e+06,0,0,0,520,3872
2.71234e+06,0,0,0,776,3616
2.7125e+06,0,0,0,1032,3360
2.71267e+06,0,0,0,1288,3104
2.71267e+06,0,0,0,232,4160
2.71842e+06,0,0,0,1288,3104
2.71842e+06,0,0,0,776,3616
2.71842e+06,0,0,0,520,3872
2.71842e+06,0,0,0,264,4128
2.71925e+06,0,0,0,136,4256
2.71961e+06,0,0,0,8,4384
2.72953e+06,0,0,0,136,4256
2.72953e+06,0,0,0,8,4384
2.72973e+06,0,0,0,136,4256
2.73297e+06,0,0,0,8,4384
2.74006e+06,0,0,0,264,4128
2.74006e+06,0,0,0,136,4256
2.74006e+06,0,0,0,8,4384
2.74015e+06,0,0,0,136,4256
2.74015e+06,0,0,0,8,4384
2.74305e+06,0,0,0,136,4256
2.75015e+06,0,0,0,264,4128
2.75032e+06,0,0,0,392,4000
2.75087e+06,0,0,0,520,3872
2.75087e+06,0,0,0,1032,3360
2.75087e+06,0,0,0,228,4164
2.75607e+06,0,0,0,1252,3140
2.75607e+06,0,0,0,448,3944
2.75607e+06,0,0,0,320,4072
2.75607e+06,0,0,0,192,4200
2.75607e+06,0,0,0,64,4328
2.7662e+06,0,0,0,192,4200
2.7662e+06,0,0,0,320,4072
2.7662e+06,0,0,0,192,4200
2.7662e+06,0,0,0,64,4328
2.76694e+06,0,0,0,192,4200
2.76694e+06,0,0,0,64,4328
2.7725e+06,0,0,0,868,3524
2.77251e+06,0,0,0,740,3652
2.77251e+06,0,0,0,612,3780
2.77251e+06,0,0,0,484,3908
2.77251e+06,0,0,0,356,4036
2.77251e+06,0,0,0,228,4164
2.77251e+06,0,0,0,100,4292
2.77623e+06,0,0,0,228,4164
2.77623e+06,0,0,0,100,4292
2.77626e+06,0,0,0,228,4164
2.77626e+06,0,0,0,100,4292
2.77701e+06,0,0,0,228,4164
2.77702e+06,0,0,0,100,4292
2.78087e+06,0,0,0,1156,3236
2.78088e+06,0,0,0,1028,3364
2.78088e+06,0,0,0,772,3620
2.78254e+06,0,0,0,900,3492
2.78259e+06,0,0,0,1028,3364
2.78259e+06,0,0,0,4,4388
2.78259e+06,0,0,0,132,4260
2.78259e+06,0,0,0,4,4388
2.7826e+06,0,0,0,132,4260
2.78265e+06,0,0,0,260,4132
2.78329e+06,0,0,0,388,4004
2.78626e+06,0,0,0,516,3876
2.78626e+06,0,0,0,4,4388
2.7863e+06,0,0,0,132,4260
2.78787e+06,0,0,0,260,4132
2.79177e+06,0,0,0,388,4004
2.79177e+06,0,0,0,100,4292
2.79344e+06,0,0,0,228,4164
2.80075e+06,0,0,0,740,3652
2.80076e+06,0,0,0,484,3908
2.80246e+06,0,0,0,740,3652
2.80417e+06,0,0,0,1764,2628
2.80417e+06,0,0,0,740,3652
2.81342e+06,0,0,0,1028,3364
2.81343e+06,0,0,0,226,4166
2.81343e+06,0,0,0,98,4294
2.82384e+06,0,0,0,354,4038
2.82428e+06,0,0,0,482,3910
2.83322e+06,0,0,0,738,3654
2.84234e+06,0,0,0,1540,2852
2.84234e+06,0,0,0,738,3654
2.84234e+06,0,0,0,610,3782
2.84241e+06,0,0,0,1634,2758
2.84545e+06,0,0,0,1378,3014
2.84546e+06,0,0,0,1122,3270
2.84546e+06,0,0,0,866,3526
2.84547e+06,0,0,0,610,3782
2.84547e+06,0,0,0,354,4038
2.84547e+06,0,0,0,98,4294
2.85071e+06,0,0,0,902,3490
2.85072e+06,0,0,0,646,3746
2.85072e+06,0,0,0,390,4002
2.85072e+06,0,0,0,134,4258
2.85323e+06,0,0,0,262,4130
2.85324e+06,0,0,0,6,4386
2.8671e+06,0,0,0,262,4130
2.8671e+06,0,0,0,518,3874
2.8671e+06,0,0,0,774,3618
2.86711e+06,0,0,0,390,4002
2.86712e+06,0,0,0,646,3746
2.86713e+06,0,0,0,902,3490
2.86732e+06,0,0,0,1158,3234
2.87127e+06,0,0,0,1960,2432
2.87127e+06,0,0,0,709,3683
2.87127e+06,0,0,0,581,3811
2.87127e+06,0,0,0,577,3815
2.87127e+06,0,0,0,575,3817
2.87237e+06,0,0,0,831,3561
2.87237e+06,0,0,0,1087,3305
2.87237e+06,0,0,0,1343,3049
2.87489e+06,0,0,0,1599,2793
2.88213e+06,0,0,0,1727,2665
2.89298e+06,0,0,0,2978,1414
2.89961e+06,0,0,0,3362,1030
2.91276e+06,0,0,0,4386,6
2.96007e+06,0,0,0,4130,262
2.96465e+06,0,0,0,4132,260
2.96501e+06,0,0,0,36,4356
2.96586e+06,0,0,0,40,4352
2.98323e+06,0,0,0,296,4096
2.98323e+06,0,0,0,40,4352
3.00445e+06,0,0,0,4136,256
3.00445e+06,0,0,0,3334,1058
3.00445e+06,0,0,0,2532,1860
3.00445e+06,0,0,0,2276,2116
3.00487e+06,0,0,0,2532,1860
3.0189e+06,0,0,0,1508,2884
3.02609e+06,0,0,0,1764,2628
3.03097e+06,0,0,0,740,3652
3.03327e+06,0,0,0,1542,2850
3.03334e+06,0,0,0,2344,2048
3.03851e+06,0,0,0,2216,2176
3.039e+06,0,0,0,2088,2304
3.03949e+06,0,0,0,1960,2432
3.03997e+06,0,0,0,1832,2560
3.04004e+06,0,0,0,1704,2688
3.04052e+06,0,0,0,2728,1664
3.04937e+06,0,0,0,2856,1536
3.04983e+06,0,0,0,2984,1408
3.05033e+06,0,0,0,3112,1280
3.05085e+06,0,0,0,3240,1152
3.0509e+06,0,0,0,3368,1024
3.0513e+06,0,0,0,2344,2048
3.05256e+06,0,0,0,3368,1024
3.05258e+06,0,0,0,2344,2048
3.0526e+06,0,0,0,1320,3072
3.05261e+06,0,0,0,296,4096
3.05405e+06,0,0,0,40,4352
3.06771e+06,0,0,0,296,4096
3.07299e+06,0,0,0,1320,3072
3.07299e+06,0,0,0,296,4096
3.07299e+06,0,0,0,168,4224
3.07299e+06,0,0,0,40,4352
3.08382e+06,0,0,0,168,4224
3.08385e+06,0,0,0,296,4096
3.09472e+06,0,0,0,1320,3072
3.09472e+06,0,0,0,516,3876
3.10383e+06,0,0,0,388,4004
3.10384e+06,0,0,0,132,4260
3.11471e+06,0,0,0,260,4132
3.11472e+06,0,0,0,4,4388
3.12687e+06,0,0,0,260,4132
3.12688e+06,0,0,0,132,4260
3.12688e+06,0,0,0,4,4388
3.13487e+06,0,0,0,260,4132
3.13487e+06,0,0,0,132,4260
3.13762e+06,0,0,0,1156,3236
3.13763e+06,0,0,0,900,3492
3.13763e+06,0,0,0,644,3748
3.13763e+06,0,0,0,260,4132
3.13763e+06,0,0,0,132,4260
3.13763e+06,0,0,0,130,4262
3.13768e+06,0,0,0,1154,3238
3.13768e+06,0,0,0,642,3750
3.1377e+06,0,0,0,1666,2726
3.13774e+06,0,0,0,1794,2598
3.13774e+06,0,0,0,1922,2470
3.14283e+06,0,0,0,1641,2751
3.14356e+06,0,0,0,1639,2753
3.14575e+06,0,0,0,1767,2625
3.14849e+06,0,0,0,1895,2497
3.15316e+06,0,0,0,1767,2625
3.15318e+06,0,0,0,1639,2753
3.15319e+06,0,0,0,1511,2881
3.1532e+06,0,0,0,1383,3009
3.1533e+06,0,0,0,1255,3137
3.15335e+06,0,0,0,1127,3265
3.15335e+06,0,0,0,999,3393
3.15335e+06,0,0,0,871,3521
3.15532e+06,0,0,0,1152,3240
3.15837e+06,0,0,0,1408,2984
3.15931e+06,0,0,0,1410,2982
3.15932e+06,0,0,0,1666,2726
3.16052e+06,0,0,0,1538,2854
3.1632e+06,0,0,0,1666,2726
3.16327e+06,0,0,0,1794,2598
3.16327e+06,0,0,0,1922,2470
3.16335e+06,0,0,0,2050,2342
3.16337e+06,0,0,0,2178,2214
3.16341e+06,0,0,0,2306,2086
3.16344e+06,0,0,0,2434,1958
3.1635e+06,0,0,0,2562,1830
3.16526e+06,0,0,0,2564,1828
3.16918e+06,0,0,0,2948,1444
3.17008e+06,0,0,0,3460,932
3.17136e+06,0,0,0,3588,804
3.18116e+06,0,0,0,4392,0
3.18116e+06,0,0,0,296,4096
3.18116e+06,0,0,0,40,4352
3.20281e+06,0,0,0,296,4096
3.20281e+06,0,0,0,168,4224
3.20281e+06,0,0,0,40,4352
3.21367e+06,0,0,0,168,4224
3.2137e+06,0,0,0,296,4096
3.21371e+06,0,0,0,40,4352
3.23554e+06,0,0,0,296,4096
3.26903e+06,0,0,0,4392,0
3.26904e+06,0,0,0,296,4096
3.35558e+06,0,0,0,4392,0
3.35558e+06,0,0,0,3368,1024
3.35558e+06,0,0,0,2668,1724
3.35558e+06,0,0,0,2284,2108
3.38084e+06,0,0,0,2984,1408
3.3881e+06,0,0,0,3368,1024
3.44208e+06,0,0,0,4392,0
