job_id,workload_name,profile,submission_time,requested_number_of_resources,requested_time,success,final_state,starting_time,execution_time,finish_time,waiting_time,turnaround_time,stretch,allocated_resources,consumed_energy,metadata
24_0_1,w0,profile_24,0.000000,282,21600.000000,1,COMPLETED_SUCCESSFULLY,0.008400,20521.000000,20521.008400,0.008400,20521.008400,1.000000,2989-3270,-1.000000,""
26_0_1,w0,profile_26,0.000000,256,21677.000000,1,COMPLETED_SUCCESSFULLY,0.009600,21676.000000,21676.009600,0.009600,21676.009600,1.000000,3527-3782,-1.000000,""
14_0_1,w0,profile_14,0.000000,256,21699.000000,1,COMPLETED_SUCCESSFULLY,0.005400,21698.000000,21698.005400,0.005400,21698.005400,1.000000,1281-1536,-1.000000,""
11_0_1,w0,profile_11,0.000000,256,21709.000000,1,COMPLETED_SUCCESSFULLY,0.003600,21708.000000,21708.003600,0.003600,21708.003600,1.000000,257-512,-1.000000,""
31_0_1,w0,profile_31,0.000000,256,21711.000000,1,COMPLETED_SUCCESSFULLY,0.010800,21710.000000,21710.010800,0.010800,21710.010800,1.000000,4039-4294,-1.000000,""
25_0_1,w0,profile_25,0.000000,256,21715.000000,1,COMPLETED_SUCCESSFULLY,0.009000,21714.000000,21714.009000,0.009000,21714.009000,1.000000,3271-3526,-1.000000,""
30_0_1,w0,profile_30,0.000000,256,21718.000000,1,COMPLETED_SUCCESSFULLY,0.010200,21717.000000,21717.010200,0.010200,21717.010200,1.000000,3783-4038,-1.000000,""
15_0_1,w0,profile_15,0.000000,384,21722.000000,1,COMPLETED_SUCCESSFULLY,0.006000,21721.000000,21721.006000,0.006000,21721.006000,1.000000,1537-1920,-1.000000,""
13_0_1,w0,profile_13,0.000000,256,21742.000000,1,COMPLETED_SUCCESSFULLY,0.004800,21741.000000,21741.004800,0.004800,21741.004800,1.000000,1025-1280,-1.000000,""
17_0_1,w0,profile_17,0.000000,300,21746.000000,1,COMPLETED_SUCCESSFULLY,0.007200,21745.000000,21745.007200,0.007200,21745.007200,1.000000,2177-2476,-1.000000,""
16_0_1,w0,profile_16,0.000000,256,21774.000000,1,COMPLETED_SUCCESSFULLY,0.006600,21773.000000,21773.006600,0.006600,21773.006600,1.000000,1921-2176,-1.000000,""
0_0_1,w0,profile_0,0.000000,1,28976.000000,1,COMPLETED_SUCCESSFULLY,0.002400,28975.000000,28975.002400,0.002400,28975.002400,1.000000,0,-1.000000,""
12_0_1,w0,profile_12,0.000000,512,32470.000000,1,COMPLETED_SUCCESSFULLY,0.004200,32469.000000,32469.004200,0.004200,32469.004200,1.000000,513-1024,-1.000000,""
18_0_1,w0,profile_18,0.000000,512,33696.000000,1,COMPLETED_SUCCESSFULLY,0.007800,33695.000000,33695.007800,0.007800,33695.007800,1.000000,2477-2988,-1.000000,""
29_0_1,w0,profile_29,0.000000,256,21745.000000,1,COMPLETED_SUCCESSFULLY,32472.006450,21744.000000,54216.006450,32472.006450,54216.006450,2.493378,768-1023,-1.000000,""
1_0_1,w0,profile_1,0.000000,384,32499.000000,1,COMPLETED_SUCCESSFULLY,21744.006450,32498.000000,54242.006450,21744.006450,54242.006450,1.669088,1025-1280 4141-4268,-1.000000,""
27_0_1,w0,profile_27,0.000000,256,21782.000000,1,COMPLETED_SUCCESSFULLY,32472.005850,21781.000000,54253.005850,32472.005850,54253.005850,2.490841,0 513-767,-1.000000,""
20_0_1,w0,profile_20,0.000000,512,32513.000000,1,COMPLETED_SUCCESSFULLY,21776.008250,32512.000000,54288.008250,21776.008250,54288.008250,1.669784,1921-2432,-1.000000,""
10_0_1,w0,profile_10,0.000000,256,86400.000000,1,COMPLETED_SUCCESSFULLY,0.003000,57987.000000,57987.003000,0.003000,57987.003000,1.000000,1-256,-1.000000,""
28_0_1,w0,profile_28,0.000000,256,22955.000000,1,COMPLETED_SUCCESSFULLY,57990.004650,22954.000000,80944.004650,57990.004650,80944.004650,3.526357,1-256,-1.000000,""
19_0_1,w0,profile_19,0.000000,2048,86400.000000,1,COMPLETED_SUCCESSFULLY,21724.007650,70151.000000,91875.007650,21724.007650,91875.007650,1.309675,257-512 1281-1920 2989-4140,-1.000000,""
3_0_1,w0,profile_3,0.000000,256,21600.000000,1,COMPLETED_SUCCESSFULLY,80947.006300,21196.000000,102143.006300,80947.006300,102143.006300,4.818976,1-256,-1.000000,""
8_0_1,w0,profile_8,0.000000,256,21702.000000,1,COMPLETED_SUCCESSFULLY,102146.007950,21701.000000,123847.007950,102146.007950,123847.007950,5.706972,1-256,-1.000000,""
21_0_1,w0,profile_21,0.000000,2048,86400.000000,1,COMPLETED_SUCCESSFULLY,54291.009900,81710.000000,136001.009900,54291.009900,136001.009900,1.664435,0 513-1280 1921-2988 4141-4351,-1.000000,""
22_0_1,w0,profile_22,0.000000,2048,86400.000000,1,COMPLETED_SUCCESSFULLY,91878.009300,77778.000000,169656.009300,91878.009300,169656.009300,2.181285,257-512 1281-1920 2989-4140,-1.000000,""
2_0_1,w0,profile_2,0.000000,256,86400.000000,1,COMPLETED_SUCCESSFULLY,136004.012150,44574.000000,180578.012150,136004.012150,180578.012150,4.051196,2944-2988 4141-4351,-1.000000,""
23_0_1,w0,profile_23,0.000000,2048,86400.000000,1,COMPLETED_SUCCESSFULLY,136004.011550,53124.000000,189128.011550,136004.011550,189128.011550,3.560124,0-256 513-1280 1921-2943,-1.000000,""
4_0_1,w0,profile_4,0.000000,512,21774.000000,1,COMPLETED_SUCCESSFULLY,169659.012150,21773.000000,191432.012150,169659.012150,191432.012150,8.792174,3607-4118,-1.000000,""
33_0_1,w0,profile_33,0.000000,1002,43200.000000,1,COMPLETED_SUCCESSFULLY,169659.011550,22006.000000,191665.011550,169659.011550,191665.011550,8.709671,1537-1920 2989-3606,-1.000000,""
32_0_1,w0,profile_32,0.000000,512,32400.000000,1,COMPLETED_SUCCESSFULLY,169659.010950,31677.000000,201336.010950,169659.010950,201336.010950,6.355905,257-512 1281-1536,-1.000000,""
9_0_1,w0,profile_9,0.000000,256,21725.000000,1,COMPLETED_SUCCESSFULLY,189131.015000,21724.000000,210855.015000,189131.015000,210855.015000,9.706086,2922-2988 4119-4307,-1.000000,""
5_0_1,w0,profile_5,0.000000,1002,36000.000000,1,COMPLETED_SUCCESSFULLY,189131.013200,22168.000000,211299.013200,189131.013200,211299.013200,9.531713,0-256 513-1257,-1.000000,""
38_0_1,w0,profile_38,8866.000000,256,21765.000000,1,COMPLETED_SUCCESSFULLY,191668.014400,21764.000000,213432.014400,182802.014400,204566.014400,9.399284,3373-3606 4308-4329,-1.000000,""
37_0_1,w0,profile_37,8838.000000,256,21789.000000,1,COMPLETED_SUCCESSFULLY,191668.013800,21788.000000,213456.013800,182830.013800,204618.013800,9.391317,3117-3372,-1.000000,""
7_0_1,w0,profile_7,0.000000,512,32500.000000,1,COMPLETED_SUCCESSFULLY,189131.014400,32499.000000,221630.014400,189131.014400,221630.014400,6.819595,2410-2921,-1.000000,""
6_0_1,w0,profile_6,0.000000,512,32551.000000,1,COMPLETED_SUCCESSFULLY,189131.013800,32550.000000,221681.013800,189131.013800,221681.013800,6.810477,1258-1280 1921-2409,-1.000000,""
40_0_1,w0,profile_40,79431.000000,282,21600.000000,1,COMPLETED_SUCCESSFULLY,201339.012600,20428.000000,221767.012600,121908.012600,142336.012600,6.967692,257-512 1281-1306,-1.000000,""
41_0_1,w0,profile_41,92273.000000,256,21716.000000,1,COMPLETED_SUCCESSFULLY,201339.013200,21715.000000,223054.013200,109066.013200,130781.013200,6.022612,1307-1536 4330-4355,-1.000000,""
34_0_1,w0,profile_34,908.000000,512,32543.000000,1,COMPLETED_SUCCESSFULLY,191435.013800,32542.000000,223977.013800,190527.013800,223069.013800,6.854803,3607-4118,-1.000000,""
35_0_1,w0,profile_35,910.000000,512,32530.000000,1,COMPLETED_SUCCESSFULLY,191668.013200,32529.000000,224197.013200,190758.013200,223287.013200,6.864245,1537-1920 2989-3116,-1.000000,""
36_0_1,w0,profile_36,6632.000000,4002,43200.000000,1,COMPLETED_SUCCESSFULLY,224200.014850,42751.000000,266951.014850,217568.014850,260319.014850,6.089191,0-4001,-1.000000,""
39_0_1,w0,profile_39,17078.000000,512,32511.000000,1,COMPLETED_SUCCESSFULLY,266954.016500,32510.000000,299464.016500,249876.016500,282386.016500,8.686128,0-511,-1.000000,""
44_0_1,w0,profile_44,337243.000000,512,21701.000000,1,COMPLETED_SUCCESSFULLY,337243.001800,21700.000000,358943.001800,0.001800,21700.001800,1.000000,1024-1535,-1.000000,""
42_0_1,w0,profile_42,336488.000000,512,32538.000000,1,COMPLETED_SUCCESSFULLY,336488.001800,32537.000000,369025.001800,0.001800,32537.001800,1.000000,0-511,-1.000000,""
43_0_1,w0,profile_43,336516.000000,512,33696.000000,1,COMPLETED_SUCCESSFULLY,336516.001800,33695.000000,370211.001800,0.001800,33695.001800,1.000000,512-1023,-1.000000,""
45_0_1,w0,profile_45,339260.000000,512,33814.000000,1,COMPLETED_SUCCESSFULLY,339260.001800,33813.000000,373073.001800,0.001800,33813.001800,1.000000,1536-2047,-1.000000,""
46_0_1,w0,profile_46,339656.000000,512,33669.000000,1,COMPLETED_SUCCESSFULLY,339656.001800,33668.000000,373324.001800,0.001800,33668.001800,1.000000,2048-2559,-1.000000,""
47_0_1,w0,profile_47,363633.000000,256,21763.000000,1,COMPLETED_SUCCESSFULLY,363633.001800,21762.000000,385395.001800,0.001800,21762.001800,1.000000,1024-1279,-1.000000,""
48_0_1,w0,profile_48,363674.000000,256,86400.000000,1,COMPLETED_SUCCESSFULLY,363674.001800,33519.000000,397193.001800,0.001800,33519.001800,1.000000,1280-1535,-1.000000,""
52_0_1,w0,profile_52,379615.000000,806,43200.000000,1,COMPLETED_SUCCESSFULLY,379615.001800,37024.000000,416639.001800,0.001800,37024.001800,1.000000,2930-3735,-1.000000,""
51_0_1,w0,profile_51,379598.000000,806,43200.000000,1,COMPLETED_SUCCESSFULLY,379598.001800,37512.000000,417110.001800,0.001800,37512.001800,1.000000,2124-2929,-1.000000,""
49_0_1,w0,profile_49,379449.000000,806,43200.000000,1,COMPLETED_SUCCESSFULLY,379449.001800,38226.000000,417675.001800,0.001800,38226.001800,1.000000,0-805,-1.000000,""
50_0_1,w0,profile_50,379489.000000,806,43200.000000,1,COMPLETED_SUCCESSFULLY,379489.001800,38285.000000,417774.001800,0.001800,38285.001800,1.000000,806-1023 1536-2123,-1.000000,""
53_0_1,w0,profile_53,379660.000000,806,43200.000000,1,COMPLETED_SUCCESSFULLY,385398.003450,37002.000000,422400.003450,5738.003450,42740.003450,1.155073,1024-1279 3736-4285,-1.000000,""
56_0_1,w0,profile_56,391389.000000,384,21716.000000,1,COMPLETED_SUCCESSFULLY,417113.003450,21715.000000,438828.003450,25724.003450,47439.003450,2.184619,2124-2507,-1.000000,""
55_0_1,w0,profile_55,386655.000000,512,32514.000000,1,COMPLETED_SUCCESSFULLY,416642.004050,32513.000000,449155.004050,29987.004050,62500.004050,1.922308,3186-3697,-1.000000,""
54_0_1,w0,profile_54,386315.000000,512,33684.000000,1,COMPLETED_SUCCESSFULLY,416642.003450,33683.000000,450325.003450,30327.003450,64010.003450,1.900365,1280-1535 2930-3185,-1.000000,""
66_0_1,w0,profile_66,430372.000000,256,21600.000000,1,COMPLETED_SUCCESSFULLY,450328.005700,20373.000000,470701.005700,19956.005700,40329.005700,1.979532,4002-4257,-1.000000,""
57_0_1,w0,profile_57,414641.000000,4002,44583.000000,1,COMPLETED_SUCCESSFULLY,450328.005100,44582.000000,494910.005100,35687.005100,80269.005100,1.800480,0-4001,-1.000000,""
68_0_1,w0,profile_68,451086.000000,256,86400.000000,1,COMPLETED_SUCCESSFULLY,494913.007350,69052.000000,563965.007350,43827.007350,112879.007350,1.634696,4096-4351,-1.000000,""
58_0_1,w0,profile_58,424507.000000,4096,87657.000000,1,COMPLETED_SUCCESSFULLY,494913.006750,87656.000000,582569.006750,70406.006750,158062.006750,1.803208,0-4095,-1.000000,""
69_0_1,w0,profile_69,507621.000000,256,21754.000000,1,COMPLETED_SUCCESSFULLY,582572.011400,21753.000000,604325.011400,74951.011400,96704.011400,4.445548,4030-4285,-1.000000,""
72_0_1,w0,profile_72,592227.000000,280,21715.000000,1,COMPLETED_SUCCESSFULLY,604328.013050,21714.000000,626042.013050,12101.013050,33815.013050,1.557291,4030-4309,-1.000000,""
63_0_1,w0,profile_63,429486.000000,806,64800.000000,1,COMPLETED_SUCCESSFULLY,582572.010800,58286.000000,640858.010800,153086.010800,211372.010800,3.626463,3224-4029,-1.000000,""
62_0_1,w0,profile_62,429469.000000,806,64800.000000,1,COMPLETED_SUCCESSFULLY,582572.010200,59421.000000,641993.010200,153103.010200,212524.010200,3.576581,2418-3223,-1.000000,""
59_0_1,w0,profile_59,429333.000000,806,64911.000000,1,COMPLETED_SUCCESSFULLY,582572.008400,64910.000000,647482.008400,153239.008400,218149.008400,3.360792,0-805,-1.000000,""
61_0_1,w0,profile_61,429450.000000,806,64923.000000,1,COMPLETED_SUCCESSFULLY,582572.009600,64922.000000,647494.009600,153122.009600,218044.009600,3.358553,1612-2417,-1.000000,""
60_0_1,w0,profile_60,429375.000000,806,64926.000000,1,COMPLETED_SUCCESSFULLY,582572.009000,64925.000000,647497.009000,153197.009000,218122.009000,3.359600,806-1611,-1.000000,""
73_0_1,w0,profile_73,635459.000000,256,22873.000000,1,COMPLETED_SUCCESSFULLY,647485.011250,22872.000000,670357.011250,12026.011250,34898.011250,1.525796,756-805 4039-4244,-1.000000,""
67_0_1,w0,profile_67,439706.000000,500,32615.000000,1,COMPLETED_SUCCESSFULLY,647485.010050,32614.000000,680099.010050,207779.010050,240393.010050,7.370853,0-499,-1.000000,""
64_0_1,w0,profile_64,429509.000000,806,64800.000000,1,COMPLETED_SUCCESSFULLY,640861.012450,50807.000000,691668.012450,211352.012450,262159.012450,5.159899,3224-4029,-1.000000,""
65_0_1,w0,profile_65,429535.000000,815,64890.000000,1,COMPLETED_SUCCESSFULLY,641996.011850,64889.000000,706885.011850,212461.011850,277350.011850,4.274222,2418-3223 4030-4038,-1.000000,""
70_0_1,w0,profile_70,541120.000000,256,86400.000000,1,COMPLETED_SUCCESSFULLY,647485.010650,60790.000000,708275.010650,106365.010650,167155.010650,2.749712,500-755,-1.000000,""
74_0_1,w0,profile_74,635608.000000,256,86400.000000,1,COMPLETED_SUCCESSFULLY,680102.012300,36160.000000,716262.012300,44494.012300,80654.012300,2.230476,2304-2417 4039-4180,-1.000000,""
75_0_1,w0,profile_75,696579.000000,256,21718.000000,1,COMPLETED_SUCCESSFULLY,696579.001800,21717.000000,718296.001800,0.001800,21717.001800,1.000000,3224-3479,-1.000000,""
71_0_1,w0,profile_71,589761.000000,2048,43370.000000,1,COMPLETED_SUCCESSFULLY,680102.011700,43369.000000,723471.011700,90341.011700,133710.011700,3.083078,0-499 756-2303,-1.000000,""
76_0_1,w0,profile_76,696599.000000,256,28947.000000,1,COMPLETED_SUCCESSFULLY,696599.001800,28946.000000,725545.001800,0.001800,28946.001800,1.000000,3480-3735,-1.000000,""
82_0_1,w0,profile_82,712210.000000,256,21087.000000,1,COMPLETED_SUCCESSFULLY,712210.001800,21086.000000,733296.001800,0.001800,21086.001800,1.000000,3954-4038 4181-4351,-1.000000,""
79_0_1,w0,profile_79,712207.000000,256,21103.000000,1,COMPLETED_SUCCESSFULLY,712207.001800,21102.000000,733309.001800,0.001800,21102.001800,1.000000,2674-2929,-1.000000,""
81_0_1,w0,profile_81,712209.000000,256,21113.000000,1,COMPLETED_SUCCESSFULLY,712209.001800,21112.000000,733321.001800,0.001800,21112.001800,1.000000,3186-3223 3736-3953,-1.000000,""
77_0_1,w0,profile_77,712203.000000,256,21137.000000,1,COMPLETED_SUCCESSFULLY,712203.001800,21136.000000,733339.001800,0.001800,21136.001800,1.000000,500-755,-1.000000,""
78_0_1,w0,profile_78,712206.000000,256,21148.000000,1,COMPLETED_SUCCESSFULLY,712206.001800,21147.000000,733353.001800,0.001800,21147.001800,1.000000,2418-2673,-1.000000,""
80_0_1,w0,profile_80,712208.000000,256,21164.000000,1,COMPLETED_SUCCESSFULLY,712208.001800,21163.000000,733371.001800,0.001800,21163.001800,1.000000,2930-3185,-1.000000,""
83_0_1,w0,profile_83,712211.000000,256,21138.000000,1,COMPLETED_SUCCESSFULLY,716265.013950,21137.000000,737402.013950,4054.013950,25191.013950,1.191797,2304-2417 4039-4180,-1.000000,""
84_0_1,w0,profile_84,712225.000000,256,21148.000000,1,COMPLETED_SUCCESSFULLY,718299.003450,21147.000000,739446.003450,6074.003450,27221.003450,1.287228,3224-3479,-1.000000,""
85_0_1,w0,profile_85,712228.000000,256,21125.000000,1,COMPLETED_SUCCESSFULLY,723474.013350,21124.000000,744598.013350,11246.013350,32370.013350,1.532381,0-255,-1.000000,""
86_0_1,w0,profile_86,853478.000000,256,21751.000000,1,COMPLETED_SUCCESSFULLY,853478.001800,21750.000000,875228.001800,0.001800,21750.001800,1.000000,0-255,-1.000000,""
87_0_1,w0,profile_87,857730.000000,256,21772.000000,1,COMPLETED_SUCCESSFULLY,857730.001800,21771.000000,879501.001800,0.001800,21771.001800,1.000000,256-511,-1.000000,""
88_0_1,w0,profile_88,960549.000000,361,21745.000000,1,COMPLETED_SUCCESSFULLY,960549.001800,21744.000000,982293.001800,0.001800,21744.001800,1.000000,0-360,-1.000000,""
89_0_1,w0,profile_89,960593.000000,256,21701.000000,1,COMPLETED_SUCCESSFULLY,960593.001800,21700.000000,982293.001800,0.001800,21700.001800,1.000000,361-616,-1.000000,""
90_0_1,w0,profile_90,973928.000000,2048,86400.000000,1,COMPLETED_SUCCESSFULLY,973928.001800,27711.000000,1001639.001800,0.001800,27711.001800,1.000000,617-2664,-1.000000,""
92_0_1,w0,profile_92,988942.000000,256,21715.000000,1,COMPLETED_SUCCESSFULLY,988942.001800,21714.000000,1010656.001800,0.001800,21714.001800,1.000000,2848-3103,-1.000000,""
93_0_1,w0,profile_93,1026005.000000,256,21700.000000,1,COMPLETED_SUCCESSFULLY,1026005.001800,21699.000000,1047704.001800,0.001800,21699.001800,1.000000,617-872,-1.000000,""
94_0_1,w0,profile_94,1032654.000000,256,21709.000000,1,COMPLETED_SUCCESSFULLY,1032654.001800,21708.000000,1054362.001800,0.001800,21708.001800,1.000000,873-1128,-1.000000,""
95_0_1,w0,profile_95,1034900.000000,600,21697.000000,1,COMPLETED_SUCCESSFULLY,1034900.001800,21696.000000,1056596.001800,0.001800,21696.001800,1.000000,1129-1728,-1.000000,""
96_0_1,w0,profile_96,1034903.000000,600,21713.000000,1,COMPLETED_SUCCESSFULLY,1034903.001800,21712.000000,1056615.001800,0.001800,21712.001800,1.000000,1729-2328,-1.000000,""
97_0_1,w0,profile_97,1034905.000000,600,21713.000000,1,COMPLETED_SUCCESSFULLY,1034905.001800,21712.000000,1056617.001800,0.001800,21712.001800,1.000000,2329-2664 2848-3111,-1.000000,""
99_0_1,w0,profile_99,1034907.000000,600,21711.000000,1,COMPLETED_SUCCESSFULLY,1034907.001800,21710.000000,1056617.001800,0.001800,21710.001800,1.000000,3712-4311,-1.000000,""
98_0_1,w0,profile_98,1034906.000000,600,21717.000000,1,COMPLETED_SUCCESSFULLY,1034906.001800,21716.000000,1056622.001800,0.001800,21716.001800,1.000000,3112-3711,-1.000000,""
91_0_1,w0,profile_91,987833.000000,800,86492.000000,1,COMPLETED_SUCCESSFULLY,987833.001800,86491.000000,1074324.001800,0.001800,86491.001800,1.000000,0-616 2665-2847,-1.000000,""
101_0_1,w0,profile_101,1034939.000000,600,21688.000000,1,COMPLETED_SUCCESSFULLY,1056627.006600,21687.000000,1078314.006600,21688.006600,43375.006600,2.000046,1217-1816,-1.000000,""
103_0_1,w0,profile_103,1034944.000000,600,21702.000000,1,COMPLETED_SUCCESSFULLY,1056627.007800,21701.000000,1078328.007800,21683.007800,43384.007800,1.999171,2417-2664 2848-3199,-1.000000,""
104_0_1,w0,profile_104,1034945.000000,600,21714.000000,1,COMPLETED_SUCCESSFULLY,1056627.008400,21713.000000,1078340.008400,21682.008400,43395.008400,1.998573,3200-3799,-1.000000,""
102_0_1,w0,profile_102,1034943.000000,600,21720.000000,1,COMPLETED_SUCCESSFULLY,1056627.007200,21719.000000,1078346.007200,21684.007200,43403.007200,1.998389,1817-2416,-1.000000,""
100_0_1,w0,profile_100,1034938.000000,600,21835.000000,1,COMPLETED_SUCCESSFULLY,1056599.003450,21834.000000,1078433.003450,21661.003450,43495.003450,1.992077,617-1216,-1.000000,""
105_0_1,w0,profile_105,1034946.000000,600,21745.000000,1,COMPLETED_SUCCESSFULLY,1074327.003450,21744.000000,1096071.003450,39381.003450,61125.003450,2.811120,0-599,-1.000000,""
106_0_1,w0,profile_106,1034947.000000,600,21772.000000,1,COMPLETED_SUCCESSFULLY,1074327.004050,21771.000000,1096098.004050,39380.004050,61151.004050,2.808828,600-616 2665-2847 3800-4199,-1.000000,""
109_0_1,w0,profile_109,1034982.000000,600,21682.000000,1,COMPLETED_SUCCESSFULLY,1078343.010050,21681.000000,1100024.010050,43361.010050,65042.010050,2.999954,3200-3799,-1.000000,""
108_0_1,w0,profile_108,1034981.000000,600,21707.000000,1,COMPLETED_SUCCESSFULLY,1078331.009450,21706.000000,1100037.009450,43350.009450,65056.009450,2.997144,2417-2664 2848-3199,-1.000000,""
110_0_1,w0,profile_110,1034983.000000,600,21692.000000,1,COMPLETED_SUCCESSFULLY,1078349.008850,21691.000000,1100040.008850,43366.008850,65057.008850,2.999263,1817-2416,-1.000000,""
107_0_1,w0,profile_107,1034967.000000,600,21740.000000,1,COMPLETED_SUCCESSFULLY,1078317.008250,21739.000000,1100056.008250,43350.008250,65089.008250,2.994112,1217-1816,-1.000000,""
111_0_1,w0,profile_111,1034985.000000,600,21759.000000,1,COMPLETED_SUCCESSFULLY,1078436.005100,21758.000000,1100194.005100,43451.005100,65209.005100,2.997013,617-1216,-1.000000,""
112_0_1,w0,profile_112,1034986.000000,600,21728.000000,1,COMPLETED_SUCCESSFULLY,1096074.005100,21727.000000,1117801.005100,61088.005100,82815.005100,3.811617,0-599,-1.000000,""
113_0_1,w0,profile_113,1034987.000000,600,21716.000000,1,COMPLETED_SUCCESSFULLY,1096101.005700,21715.000000,1117816.005700,61114.005700,82829.005700,3.814368,600-616 2665-2847 3800-4199,-1.000000,""
118_0_1,w0,profile_118,1080982.000000,256,21679.000000,1,COMPLETED_SUCCESSFULLY,1100043.013950,21678.000000,1121721.013950,19061.013950,40739.013950,1.879279,2585-2664 2848-3023,-1.000000,""
114_0_1,w0,profile_114,1034988.000000,600,21706.000000,1,COMPLETED_SUCCESSFULLY,1100027.011700,21705.000000,1121732.011700,65039.011700,86744.011700,3.996499,3200-3799,-1.000000,""
116_0_1,w0,profile_116,1044243.000000,256,21736.000000,1,COMPLETED_SUCCESSFULLY,1100043.012750,21735.000000,1121778.012750,55800.012750,77535.012750,3.567288,2073-2328,-1.000000,""
117_0_1,w0,profile_117,1060487.000000,256,21750.000000,1,COMPLETED_SUCCESSFULLY,1100043.013350,21749.000000,1121792.013350,39556.013350,61305.013350,2.818751,2329-2584,-1.000000,""
115_0_1,w0,profile_115,1043106.000000,256,21758.000000,1,COMPLETED_SUCCESSFULLY,1100043.012150,21757.000000,1121800.012150,56937.012150,78694.012150,3.616951,1817-2072,-1.000000,""
120_0_1,w0,profile_120,1125612.000000,256,21796.000000,1,COMPLETED_SUCCESSFULLY,1125612.001800,21795.000000,1147407.001800,0.001800,21795.001800,1.000000,384-639,-1.000000,""
121_0_1,w0,profile_121,1130294.000000,512,21770.000000,1,COMPLETED_SUCCESSFULLY,1130294.001800,21769.000000,1152063.001800,0.001800,21769.001800,1.000000,640-1151,-1.000000,""
119_0_1,w0,profile_119,1125271.000000,384,32551.000000,1,COMPLETED_SUCCESSFULLY,1125271.001800,32550.000000,1157821.001800,0.001800,32550.001800,1.000000,0-383,-1.000000,""
126_0_1,w0,profile_126,1138511.000000,297,45135.000000,1,COMPLETED_SUCCESSFULLY,1138511.001800,45134.000000,1183645.001800,0.001800,45134.001800,1.000000,3156-3452,-1.000000,""
125_0_1,w0,profile_125,1138510.000000,501,45175.000000,1,COMPLETED_SUCCESSFULLY,1138510.002400,45174.000000,1183684.002400,0.002400,45174.002400,1.000000,2655-3155,-1.000000,""
127_0_1,w0,profile_127,1142195.000000,258,41539.000000,1,COMPLETED_SUCCESSFULLY,1142195.001800,41538.000000,1183733.001800,0.001800,41538.001800,1.000000,3453-3710,-1.000000,""
123_0_1,w0,profile_123,1138509.000000,501,45713.000000,1,COMPLETED_SUCCESSFULLY,1138509.001800,45712.000000,1184221.001800,0.001800,45712.001800,1.000000,1653-2153,-1.000000,""
122_0_1,w0,profile_122,1138508.000000,501,45792.000000,1,COMPLETED_SUCCESSFULLY,1138508.001800,45791.000000,1184299.001800,0.001800,45791.001800,1.000000,1152-1652,-1.000000,""
124_0_1,w0,profile_124,1138510.000000,501,45841.000000,1,COMPLETED_SUCCESSFULLY,1138510.001800,45840.000000,1184350.001800,0.001800,45840.001800,1.000000,2154-2654,-1.000000,""
128_0_1,w0,profile_128,1170162.000000,294,21148.000000,1,COMPLETED_SUCCESSFULLY,1170162.001800,21147.000000,1191309.001800,0.001800,21147.001800,1.000000,0-293,-1.000000,""
129_0_1,w0,profile_129,1199879.000000,256,21780.000000,1,COMPLETED_SUCCESSFULLY,1199879.001800,21779.000000,1221658.001800,0.001800,21779.001800,1.000000,0-255,-1.000000,""
130_0_1,w0,profile_130,1202186.000000,384,32543.000000,1,COMPLETED_SUCCESSFULLY,1202186.001800,32542.000000,1234728.001800,0.001800,32542.001800,1.000000,256-639,-1.000000,""
131_0_1,w0,profile_131,1228587.000000,800,86400.000000,1,COMPLETED_SUCCESSFULLY,1228587.001800,63616.000000,1292203.001800,0.001800,63616.001800,1.000000,0-255 640-1183,-1.000000,""
133_0_1,w0,profile_133,1289287.000000,256,21711.000000,1,COMPLETED_SUCCESSFULLY,1289287.001800,21710.000000,1310997.001800,0.001800,21710.001800,1.000000,1300-1555,-1.000000,""
134_0_1,w0,profile_134,1289329.000000,256,21734.000000,1,COMPLETED_SUCCESSFULLY,1289329.001800,21733.000000,1311062.001800,0.001800,21733.001800,1.000000,1556-1811,-1.000000,""
132_0_1,w0,profile_132,1281944.000000,500,32524.000000,1,COMPLETED_SUCCESSFULLY,1281944.001800,32523.000000,1314467.001800,0.001800,32523.001800,1.000000,256-639 1184-1299,-1.000000,""
135_0_1,w0,profile_135,1291954.000000,256,36000.000000,1,COMPLETED_SUCCESSFULLY,1291954.001800,26409.000000,1318363.001800,0.001800,26409.001800,1.000000,1812-2067,-1.000000,""
136_0_1,w0,profile_136,1291963.000000,256,28935.000000,1,COMPLETED_SUCCESSFULLY,1291963.001800,28934.000000,1320897.001800,0.001800,28934.001800,1.000000,2068-2323,-1.000000,""
140_0_1,w0,profile_140,1326085.000000,256,21600.000000,1,COMPLETED_SUCCESSFULLY,1326085.001800,21391.000000,1347476.001800,0.001800,21391.001800,1.000000,3714-3969,-1.000000,""
141_0_1,w0,profile_141,1326350.000000,256,21717.000000,1,COMPLETED_SUCCESSFULLY,1326350.001800,21716.000000,1348066.001800,0.001800,21716.001800,1.000000,3970-4225,-1.000000,""
142_0_1,w0,profile_142,1338043.000000,256,21600.000000,1,COMPLETED_SUCCESSFULLY,1347479.003450,20154.000000,1367633.003450,9436.003450,29590.003450,1.468195,3714-3969,-1.000000,""
143_0_1,w0,profile_143,1338250.000000,256,21703.000000,1,COMPLETED_SUCCESSFULLY,1348069.003450,21702.000000,1369771.003450,9819.003450,31521.003450,1.452447,3970-4225,-1.000000,""
137_0_1,w0,profile_137,1304841.000000,866,86400.000000,1,COMPLETED_SUCCESSFULLY,1304841.001800,71161.000000,1376002.001800,0.001800,71161.001800,1.000000,0-255 640-1183 2324-2389,-1.000000,""
139_0_1,w0,profile_139,1322867.000000,800,72000.000000,1,COMPLETED_SUCCESSFULLY,1322867.001800,64569.000000,1387436.001800,0.001800,64569.001800,1.000000,2068-2323 3170-3713,-1.000000,""
144_0_1,w0,profile_144,1338377.000000,256,21801.000000,1,COMPLETED_SUCCESSFULLY,1367636.005100,21800.000000,1389436.005100,29259.005100,51059.005100,2.342156,3714-3969,-1.000000,""
138_0_1,w0,profile_138,1318747.000000,2048,86518.000000,1,COMPLETED_SUCCESSFULLY,1318747.001800,86517.000000,1405264.001800,0.001800,86517.001800,1.000000,256-639 1184-2067 2390-3169,-1.000000,""
145_0_1,w0,profile_145,1383579.000000,256,21747.000000,1,COMPLETED_SUCCESSFULLY,1383579.001800,21746.000000,1405325.001800,0.001800,21746.001800,1.000000,0-255,-1.000000,""
146_0_1,w0,profile_146,1400282.000000,256,21719.000000,1,COMPLETED_SUCCESSFULLY,1400282.001800,21718.000000,1422000.001800,0.001800,21718.001800,1.000000,640-895,-1.000000,""
147_0_1,w0,profile_147,1415668.000000,256,21696.000000,1,COMPLETED_SUCCESSFULLY,1415668.001800,21695.000000,1437363.001800,0.001800,21695.001800,1.000000,0-255,-1.000000,""
148_0_1,w0,profile_148,1419416.000000,256,21693.000000,1,COMPLETED_SUCCESSFULLY,1419416.001800,21692.000000,1441108.001800,0.001800,21692.001800,1.000000,256-511,-1.000000,""
150_0_1,w0,profile_150,1452068.000000,256,21768.000000,1,COMPLETED_SUCCESSFULLY,1452068.001800,21767.000000,1473835.001800,0.001800,21767.001800,1.000000,2048-2303,-1.000000,""
151_0_1,w0,profile_151,1452091.000000,256,21758.000000,1,COMPLETED_SUCCESSFULLY,1452091.001800,21757.000000,1473848.001800,0.001800,21757.001800,1.000000,2304-2559,-1.000000,""
152_0_1,w0,profile_152,1493468.000000,256,21691.000000,1,COMPLETED_SUCCESSFULLY,1493468.001800,21690.000000,1515158.001800,0.001800,21690.001800,1.000000,2048-2303,-1.000000,""
153_0_1,w0,profile_153,1494321.000000,256,21691.000000,1,COMPLETED_SUCCESSFULLY,1494321.001800,21690.000000,1516011.001800,0.001800,21690.001800,1.000000,2304-2559,-1.000000,""
154_0_1,w0,profile_154,1498244.000000,384,21744.000000,1,COMPLETED_SUCCESSFULLY,1498244.001800,21743.000000,1519987.001800,0.001800,21743.001800,1.000000,2560-2943,-1.000000,""
149_0_1,w0,profile_149,1445666.000000,2048,86461.000000,1,COMPLETED_SUCCESSFULLY,1445666.001800,86460.000000,1532126.001800,0.001800,86460.001800,1.000000,0-2047,-1.000000,""
157_0_1,w0,profile_157,1553244.000000,384,32536.000000,1,COMPLETED_SUCCESSFULLY,1553244.001800,32535.000000,1585779.001800,0.001800,32535.001800,1.000000,800-1183,-1.000000,""
155_0_1,w0,profile_155,1502045.000000,2048,86400.000000,1,COMPLETED_SUCCESSFULLY,1519990.003450,85038.000000,1605028.003450,17945.003450,102983.003450,1.211023,2048-4095,-1.000000,""
158_0_1,w0,profile_158,1586163.000000,256,21742.000000,1,COMPLETED_SUCCESSFULLY,1586163.001800,21741.000000,1607904.001800,0.001800,21741.001800,1.000000,800-1055,-1.000000,""
156_0_1,w0,profile_156,1552897.000000,800,72000.000000,1,COMPLETED_SUCCESSFULLY,1552897.001800,63812.000000,1616709.001800,0.001800,63812.001800,1.000000,0-799,-1.000000,""
159_0_1,w0,profile_159,1597391.000000,256,21701.000000,1,COMPLETED_SUCCESSFULLY,1597391.001800,21700.000000,1619091.001800,0.001800,21700.001800,1.000000,1056-1311,-1.000000,""
160_0_1,w0,profile_160,1615143.000000,256,21600.000000,1,COMPLETED_SUCCESSFULLY,1615143.001800,20845.000000,1635988.001800,0.001800,20845.001800,1.000000,800-1055,-1.000000,""
162_0_1,w0,profile_162,1634147.000000,512,21696.000000,1,COMPLETED_SUCCESSFULLY,1634147.001800,21695.000000,1655842.001800,0.001800,21695.001800,1.000000,512-799 1056-1279,-1.000000,""
166_0_1,w0,profile_166,1634181.000000,512,21693.000000,1,COMPLETED_SUCCESSFULLY,1634181.001800,21692.000000,1655873.001800,0.001800,21692.001800,1.000000,2816-3327,-1.000000,""
165_0_1,w0,profile_165,1634176.000000,512,21699.000000,1,COMPLETED_SUCCESSFULLY,1634176.001800,21698.000000,1655874.001800,0.001800,21698.001800,1.000000,2304-2815,-1.000000,""
161_0_1,w0,profile_161,1634146.000000,512,21737.000000,1,COMPLETED_SUCCESSFULLY,1634146.001800,21736.000000,1655882.001800,0.001800,21736.001800,1.000000,0-511,-1.000000,""
164_0_1,w0,profile_164,1634174.000000,512,21713.000000,1,COMPLETED_SUCCESSFULLY,1634174.001800,21712.000000,1655886.001800,0.001800,21712.001800,1.000000,1792-2303,-1.000000,""
163_0_1,w0,profile_163,1634173.000000,512,21741.000000,1,COMPLETED_SUCCESSFULLY,1634173.001800,21740.000000,1655913.001800,0.001800,21740.001800,1.000000,1280-1791,-1.000000,""
168_0_1,w0,profile_168,1634210.000000,512,21736.000000,1,COMPLETED_SUCCESSFULLY,1634210.001800,21735.000000,1655945.001800,0.001800,21735.001800,1.000000,3840-4351,-1.000000,""
167_0_1,w0,profile_167,1634209.000000,512,21791.000000,1,COMPLETED_SUCCESSFULLY,1634209.001800,21790.000000,1655999.001800,0.001800,21790.001800,1.000000,3328-3839,-1.000000,""
171_0_1,w0,profile_171,1649037.000000,256,21600.000000,1,COMPLETED_SUCCESSFULLY,1655879.005100,21082.000000,1676961.005100,6842.005100,27924.005100,1.324543,2560-2815,-1.000000,""
169_0_1,w0,profile_169,1634212.000000,512,21686.000000,1,COMPLETED_SUCCESSFULLY,1655845.003450,21685.000000,1677530.003450,21633.003450,43318.003450,1.997602,512-1023,-1.000000,""
170_0_1,w0,profile_170,1634238.000000,512,21684.000000,1,COMPLETED_SUCCESSFULLY,1655879.004500,21683.000000,1677562.004500,21641.004500,43324.004500,1.998063,1024-1279 2304-2559,-1.000000,""
173_0_1,w0,profile_173,1650988.000000,256,21753.000000,1,COMPLETED_SUCCESSFULLY,1655885.004050,21752.000000,1677637.004050,4897.004050,26649.004050,1.225129,3104-3327 4352-4383,-1.000000,""
174_0_1,w0,profile_174,1661628.000000,256,21600.000000,1,COMPLETED_SUCCESSFULLY,1661628.001800,20434.000000,1682062.001800,0.001800,20434.001800,1.000000,1280-1535,-1.000000,""
175_0_1,w0,profile_175,1666170.000000,256,21600.000000,1,COMPLETED_SUCCESSFULLY,1666170.001800,21450.000000,1687620.001800,0.001800,21450.001800,1.000000,1536-1791,-1.000000,""
176_0_1,w0,profile_176,1670573.000000,256,86400.000000,1,COMPLETED_SUCCESSFULLY,1670573.001800,30114.000000,1700687.001800,0.001800,30114.001800,1.000000,1792-2047,-1.000000,""
172_0_1,w0,profile_172,1649046.000000,800,72000.000000,1,COMPLETED_SUCCESSFULLY,1655885.003450,64611.000000,1720496.003450,6839.003450,71450.003450,1.105849,0-511 2816-3103,-1.000000,""
182_0_1,w0,profile_182,1711639.000000,512,21600.000000,1,COMPLETED_SUCCESSFULLY,1711639.001800,20776.000000,1732415.001800,0.001800,20776.001800,1.000000,3360-3871,-1.000000,""
177_0_1,w0,profile_177,1705410.000000,512,32540.000000,1,COMPLETED_SUCCESSFULLY,1705410.001800,32539.000000,1737949.001800,0.001800,32539.001800,1.000000,512-1023,-1.000000,""
179_0_1,w0,profile_179,1705462.000000,512,32513.000000,1,COMPLETED_SUCCESSFULLY,1705462.001800,32512.000000,1737974.001800,0.001800,32512.001800,1.000000,1536-2047,-1.000000,""
180_0_1,w0,profile_180,1705504.000000,512,32541.000000,1,COMPLETED_SUCCESSFULLY,1705504.001800,32540.000000,1738044.001800,0.001800,32540.001800,1.000000,2048-2559,-1.000000,""
178_0_1,w0,profile_178,1705417.000000,512,32826.000000,1,COMPLETED_SUCCESSFULLY,1705417.001800,32825.000000,1738242.001800,0.001800,32825.001800,1.000000,1024-1535,-1.000000,""
181_0_1,w0,profile_181,1705779.000000,512,32849.000000,1,COMPLETED_SUCCESSFULLY,1705779.001800,32848.000000,1738627.001800,0.001800,32848.001800,1.000000,2560-2815 3104-3359,-1.000000,""
184_0_1,w0,profile_184,1724072.000000,256,21600.000000,1,COMPLETED_SUCCESSFULLY,1724072.001800,20029.000000,1744101.001800,0.001800,20029.001800,1.000000,3872-4127,-1.000000,""
185_0_1,w0,profile_185,1724927.000000,256,21710.000000,1,COMPLETED_SUCCESSFULLY,1724927.001800,21709.000000,1746636.001800,0.001800,21709.001800,1.000000,4128-4383,-1.000000,""
190_0_1,w0,profile_190,1733040.000000,256,21600.000000,1,COMPLETED_SUCCESSFULLY,1738047.004050,21534.000000,1759581.004050,5007.004050,26541.004050,1.232516,2304-2559,-1.000000,""
189_0_1,w0,profile_189,1730402.000000,256,21667.000000,1,COMPLETED_SUCCESSFULLY,1738047.003450,21666.000000,1759713.003450,7645.003450,29311.003450,1.352857,2048-2303,-1.000000,""
188_0_1,w0,profile_188,1726324.000000,384,32485.000000,1,COMPLETED_SUCCESSFULLY,1737977.004050,32484.000000,1770461.004050,11653.004050,44137.004050,1.358731,1824-2047 3616-3775,-1.000000,""
186_0_1,w0,profile_186,1724968.000000,256,86400.000000,1,COMPLETED_SUCCESSFULLY,1732418.003450,43858.000000,1776276.003450,7450.003450,51308.003450,1.169866,3360-3615,-1.000000,""
191_0_1,w0,profile_191,1756435.000000,256,21600.000000,1,COMPLETED_SUCCESSFULLY,1756435.001800,21496.000000,1777931.001800,0.001800,21496.001800,1.000000,1024-1279,-1.000000,""
183_0_1,w0,profile_183,1723872.000000,800,72000.000000,1,COMPLETED_SUCCESSFULLY,1723872.001800,65635.000000,1789507.001800,0.001800,65635.001800,1.000000,0-511 2816-3103,-1.000000,""
192_0_1,w0,profile_192,1769865.000000,256,21727.000000,1,COMPLETED_SUCCESSFULLY,1769865.001800,21726.000000,1791591.001800,0.001800,21726.001800,1.000000,1280-1535,-1.000000,""
194_0_1,w0,profile_194,1780607.000000,256,21600.000000,1,COMPLETED_SUCCESSFULLY,1780607.001800,21529.000000,1802136.001800,0.001800,21529.001800,1.000000,2080-2335,-1.000000,""
187_0_1,w0,profile_187,1725804.000000,800,72000.000000,1,COMPLETED_SUCCESSFULLY,1737977.003450,67392.000000,1805369.003450,12173.003450,79565.003450,1.180630,512-1023 1536-1823,-1.000000,""
193_0_1,w0,profile_193,1780569.000000,512,32501.000000,1,COMPLETED_SUCCESSFULLY,1780569.001800,32500.000000,1813069.001800,0.001800,32500.001800,1.000000,1024-1279 1824-2079,-1.000000,""
197_0_1,w0,profile_197,1802149.000000,256,21600.000000,1,COMPLETED_SUCCESSFULLY,1802149.001800,21512.000000,1823661.001800,0.001800,21512.001800,1.000000,2080-2335,-1.000000,""
198_0_1,w0,profile_198,1805733.000000,256,21686.000000,1,COMPLETED_SUCCESSFULLY,1805733.001800,21685.000000,1827418.001800,0.001800,21685.001800,1.000000,512-767,-1.000000,""
199_0_1,w0,profile_199,1816558.000000,256,21600.000000,1,COMPLETED_SUCCESSFULLY,1816558.001800,20663.000000,1837221.001800,0.001800,20663.001800,1.000000,768-1023,-1.000000,""
201_0_1,w0,profile_201,1833328.000000,256,21737.000000,1,COMPLETED_SUCCESSFULLY,1833328.001800,21736.000000,1855064.001800,0.001800,21736.001800,1.000000,1024-1279,-1.000000,""
195_0_1,w0,profile_195,1789594.000000,800,72000.000000,1,COMPLETED_SUCCESSFULLY,1789594.001800,66916.000000,1856510.001800,0.001800,66916.001800,1.000000,0-511 2336-2623,-1.000000,""
203_0_1,w0,profile_203,1836672.000000,256,21600.000000,1,COMPLETED_SUCCESSFULLY,1836672.001800,21532.000000,1858204.001800,0.001800,21532.001800,1.000000,1792-2047,-1.000000,""
200_0_1,w0,profile_200,1833184.000000,256,28800.000000,1,COMPLETED_SUCCESSFULLY,1833184.001800,26398.000000,1859582.001800,0.001800,26398.001800,1.000000,512-767,-1.000000,""
196_0_1,w0,profile_196,1793295.000000,800,72000.000000,1,COMPLETED_SUCCESSFULLY,1793295.001800,67731.000000,1861026.001800,0.001800,67731.001800,1.000000,1280-1535 2624-3167,-1.000000,""
202_0_1,w0,profile_202,1835075.000000,256,36095.000000,1,COMPLETED_SUCCESSFULLY,1835075.001800,36094.000000,1871169.001800,0.001800,36094.001800,1.000000,1536-1791,-1.000000,""
206_0_1,w0,profile_206,1866411.000000,256,21600.000000,1,COMPLETED_SUCCESSFULLY,1866411.001800,21482.000000,1887893.001800,0.001800,21482.001800,1.000000,1856-2111,-1.000000,""
208_0_1,w0,profile_208,1887935.000000,256,21600.000000,1,COMPLETED_SUCCESSFULLY,1887935.001800,21538.000000,1909473.001800,0.001800,21538.001800,1.000000,1856-2111,-1.000000,""
207_0_1,w0,profile_207,1887296.000000,512,32523.000000,1,COMPLETED_SUCCESSFULLY,1887296.001800,32522.000000,1919818.001800,0.001800,32522.001800,1.000000,1536-1791 2112-2367,-1.000000,""
204_0_1,w0,profile_204,1856557.000000,800,72089.000000,1,COMPLETED_SUCCESSFULLY,1856557.001800,72088.000000,1928645.001800,0.001800,72088.001800,1.000000,0-511 768-1055,-1.000000,""
209_0_1,w0,profile_209,1910211.000000,256,21600.000000,1,COMPLETED_SUCCESSFULLY,1910211.001800,21502.000000,1931713.001800,0.001800,21502.001800,1.000000,1856-2111,-1.000000,""
205_0_1,w0,profile_205,1861031.000000,800,72130.000000,1,COMPLETED_SUCCESSFULLY,1861031.001800,72129.000000,1933160.001800,0.001800,72129.001800,1.000000,512-767 1056-1535 1792-1855,-1.000000,""
210_0_1,w0,profile_210,1931772.000000,256,22644.000000,1,COMPLETED_SUCCESSFULLY,1931772.001800,22643.000000,1954415.001800,0.001800,22643.001800,1.000000,0-255,-1.000000,""
212_0_1,w0,profile_212,1946686.000000,256,21600.000000,1,COMPLETED_SUCCESSFULLY,1946686.001800,20241.000000,1966927.001800,0.001800,20241.001800,1.000000,1056-1311,-1.000000,""
211_0_1,w0,profile_211,1933531.000000,800,43200.000000,1,COMPLETED_SUCCESSFULLY,1933531.001800,35148.000000,1968679.001800,0.001800,35148.001800,1.000000,256-1055,-1.000000,""
213_0_1,w0,profile_213,1956016.000000,256,21600.000000,1,COMPLETED_SUCCESSFULLY,1956016.001800,21493.000000,1977509.001800,0.001800,21493.001800,1.000000,0-255,-1.000000,""
216_0_1,w0,profile_216,1977523.000000,256,21600.000000,1,COMPLETED_SUCCESSFULLY,1977523.001800,21521.000000,1999044.001800,0.001800,21521.001800,1.000000,0-255,-1.000000,""
218_0_1,w0,profile_218,1993106.000000,600,21691.000000,1,COMPLETED_SUCCESSFULLY,1993106.001800,21690.000000,2014796.001800,0.001800,21690.001800,1.000000,2904-3503,-1.000000,""
219_0_1,w0,profile_219,1993107.000000,600,21708.000000,1,COMPLETED_SUCCESSFULLY,1993107.001800,21707.000000,2014814.001800,0.001800,21707.001800,1.000000,3504-4103,-1.000000,""
217_0_1,w0,profile_217,1993105.000000,600,21745.000000,1,COMPLETED_SUCCESSFULLY,1993105.001800,21744.000000,2014849.001800,0.001800,21744.001800,1.000000,2304-2903,-1.000000,""
230_0_1,w0,profile_230,2006092.000000,256,21600.000000,1,COMPLETED_SUCCESSFULLY,2014852.004650,20372.000000,2035224.004650,8760.004650,29132.004650,1.430002,4104-4359,-1.000000,""
229_0_1,w0,profile_229,2005644.000000,256,21600.000000,1,COMPLETED_SUCCESSFULLY,2014852.004050,20611.000000,2035463.004050,9208.004050,29819.004050,1.446752,3848-4103,-1.000000,""
221_0_1,w0,profile_221,1993109.000000,600,21732.000000,1,COMPLETED_SUCCESSFULLY,2014817.003450,21731.000000,2036548.003450,21708.003450,43439.003450,1.998942,3248-3847,-1.000000,""
222_0_1,w0,profile_222,1993110.000000,600,21702.000000,1,COMPLETED_SUCCESSFULLY,2014852.003450,21701.000000,2036553.003450,21742.003450,43443.003450,2.001889,2304-2903,-1.000000,""
220_0_1,w0,profile_220,1993108.000000,600,22796.000000,1,COMPLETED_SUCCESSFULLY,2014799.003450,22795.000000,2037594.003450,21691.003450,44486.003450,1.951568,0-255 2904-3247,-1.000000,""
224_0_1,w0,profile_224,1993112.000000,600,21720.000000,1,COMPLETED_SUCCESSFULLY,2036556.005100,21719.000000,2058275.005100,43444.005100,65163.005100,3.000276,2304-2903,-1.000000,""
223_0_1,w0,profile_223,1993111.000000,600,21740.000000,1,COMPLETED_SUCCESSFULLY,2036551.005100,21739.000000,2058290.005100,43440.005100,65179.005100,2.998252,3248-3847,-1.000000,""
214_0_1,w0,profile_214,1973313.000000,1024,86547.000000,1,COMPLETED_SUCCESSFULLY,1973313.001800,86546.000000,2059859.001800,0.001800,86546.001800,1.000000,256-1279,-1.000000,""
215_0_1,w0,profile_215,1973377.000000,1024,86517.000000,1,COMPLETED_SUCCESSFULLY,1973377.001800,86516.000000,2059893.001800,0.001800,86516.001800,1.000000,1280-2303,-1.000000,""
225_0_1,w0,profile_225,1993113.000000,600,22894.000000,1,COMPLETED_SUCCESSFULLY,2037597.005100,22893.000000,2060490.005100,44484.005100,67377.005100,2.943127,0-255 2904-3247,-1.000000,""
226_0_1,w0,profile_226,1993114.000000,600,21695.000000,1,COMPLETED_SUCCESSFULLY,2058278.006750,21694.000000,2079972.006750,65164.006750,86858.006750,4.003780,2304-2903,-1.000000,""
233_0_1,w0,profile_233,2043946.000000,256,21600.000000,1,COMPLETED_SUCCESSFULLY,2059862.004650,20197.000000,2080059.004650,15916.004650,36113.004650,1.788038,768-1023,-1.000000,""
234_0_1,w0,profile_234,2052092.000000,256,21600.000000,1,COMPLETED_SUCCESSFULLY,2059862.005250,20332.000000,2080194.005250,7770.005250,28102.005250,1.382156,1024-1279,-1.000000,""
231_0_1,w0,profile_231,2006553.000000,256,21600.000000,1,COMPLETED_SUCCESSFULLY,2059862.003450,20346.000000,2080208.003450,53309.003450,73655.003450,3.620122,256-511,-1.000000,""
228_0_1,w0,profile_228,2004355.000000,256,22549.000000,1,COMPLETED_SUCCESSFULLY,2058293.007350,22548.000000,2080841.007350,53938.007350,76486.007350,3.392142,4048-4303,-1.000000,""
232_0_1,w0,profile_232,2027788.000000,256,21600.000000,1,COMPLETED_SUCCESSFULLY,2059862.004050,21423.000000,2081285.004050,32074.004050,53497.004050,2.497176,512-767,-1.000000,""
227_0_1,w0,profile_227,1994699.000000,800,86400.000000,1,COMPLETED_SUCCESSFULLY,2058293.006750,24605.000000,2082898.006750,63594.006750,88199.006750,3.584597,3248-4047,-1.000000,""
235_0_1,w0,profile_235,2062179.000000,800,86400.000000,1,COMPLETED_SUCCESSFULLY,2062179.001800,24023.000000,2086202.001800,0.001800,24023.001800,1.000000,0-255 1280-1823,-1.000000,""
241_0_1,w0,profile_241,2157345.000000,512,21687.000000,1,COMPLETED_SUCCESSFULLY,2157345.001800,21686.000000,2179031.001800,0.001800,21686.001800,1.000000,2848-3359,-1.000000,""
239_0_1,w0,profile_239,2157343.000000,512,21698.000000,1,COMPLETED_SUCCESSFULLY,2157343.001800,21697.000000,2179040.001800,0.001800,21697.001800,1.000000,1824-2335,-1.000000,""
242_0_1,w0,profile_242,2157346.000000,512,21697.000000,1,COMPLETED_SUCCESSFULLY,2157346.001800,21696.000000,2179042.001800,0.001800,21696.001800,1.000000,3360-3871,-1.000000,""
243_0_1,w0,profile_243,2157347.000000,512,21704.000000,1,COMPLETED_SUCCESSFULLY,2157347.001800,21703.000000,2179050.001800,0.001800,21703.001800,1.000000,3872-4383,-1.000000,""
240_0_1,w0,profile_240,2157344.000000,512,21710.000000,1,COMPLETED_SUCCESSFULLY,2157344.001800,21709.000000,2179053.001800,0.001800,21709.001800,1.000000,2336-2847,-1.000000,""
237_0_1,w0,profile_237,2157341.000000,512,21718.000000,1,COMPLETED_SUCCESSFULLY,2157341.001800,21717.000000,2179058.001800,0.001800,21717.001800,1.000000,800-1311,-1.000000,""
238_0_1,w0,profile_238,2157342.000000,512,21739.000000,1,COMPLETED_SUCCESSFULLY,2157342.001800,21738.000000,2179080.001800,0.001800,21738.001800,1.000000,1312-1823,-1.000000,""
236_0_1,w0,profile_236,2112866.000000,800,86400.000000,1,COMPLETED_SUCCESSFULLY,2112866.001800,66394.000000,2179260.001800,0.001800,66394.001800,1.000000,0-799,-1.000000,""
244_0_1,w0,profile_244,2157365.000000,512,21680.000000,1,COMPLETED_SUCCESSFULLY,2179034.003450,21679.000000,2200713.003450,21669.003450,43348.003450,1.999539,2848-3359,-1.000000,""
246_0_1,w0,profile_246,2159802.000000,256,21709.000000,1,COMPLETED_SUCCESSFULLY,2179046.005100,21708.000000,2200754.005100,19244.005100,40952.005100,1.886494,3360-3615,-1.000000,""
245_0_1,w0,profile_245,2157379.000000,512,21745.000000,1,COMPLETED_SUCCESSFULLY,2179046.004500,21744.000000,2200790.004500,21667.004500,43411.004500,1.996459,1824-2335,-1.000000,""
247_0_1,w0,profile_247,2180532.000000,800,86400.000000,1,COMPLETED_SUCCESSFULLY,2180532.001800,25458.000000,2205990.001800,0.001800,25458.001800,1.000000,0-799,-1.000000,""
248_0_1,w0,profile_248,2206426.000000,800,86400.000000,1,COMPLETED_SUCCESSFULLY,2206426.001800,66260.000000,2272686.001800,0.001800,66260.001800,1.000000,0-799,-1.000000,""
250_0_1,w0,profile_250,2313211.000000,256,21600.000000,1,COMPLETED_SUCCESSFULLY,2313211.001800,20398.000000,2333609.001800,0.001800,20398.001800,1.000000,800-1055,-1.000000,""
249_0_1,w0,profile_249,2274544.000000,800,86400.000000,1,COMPLETED_SUCCESSFULLY,2274544.001800,66366.000000,2340910.001800,0.001800,66366.001800,1.000000,0-799,-1.000000,""
255_0_1,w0,profile_255,2342611.000000,600,21683.000000,1,COMPLETED_SUCCESSFULLY,2342611.001800,21682.000000,2364293.001800,0.001800,21682.001800,1.000000,2600-3199,-1.000000,""
254_0_1,w0,profile_254,2342610.000000,600,21711.000000,1,COMPLETED_SUCCESSFULLY,2342610.002400,21710.000000,2364320.002400,0.002400,21710.002400,1.000000,2000-2599,-1.000000,""
256_0_1,w0,profile_256,2342612.000000,600,21722.000000,1,COMPLETED_SUCCESSFULLY,2342612.001800,21721.000000,2364333.001800,0.001800,21721.001800,1.000000,3200-3799,-1.000000,""
253_0_1,w0,profile_253,2342610.000000,600,21746.000000,1,COMPLETED_SUCCESSFULLY,2342610.001800,21745.000000,2364355.001800,0.001800,21745.001800,1.000000,1400-1999,-1.000000,""
252_0_1,w0,profile_252,2342607.000000,600,22842.000000,1,COMPLETED_SUCCESSFULLY,2342607.001800,22841.000000,2365448.001800,0.001800,22841.001800,1.000000,800-1399,-1.000000,""
259_0_1,w0,profile_259,2342615.000000,600,21773.000000,1,COMPLETED_SUCCESSFULLY,2364336.003450,21772.000000,2386108.003450,21721.003450,43493.003450,1.997658,3200-3799,-1.000000,""
260_0_1,w0,profile_260,2342616.000000,600,21756.000000,1,COMPLETED_SUCCESSFULLY,2364358.003450,21755.000000,2386113.003450,21742.003450,43497.003450,1.999403,1400-1999,-1.000000,""
262_0_1,w0,profile_262,2350215.000000,256,21600.000000,1,COMPLETED_SUCCESSFULLY,2365451.004050,20676.000000,2386127.004050,15236.004050,35912.004050,1.736893,3800-4055,-1.000000,""
257_0_1,w0,profile_257,2342613.000000,600,22813.000000,1,COMPLETED_SUCCESSFULLY,2364296.003450,22812.000000,2387108.003450,21683.003450,44495.003450,1.950509,2600-3199,-1.000000,""
261_0_1,w0,profile_261,2342644.000000,600,21678.000000,1,COMPLETED_SUCCESSFULLY,2365451.003450,21677.000000,2387128.003450,22807.003450,44484.003450,2.052129,800-1399,-1.000000,""
258_0_1,w0,profile_258,2342614.000000,600,23095.000000,1,COMPLETED_SUCCESSFULLY,2364323.004050,23094.000000,2387417.004050,21709.004050,44803.004050,1.940028,2000-2599,-1.000000,""
265_0_1,w0,profile_265,2354402.000000,256,36000.000000,1,COMPLETED_SUCCESSFULLY,2386116.005700,20151.000000,2406267.005700,31714.005700,51865.005700,2.573818,1656-1911,-1.000000,""
251_0_1,w0,profile_251,2340995.000000,800,72000.000000,1,COMPLETED_SUCCESSFULLY,2340995.001800,65388.000000,2406383.001800,0.001800,65388.001800,1.000000,0-799,-1.000000,""
264_0_1,w0,profile_264,2354285.000000,256,28800.000000,1,COMPLETED_SUCCESSFULLY,2386116.005100,22985.000000,2409101.005100,31831.005100,54816.005100,2.384860,1400-1655,-1.000000,""
267_0_1,w0,profile_267,2419378.000000,256,28800.000000,1,COMPLETED_SUCCESSFULLY,2419378.001800,23391.000000,2442769.001800,0.001800,23391.001800,1.000000,800-1055,-1.000000,""
263_0_1,w0,profile_263,2352683.000000,800,72000.000000,1,COMPLETED_SUCCESSFULLY,2386111.005100,63678.000000,2449789.005100,33428.005100,97106.005100,1.524954,3200-3799 4056-4255,-1.000000,""
270_0_1,w0,profile_270,2445833.000000,256,28906.000000,1,COMPLETED_SUCCESSFULLY,2445833.001800,28905.000000,2474738.001800,0.001800,28905.001800,1.000000,800-1055,-1.000000,""
271_0_1,w0,profile_271,2446487.000000,256,28982.000000,1,COMPLETED_SUCCESSFULLY,2446487.001800,28981.000000,2475468.001800,0.001800,28981.001800,1.000000,2856-3111,-1.000000,""
266_0_1,w0,profile_266,2411380.000000,800,86400.000000,1,COMPLETED_SUCCESSFULLY,2411380.001800,65429.000000,2476809.001800,0.001800,65429.001800,1.000000,0-799,-1.000000,""
272_0_1,w0,profile_272,2458535.000000,256,21702.000000,1,COMPLETED_SUCCESSFULLY,2458535.001800,21701.000000,2480236.001800,0.001800,21701.001800,1.000000,3112-3367,-1.000000,""
268_0_1,w0,profile_268,2420275.000000,800,72000.000000,1,COMPLETED_SUCCESSFULLY,2420275.001800,65202.000000,2485477.001800,0.001800,65202.001800,1.000000,1056-1855,-1.000000,""
273_0_1,w0,profile_273,2476935.000000,800,72000.000000,1,COMPLETED_SUCCESSFULLY,2476935.001800,65168.000000,2542103.001800,0.001800,65168.001800,1.000000,0-799,-1.000000,""
274_0_1,w0,profile_274,2485538.000000,800,72000.000000,1,COMPLETED_SUCCESSFULLY,2485538.001800,63344.000000,2548882.001800,0.001800,63344.001800,1.000000,800-1599,-1.000000,""
275_0_1,w0,profile_275,2542605.000000,256,21751.000000,1,COMPLETED_SUCCESSFULLY,2542605.001800,21750.000000,2564355.001800,0.001800,21750.001800,1.000000,0-255,-1.000000,""
269_0_1,w0,profile_269,2438587.000000,1000,148101.000000,1,COMPLETED_SUCCESSFULLY,2438587.001800,148100.000000,2586687.001800,0.001800,148100.001800,1.000000,1856-2855,-1.000000,""
278_0_1,w0,profile_278,2580162.000000,256,21704.000000,1,COMPLETED_SUCCESSFULLY,2580162.001800,21703.000000,2601865.001800,0.001800,21703.001800,1.000000,1600-1855,-1.000000,""
279_0_1,w0,profile_279,2586393.000000,256,21787.000000,1,COMPLETED_SUCCESSFULLY,2586393.001800,21786.000000,2608179.001800,0.001800,21786.001800,1.000000,2856-3111,-1.000000,""
280_0_1,w0,profile_280,2586510.000000,256,21734.000000,1,COMPLETED_SUCCESSFULLY,2586510.001800,21733.000000,2608243.001800,0.001800,21733.001800,1.000000,3112-3367,-1.000000,""
281_0_1,w0,profile_281,2588010.000000,256,22810.000000,1,COMPLETED_SUCCESSFULLY,2588010.001800,22809.000000,2610819.001800,0.001800,22809.001800,1.000000,1856-2111,-1.000000,""
282_0_1,w0,profile_282,2590456.000000,256,21732.000000,1,COMPLETED_SUCCESSFULLY,2590456.001800,21731.000000,2612187.001800,0.001800,21731.001800,1.000000,2112-2367,-1.000000,""
283_0_1,w0,profile_283,2590508.000000,256,21717.000000,1,COMPLETED_SUCCESSFULLY,2590508.001800,21716.000000,2612224.001800,0.001800,21716.001800,1.000000,2368-2623,-1.000000,""
277_0_1,w0,profile_277,2565933.000000,800,72000.000000,1,COMPLETED_SUCCESSFULLY,2565933.001800,66432.000000,2632365.001800,0.001800,66432.001800,1.000000,0-255 1056-1599,-1.000000,""
284_0_1,w0,profile_284,2612433.000000,256,21723.000000,1,COMPLETED_SUCCESSFULLY,2612433.001800,21722.000000,2634155.001800,0.001800,21722.001800,1.000000,1600-1855,-1.000000,""
285_0_1,w0,profile_285,2613035.000000,256,21713.000000,1,COMPLETED_SUCCESSFULLY,2613035.001800,21712.000000,2634747.001800,0.001800,21712.001800,1.000000,1856-2111,-1.000000,""
286_0_1,w0,profile_286,2613069.000000,256,21699.000000,1,COMPLETED_SUCCESSFULLY,2613069.001800,21698.000000,2634767.001800,0.001800,21698.001800,1.000000,2112-2367,-1.000000,""
287_0_1,w0,profile_287,2628610.000000,256,21716.000000,1,COMPLETED_SUCCESSFULLY,2628610.001800,21715.000000,2650325.001800,0.001800,21715.001800,1.000000,2368-2623,-1.000000,""
288_0_1,w0,profile_288,2628705.000000,256,21750.000000,1,COMPLETED_SUCCESSFULLY,2628705.001800,21749.000000,2650454.001800,0.001800,21749.001800,1.000000,2624-2879,-1.000000,""
290_0_1,w0,profile_290,2661026.000000,256,20814.000000,1,COMPLETED_SUCCESSFULLY,2661026.001800,20813.000000,2681839.001800,0.001800,20813.001800,1.000000,1600-1855,-1.000000,""
291_0_1,w0,profile_291,2664115.000000,256,21708.000000,1,COMPLETED_SUCCESSFULLY,2664115.001800,21707.000000,2685822.001800,0.001800,21707.001800,1.000000,1856-2111,-1.000000,""
292_0_1,w0,profile_292,2664143.000000,256,21725.000000,1,COMPLETED_SUCCESSFULLY,2664143.001800,21724.000000,2685867.001800,0.001800,21724.001800,1.000000,2112-2367,-1.000000,""
294_0_1,w0,profile_294,2664751.000000,256,21697.000000,1,COMPLETED_SUCCESSFULLY,2664751.001800,21696.000000,2686447.001800,0.001800,21696.001800,1.000000,2624-2879,-1.000000,""
293_0_1,w0,profile_293,2664749.000000,256,21712.000000,1,COMPLETED_SUCCESSFULLY,2664749.001800,21711.000000,2686460.001800,0.001800,21711.001800,1.000000,2368-2623,-1.000000,""
276_0_1,w0,profile_276,2548920.000000,800,142468.000000,1,COMPLETED_SUCCESSFULLY,2548920.001800,142467.000000,2691387.001800,0.001800,142467.001800,1.000000,256-1055,-1.000000,""
296_0_1,w0,profile_296,2742918.000000,256,21964.000000,1,COMPLETED_SUCCESSFULLY,2742918.001800,21963.000000,2764881.001800,0.001800,21963.001800,1.000000,512-767,-1.000000,""
304_0_1,w0,profile_304,2761878.000000,600,21692.000000,1,COMPLETED_SUCCESSFULLY,2761878.001800,21691.000000,2783569.001800,0.001800,21691.001800,1.000000,2208-2807,-1.000000,""
305_0_1,w0,profile_305,2761879.000000,600,21743.000000,1,COMPLETED_SUCCESSFULLY,2761879.001800,21742.000000,2783621.001800,0.001800,21742.001800,1.000000,2808-3407,-1.000000,""
306_0_1,w0,profile_306,2761880.000000,600,21787.000000,1,COMPLETED_SUCCESSFULLY,2761880.001800,21786.000000,2783666.001800,0.001800,21786.001800,1.000000,3408-4007,-1.000000,""
307_0_1,w0,profile_307,2761881.000000,600,21684.000000,1,COMPLETED_SUCCESSFULLY,2764884.003450,21683.000000,2786567.003450,3003.003450,24686.003450,1.138496,512-767 4008-4351,-1.000000,""
289_0_1,w0,profile_289,2641975.000000,800,147860.000000,1,COMPLETED_SUCCESSFULLY,2641975.001800,147859.000000,2789834.001800,0.001800,147859.001800,1.000000,0-255 1056-1599,-1.000000,""
295_0_1,w0,profile_295,2709347.000000,256,85284.000000,1,COMPLETED_SUCCESSFULLY,2709347.001800,85283.000000,2794630.001800,0.001800,85283.001800,1.000000,256-511,-1.000000,""
308_0_1,w0,profile_308,2761882.000000,600,21741.000000,1,COMPLETED_SUCCESSFULLY,2783572.003450,21740.000000,2805312.003450,21690.003450,43430.003450,1.997700,2208-2807,-1.000000,""
309_0_1,w0,profile_309,2761883.000000,600,21728.000000,1,COMPLETED_SUCCESSFULLY,2783624.003450,21727.000000,2805351.003450,21741.003450,43468.003450,2.000645,2808-3407,-1.000000,""
310_0_1,w0,profile_310,2761884.000000,600,21769.000000,1,COMPLETED_SUCCESSFULLY,2783669.003450,21768.000000,2805437.003450,21785.003450,43553.003450,2.000781,3408-4007,-1.000000,""
311_0_1,w0,profile_311,2761885.000000,600,21705.000000,1,COMPLETED_SUCCESSFULLY,2786570.005100,21704.000000,2808274.005100,24685.005100,46389.005100,2.137348,512-767 4008-4351,-1.000000,""
312_0_1,w0,profile_312,2761886.000000,600,21884.000000,1,COMPLETED_SUCCESSFULLY,2789837.003450,21883.000000,2811720.003450,27951.003450,49834.003450,2.277293,0-255 1056-1399,-1.000000,""
313_0_1,w0,profile_313,2761887.000000,600,21730.000000,1,COMPLETED_SUCCESSFULLY,2805315.005100,21729.000000,2827044.005100,43428.005100,65157.005100,2.998620,256-511 1400-1599 2208-2351,-1.000000,""
314_0_1,w0,profile_314,2762221.000000,768,21734.000000,1,COMPLETED_SUCCESSFULLY,2805354.005100,21733.000000,2827087.005100,43133.005100,64866.005100,2.984678,2352-3119,-1.000000,""
315_0_1,w0,profile_315,2762222.000000,768,21736.000000,1,COMPLETED_SUCCESSFULLY,2805440.005100,21735.000000,2827175.005100,43218.005100,64953.005100,2.988406,3120-3887,-1.000000,""
316_0_1,w0,profile_316,2762224.000000,768,21749.000000,1,COMPLETED_SUCCESSFULLY,2811723.005100,21748.000000,2833471.005100,49499.005100,71247.005100,3.276026,0-255 512-767 1056-1311,-1.000000,""
297_0_1,w0,profile_297,2747512.000000,128,87549.000000,1,COMPLETED_SUCCESSFULLY,2747512.001800,87548.000000,2835060.001800,0.001800,87548.001800,1.000000,768-895,-1.000000,""
317_0_1,w0,profile_317,2762225.000000,768,21797.000000,1,COMPLETED_SUCCESSFULLY,2827047.006750,21796.000000,2848843.006750,64822.006750,86618.006750,3.974032,256-511 1312-1599 2208-2351 3888-3967,-1.000000,""
319_0_1,w0,profile_319,2762227.000000,768,21732.000000,1,COMPLETED_SUCCESSFULLY,2827178.006750,21731.000000,2848909.006750,64951.006750,86682.006750,3.988864,3120-3887,-1.000000,""
318_0_1,w0,profile_318,2762226.000000,768,22831.000000,1,COMPLETED_SUCCESSFULLY,2827090.006750,22830.000000,2849920.006750,64864.006750,87694.006750,3.841174,2352-3119,-1.000000,""
300_0_1,w0,profile_300,2761292.000000,128,90403.000000,1,COMPLETED_SUCCESSFULLY,2761292.001800,90402.000000,2851694.001800,0.001800,90402.001800,1.000000,1696-1823,-1.000000,""
299_0_1,w0,profile_299,2761161.000000,128,90858.000000,1,COMPLETED_SUCCESSFULLY,2761161.001800,90857.000000,2852018.001800,0.001800,90857.001800,1.000000,1024-1055 1600-1695,-1.000000,""
298_0_1,w0,profile_298,2761152.000000,128,91016.000000,1,COMPLETED_SUCCESSFULLY,2761152.001800,91015.000000,2852167.001800,0.001800,91015.001800,1.000000,896-1023,-1.000000,""
301_0_1,w0,profile_301,2761381.000000,128,90792.000000,1,COMPLETED_SUCCESSFULLY,2761381.001800,90791.000000,2852172.001800,0.001800,90791.001800,1.000000,1824-1951,-1.000000,""
303_0_1,w0,profile_303,2761492.000000,128,90690.000000,1,COMPLETED_SUCCESSFULLY,2761492.001800,90689.000000,2852181.001800,0.001800,90689.001800,1.000000,2080-2207,-1.000000,""
302_0_1,w0,profile_302,2761481.000000,128,90725.000000,1,COMPLETED_SUCCESSFULLY,2761481.001800,90724.000000,2852205.001800,0.001800,90724.001800,1.000000,1952-2079,-1.000000,""
320_0_1,w0,profile_320,2762228.000000,768,21730.000000,1,COMPLETED_SUCCESSFULLY,2833474.006750,21729.000000,2855203.006750,71246.006750,92975.006750,4.278844,0-255 512-767 1056-1311,-1.000000,""
322_0_1,w0,profile_322,2762230.000000,768,21731.000000,1,COMPLETED_SUCCESSFULLY,2848912.008400,21730.000000,2870642.008400,86682.008400,108412.008400,4.989048,2304-2351 3120-3839,-1.000000,""
321_0_1,w0,profile_321,2762229.000000,768,21857.000000,1,COMPLETED_SUCCESSFULLY,2848846.008400,21856.000000,2870702.008400,86617.008400,108473.008400,4.963077,256-511 768-895 1312-1599 2208-2303,-1.000000,""
323_0_1,w0,profile_323,2762231.000000,768,21738.000000,1,COMPLETED_SUCCESSFULLY,2849923.008400,21737.000000,2871660.008400,87692.008400,109429.008400,5.034228,2352-3119,-1.000000,""
326_0_1,w0,profile_326,2769588.000000,256,22891.000000,1,COMPLETED_SUCCESSFULLY,2851697.003450,22890.000000,2874587.003450,82109.003450,104999.003450,4.587112,1696-1823 4224-4351,-1.000000,""
324_0_1,w0,profile_324,2763424.000000,256,30012.000000,1,COMPLETED_SUCCESSFULLY,2849923.009000,30011.000000,2879934.009000,86499.009000,116510.009000,3.882243,3840-4095,-1.000000,""
331_0_1,w0,profile_331,2865749.000000,671,36000.000000,1,COMPLETED_SUCCESSFULLY,2865749.001800,25992.000000,2891741.001800,0.001800,25992.001800,1.000000,0-255 512-767 1056-1214,-1.000000,""
332_0_1,w0,profile_332,2866354.000000,1024,21697.000000,1,COMPLETED_SUCCESSFULLY,2870645.010050,21696.000000,2892341.010050,4291.010050,25987.010050,1.197779,1215-1311 1824-2207 2304-2351 3120-3614,-1.000000,""
333_0_1,w0,profile_333,2867318.000000,256,36000.000000,1,COMPLETED_SUCCESSFULLY,2870705.010050,27424.000000,2898129.010050,3387.010050,30811.010050,1.123505,256-511,-1.000000,""
336_0_1,w0,profile_336,2896913.000000,384,21703.000000,1,COMPLETED_SUCCESSFULLY,2896913.001800,21702.000000,2918615.001800,0.001800,21702.001800,1.000000,0-255 512-639,-1.000000,""
337_0_1,w0,profile_337,2904260.000000,1024,36000.000000,1,COMPLETED_SUCCESSFULLY,2904260.002400,26026.000000,2930286.002400,0.002400,26026.002400,1.000000,256-511 640-767 1056-1311 1824-2207,-1.000000,""
334_0_1,w0,profile_334,2868268.000000,800,72000.000000,1,COMPLETED_SUCCESSFULLY,2871663.010050,63872.000000,2935535.010050,3395.010050,67267.010050,1.053153,768-895 1312-1599 2208-2303 2352-2639,-1.000000,""
327_0_1,w0,profile_327,2770310.000000,150,85724.000000,1,COMPLETED_SUCCESSFULLY,2852021.003450,85723.000000,2937744.003450,81711.003450,167434.003450,1.953198,1024-1055 1600-1695 4352-4373,-1.000000,""
335_0_1,w0,profile_335,2868892.000000,800,72000.000000,1,COMPLETED_SUCCESSFULLY,2874590.005100,63360.000000,2937950.005100,5698.005100,69058.005100,1.089931,1696-1823 2640-3119 3615-3806,-1.000000,""
330_0_1,w0,profile_330,2774039.000000,4,86085.000000,1,COMPLETED_SUCCESSFULLY,2852170.004650,86084.000000,2938254.004650,78131.004650,164215.004650,1.907614,4375-4378,-1.000000,""
325_0_1,w0,profile_325,2764374.000000,128,89415.000000,1,COMPLETED_SUCCESSFULLY,2849923.009600,89414.000000,2939337.009600,85549.009600,174963.009600,1.956774,4096-4223,-1.000000,""
328_0_1,w0,profile_328,2770709.000000,128,87426.000000,1,COMPLETED_SUCCESSFULLY,2852170.003450,87425.000000,2939595.003450,81461.003450,168886.003450,1.931782,896-1023,-1.000000,""
329_0_1,w0,profile_329,2772401.000000,1,87734.000000,1,COMPLETED_SUCCESSFULLY,2852170.004050,87733.000000,2939903.004050,79769.004050,167502.004050,1.909225,4374,-1.000000,""
