job_id,workload_name,profile,submission_time,requested_number_of_resources,requested_time,success,final_state,starting_time,execution_time,finish_time,waiting_time,turnaround_time,stretch,allocated_resources,consumed_energy,metadata
15_0_1,w0,profile_15,0.000000,384,32400.000000,1,COMPLETED_SUCCESSFULLY,0.006000,31374.000000,31374.006000,0.006000,31374.006000,1.000000,3951-4334,-1.000000,""
13_0_1,w0,profile_13,0.000000,558,32459.000000,1,COMPLETED_SUCCESSFULLY,0.004800,32458.000000,32458.004800,0.004800,32458.004800,1.000000,2753-3310,-1.000000,""
14_0_1,w0,profile_14,0.000000,640,32473.000000,1,COMPLETED_SUCCESSFULLY,0.005400,32472.000000,32472.005400,0.005400,32472.005400,1.000000,3311-3950,-1.000000,""
12_0_1,w0,profile_12,0.000000,421,32483.000000,1,COMPLETED_SUCCESSFULLY,0.004200,32482.000000,32482.004200,0.004200,32482.004200,1.000000,2332-2752,-1.000000,""
11_0_1,w0,profile_11,0.000000,384,32597.000000,1,COMPLETED_SUCCESSFULLY,0.003600,32596.000000,32596.003600,0.003600,32596.003600,1.000000,1948-2331,-1.000000,""
1_0_1,w0,profile_1,0.000000,256,21708.000000,1,COMPLETED_SUCCESSFULLY,32485.006450,21707.000000,54192.006450,32485.006450,54192.006450,2.496522,2732-2752 4018-4252,-1.000000,""
18_0_1,w0,profile_18,0.000000,400,24081.000000,1,COMPLETED_SUCCESSFULLY,32485.005850,24080.000000,56565.005850,32485.005850,56565.005850,2.349045,2332-2731,-1.000000,""
22_0_1,w0,profile_22,0.000000,390,32434.000000,1,COMPLETED_SUCCESSFULLY,32599.005250,32433.000000,65032.005250,32599.005250,65032.005250,2.005118,1948-2331 4253-4258,-1.000000,""
26_0_1,w0,profile_26,0.000000,304,21636.000000,1,COMPLETED_SUCCESSFULLY,54195.008100,21635.000000,75830.008100,54195.008100,75830.008100,3.504969,2732-2752 4018-4252 4259-4306,-1.000000,""
2_0_1,w0,profile_2,0.000000,304,21652.000000,1,COMPLETED_SUCCESSFULLY,56568.007500,21651.000000,78219.007500,56568.007500,78219.007500,3.612720,2332-2635,-1.000000,""
10_0_1,w0,profile_10,0.000000,1024,86400.000000,1,COMPLETED_SUCCESSFULLY,0.003000,84486.000000,84486.003000,0.003000,84486.003000,1.000000,924-1947,-1.000000,""
0_0_1,w0,profile_0,0.000000,924,86545.000000,1,COMPLETED_SUCCESSFULLY,0.002400,86544.000000,86544.002400,0.002400,86544.002400,1.000000,0-923,-1.000000,""
16_0_1,w0,profile_16,0.000000,1024,86400.000000,1,COMPLETED_SUCCESSFULLY,32475.007050,69366.000000,101841.007050,32475.007050,101841.007050,1.468169,2753-3776,-1.000000,""
20_0_1,w0,profile_20,0.000000,1024,27000.000000,1,COMPLETED_SUCCESSFULLY,86547.004050,25409.000000,111956.004050,86547.004050,111956.004050,4.406155,0-923 4237-4336,-1.000000,""
17_0_1,w0,profile_17,0.000000,241,108000.000000,1,COMPLETED_SUCCESSFULLY,32475.007650,96704.000000,129179.007650,32475.007650,129179.007650,1.335819,3777-4017,-1.000000,""
19_0_1,w0,profile_19,0.000000,2048,86400.000000,1,COMPLETED_SUCCESSFULLY,84489.004650,50443.000000,134932.004650,84489.004650,134932.004650,2.674940,924-2752 4018-4236,-1.000000,""
4_0_1,w0,profile_4,0.000000,256,21668.000000,1,COMPLETED_SUCCESSFULLY,129182.009300,21666.000000,150848.009300,129182.009300,150848.009300,6.962430,3777-4017 4337-4351,-1.000000,""
21_0_1,w0,profile_21,0.000000,2048,86400.000000,1,COMPLETED_SUCCESSFULLY,111959.005700,50614.000000,162573.005700,111959.005700,162573.005700,3.212017,0-923 2753-3776 4237-4336,-1.000000,""
25_0_1,w0,profile_25,0.000000,436,32472.000000,1,COMPLETED_SUCCESSFULLY,162576.007350,32471.000000,195047.007350,162576.007350,195047.007350,6.006806,0-435,-1.000000,""
24_0_1,w0,profile_24,0.000000,241,108000.000000,1,COMPLETED_SUCCESSFULLY,150851.010950,63070.000000,213921.010950,150851.010950,213921.010950,3.391803,3777-4017,-1.000000,""
5_0_1,w0,profile_5,0.000000,256,21642.000000,1,COMPLETED_SUCCESSFULLY,195050.009000,21641.000000,216691.009000,195050.009000,216691.009000,10.012985,0-255,-1.000000,""
23_0_1,w0,profile_23,0.000000,2048,86400.000000,1,COMPLETED_SUCCESSFULLY,134935.006300,85003.000000,219938.006300,134935.006300,219938.006300,2.587415,924-2752 4018-4236,-1.000000,""
41_0_1,w0,profile_41,861.000000,256,21640.000000,1,COMPLETED_SUCCESSFULLY,219941.009150,21639.000000,241580.009150,219080.009150,240719.009150,11.124313,2314-2569,-1.000000,""
46_0_1,w0,profile_46,8994.000000,256,21640.000000,1,COMPLETED_SUCCESSFULLY,219941.009750,21639.000000,241580.009750,210947.009750,232586.009750,10.748464,2570-2752 3777-3849,-1.000000,""
47_0_1,w0,profile_47,9008.000000,256,21660.000000,1,COMPLETED_SUCCESSFULLY,219941.010350,21659.000000,241600.010350,210933.010350,232592.010350,10.738816,3850-4105,-1.000000,""
28_0_1,w0,profile_28,0.000000,802,86400.000000,1,COMPLETED_SUCCESSFULLY,162576.008550,83227.000000,245803.008550,162576.008550,245803.008550,2.953405,3067-3776 4237-4328,-1.000000,""
27_0_1,w0,profile_27,0.000000,802,86400.000000,1,COMPLETED_SUCCESSFULLY,162576.007950,83434.000000,246010.007950,162576.007950,246010.007950,2.948558,436-923 2753-3066,-1.000000,""
30_0_1,w0,profile_30,0.000000,1024,32564.000000,1,COMPLETED_SUCCESSFULLY,219941.008550,32563.000000,252504.008550,219941.008550,252504.008550,7.754323,1290-2313,-1.000000,""
59_0_1,w0,profile_59,93964.000000,256,21642.000000,1,COMPLETED_SUCCESSFULLY,252507.011400,21641.000000,274148.011400,158543.011400,180184.011400,8.326048,2289-2313 3874-4104,-1.000000,""
58_0_1,w0,profile_58,93945.000000,256,21682.000000,1,COMPLETED_SUCCESSFULLY,252507.010800,21681.000000,274188.010800,158562.010800,180243.010800,8.313409,2033-2288,-1.000000,""
60_0_1,w0,profile_60,93982.000000,256,21721.000000,1,COMPLETED_SUCCESSFULLY,252507.012000,21720.000000,274227.012000,158525.012000,180245.012000,8.298573,4105-4360,-1.000000,""
31_0_1,w0,profile_31,0.000000,1024,32400.000000,1,COMPLETED_SUCCESSFULLY,245806.010200,30411.000000,276217.010200,245806.010200,276217.010200,9.082799,2314-2752 3067-3651,-1.000000,""
32_0_1,w0,profile_32,0.000000,1024,32400.000000,1,COMPLETED_SUCCESSFULLY,246013.009600,30353.000000,276366.009600,246013.009600,276366.009600,9.105064,436-923 2753-3066 3652-3873,-1.000000,""
33_0_1,w0,profile_33,0.000000,743,32459.000000,1,COMPLETED_SUCCESSFULLY,252507.010200,32458.000000,284965.010200,252507.010200,284965.010200,8.779500,1290-2032,-1.000000,""
29_0_1,w0,profile_29,0.000000,802,86400.000000,1,COMPLETED_SUCCESSFULLY,219941.007950,83249.000000,303190.007950,219941.007950,303190.007950,3.641966,0-435 924-1289,-1.000000,""
34_0_1,w0,profile_34,0.000000,1024,32400.000000,1,COMPLETED_SUCCESSFULLY,276220.011850,30153.000000,306373.011850,276220.011850,306373.011850,10.160615,2033-2752 3067-3370,-1.000000,""
35_0_1,w0,profile_35,0.000000,1024,32400.000000,1,COMPLETED_SUCCESSFULLY,276369.011250,30425.000000,306794.011250,276369.011250,306794.011250,10.083616,436-923 2753-3066 3371-3592,-1.000000,""
36_0_1,w0,profile_36,0.000000,1024,32400.000000,1,COMPLETED_SUCCESSFULLY,284968.011850,30333.000000,315301.011850,284968.011850,315301.011850,10.394653,1290-2032 3593-3873,-1.000000,""
37_0_1,w0,profile_37,0.000000,1024,32400.000000,1,COMPLETED_SUCCESSFULLY,303193.009600,30181.000000,333374.009600,303193.009600,333374.009600,11.045824,0-435 924-1289 3874-4095,-1.000000,""
38_0_1,w0,profile_38,0.000000,1024,32400.000000,1,COMPLETED_SUCCESSFULLY,306376.013500,30252.000000,336628.013500,306376.013500,336628.013500,11.127463,2033-2752 3067-3370,-1.000000,""
39_0_1,w0,profile_39,0.000000,1024,32528.000000,1,COMPLETED_SUCCESSFULLY,306797.012900,32527.000000,339324.012900,306797.012900,339324.012900,10.432072,436-923 2753-3066 3371-3592,-1.000000,""
3_0_1,w0,profile_3,0.000000,1280,36000.000000,1,COMPLETED_SUCCESSFULLY,315304.013500,34300.000000,349604.013500,315304.013500,349604.013500,10.192537,1290-2032 3593-3873 4096-4351,-1.000000,""
40_0_1,w0,profile_40,566.000000,1024,32400.000000,1,COMPLETED_SUCCESSFULLY,349607.015750,30347.000000,379954.015750,349041.015750,379388.015750,12.501665,3313-4336,-1.000000,""
42_0_1,w0,profile_42,862.000000,1024,32400.000000,1,COMPLETED_SUCCESSFULLY,379957.017400,30655.000000,410612.017400,379095.017400,409750.017400,13.366499,3313-4336,-1.000000,""
7_0_1,w0,profile_7,0.000000,1024,86400.000000,1,COMPLETED_SUCCESSFULLY,336631.015150,83474.000000,420105.015150,336631.015150,420105.015150,5.032765,241-435 924-1289 2033-2495,-1.000000,""
8_0_1,w0,profile_8,0.000000,1024,86400.000000,1,COMPLETED_SUCCESSFULLY,339327.014550,82733.000000,422060.014550,339327.014550,422060.014550,5.101471,436-923 2496-3031,-1.000000,""
9_0_1,w0,profile_9,0.000000,1024,86400.000000,1,COMPLETED_SUCCESSFULLY,349607.015150,82683.000000,432290.015150,349607.015150,432290.015150,5.228282,1290-2032 3032-3312,-1.000000,""
43_0_1,w0,profile_43,1276.000000,1024,32400.000000,1,COMPLETED_SUCCESSFULLY,410615.019050,30066.000000,440681.019050,409339.019050,439405.019050,14.614682,3313-4336,-1.000000,""
44_0_1,w0,profile_44,1695.000000,1024,32400.000000,1,COMPLETED_SUCCESSFULLY,420108.016800,29756.000000,449864.016800,418413.016800,448169.016800,15.061467,241-435 924-1289 2033-2495,-1.000000,""
45_0_1,w0,profile_45,1884.000000,1024,32400.000000,1,COMPLETED_SUCCESSFULLY,422063.016200,30577.000000,452640.016200,420179.016200,450756.016200,14.741669,436-923 2496-3031,-1.000000,""
49_0_1,w0,profile_49,18089.000000,1024,32400.000000,1,COMPLETED_SUCCESSFULLY,440684.020700,30883.000000,471567.020700,422595.020700,453478.020700,14.683743,1531-2032 3032-3553,-1.000000,""
50_0_1,w0,profile_50,18877.000000,1024,32400.000000,1,COMPLETED_SUCCESSFULLY,449867.018450,30818.000000,480685.018450,430990.018450,461808.018450,14.985009,241-435 924-1289 2033-2495,-1.000000,""
51_0_1,w0,profile_51,19407.000000,1024,32400.000000,1,COMPLETED_SUCCESSFULLY,452643.017850,30344.000000,482987.017850,433236.017850,463580.017850,15.277485,436-923 2496-3031,-1.000000,""
52_0_1,w0,profile_52,20002.000000,1024,32400.000000,1,COMPLETED_SUCCESSFULLY,471570.022350,30282.000000,501852.022350,451568.022350,481850.022350,15.912094,1531-2032 3032-3553,-1.000000,""
53_0_1,w0,profile_53,20689.000000,384,32619.000000,1,COMPLETED_SUCCESSFULLY,471570.022950,32618.000000,504188.022950,450881.022950,483499.022950,14.823074,3554-3937,-1.000000,""
54_0_1,w0,profile_54,21646.000000,1024,32400.000000,1,COMPLETED_SUCCESSFULLY,480688.020100,30593.000000,511281.020100,459042.020100,489635.020100,16.004806,241-435 924-1289 2033-2495,-1.000000,""
6_0_1,w0,profile_6,0.000000,241,216000.000000,1,COMPLETED_SUCCESSFULLY,333377.011250,182360.000000,515737.011250,333377.011250,515737.011250,2.828126,0-240,-1.000000,""
61_0_1,w0,profile_61,94877.000000,256,21600.000000,1,COMPLETED_SUCCESSFULLY,501855.025200,21583.000000,523438.025200,406978.025200,428561.025200,19.856416,4106-4361,-1.000000,""
56_0_1,w0,profile_56,39810.000000,1024,32400.000000,1,COMPLETED_SUCCESSFULLY,501855.024000,30461.000000,532316.024000,462045.024000,492506.024000,16.168413,1531-2032 2810-3331,-1.000000,""
57_0_1,w0,profile_57,80064.000000,390,32400.000000,1,COMPLETED_SUCCESSFULLY,501855.024600,32382.000000,534237.024600,421791.024600,454173.024600,14.025478,3332-3553 3938-4105,-1.000000,""
63_0_1,w0,profile_63,99950.000000,400,24043.000000,1,COMPLETED_SUCCESSFULLY,511284.022350,24042.000000,535326.022350,411334.022350,435376.022350,18.108977,2302-2495 3554-3759,-1.000000,""
48_0_1,w0,profile_48,10245.000000,241,108000.000000,1,COMPLETED_SUCCESSFULLY,432293.016800,105704.000000,537997.016800,422048.016800,527752.016800,4.992735,1290-1530,-1.000000,""
65_0_1,w0,profile_65,112007.000000,256,21673.000000,1,COMPLETED_SUCCESSFULLY,523441.026850,21672.000000,545113.026850,411434.026850,433106.026850,19.984590,3760-3937 4106-4183,-1.000000,""
68_0_1,w0,profile_68,172503.000000,256,21665.000000,1,COMPLETED_SUCCESSFULLY,532319.026850,21664.000000,553983.026850,359816.026850,381480.026850,17.608938,2906-3161,-1.000000,""
67_0_1,w0,profile_67,170936.000000,256,21683.000000,1,COMPLETED_SUCCESSFULLY,532319.026250,21682.000000,554001.026250,361383.026250,383065.026250,17.667421,1873-2032 2810-2905,-1.000000,""
66_0_1,w0,profile_66,164802.000000,342,21701.000000,1,COMPLETED_SUCCESSFULLY,532319.025650,21700.000000,554019.025650,367517.025650,389217.025650,17.936268,1531-1872,-1.000000,""
55_0_1,w0,profile_55,23552.000000,802,86486.000000,1,COMPLETED_SUCCESSFULLY,482990.019500,86485.000000,569475.019500,459438.019500,545923.019500,6.312343,436-923 2496-2809,-1.000000,""
62_0_1,w0,profile_62,95368.000000,830,86400.000000,1,COMPLETED_SUCCESSFULLY,511284.021750,65670.000000,576954.021750,415916.021750,481586.021750,7.333425,241-435 924-1289 2033-2301,-1.000000,""
81_0_1,w0,profile_81,255518.000000,256,21633.000000,1,COMPLETED_SUCCESSFULLY,569478.022350,21632.000000,591110.022350,313960.022350,335592.022350,15.513684,2786-3041,-1.000000,""
72_0_1,w0,profile_72,205683.000000,256,21634.000000,1,COMPLETED_SUCCESSFULLY,569478.021750,21633.000000,591111.021750,363795.021750,385428.021750,17.816670,2530-2785,-1.000000,""
73_0_1,w0,profile_73,208804.000000,640,43200.000000,1,COMPLETED_SUCCESSFULLY,576957.023400,29284.000000,606241.023400,368153.023400,397437.023400,13.571815,241-435 924-1289 2033-2111,-1.000000,""
64_0_1,w0,profile_64,106451.000000,241,108000.000000,1,COMPLETED_SUCCESSFULLY,515740.012900,98266.000000,614006.012900,409289.012900,507555.012900,5.165113,0-240,-1.000000,""
69_0_1,w0,profile_69,188608.000000,802,86484.000000,1,COMPLETED_SUCCESSFULLY,535329.024000,86483.000000,621812.024000,346721.024000,433204.024000,5.009123,2302-2495 3162-3759 3938-3947,-1.000000,""
74_0_1,w0,profile_74,208943.000000,640,43200.000000,1,COMPLETED_SUCCESSFULLY,591116.025050,35030.000000,626146.025050,382173.025050,417203.025050,11.909878,2112-2301 2530-2979,-1.000000,""
70_0_1,w0,profile_70,192295.000000,802,86499.000000,1,COMPLETED_SUCCESSFULLY,545116.028500,86498.000000,631614.028500,352821.028500,439319.028500,5.078950,1290-1530 3760-3937 3948-4330,-1.000000,""
78_0_1,w0,profile_78,247189.000000,256,21661.000000,1,COMPLETED_SUCCESSFULLY,626149.027900,21660.000000,647809.027900,378960.027900,400620.027900,18.495846,3554-3759 3938-3947 4331-4370,-1.000000,""
79_0_1,w0,profile_79,253265.000000,256,21638.000000,1,COMPLETED_SUCCESSFULLY,631617.030150,21637.000000,653254.030150,378352.030150,399989.030150,18.486344,1290-1530 3760-3774,-1.000000,""
71_0_1,w0,profile_71,195380.000000,1024,86528.000000,1,COMPLETED_SUCCESSFULLY,569478.021150,86527.000000,656005.021150,374098.021150,460625.021150,5.323483,436-923 1531-2032 2496-2529,-1.000000,""
76_0_1,w0,profile_76,220125.000000,1024,32400.000000,1,COMPLETED_SUCCESSFULLY,626149.026700,30159.000000,656308.026700,406024.026700,436183.026700,14.462781,2112-2495 2530-2979 3123-3312,-1.000000,""
82_0_1,w0,profile_82,256619.000000,256,21633.000000,1,COMPLETED_SUCCESSFULLY,653257.031800,21632.000000,674889.031800,396638.031800,418270.031800,19.335708,1290-1530 3760-3774,-1.000000,""
84_0_1,w0,profile_84,268966.000000,256,21600.000000,1,COMPLETED_SUCCESSFULLY,656311.028350,21076.000000,677387.028350,387345.028350,408421.028350,19.378489,1915-2032 2112-2249,-1.000000,""
85_0_1,w0,profile_85,272781.000000,1024,43200.000000,1,COMPLETED_SUCCESSFULLY,674892.033450,22020.000000,696912.033450,402111.033450,424131.033450,19.261173,1290-1530 2250-2979 3123-3175,-1.000000,""
89_0_1,w0,profile_89,354480.000000,256,21563.000000,1,COMPLETED_SUCCESSFULLY,677390.030000,21562.000000,698952.030000,322910.030000,344472.030000,15.975885,1915-2032 2112-2249,-1.000000,""
75_0_1,w0,profile_75,209053.000000,1024,86591.000000,1,COMPLETED_SUCCESSFULLY,614009.014550,86590.000000,700599.014550,404956.014550,491546.014550,5.676706,0-435 924-1289 2033-2111 2980-3122,-1.000000,""
101_0_1,w0,profile_101,562155.000000,256,21601.000000,1,COMPLETED_SUCCESSFULLY,700602.016800,21600.000000,722202.016800,138447.016800,160047.016800,7.409584,241-435 924-984,-1.000000,""
102_0_1,w0,profile_102,566592.000000,256,21612.000000,1,COMPLETED_SUCCESSFULLY,700602.017400,21611.000000,722213.017400,134010.017400,155621.017400,7.201010,985-1240,-1.000000,""
103_0_1,w0,profile_103,566596.000000,256,21647.000000,1,COMPLETED_SUCCESSFULLY,700602.018000,21646.000000,722248.018000,134006.018000,155652.018000,7.190798,1241-1289 2033-2111 2980-3107,-1.000000,""
80_0_1,w0,profile_80,254337.000000,802,86400.000000,1,COMPLETED_SUCCESSFULLY,647812.029550,82018.000000,729830.029550,393475.029550,475493.029550,5.797423,3554-3759 3775-4370,-1.000000,""
87_0_1,w0,profile_87,280005.000000,390,32419.000000,1,COMPLETED_SUCCESSFULLY,698955.031650,32418.000000,731373.031650,418950.031650,451368.031650,13.923377,1915-2032 2112-2249 3176-3309,-1.000000,""
86_0_1,w0,profile_86,274006.000000,1024,64800.000000,1,COMPLETED_SUCCESSFULLY,696915.035100,38672.000000,735587.035100,422909.035100,461581.035100,11.935794,1290-1530 2250-2979 3123-3175,-1.000000,""
83_0_1,w0,profile_83,259522.000000,872,86481.000000,1,COMPLETED_SUCCESSFULLY,656008.022800,86480.000000,742488.022800,396486.022800,482966.022800,5.584713,436-923 1531-1914,-1.000000,""
90_0_1,w0,profile_90,447680.000000,1024,32400.000000,1,COMPLETED_SUCCESSFULLY,729833.031200,31153.000000,760986.031200,282153.031200,313306.031200,10.057010,241-435 924-1289 2033-2111 2980-3122 3310-3312 3554-3791,-1.000000,""
91_0_1,w0,profile_91,457316.000000,1024,32400.000000,1,COMPLETED_SUCCESSFULLY,735590.036750,30397.000000,765987.036750,278274.036750,308671.036750,10.154655,1290-1530 1915-2032 2112-2776,-1.000000,""
88_0_1,w0,profile_88,335598.000000,241,86400.000000,1,COMPLETED_SUCCESSFULLY,700602.016200,69536.000000,770138.016200,365004.016200,434540.016200,6.249137,0-240,-1.000000,""
92_0_1,w0,profile_92,457622.000000,1024,32400.000000,1,COMPLETED_SUCCESSFULLY,742491.024450,30068.000000,772559.024450,284869.024450,314937.024450,10.474159,436-923 1531-1914 2777-2928,-1.000000,""
93_0_1,w0,profile_93,469563.000000,1024,32400.000000,1,COMPLETED_SUCCESSFULLY,760989.032850,30061.000000,791050.032850,291426.032850,321487.032850,10.694489,241-435 924-1289 2033-2111 2929-3312,-1.000000,""
77_0_1,w0,profile_77,244823.000000,241,216000.000000,1,COMPLETED_SUCCESSFULLY,626149.027300,169683.000000,795832.027300,381326.027300,551009.027300,3.247285,3313-3553,-1.000000,""
94_0_1,w0,profile_94,477778.000000,1024,32474.000000,1,COMPLETED_SUCCESSFULLY,765990.038400,32473.000000,798463.038400,288212.038400,320685.038400,9.875436,1290-1530 1915-2032 2112-2776,-1.000000,""
95_0_1,w0,profile_95,487665.000000,1024,32400.000000,1,COMPLETED_SUCCESSFULLY,770141.017850,30096.000000,800237.017850,282476.017850,312572.017850,10.385833,0-240 3554-4336,-1.000000,""
96_0_1,w0,profile_96,490193.000000,1024,32400.000000,1,COMPLETED_SUCCESSFULLY,772562.026100,30489.000000,803051.026100,282369.026100,312858.026100,10.261341,436-923 1531-1914 2777-2928,-1.000000,""
97_0_1,w0,profile_97,500606.000000,1024,32400.000000,1,COMPLETED_SUCCESSFULLY,791053.034500,30048.000000,821101.034500,290447.034500,320495.034500,10.666102,241-435 924-1289 2033-2111 2929-3312,-1.000000,""
104_0_1,w0,profile_104,566598.000000,256,21605.000000,1,COMPLETED_SUCCESSFULLY,800240.019500,21604.000000,821844.019500,233642.019500,255246.019500,11.814757,0-240 2655-2669,-1.000000,""
107_0_1,w0,profile_107,569965.000000,256,21604.000000,1,COMPLETED_SUCCESSFULLY,803054.028350,21603.000000,824657.028350,233089.028350,254692.028350,11.789660,3959-4214,-1.000000,""
100_0_1,w0,profile_100,550437.000000,512,32441.000000,1,COMPLETED_SUCCESSFULLY,798466.040650,32440.000000,830906.040650,248029.040650,280469.040650,8.645778,2143-2654,-1.000000,""
99_0_1,w0,profile_99,547597.000000,390,32449.000000,1,COMPLETED_SUCCESSFULLY,798466.040050,32448.000000,830914.040050,250869.040050,283317.040050,8.731418,1290-1530 1915-2032 2112-2142,-1.000000,""
105_0_1,w0,profile_105,566615.000000,512,32400.000000,1,COMPLETED_SUCCESSFULLY,800240.020100,32399.000000,832639.020100,233625.020100,266024.020100,8.210871,2670-2776 3554-3958,-1.000000,""
108_0_1,w0,profile_108,569967.000000,256,21600.000000,1,COMPLETED_SUCCESSFULLY,821104.036150,21537.000000,842641.036150,251137.036150,272674.036150,12.660725,241-435 924-984,-1.000000,""
109_0_1,w0,profile_109,569969.000000,256,21617.000000,1,COMPLETED_SUCCESSFULLY,821104.036750,21616.000000,842720.036750,251135.036750,272751.036750,12.618016,985-1240,-1.000000,""
106_0_1,w0,profile_106,568245.000000,1024,43258.000000,1,COMPLETED_SUCCESSFULLY,803054.027750,43257.000000,846311.027750,234809.027750,278066.027750,6.428232,436-923 1531-1914 2777-2928,-1.000000,""
112_0_1,w0,profile_112,583737.000000,256,21600.000000,1,COMPLETED_SUCCESSFULLY,832642.021750,21556.000000,854198.021750,248905.021750,270461.021750,12.546902,2670-2776 3554-3702,-1.000000,""
113_0_1,w0,profile_113,583739.000000,256,21600.000000,1,COMPLETED_SUCCESSFULLY,832642.022350,21581.000000,854223.022350,248903.022350,270484.022350,12.533433,3703-3958,-1.000000,""
110_0_1,w0,profile_110,576211.000000,1024,32465.000000,1,COMPLETED_SUCCESSFULLY,824660.030000,32464.000000,857124.030000,248449.030000,280913.030000,8.653063,0-240 1241-1289 2033-2111 2655-2669 2929-3312 3959-4214,-1.000000,""
111_0_1,w0,profile_111,576884.000000,1024,32400.000000,1,COMPLETED_SUCCESSFULLY,830917.041700,30322.000000,861239.041700,254033.041700,284355.041700,9.377846,1290-1530 1915-2032 2112-2654 4215-4336,-1.000000,""
114_0_1,w0,profile_114,583741.000000,256,21609.000000,1,COMPLETED_SUCCESSFULLY,842644.037800,21608.000000,864252.037800,258903.037800,280511.037800,12.981814,241-435 924-984,-1.000000,""
115_0_1,w0,profile_115,583743.000000,256,21613.000000,1,COMPLETED_SUCCESSFULLY,842723.038400,21612.000000,864335.038400,258980.038400,280592.038400,12.983159,985-1240,-1.000000,""
118_0_1,w0,profile_118,583759.000000,256,21600.000000,1,COMPLETED_SUCCESSFULLY,846314.030600,21513.000000,867827.030600,262555.030600,284068.030600,13.204482,1555-1810,-1.000000,""
116_0_1,w0,profile_116,583755.000000,256,21600.000000,1,COMPLETED_SUCCESSFULLY,846314.029400,21539.000000,867853.029400,262559.029400,284098.029400,13.189936,436-691,-1.000000,""
117_0_1,w0,profile_117,583757.000000,256,21600.000000,1,COMPLETED_SUCCESSFULLY,846314.030000,21560.000000,867874.030000,262557.030000,284117.030000,13.177970,692-923 1531-1554,-1.000000,""
119_0_1,w0,profile_119,583762.000000,256,21600.000000,1,COMPLETED_SUCCESSFULLY,846314.031200,21586.000000,867900.031200,262552.031200,284138.031200,13.163070,1811-1914 2777-2928,-1.000000,""
120_0_1,w0,profile_120,583764.000000,256,21600.000000,1,COMPLETED_SUCCESSFULLY,854201.023400,21565.000000,875766.023400,270437.023400,292002.023400,13.540553,2670-2776 3554-3702,-1.000000,""
121_0_1,w0,profile_121,583773.000000,256,21600.000000,1,COMPLETED_SUCCESSFULLY,854226.024000,21565.000000,875791.024000,270453.024000,292018.024000,13.541295,3703-3958,-1.000000,""
122_0_1,w0,profile_122,583775.000000,256,21600.000000,1,COMPLETED_SUCCESSFULLY,857127.031650,21521.000000,878648.031650,273352.031650,294873.031650,13.701642,0-240 1241-1255,-1.000000,""
125_0_1,w0,profile_125,593820.000000,256,21659.000000,1,COMPLETED_SUCCESSFULLY,857127.033450,21658.000000,878785.033450,263307.033450,284965.033450,13.157495,3959-4214,-1.000000,""
123_0_1,w0,profile_123,593796.000000,256,21661.000000,1,COMPLETED_SUCCESSFULLY,857127.032250,21660.000000,878787.032250,263331.032250,284991.032250,13.157481,1256-1289 2033-2111 2655-2669 2929-3056,-1.000000,""
124_0_1,w0,profile_124,593806.000000,256,21664.000000,1,COMPLETED_SUCCESSFULLY,857127.032850,21663.000000,878790.032850,263321.032850,284984.032850,13.155335,3057-3312,-1.000000,""
127_0_1,w0,profile_127,603400.000000,304,21641.000000,1,COMPLETED_SUCCESSFULLY,861242.043950,21640.000000,882882.043950,257842.043950,279482.043950,12.915067,1930-2032 2112-2312,-1.000000,""
126_0_1,w0,profile_126,593837.000000,256,21651.000000,1,COMPLETED_SUCCESSFULLY,861242.043350,21650.000000,882892.043350,267405.043350,289055.043350,13.351272,1290-1530 1915-1929,-1.000000,""
129_0_1,w0,profile_129,613540.000000,256,21704.000000,1,COMPLETED_SUCCESSFULLY,861242.045150,21703.000000,882945.045150,247702.045150,269405.045150,12.413263,2569-2654 4215-4384,-1.000000,""
128_0_1,w0,profile_128,612997.000000,256,21743.000000,1,COMPLETED_SUCCESSFULLY,861242.044550,21742.000000,882984.044550,248245.044550,269987.044550,12.417765,2313-2568,-1.000000,""
130_0_1,w0,profile_130,616038.000000,256,21645.000000,1,COMPLETED_SUCCESSFULLY,864255.039450,21644.000000,885899.039450,248217.039450,269861.039450,12.468169,241-435 924-984,-1.000000,""
131_0_1,w0,profile_131,616342.000000,1024,32400.000000,1,COMPLETED_SUCCESSFULLY,867877.031650,29867.000000,897744.031650,251535.031650,281402.031650,9.421838,436-923 985-1240 1531-1810,-1.000000,""
133_0_1,w0,profile_133,647077.000000,1024,32400.000000,1,COMPLETED_SUCCESSFULLY,885902.041100,30243.000000,916145.041100,238825.041100,269068.041100,8.896870,241-435 924-984 1290-1530 1915-1929 2313-2654 4167-4336,-1.000000,""
134_0_1,w0,profile_134,662074.000000,1024,32400.000000,1,COMPLETED_SUCCESSFULLY,897747.033300,30573.000000,928320.033300,235673.033300,266246.033300,8.708535,436-923 985-1240 1531-1810,-1.000000,""
135_0_1,w0,profile_135,662076.000000,1024,32400.000000,1,COMPLETED_SUCCESSFULLY,916148.042750,27950.000000,944098.042750,254072.042750,282022.042750,10.090234,241-435 924-984 1290-1530 1915-1929 2313-2654 4167-4336,-1.000000,""
136_0_1,w0,profile_136,677497.000000,1024,32400.000000,1,COMPLETED_SUCCESSFULLY,928323.034950,28979.000000,957302.034950,250826.034950,279805.034950,9.655441,436-923 985-1240 1531-1810,-1.000000,""
132_0_1,w0,profile_132,618108.000000,2048,86400.000000,1,COMPLETED_SUCCESSFULLY,882885.045600,85036.000000,967921.045600,264777.045600,349813.045600,4.113705,0-240 1241-1289 1811-1914 1930-2312 2655-3312 3554-4166,-1.000000,""
138_0_1,w0,profile_138,685783.000000,1024,50400.000000,1,COMPLETED_SUCCESSFULLY,957305.036600,33973.000000,991278.036600,271522.036600,305495.036600,8.992289,436-923 985-1240 1531-1810,-1.000000,""
140_0_1,w0,profile_140,691847.000000,1024,72000.000000,1,COMPLETED_SUCCESSFULLY,967924.047850,32928.000000,1000852.047850,276077.047850,309005.047850,9.384264,2902-3312 3554-4166,-1.000000,""
98_0_1,w0,profile_98,504325.000000,241,216000.000000,1,COMPLETED_SUCCESSFULLY,795835.028950,211161.000000,1006996.028950,291510.028950,502671.028950,2.380511,3313-3553,-1.000000,""
141_0_1,w0,profile_141,697738.000000,256,21653.000000,1,COMPLETED_SUCCESSFULLY,991281.038250,21652.000000,1012933.038250,293543.038250,315195.038250,14.557317,436-691,-1.000000,""
143_0_1,w0,profile_143,765399.000000,256,21664.000000,1,COMPLETED_SUCCESSFULLY,991281.039450,21663.000000,1012944.039450,225882.039450,247545.039450,11.427089,994-1240 1531-1539,-1.000000,""
144_0_1,w0,profile_144,765400.000000,256,21755.000000,1,COMPLETED_SUCCESSFULLY,991281.040050,21754.000000,1013035.040050,225881.040050,247635.040050,11.383426,1540-1795,-1.000000,""
137_0_1,w0,profile_137,684804.000000,1024,86400.000000,1,COMPLETED_SUCCESSFULLY,944101.044400,74526.000000,1018627.044400,259297.044400,333823.044400,4.479283,241-435 924-984 1290-1530 1915-1929 2313-2654 4167-4336,-1.000000,""
147_0_1,w0,profile_147,765405.000000,256,21666.000000,1,COMPLETED_SUCCESSFULLY,1000855.050700,21665.000000,1022520.050700,235450.050700,257115.050700,11.867761,3640-3895,-1.000000,""
145_0_1,w0,profile_145,765402.000000,256,21672.000000,1,COMPLETED_SUCCESSFULLY,1000855.049500,21671.000000,1022526.049500,235453.049500,257124.049500,11.864891,1796-1810 2902-3142,-1.000000,""
146_0_1,w0,profile_146,765403.000000,256,21674.000000,1,COMPLETED_SUCCESSFULLY,1000855.050100,21673.000000,1022528.050100,235452.050100,257125.050100,11.863842,3143-3312 3554-3639,-1.000000,""
148_0_1,w0,profile_148,765406.000000,256,21753.000000,1,COMPLETED_SUCCESSFULLY,1000855.051300,21752.000000,1022607.051300,235449.051300,257201.051300,11.824248,3896-4151,-1.000000,""
149_0_1,w0,profile_149,765407.000000,256,21737.000000,1,COMPLETED_SUCCESSFULLY,1006999.030600,21736.000000,1028735.030600,241592.030600,263328.030600,12.114834,3313-3553 4152-4166,-1.000000,""
139_0_1,w0,profile_139,688668.000000,1024,86400.000000,1,COMPLETED_SUCCESSFULLY,967924.047250,66386.000000,1034310.047250,279256.047250,345642.047250,5.206550,0-240 1241-1289 1811-1914 1930-2312 2655-2901,-1.000000,""
150_0_1,w0,profile_150,765418.000000,256,21652.000000,1,COMPLETED_SUCCESSFULLY,1012936.039900,21651.000000,1034587.039900,247518.039900,269169.039900,12.432176,436-691,-1.000000,""
151_0_1,w0,profile_151,765420.000000,256,21733.000000,1,COMPLETED_SUCCESSFULLY,1012947.041100,21732.000000,1034679.041100,247527.041100,269259.041100,12.389980,994-1240 1531-1539,-1.000000,""
152_0_1,w0,profile_152,765421.000000,256,21702.000000,1,COMPLETED_SUCCESSFULLY,1013038.041700,21701.000000,1034739.041700,247617.041700,269318.041700,12.410398,1540-1795,-1.000000,""
155_0_1,w0,profile_155,860845.000000,384,21641.000000,1,COMPLETED_SUCCESSFULLY,1022610.052950,21640.000000,1044250.052950,161765.052950,183405.052950,8.475280,3143-3312 3554-3639 3896-4023,-1.000000,""
154_0_1,w0,profile_154,855986.000000,256,21758.000000,1,COMPLETED_SUCCESSFULLY,1022532.052200,21757.000000,1044289.052200,166546.052200,188303.052200,8.654826,1796-1810 2902-3142,-1.000000,""
159_0_1,w0,profile_159,871322.000000,256,21666.000000,1,COMPLETED_SUCCESSFULLY,1028738.032250,21665.000000,1050403.032250,157416.032250,179081.032250,8.265914,3313-3553 4024-4038,-1.000000,""
153_0_1,w0,profile_153,798412.000000,1280,43200.000000,1,COMPLETED_SUCCESSFULLY,1022523.052350,41512.000000,1064035.052350,224111.052350,265623.052350,6.398705,241-435 924-984 1290-1530 1915-1929 2313-2654 3640-3895 4167-4336,-1.000000,""
158_0_1,w0,profile_158,865641.000000,490,32491.000000,1,COMPLETED_SUCCESSFULLY,1064038.054600,32490.000000,1096528.054600,198397.054600,230887.054600,7.106404,3057-3142 3313-3553 3640-3802,-1.000000,""
156_0_1,w0,profile_156,864682.000000,2048,78000.000000,1,COMPLETED_SUCCESSFULLY,1044253.054600,52775.000000,1097028.054600,179571.054600,232346.054600,4.402578,0-240 436-691 994-1289 1531-1795 1811-1914 1930-2312 2655-2901 3143-3312 3554-3639,-1.000000,""
157_0_1,w0,profile_157,865026.000000,1024,72000.000000,1,COMPLETED_SUCCESSFULLY,1064038.054000,35383.000000,1099421.054000,199012.054000,234395.054000,6.624510,241-435 924-984 1290-1530 1796-1810 1915-1929 2313-2654 2902-3056,-1.000000,""
163_0_1,w0,profile_163,890372.000000,390,32459.000000,1,COMPLETED_SUCCESSFULLY,1097031.056850,32458.000000,1129489.056850,206659.056850,239117.056850,7.366968,3313-3702,-1.000000,""
164_0_1,w0,profile_164,901328.000000,1024,50400.000000,1,COMPLETED_SUCCESSFULLY,1099424.055650,34567.000000,1133991.055650,198096.055650,232663.055650,6.730785,241-435 924-984 1290-1530 1796-1810 1915-1929 2313-2654 2902-3056,-1.000000,""
167_0_1,w0,profile_167,1117736.000000,384,32400.000000,1,COMPLETED_SUCCESSFULLY,1117736.001800,27066.000000,1144802.001800,0.001800,27066.001800,1.000000,3703-3802 4044-4327,-1.000000,""
165_0_1,w0,profile_165,906680.000000,1024,21632.000000,1,COMPLETED_SUCCESSFULLY,1133994.057300,21631.000000,1155625.057300,227314.057300,248945.057300,11.508717,241-435 924-984 1290-1530 1796-1810 1915-1929 2313-2654 2902-3056,-1.000000,""
169_0_1,w0,profile_169,1119201.000000,390,32519.000000,1,COMPLETED_SUCCESSFULLY,1129492.058500,32518.000000,1162010.058500,10291.058500,42809.058500,1.316473,3313-3702,-1.000000,""
172_0_1,w0,profile_172,1130757.000000,256,21634.000000,1,COMPLETED_SUCCESSFULLY,1144805.003450,21633.000000,1166438.003450,14048.003450,35681.003450,1.649378,3703-3802 4044-4199,-1.000000,""
174_0_1,w0,profile_174,1130800.000000,256,21681.000000,1,COMPLETED_SUCCESSFULLY,1155628.059550,21680.000000,1177308.059550,24828.059550,46508.059550,2.145206,1290-1530 1796-1810,-1.000000,""
175_0_1,w0,profile_175,1130814.000000,256,21700.000000,1,COMPLETED_SUCCESSFULLY,1155628.060150,21699.000000,1177327.060150,24814.060150,46513.060150,2.143558,1915-1929 2313-2553,-1.000000,""
173_0_1,w0,profile_173,1130793.000000,256,21703.000000,1,COMPLETED_SUCCESSFULLY,1155628.058950,21702.000000,1177330.058950,24835.058950,46537.058950,2.144367,241-435 924-984,-1.000000,""
195_0_1,w0,profile_195,1159929.000000,304,21688.000000,1,COMPLETED_SUCCESSFULLY,1159929.001800,21687.000000,1181616.001800,0.001800,21687.001800,1.000000,2554-2654 2902-3056 4200-4247,-1.000000,""
161_0_1,w0,profile_161,888333.000000,2048,86400.000000,1,COMPLETED_SUCCESSFULLY,1097031.056250,85075.000000,1182106.056250,208698.056250,293773.056250,3.453107,0-240 436-691 994-1289 1531-1795 1811-1914 1930-2312 2655-2901 3057-3312,-1.000000,""
142_0_1,w0,profile_142,762491.000000,241,216000.000000,1,COMPLETED_SUCCESSFULLY,991281.038850,209388.000000,1200669.038850,228790.038850,438178.038850,2.092661,692-923 985-993,-1.000000,""
160_0_1,w0,profile_160,878377.000000,241,216000.000000,1,COMPLETED_SUCCESSFULLY,1064038.055200,155672.000000,1219710.055200,185661.055200,341333.055200,2.192643,3803-4043,-1.000000,""
176_0_1,w0,profile_176,1143855.000000,640,43200.000000,1,COMPLETED_SUCCESSFULLY,1182109.059100,43171.000000,1225280.059100,38254.059100,81425.059100,1.886105,3091-3730,-1.000000,""
177_0_1,w0,profile_177,1144086.000000,512,32400.000000,1,COMPLETED_SUCCESSFULLY,1200672.040500,25263.000000,1225935.040500,56586.040500,81849.040500,3.239878,692-923 985-993 3731-3802 4044-4242,-1.000000,""
196_0_1,w0,profile_196,1214364.000000,256,21700.000000,1,COMPLETED_SUCCESSFULLY,1219713.056850,21699.000000,1241412.056850,5349.056850,27048.056850,1.246512,3803-4043 4243-4257,-1.000000,""
179_0_1,w0,profile_179,1144224.000000,512,32400.000000,1,COMPLETED_SUCCESSFULLY,1225938.042150,32388.000000,1258326.042150,81714.042150,114102.042150,3.522973,692-923 985-993 3731-3802 4044-4242,-1.000000,""
197_0_1,w0,profile_197,1214378.000000,256,21876.000000,1,COMPLETED_SUCCESSFULLY,1241415.058500,21875.000000,1263290.058500,27037.058500,48912.058500,2.235980,3803-4043 4243-4257,-1.000000,""
166_0_1,w0,profile_166,1089324.000000,802,86400.000000,1,COMPLETED_SUCCESSFULLY,1182109.058500,84213.000000,1266322.058500,92785.058500,176998.058500,2.101790,2289-3090,-1.000000,""
162_0_1,w0,profile_162,888351.000000,2048,86400.000000,1,COMPLETED_SUCCESSFULLY,1182109.057900,85152.000000,1267261.057900,293758.057900,378910.057900,4.449808,0-691 924-984 994-2288,-1.000000,""
178_0_1,w0,profile_178,1144222.000000,640,43200.000000,1,COMPLETED_SUCCESSFULLY,1225283.060750,43152.000000,1268435.060750,81061.060750,124213.060750,2.878501,3091-3730,-1.000000,""
199_0_1,w0,profile_199,1232682.000000,512,32444.000000,1,COMPLETED_SUCCESSFULLY,1268438.063000,32443.000000,1300881.063000,35756.063000,68199.063000,2.102120,3810-4321,-1.000000,""
180_0_1,w0,profile_180,1144226.000000,640,43210.000000,1,COMPLETED_SUCCESSFULLY,1267264.061350,43209.000000,1310473.061350,123038.061350,166247.061350,3.847510,2530-3090 3731-3809,-1.000000,""
181_0_1,w0,profile_181,1144228.000000,640,43200.000000,1,COMPLETED_SUCCESSFULLY,1268438.062400,43194.000000,1311632.062400,124210.062400,167404.062400,3.875632,3091-3730,-1.000000,""
168_0_1,w0,profile_168,1118081.000000,2048,86400.000000,1,COMPLETED_SUCCESSFULLY,1267264.059550,57915.000000,1325179.059550,149183.059550,207098.059550,3.575897,0-2047,-1.000000,""
202_0_1,w0,profile_202,1255688.000000,256,21600.000000,1,COMPLETED_SUCCESSFULLY,1325182.063000,21153.000000,1346335.063000,69494.063000,90647.063000,4.285305,1920-2047 4194-4321,-1.000000,""
182_0_1,w0,profile_182,1144230.000000,1024,43200.000000,1,COMPLETED_SUCCESSFULLY,1310476.063000,43149.000000,1353625.063000,166246.063000,209395.063000,4.852837,2530-3090 3731-4193,-1.000000,""
183_0_1,w0,profile_183,1144241.000000,640,43200.000000,1,COMPLETED_SUCCESSFULLY,1311635.064050,43176.000000,1354811.064050,167394.064050,210570.064050,4.877016,3091-3730,-1.000000,""
185_0_1,w0,profile_185,1144246.000000,640,43200.000000,1,COMPLETED_SUCCESSFULLY,1325182.061800,43198.000000,1368380.061800,180936.061800,224134.061800,5.188529,640-1279,-1.000000,""
184_0_1,w0,profile_184,1144244.000000,640,43212.000000,1,COMPLETED_SUCCESSFULLY,1325182.061200,43211.000000,1368393.061200,180938.061200,224149.061200,5.187315,0-639,-1.000000,""
186_0_1,w0,profile_186,1144249.000000,640,43322.000000,1,COMPLETED_SUCCESSFULLY,1325182.062400,43321.000000,1368503.062400,180933.062400,224254.062400,5.176567,1280-1919,-1.000000,""
170_0_1,w0,profile_170,1127512.000000,241,216000.000000,1,COMPLETED_SUCCESSFULLY,1267264.060150,102641.000000,1369905.060150,139752.060150,242393.060150,2.361562,2048-2288,-1.000000,""
203_0_1,w0,profile_203,1292492.000000,256,21658.000000,1,COMPLETED_SUCCESSFULLY,1369908.061800,21657.000000,1391565.061800,77416.061800,99073.061800,4.574644,2048-2288 4322-4336,-1.000000,""
187_0_1,w0,profile_187,1144261.000000,640,43200.000000,1,COMPLETED_SUCCESSFULLY,1353628.064650,43131.000000,1396759.064650,209367.064650,252498.064650,5.854213,1920-2047 2530-3041,-1.000000,""
188_0_1,w0,profile_188,1144266.000000,640,43200.000000,1,COMPLETED_SUCCESSFULLY,1353628.065250,43183.000000,1396811.065250,209362.065250,252545.065250,5.848252,3042-3090 3731-4321,-1.000000,""
189_0_1,w0,profile_189,1144268.000000,640,43200.000000,1,COMPLETED_SUCCESSFULLY,1354814.065700,43184.000000,1397998.065700,210546.065700,253730.065700,5.875557,3091-3730,-1.000000,""
191_0_1,w0,profile_191,1144283.000000,640,43200.000000,1,COMPLETED_SUCCESSFULLY,1368396.062850,43194.000000,1411590.062850,224113.062850,267307.062850,6.188523,0-639,-1.000000,""
190_0_1,w0,profile_190,1144270.000000,640,43214.000000,1,COMPLETED_SUCCESSFULLY,1368383.063450,43213.000000,1411596.063450,224113.063450,267326.063450,6.186242,640-1279,-1.000000,""
192_0_1,w0,profile_192,1144286.000000,640,43245.000000,1,COMPLETED_SUCCESSFULLY,1368506.064050,43244.000000,1411750.064050,224220.064050,267464.064050,6.184998,1280-1919,-1.000000,""
200_0_1,w0,profile_200,1232852.000000,512,32444.000000,1,COMPLETED_SUCCESSFULLY,1398001.067350,32443.000000,1430444.067350,165149.067350,197592.067350,6.090438,3091-3602,-1.000000,""
206_0_1,w0,profile_206,1310464.000000,256,21611.000000,1,COMPLETED_SUCCESSFULLY,1411753.065700,21610.000000,1433363.065700,101289.065700,122899.065700,5.687139,1280-1535,-1.000000,""
201_0_1,w0,profile_201,1233656.000000,512,32400.000000,1,COMPLETED_SUCCESSFULLY,1411593.064500,26342.000000,1437935.064500,177937.064500,204279.064500,7.754881,0-511,-1.000000,""
193_0_1,w0,profile_193,1144291.000000,640,43259.000000,1,COMPLETED_SUCCESSFULLY,1396762.066300,43258.000000,1440020.066300,252471.066300,295729.066300,6.836402,1920-2288 2530-2800,-1.000000,""
194_0_1,w0,profile_194,1144303.000000,640,43210.000000,1,COMPLETED_SUCCESSFULLY,1396814.066900,43209.000000,1440023.066900,252511.066900,295720.066900,6.843946,2801-3090 3731-4080,-1.000000,""
171_0_1,w0,profile_171,1127916.000000,241,172920.000000,1,COMPLETED_SUCCESSFULLY,1267264.060750,172919.000000,1440183.060750,139348.060750,312267.060750,1.805857,2289-2529,-1.000000,""
204_0_1,w0,profile_204,1302970.000000,390,32401.000000,1,COMPLETED_SUCCESSFULLY,1411599.065100,32400.000000,1443999.065100,108629.065100,141029.065100,4.352749,512-901,-1.000000,""
205_0_1,w0,profile_205,1310398.000000,512,32467.000000,1,COMPLETED_SUCCESSFULLY,1411599.065700,32466.000000,1444065.065700,101201.065700,133667.065700,4.117140,902-1279 3603-3730 4322-4327,-1.000000,""
198_0_1,w0,profile_198,1231034.000000,241,216000.000000,1,COMPLETED_SUCCESSFULLY,1396814.067500,84987.000000,1481801.067500,165780.067500,250767.067500,2.950652,4081-4321,-1.000000,""
218_0_1,w0,profile_218,1375525.000000,256,21739.000000,1,COMPLETED_SUCCESSFULLY,1481804.069150,21738.000000,1503542.069150,106279.069150,128017.069150,5.889091,3637-3730 4081-4242,-1.000000,""
207_0_1,w0,profile_207,1344163.000000,802,86512.000000,1,COMPLETED_SUCCESSFULLY,1430447.069000,86511.000000,1516958.069000,86284.069000,172795.069000,1.997377,1536-1919 3091-3508,-1.000000,""
208_0_1,w0,profile_208,1344164.000000,802,86526.000000,1,COMPLETED_SUCCESSFULLY,1437938.066150,86525.000000,1524463.066150,93774.066150,180299.066150,2.083780,0-511 1280-1535 3509-3542,-1.000000,""
209_0_1,w0,profile_209,1344166.000000,802,86518.000000,1,COMPLETED_SUCCESSFULLY,1440026.069000,86517.000000,1526543.069000,95860.069000,182377.069000,2.107991,1920-2288 2530-2962,-1.000000,""
210_0_1,w0,profile_210,1344168.000000,802,86526.000000,1,COMPLETED_SUCCESSFULLY,1440186.062400,86525.000000,1526711.062400,96018.062400,182543.062400,2.109715,2289-2529 2963-3090 3543-3602 3731-4080 4328-4350,-1.000000,""
211_0_1,w0,profile_211,1344169.000000,802,86503.000000,1,COMPLETED_SUCCESSFULLY,1444068.067350,86502.000000,1530570.067350,99899.067350,186401.067350,2.154876,512-1279 3603-3636,-1.000000,""
219_0_1,w0,profile_219,1375539.000000,256,21754.000000,1,COMPLETED_SUCCESSFULLY,1530573.070200,21753.000000,1552326.070200,155034.070200,176787.070200,8.127020,1265-1279 3603-3636 4010-4216,-1.000000,""
216_0_1,w0,profile_216,1344888.000000,512,32400.000000,1,COMPLETED_SUCCESSFULLY,1530573.069000,32388.000000,1562961.069000,185685.069000,218073.069000,6.733144,512-1023,-1.000000,""
220_0_1,w0,profile_220,1375547.000000,256,21740.000000,1,COMPLETED_SUCCESSFULLY,1552329.071850,21739.000000,1574068.071850,176782.071850,198521.071850,9.132024,1265-1279 3603-3636 4010-4216,-1.000000,""
221_0_1,w0,profile_221,1375560.000000,256,21753.000000,1,COMPLETED_SUCCESSFULLY,1562964.070650,21752.000000,1584716.070650,187404.070650,209156.070650,9.615487,512-767,-1.000000,""
235_0_1,w0,profile_235,1484498.000000,390,32400.000000,1,COMPLETED_SUCCESSFULLY,1562964.071250,32360.000000,1595324.071250,78466.071250,110826.071250,3.424786,768-1023 4217-4350,-1.000000,""
212_0_1,w0,profile_212,1344171.000000,802,86553.000000,1,COMPLETED_SUCCESSFULLY,1516961.070650,86552.000000,1603513.070650,172790.070650,259342.070650,2.996373,1536-1919 3091-3508,-1.000000,""
213_0_1,w0,profile_213,1344172.000000,802,86471.000000,1,COMPLETED_SUCCESSFULLY,1524466.067800,86470.000000,1610936.067800,180294.067800,266764.067800,3.085048,0-511 1280-1535 3509-3542,-1.000000,""
214_0_1,w0,profile_214,1344184.000000,802,86492.000000,1,COMPLETED_SUCCESSFULLY,1526546.070650,86491.000000,1613037.070650,182362.070650,268853.070650,3.108451,1920-2288 2530-2962,-1.000000,""
215_0_1,w0,profile_215,1344185.000000,802,86570.000000,1,COMPLETED_SUCCESSFULLY,1526714.064050,86569.000000,1613283.064050,182529.064050,269098.064050,3.108481,2289-2529 2963-3090 3543-3602 3637-4009,-1.000000,""
227_0_1,w0,profile_227,1466463.000000,770,32505.000000,1,COMPLETED_SUCCESSFULLY,1613286.065700,32504.000000,1645790.065700,146823.065700,179327.065700,5.517077,2289-2529 2963-3090 3543-3602 3637-3977,-1.000000,""
226_0_1,w0,profile_226,1465620.000000,1024,64800.000000,1,COMPLETED_SUCCESSFULLY,1613040.072300,45087.000000,1658127.072300,147420.072300,192507.072300,4.269680,1920-2288 2530-2962 3460-3542 3603-3636 4010-4114,-1.000000,""
222_0_1,w0,profile_222,1426713.000000,2048,86400.000000,1,COMPLETED_SUCCESSFULLY,1610939.069450,50871.000000,1661810.069450,184226.069450,235097.069450,4.621436,0-1023 1265-1919 3091-3459,-1.000000,""
246_0_1,w0,profile_246,1642684.000000,256,21600.000000,1,COMPLETED_SUCCESSFULLY,1642684.001800,21062.000000,1663746.001800,0.001800,21062.001800,1.000000,3978-4009 4115-4338,-1.000000,""
247_0_1,w0,profile_247,1642688.000000,256,21669.000000,1,COMPLETED_SUCCESSFULLY,1645793.067950,21668.000000,1667461.067950,3105.067950,24773.067950,1.143302,3708-3963,-1.000000,""
217_0_1,w0,profile_217,1369734.000000,241,223200.000000,1,COMPLETED_SUCCESSFULLY,1530573.069600,137820.000000,1668393.069600,160839.069600,298659.069600,2.167023,1024-1264,-1.000000,""
240_0_1,w0,profile_240,1523087.000000,500,31246.000000,1,COMPLETED_SUCCESSFULLY,1645793.067350,31245.000000,1677038.067350,122706.067350,153951.067350,4.927223,2289-2529 2963-3090 3543-3602 3637-3707,-1.000000,""
232_0_1,w0,profile_232,1474147.000000,1024,27900.000000,1,COMPLETED_SUCCESSFULLY,1658130.073950,20331.000000,1678461.073950,183983.073950,204314.073950,10.049386,1920-2288 2530-2962 3460-3542 3603-3636 3964-3977 4010-4100,-1.000000,""
248_0_1,w0,profile_248,1642690.000000,256,21790.000000,1,COMPLETED_SUCCESSFULLY,1661813.071100,21789.000000,1683602.071100,19123.071100,40912.071100,1.877648,0-255,-1.000000,""
228_0_1,w0,profile_228,1468484.000000,1024,72000.000000,1,COMPLETED_SUCCESSFULLY,1678464.075600,49845.000000,1728309.075600,209980.075600,259825.075600,5.212661,1920-2288 2530-2962 3460-3542 3603-3636 3964-3977 4010-4100,-1.000000,""
223_0_1,w0,profile_223,1426737.000000,3072,86400.000000,1,COMPLETED_SUCCESSFULLY,1677041.069000,73819.000000,1750860.069000,250304.069000,324123.069000,4.390781,256-1919 2289-2529 2963-3459 3543-3602 3637-3963 3978-4009 4101-4351,-1.000000,""
250_0_1,w0,profile_250,1692848.000000,390,32425.000000,1,COMPLETED_SUCCESSFULLY,1728312.077850,32424.000000,1760736.077850,35464.077850,67888.077850,2.093760,2176-2288 2530-2806,-1.000000,""
249_0_1,w0,profile_249,1676095.000000,512,32484.000000,1,COMPLETED_SUCCESSFULLY,1728312.077250,32483.000000,1760795.077250,52217.077250,84700.077250,2.607520,0-255 1920-2175,-1.000000,""
253_0_1,w0,profile_253,1773851.000000,256,21709.000000,1,COMPLETED_SUCCESSFULLY,1773851.001800,21708.000000,1795559.001800,0.001800,21708.001800,1.000000,4096-4351,-1.000000,""
231_0_1,w0,profile_231,1472518.000000,1024,72000.000000,1,COMPLETED_SUCCESSFULLY,1760798.078900,41915.000000,1802713.078900,288280.078900,330195.078900,7.877731,0-255 1920-2288 2530-2806 3974-4095,-1.000000,""
252_0_1,w0,profile_252,1765074.000000,480,21723.000000,1,COMPLETED_SUCCESSFULLY,1802716.080550,21722.000000,1824438.080550,37642.080550,59364.080550,2.732901,0-255 1920-2143,-1.000000,""
254_0_1,w0,profile_254,1806541.000000,256,21634.000000,1,COMPLETED_SUCCESSFULLY,1806541.001800,21633.000000,1828174.001800,0.001800,21633.001800,1.000000,2144-2288 2530-2640,-1.000000,""
224_0_1,w0,profile_224,1426751.000000,3072,86400.000000,1,COMPLETED_SUCCESSFULLY,1750863.070650,79179.000000,1830042.070650,324112.070650,403291.070650,5.093409,256-1919 2289-2529 2807-3973,-1.000000,""
230_0_1,w0,profile_230,1472476.000000,1024,86400.000000,1,COMPLETED_SUCCESSFULLY,1830045.073500,44529.000000,1874574.073500,357569.073500,402098.073500,9.030027,3072-4095,-1.000000,""
225_0_1,w0,profile_225,1465476.000000,2048,79200.000000,1,COMPLETED_SUCCESSFULLY,1830045.072300,49036.000000,1879081.072300,364569.072300,413605.072300,8.434723,0-2047,-1.000000,""
229_0_1,w0,profile_229,1468605.000000,1024,79200.000000,1,COMPLETED_SUCCESSFULLY,1830045.072900,52982.000000,1883027.072900,361440.072900,414422.072900,7.821941,2048-3071,-1.000000,""
241_0_1,w0,profile_241,1523197.000000,1200,39795.000000,1,COMPLETED_SUCCESSFULLY,1874577.075150,39794.000000,1914371.075150,351380.075150,391174.075150,9.829976,3072-4271,-1.000000,""
233_0_1,w0,profile_233,1481529.000000,4096,86400.000000,1,COMPLETED_SUCCESSFULLY,1914374.076800,71435.000000,1985809.076800,432845.076800,504280.076800,7.059286,0-4095,-1.000000,""
234_0_1,w0,profile_234,1481928.000000,4096,86400.000000,1,COMPLETED_SUCCESSFULLY,1985812.078450,56183.000000,2041995.078450,503884.078450,560067.078450,9.968622,0-4095,-1.000000,""
257_0_1,w0,profile_257,1923927.000000,241,86400.000000,1,COMPLETED_SUCCESSFULLY,1985812.079050,76359.000000,2062171.079050,61885.079050,138244.079050,1.810449,4096-4336,-1.000000,""
236_0_1,w0,profile_236,1489557.000000,2048,86400.000000,1,COMPLETED_SUCCESSFULLY,2041998.080100,59012.000000,2101010.080100,552441.080100,611453.080100,10.361504,0-2047,-1.000000,""
237_0_1,w0,profile_237,1489577.000000,2048,86400.000000,1,COMPLETED_SUCCESSFULLY,2041998.080700,77847.000000,2119845.080700,552421.080700,630268.080700,8.096241,2048-4095,-1.000000,""
260_0_1,w0,profile_260,2010071.000000,478,21812.000000,1,COMPLETED_SUCCESSFULLY,2101013.081750,21811.000000,2122824.081750,90942.081750,112753.081750,5.169551,0-477,-1.000000,""
238_0_1,w0,profile_238,1489601.000000,3072,86400.000000,1,COMPLETED_SUCCESSFULLY,2119848.082350,32938.000000,2152786.082350,630247.082350,663185.082350,20.134346,478-3549,-1.000000,""
239_0_1,w0,profile_239,1495279.000000,1024,72000.000000,1,COMPLETED_SUCCESSFULLY,2122827.083400,41393.000000,2164220.083400,627548.083400,668941.083400,16.160730,0-477 3550-4095,-1.000000,""
242_0_1,w0,profile_242,1523250.000000,1200,43245.000000,1,COMPLETED_SUCCESSFULLY,2152789.084000,43244.000000,2196033.084000,629539.084000,672783.084000,15.557837,478-1677,-1.000000,""
243_0_1,w0,profile_243,1593261.000000,2048,86400.000000,1,COMPLETED_SUCCESSFULLY,2152789.084600,85006.000000,2237795.084600,559528.084600,644534.084600,7.582219,1678-3549 4096-4271,-1.000000,""
244_0_1,w0,profile_244,1593277.000000,2048,86400.000000,1,COMPLETED_SUCCESSFULLY,2196036.085650,85103.000000,2281139.085650,602759.085650,687862.085650,8.082701,0-1677 3550-3919,-1.000000,""
255_0_1,w0,profile_255,1895577.000000,390,32400.000000,1,COMPLETED_SUCCESSFULLY,2281142.087300,28924.000000,2310066.087300,385565.087300,414489.087300,14.330282,0-389,-1.000000,""
256_0_1,w0,profile_256,1906871.000000,512,32400.000000,1,COMPLETED_SUCCESSFULLY,2281142.087900,30430.000000,2311572.087900,374271.087900,404701.087900,13.299411,390-901,-1.000000,""
245_0_1,w0,profile_245,1593316.000000,2048,86400.000000,1,COMPLETED_SUCCESSFULLY,2237798.086250,85088.000000,2322886.086250,644482.086250,729570.086250,8.574301,1678-3549 3920-4095,-1.000000,""
267_0_1,w0,profile_267,2332446.000000,390,32400.000000,1,COMPLETED_SUCCESSFULLY,2332446.001800,32385.000000,2364831.001800,0.001800,32385.001800,1.000000,3554-3943,-1.000000,""
268_0_1,w0,profile_268,2349419.000000,256,21661.000000,1,COMPLETED_SUCCESSFULLY,2364834.003450,21660.000000,2386494.003450,15415.003450,37075.003450,1.711681,3554-3809,-1.000000,""
269_0_1,w0,profile_269,2349428.000000,256,21722.000000,1,COMPLETED_SUCCESSFULLY,2364834.004050,21721.000000,2386555.004050,15406.004050,37127.004050,1.709268,3810-4065,-1.000000,""
251_0_1,w0,profile_251,1716763.000000,241,223200.000000,1,COMPLETED_SUCCESSFULLY,2237798.086850,160368.000000,2398166.086850,521035.086850,681403.086850,4.248997,4096-4336,-1.000000,""
258_0_1,w0,profile_258,1994040.000000,241,172800.000000,1,COMPLETED_SUCCESSFULLY,2281142.088500,118003.000000,2399145.088500,287102.088500,405105.088500,3.433007,902-1142,-1.000000,""
270_0_1,w0,profile_270,2349435.000000,256,21686.000000,1,COMPLETED_SUCCESSFULLY,2386497.005100,21685.000000,2408182.005100,37062.005100,58747.005100,2.709108,3554-3809,-1.000000,""
271_0_1,w0,profile_271,2349449.000000,256,21644.000000,1,COMPLETED_SUCCESSFULLY,2386558.005700,21643.000000,2408201.005700,37109.005700,58752.005700,2.714596,3810-4065,-1.000000,""
261_0_1,w0,profile_261,2068694.000000,3072,86538.000000,1,COMPLETED_SUCCESSFULLY,2322889.087900,86537.000000,2409426.087900,254195.087900,340732.087900,3.937415,0-901 1384-3553,-1.000000,""
264_0_1,w0,profile_264,2325185.000000,1024,36000.000000,1,COMPLETED_SUCCESSFULLY,2409429.089550,25171.000000,2434600.089550,84244.089550,109415.089550,4.346871,0-901 1384-1505,-1.000000,""
273_0_1,w0,profile_273,2355133.000000,512,32464.000000,1,COMPLETED_SUCCESSFULLY,2409429.090751,32463.000000,2441892.090751,54296.090751,86759.090751,2.672553,2530-3041,-1.000000,""
274_0_1,w0,profile_274,2355174.000000,512,32516.000000,1,COMPLETED_SUCCESSFULLY,2409429.091351,32515.000000,2441944.091351,54255.091351,86770.091351,2.668617,3042-3553,-1.000000,""
259_0_1,w0,profile_259,1994341.000000,241,172800.000000,1,COMPLETED_SUCCESSFULLY,2281142.089100,162413.000000,2443555.089100,286801.089100,449214.089100,2.765875,1143-1383,-1.000000,""
265_0_1,w0,profile_265,2328671.000000,1024,64800.000000,1,COMPLETED_SUCCESSFULLY,2409429.090150,49178.000000,2458607.090150,80758.090150,129936.090150,2.642159,1506-2529,-1.000000,""
281_0_1,w0,profile_281,2448417.000000,256,21654.000000,1,COMPLETED_SUCCESSFULLY,2448417.001800,21653.000000,2470070.001800,0.001800,21653.001800,1.000000,1143-1383 4052-4065 4371,-1.000000,""
276_0_1,w0,profile_276,2402636.000000,458,21676.000000,1,COMPLETED_SUCCESSFULLY,2458610.092401,21675.000000,2480285.092401,55974.092401,77649.092401,3.582426,2018-2475,-1.000000,""
266_0_1,w0,profile_266,2329272.000000,2048,64800.000000,1,COMPLETED_SUCCESSFULLY,2441947.093001,45006.000000,2486953.093001,112675.093001,157681.093001,3.503557,0-901 1384-1505 2530-3553,-1.000000,""
275_0_1,w0,profile_275,2355204.000000,512,32544.000000,1,COMPLETED_SUCCESSFULLY,2458610.091800,32543.000000,2491153.091800,103406.091800,135949.091800,4.177522,1506-2017,-1.000000,""
262_0_1,w0,profile_262,2079078.000000,802,86550.000000,1,COMPLETED_SUCCESSFULLY,2408185.006750,86549.000000,2494734.006750,329107.006750,415656.006750,4.802551,902-1142 3554-3809 4066-4370,-1.000000,""
282_0_1,w0,profile_282,2448431.000000,256,21687.000000,1,COMPLETED_SUCCESSFULLY,2486956.096451,21686.000000,2508642.096451,38525.096451,60211.096451,2.776496,3319-3553 4052-4065 4371-4377,-1.000000,""
277_0_1,w0,profile_277,2403725.000000,549,32524.000000,1,COMPLETED_SUCCESSFULLY,2480288.094051,32523.000000,2512811.094051,76563.094051,109086.094051,3.354122,1143-1383 2018-2325,-1.000000,""
272_0_1,w0,profile_272,2349574.000000,1,72128.000000,1,COMPLETED_SUCCESSFULLY,2441947.093601,72127.000000,2514074.093601,92373.093601,164500.093601,2.280701,4051,-1.000000,""
278_0_1,w0,profile_278,2420550.000000,736,32428.000000,1,COMPLETED_SUCCESSFULLY,2486956.094651,32427.000000,2519383.094651,66406.094651,98833.094651,3.047864,0-735,-1.000000,""
280_0_1,w0,profile_280,2428493.000000,1280,46800.000000,1,COMPLETED_SUCCESSFULLY,2486956.095851,41188.000000,2528144.095851,58463.095851,99651.095851,2.419421,737-901 1384-1505 2326-3318,-1.000000,""
283_0_1,w0,profile_283,2460948.000000,640,43200.000000,1,COMPLETED_SUCCESSFULLY,2494737.008400,43150.000000,2537887.008400,33789.008400,76939.008400,1.783059,902-1142 1506-1904,-1.000000,""
284_0_1,w0,profile_284,2460950.000000,640,43298.000000,1,COMPLETED_SUCCESSFULLY,2494737.009000,43297.000000,2538034.009000,33787.009000,77084.009000,1.780355,1905-2017 3554-3809 4066-4336,-1.000000,""
285_0_1,w0,profile_285,2460953.000000,512,32400.000000,1,COMPLETED_SUCCESSFULLY,2512814.095701,32334.000000,2545148.095701,51861.095701,84195.095701,2.603918,1143-1383 2018-2288,-1.000000,""
288_0_1,w0,profile_288,2460969.000000,1024,43200.000000,1,COMPLETED_SUCCESSFULLY,2528147.098101,26319.000000,2554466.098101,67178.098101,93497.098101,3.552456,2546-3553 4051-4065 4337,-1.000000,""
279_0_1,w0,profile_279,2425976.000000,1,72083.000000,1,COMPLETED_SUCCESSFULLY,2486956.095251,72082.000000,2559038.095251,60980.095251,133062.095251,1.845982,736,-1.000000,""
286_0_1,w0,profile_286,2460955.000000,640,43314.000000,1,COMPLETED_SUCCESSFULLY,2519386.096301,43313.000000,2562699.096301,58431.096301,101744.096301,2.349043,0-639,-1.000000,""
287_0_1,w0,profile_287,2460966.000000,640,43281.000000,1,COMPLETED_SUCCESSFULLY,2528147.097501,43280.000000,2571427.097501,67181.097501,110461.097501,2.552243,640-735 737-901 1384-1505 2289-2545,-1.000000,""
289_0_1,w0,profile_289,2460971.000000,640,43220.000000,1,COMPLETED_SUCCESSFULLY,2537890.010050,43219.000000,2581109.010050,76919.010050,120138.010050,2.779750,902-1142 1506-1904,-1.000000,""
290_0_1,w0,profile_290,2460973.000000,640,43227.000000,1,COMPLETED_SUCCESSFULLY,2538037.010650,43226.000000,2581263.010650,77064.010650,120290.010650,2.782816,1905-2017 3554-3809 4066-4336,-1.000000,""
292_0_1,w0,profile_292,2460991.000000,640,43200.000000,1,COMPLETED_SUCCESSFULLY,2554469.100351,43140.000000,2597609.100351,93478.100351,136618.100351,3.166854,2674-3313,-1.000000,""
291_0_1,w0,profile_291,2460988.000000,640,43229.000000,1,COMPLETED_SUCCESSFULLY,2554469.099751,43228.000000,2597697.099751,93481.099751,136709.099751,3.162513,1143-1383 2018-2288 2546-2673,-1.000000,""
293_0_1,w0,profile_293,2460993.000000,640,43200.000000,1,COMPLETED_SUCCESSFULLY,2562702.097951,43141.000000,2605843.097951,101709.097951,144850.097951,3.357597,0-639,-1.000000,""
294_0_1,w0,profile_294,2461012.000000,640,43200.000000,1,COMPLETED_SUCCESSFULLY,2571430.099151,43131.000000,2614561.099151,110418.099151,153549.099151,3.560064,640-901 1384-1505 2289-2544,-1.000000,""
263_0_1,w0,profile_263,2240746.000000,241,223200.000000,1,COMPLETED_SUCCESSFULLY,2408204.007350,207266.000000,2615470.007350,167458.007350,374724.007350,1.807938,3810-4050,-1.000000,""
301_0_1,w0,profile_301,2498936.000000,600,21600.000000,1,COMPLETED_SUCCESSFULLY,2597700.101401,20736.000000,2618436.101401,98764.101401,119500.101401,5.762929,1143-1383 2018-2288 2546-2633,-1.000000,""
295_0_1,w0,profile_295,2461015.000000,640,43215.000000,1,COMPLETED_SUCCESSFULLY,2581112.011700,43214.000000,2624326.011700,120097.011700,163311.011700,3.779123,902-1142 1506-1904,-1.000000,""
296_0_1,w0,profile_296,2461018.000000,640,43200.000000,1,COMPLETED_SUCCESSFULLY,2581266.012300,43186.000000,2624452.012300,120248.012300,163434.012300,3.784421,1905-2017 2545 3314-3809 4051-4080,-1.000000,""
297_0_1,w0,profile_297,2461021.000000,640,43200.000000,1,COMPLETED_SUCCESSFULLY,2597612.102001,43177.000000,2640789.102001,136591.102001,179768.102001,4.163515,2674-3313,-1.000000,""
300_0_1,w0,profile_300,2489787.000000,241,43200.000000,1,COMPLETED_SUCCESSFULLY,2624455.014550,24193.000000,2648648.014550,134668.014550,158861.014550,6.566404,3441-3681,-1.000000,""
307_0_1,w0,profile_307,2620179.000000,256,21721.000000,1,COMPLETED_SUCCESSFULLY,2640792.103651,21720.000000,2662512.103651,20613.103651,42333.103651,1.949038,2674-2929,-1.000000,""
299_0_1,w0,profile_299,2488651.000000,241,223200.000000,1,COMPLETED_SUCCESSFULLY,2624455.013950,66463.000000,2690918.013950,135804.013950,202267.013950,3.043302,1905-2017 2545 3314-3440,-1.000000,""
298_0_1,w0,profile_298,2482491.000000,3072,86400.000000,1,COMPLETED_SUCCESSFULLY,2624329.013350,79990.000000,2704319.013350,141838.013350,221828.013350,2.773197,0-1904 2018-2544 2546-2673 3810-4050 4081-4351,-1.000000,""
303_0_1,w0,profile_303,2559786.000000,802,28901.000000,1,COMPLETED_SUCCESSFULLY,2704322.015000,28900.000000,2733222.015000,144536.015000,173436.015000,6.001246,0-801,-1.000000,""
305_0_1,w0,profile_305,2559817.000000,802,28906.000000,1,COMPLETED_SUCCESSFULLY,2704322.016200,28905.000000,2733227.016200,144505.016200,173410.016200,5.999309,1604-2405,-1.000000,""
304_0_1,w0,profile_304,2559805.000000,802,28915.000000,1,COMPLETED_SUCCESSFULLY,2704322.015600,28914.000000,2733236.015600,144517.015600,173431.015600,5.998168,802-1603,-1.000000,""
308_0_1,w0,profile_308,2644690.000000,512,32443.000000,1,COMPLETED_SUCCESSFULLY,2704322.017400,32442.000000,2736764.017400,59632.017400,92074.017400,2.838112,3430-3440 3810-4050 4066-4325,-1.000000,""
306_0_1,w0,profile_306,2582138.000000,384,32535.000000,1,COMPLETED_SUCCESSFULLY,2704322.016800,32534.000000,2736856.016800,122184.016800,154718.016800,4.755579,2406-2673 3314-3429,-1.000000,""
302_0_1,w0,profile_302,2501319.000000,1024,86400.000000,1,COMPLETED_SUCCESSFULLY,2662515.105301,83488.000000,2746003.105301,161196.105301,244684.105301,2.930770,2674-3313 3441-3809 4051-4065,-1.000000,""
311_0_1,w0,profile_311,2644815.000000,512,32400.000000,1,COMPLETED_SUCCESSFULLY,2733230.018450,30035.000000,2763265.018450,88415.018450,118450.018450,3.943733,1826-2337,-1.000000,""
309_0_1,w0,profile_309,2644799.000000,512,32427.000000,1,COMPLETED_SUCCESSFULLY,2733225.016650,32426.000000,2765651.016650,88426.016650,120852.016650,3.727010,0-511,-1.000000,""
310_0_1,w0,profile_310,2644810.000000,512,32446.000000,1,COMPLETED_SUCCESSFULLY,2733230.017850,32445.000000,2765675.017850,88420.017850,120865.017850,3.725228,512-801 1604-1825,-1.000000,""
312_0_1,w0,profile_312,2644832.000000,512,32540.000000,1,COMPLETED_SUCCESSFULLY,2733239.017250,32539.000000,2765778.017250,88407.017250,120946.017250,3.716956,802-1313,-1.000000,""
319_0_1,w0,profile_319,2673321.000000,256,21647.000000,1,COMPLETED_SUCCESSFULLY,2746006.108751,21646.000000,2767652.108751,72685.108751,94331.108751,4.357900,3569-3809 4051-4065,-1.000000,""
317_0_1,w0,profile_317,2673316.000000,256,21703.000000,1,COMPLETED_SUCCESSFULLY,2746006.107551,21702.000000,2767708.107551,72690.107551,94392.107551,4.349466,2930-3185,-1.000000,""
318_0_1,w0,profile_318,2673318.000000,256,21725.000000,1,COMPLETED_SUCCESSFULLY,2746006.108151,21724.000000,2767730.108151,72688.108151,94412.108151,4.345982,3186-3313 3441-3568,-1.000000,""
316_0_1,w0,profile_316,2673315.000000,256,21733.000000,1,COMPLETED_SUCCESSFULLY,2746006.106951,21732.000000,2767738.106951,72691.106951,94423.106951,4.344888,2674-2929,-1.000000,""
315_0_1,w0,profile_315,2668721.000000,390,32400.000000,1,COMPLETED_SUCCESSFULLY,2736859.018450,32367.000000,2769226.018450,68138.018450,100505.018450,3.105169,2406-2673 3314-3429 4209-4214,-1.000000,""
313_0_1,w0,profile_313,2644841.000000,512,32635.000000,1,COMPLETED_SUCCESSFULLY,2736767.019050,32634.000000,2769401.019050,91926.019050,124560.019050,3.816879,1314-1603 2338-2405 3430-3440 3810-3952,-1.000000,""
320_0_1,w0,profile_320,2673335.000000,256,21653.000000,1,COMPLETED_SUCCESSFULLY,2763268.020100,21652.000000,2784920.020100,89933.020100,111585.020100,5.153566,1826-2081,-1.000000,""
321_0_1,w0,profile_321,2673336.000000,256,21688.000000,1,COMPLETED_SUCCESSFULLY,2763268.020700,21687.000000,2784955.020700,89932.020700,111619.020700,5.146817,2082-2337,-1.000000,""
323_0_1,w0,profile_323,2673340.000000,256,21642.000000,1,COMPLETED_SUCCESSFULLY,2765654.018900,21641.000000,2787295.018900,92314.018900,113955.018900,5.265700,256-511,-1.000000,""
322_0_1,w0,profile_322,2673337.000000,256,21648.000000,1,COMPLETED_SUCCESSFULLY,2765654.018300,21647.000000,2787301.018300,92317.018300,113964.018300,5.264656,0-255,-1.000000,""
325_0_1,w0,profile_325,2673355.000000,256,21656.000000,1,COMPLETED_SUCCESSFULLY,2765678.020100,21655.000000,2787333.020100,92323.020100,113978.020100,5.263358,768-801 1604-1825,-1.000000,""
324_0_1,w0,profile_324,2673342.000000,256,21686.000000,1,COMPLETED_SUCCESSFULLY,2765678.019500,21685.000000,2787363.019500,92336.019500,114021.019500,5.258059,512-767,-1.000000,""
326_0_1,w0,profile_326,2676385.000000,512,32503.000000,1,COMPLETED_SUCCESSFULLY,2765781.018900,32502.000000,2798283.018900,89396.018900,121898.018900,3.750477,802-1313,-1.000000,""
327_0_1,w0,profile_327,2677840.000000,512,32472.000000,1,COMPLETED_SUCCESSFULLY,2767711.109201,32471.000000,2800182.109201,89871.109201,122342.109201,3.767735,2930-3185 3569-3809 4051-4065,-1.000000,""
330_0_1,w0,profile_330,2703686.000000,458,21656.000000,1,COMPLETED_SUCCESSFULLY,2784958.022350,21655.000000,2806613.022350,81272.022350,102927.022350,4.753037,1826-2283,-1.000000,""
331_0_1,w0,profile_331,2764521.000000,256,21658.000000,1,COMPLETED_SUCCESSFULLY,2787298.020550,21657.000000,2808955.020550,22777.020550,44434.020550,2.051716,256-511,-1.000000,""
329_0_1,w0,profile_329,2692581.000000,700,43313.000000,1,COMPLETED_SUCCESSFULLY,2769404.020700,43312.000000,2812716.020700,76823.020700,120135.020700,2.773712,1314-1603 2338-2405 3430-3440 3475-3568 3810-3952 4209-4302,-1.000000,""
332_0_1,w0,profile_332,2790569.000000,390,32400.000000,1,COMPLETED_SUCCESSFULLY,2790569.001800,32354.000000,2822923.001800,0.001800,32354.001800,1.000000,0-255 512-645,-1.000000,""
333_0_1,w0,profile_333,2793555.000000,512,32485.000000,1,COMPLETED_SUCCESSFULLY,2793555.001800,32484.000000,2826039.001800,0.001800,32484.001800,1.000000,646-801 1604-1825 2284-2337 4303-4382,-1.000000,""
334_0_1,w0,profile_334,2793673.000000,512,32505.000000,1,COMPLETED_SUCCESSFULLY,2798286.020550,32504.000000,2830790.020550,4613.020550,37117.020550,1.141922,802-1313,-1.000000,""
335_0_1,w0,profile_335,2793775.000000,512,32505.000000,1,COMPLETED_SUCCESSFULLY,2800185.110851,32504.000000,2832689.110851,6410.110851,38914.110851,1.197210,2930-3185 3569-3809 4051-4065,-1.000000,""
328_0_1,w0,profile_328,2690816.000000,802,86400.000000,1,COMPLETED_SUCCESSFULLY,2769229.020100,83170.000000,2852399.020100,78413.020100,161583.020100,1.942804,2406-2929 3186-3429 3441-3474,-1.000000,""
336_0_1,w0,profile_336,2865908.000000,1024,32400.000000,1,COMPLETED_SUCCESSFULLY,2865908.001800,24628.000000,2890536.001800,0.001800,24628.001800,1.000000,0-1023,-1.000000,""
337_0_1,w0,profile_337,2892107.000000,2048,86400.000000,1,COMPLETED_SUCCESSFULLY,2892107.001800,53525.000000,2945632.001800,0.001800,53525.001800,1.000000,0-2047,-1.000000,""
314_0_1,w0,profile_314,2665144.000000,241,223200.000000,1,COMPLETED_SUCCESSFULLY,2736767.019650,223189.000000,2959956.019650,71623.019650,294812.019650,1.320907,3953-4050 4066-4208,-1.000000,""
340_0_1,w0,profile_340,2923097.000000,384,32400.000000,1,COMPLETED_SUCCESSFULLY,2945635.004050,28392.000000,2974027.004050,22538.004050,50930.004050,1.793815,241-624,-1.000000,""
338_0_1,w0,profile_338,2892122.000000,2048,86632.000000,1,COMPLETED_SUCCESSFULLY,2892122.001800,86631.000000,2978753.001800,0.001800,86631.001800,1.000000,2048-3952 4051-4065 4209-4336,-1.000000,""
341_0_1,w0,profile_341,2923218.000000,1024,86400.000000,1,COMPLETED_SUCCESSFULLY,2945635.004650,47973.000000,2993608.004650,22417.004650,70390.004650,1.467284,625-1648,-1.000000,""
342_0_1,w0,profile_342,2923502.000000,1024,36000.000000,1,COMPLETED_SUCCESSFULLY,2974030.005700,29946.000000,3003976.005700,50528.005700,80474.005700,2.687304,241-624 1649-2047 3953-4050 4066-4208,-1.000000,""
344_0_1,w0,profile_344,3012256.000000,300,21600.000000,1,COMPLETED_SUCCESSFULLY,3012256.001800,20617.000000,3032873.001800,0.001800,20617.001800,1.000000,241-540,-1.000000,""
343_0_1,w0,profile_343,2923728.000000,1024,86400.000000,1,COMPLETED_SUCCESSFULLY,2978756.003450,58774.000000,3037530.003450,55028.003450,113802.003450,1.936264,2048-3071,-1.000000,""
345_0_1,w0,profile_345,3013234.000000,520,32400.000000,1,COMPLETED_SUCCESSFULLY,3013234.001800,32368.000000,3045602.001800,0.001800,32368.001800,1.000000,541-1060,-1.000000,""
348_0_1,w0,profile_348,3035556.000000,449,21649.000000,1,COMPLETED_SUCCESSFULLY,3035556.001800,21648.000000,3057204.001800,0.001800,21648.001800,1.000000,3279-3727,-1.000000,""
346_0_1,w0,profile_346,3025209.000000,598,32511.000000,1,COMPLETED_SUCCESSFULLY,3025209.001800,32510.000000,3057719.001800,0.001800,32510.001800,1.000000,1061-1658,-1.000000,""
349_0_1,w0,profile_349,3035899.000000,540,32422.000000,1,COMPLETED_SUCCESSFULLY,3035899.001800,32421.000000,3068320.001800,0.001800,32421.001800,1.000000,3728-4267,-1.000000,""
350_0_1,w0,profile_350,3055727.000000,256,21600.000000,1,COMPLETED_SUCCESSFULLY,3055727.001800,20184.000000,3075911.001800,0.001800,20184.001800,1.000000,541-796,-1.000000,""
347_0_1,w0,profile_347,3033486.000000,896,86496.000000,1,COMPLETED_SUCCESSFULLY,3033486.001800,86495.000000,3119981.001800,0.001800,86495.001800,1.000000,241-540 1659-2047 3072-3278,-1.000000,""
339_0_1,w0,profile_339,2922316.000000,241,223200.000000,1,COMPLETED_SUCCESSFULLY,2945635.003450,220920.000000,3166555.003450,23319.003450,244239.003450,1.105554,0-240,-1.000000,""
351_0_1,w0,profile_351,3179774.000000,256,21600.000000,1,COMPLETED_SUCCESSFULLY,3179774.001800,21098.000000,3200872.001800,0.001800,21098.001800,1.000000,0-255,-1.000000,""
353_0_1,w0,profile_353,3189111.000000,520,32475.000000,1,COMPLETED_SUCCESSFULLY,3189111.001800,32474.000000,3221585.001800,0.001800,32474.001800,1.000000,497-1016,-1.000000,""
352_0_1,w0,profile_352,3180580.000000,241,223200.000000,1,COMPLETED_SUCCESSFULLY,3180580.001800,47429.000000,3228009.001800,0.001800,47429.001800,1.000000,256-496,-1.000000,""
354_0_1,w0,profile_354,3194163.000000,1024,64800.000000,1,COMPLETED_SUCCESSFULLY,3194163.001800,44107.000000,3238270.001800,0.001800,44107.001800,1.000000,1017-2040,-1.000000,""
357_0_1,w0,profile_357,3235555.000000,256,21600.000000,1,COMPLETED_SUCCESSFULLY,3235555.001800,21577.000000,3257132.001800,0.001800,21577.001800,1.000000,512-767,-1.000000,""
361_0_1,w0,profile_361,3235574.000000,256,21600.000000,1,COMPLETED_SUCCESSFULLY,3235574.001800,21572.000000,3257146.001800,0.001800,21572.001800,1.000000,2560-2815,-1.000000,""
358_0_1,w0,profile_358,3235559.000000,256,21600.000000,1,COMPLETED_SUCCESSFULLY,3235559.001800,21597.000000,3257156.001800,0.001800,21597.001800,1.000000,768-1016 2041-2047,-1.000000,""
356_0_1,w0,profile_356,3235553.000000,256,21613.000000,1,COMPLETED_SUCCESSFULLY,3235553.001800,21612.000000,3257165.001800,0.001800,21612.001800,1.000000,256-511,-1.000000,""
360_0_1,w0,profile_360,3235572.000000,256,21606.000000,1,COMPLETED_SUCCESSFULLY,3235572.001800,21605.000000,3257177.001800,0.001800,21605.001800,1.000000,2304-2559,-1.000000,""
355_0_1,w0,profile_355,3235551.000000,256,21635.000000,1,COMPLETED_SUCCESSFULLY,3235551.001800,21634.000000,3257185.001800,0.001800,21634.001800,1.000000,0-255,-1.000000,""
359_0_1,w0,profile_359,3235570.000000,256,21628.000000,1,COMPLETED_SUCCESSFULLY,3235570.001800,21627.000000,3257197.001800,0.001800,21627.001800,1.000000,2048-2303,-1.000000,""
362_0_1,w0,profile_362,3235576.000000,640,43218.000000,1,COMPLETED_SUCCESSFULLY,3235576.001800,43217.000000,3278793.001800,0.001800,43217.001800,1.000000,2816-3455,-1.000000,""
363_0_1,w0,profile_363,3242060.000000,2048,86400.000000,1,COMPLETED_SUCCESSFULLY,3257135.003450,85213.000000,3342348.003450,15075.003450,100288.003450,1.176910,512-767 1017-2040 3456-4223,-1.000000,""
366_0_1,w0,profile_366,3272680.000000,1,72111.000000,1,COMPLETED_SUCCESSFULLY,3278796.004650,72110.000000,3350906.004650,6116.004650,78226.004650,1.084815,4337,-1.000000,""
364_0_1,w0,profile_364,3242082.000000,2048,86400.000000,1,COMPLETED_SUCCESSFULLY,3278796.003450,85164.000000,3363960.003450,36714.003450,121878.003450,1.431098,0-511 768-1016 2041-3327,-1.000000,""
373_0_1,w0,profile_373,3287621.000000,256,21630.000000,1,COMPLETED_SUCCESSFULLY,3342351.007500,21629.000000,3363980.007500,54730.007500,76359.007500,3.530399,3968-4223,-1.000000,""
370_0_1,w0,profile_370,3287598.000000,256,21642.000000,1,COMPLETED_SUCCESSFULLY,3342351.005700,21641.000000,3363992.005700,54753.005700,76394.005700,3.530059,1785-2040,-1.000000,""
371_0_1,w0,profile_371,3287602.000000,256,21742.000000,1,COMPLETED_SUCCESSFULLY,3342351.006300,21741.000000,3364092.006300,54749.006300,76490.006300,3.518238,3456-3711,-1.000000,""
372_0_1,w0,profile_372,3287605.000000,256,21891.000000,1,COMPLETED_SUCCESSFULLY,3342351.006900,21890.000000,3364241.006900,54746.006900,76636.006900,3.500960,3712-3967,-1.000000,""
367_0_1,w0,profile_367,3274077.000000,1024,64800.000000,1,COMPLETED_SUCCESSFULLY,3342351.005100,38369.000000,3380720.005100,68274.005100,106643.005100,2.779405,512-767 1017-1784,-1.000000,""
375_0_1,w0,profile_375,3333642.000000,256,21683.000000,1,COMPLETED_SUCCESSFULLY,3363995.007350,21682.000000,3385677.007350,30353.007350,52035.007350,2.399917,1785-2040,-1.000000,""
374_0_1,w0,profile_374,3287625.000000,256,21761.000000,1,COMPLETED_SUCCESSFULLY,3363983.009150,21760.000000,3385743.009150,76358.009150,98118.009150,4.509100,3968-4223,-1.000000,""
376_0_1,w0,profile_376,3336738.000000,270,21750.000000,1,COMPLETED_SUCCESSFULLY,3364095.007950,21749.000000,3385844.007950,27357.007950,49106.007950,2.257851,3456-3711 4337-4350,-1.000000,""
377_0_1,w0,profile_377,3336920.000000,270,21697.000000,1,COMPLETED_SUCCESSFULLY,3364244.008550,21696.000000,3385940.008550,27324.008550,49020.008550,2.259403,3712-3967 4351-4364,-1.000000,""
378_0_1,w0,profile_378,3349988.000000,270,21735.000000,1,COMPLETED_SUCCESSFULLY,3380723.006750,21734.000000,3402457.006750,30735.006750,52469.006750,2.414144,512-767 1017-1030,-1.000000,""
368_0_1,w0,profile_368,3275775.000000,2048,72000.000000,1,COMPLETED_SUCCESSFULLY,3363963.005100,53822.000000,3417785.005100,88188.005100,142010.005100,2.638512,0-511 768-1016 2041-3327,-1.000000,""
379_0_1,w0,profile_379,3376907.000000,520,32400.000000,1,COMPLETED_SUCCESSFULLY,3417788.006750,32375.000000,3450163.006750,40881.006750,73256.006750,2.262734,0-511 768-775,-1.000000,""
369_0_1,w0,profile_369,3279327.000000,2048,79200.000000,1,COMPLETED_SUCCESSFULLY,3402460.008400,58348.000000,3460808.008400,123133.008400,181481.008400,3.110321,512-767 1017-2040 3456-4223,-1.000000,""
365_0_1,w0,profile_365,3267399.000000,241,223200.000000,1,COMPLETED_SUCCESSFULLY,3278796.004050,221883.000000,3500679.004050,11397.004050,233280.004050,1.051365,3328-3455 4224-4336,-1.000000,""
382_0_1,w0,profile_382,3486696.000000,256,21600.000000,1,COMPLETED_SUCCESSFULLY,3486696.001800,21591.000000,3508287.001800,0.001800,21591.001800,1.000000,640-775 1017-1136,-1.000000,""
383_0_1,w0,profile_383,3486711.000000,256,21600.000000,1,COMPLETED_SUCCESSFULLY,3486711.001800,21592.000000,3508303.001800,0.001800,21592.001800,1.000000,1137-1392,-1.000000,""
381_0_1,w0,profile_381,3486530.000000,640,43228.000000,1,COMPLETED_SUCCESSFULLY,3486530.001800,43227.000000,3529757.001800,0.001800,43227.001800,1.000000,0-639,-1.000000,""
385_0_1,w0,profile_385,3527531.000000,270,21631.000000,1,COMPLETED_SUCCESSFULLY,3527531.001800,21630.000000,3549161.001800,0.001800,21630.001800,1.000000,1781-2050,-1.000000,""
386_0_1,w0,profile_386,3527564.000000,270,21635.000000,1,COMPLETED_SUCCESSFULLY,3527564.001800,21634.000000,3549198.001800,0.001800,21634.001800,1.000000,2051-2320,-1.000000,""
387_0_1,w0,profile_387,3527624.000000,270,21735.000000,1,COMPLETED_SUCCESSFULLY,3527624.001800,21734.000000,3549358.001800,0.001800,21734.001800,1.000000,2321-2590,-1.000000,""
388_0_1,w0,profile_388,3528074.000000,256,21746.000000,1,COMPLETED_SUCCESSFULLY,3528074.001800,21745.000000,3549819.001800,0.001800,21745.001800,1.000000,2591-2846,-1.000000,""
389_0_1,w0,profile_389,3528088.000000,384,32506.000000,1,COMPLETED_SUCCESSFULLY,3528088.001800,32505.000000,3560593.001800,0.001800,32505.001800,1.000000,2847-3230,-1.000000,""
393_0_1,w0,profile_393,3540670.000000,256,21648.000000,1,COMPLETED_SUCCESSFULLY,3549201.003450,21647.000000,3570848.003450,8531.003450,30178.003450,1.394096,2051-2306,-1.000000,""
394_0_1,w0,profile_394,3540688.000000,256,21703.000000,1,COMPLETED_SUCCESSFULLY,3549361.003450,21702.000000,3571063.003450,8673.003450,30375.003450,1.399641,2307-2562,-1.000000,""
390_0_1,w0,profile_390,3528092.000000,640,43396.000000,1,COMPLETED_SUCCESSFULLY,3528092.001800,43395.000000,3571487.001800,0.001800,43395.001800,1.000000,3231-3870,-1.000000,""
380_0_1,w0,profile_380,3434341.000000,241,223200.000000,1,COMPLETED_SUCCESSFULLY,3434341.001800,141458.000000,3575799.001800,0.001800,141458.001800,1.000000,776-1016,-1.000000,""
392_0_1,w0,profile_392,3528726.000000,512,32542.000000,1,COMPLETED_SUCCESSFULLY,3549164.003450,32541.000000,3581705.003450,20438.003450,52979.003450,1.628069,1781-2050 4039-4280,-1.000000,""
384_0_1,w0,profile_384,3524189.000000,900,86400.000000,1,COMPLETED_SUCCESSFULLY,3524189.001800,85664.000000,3609853.001800,0.001800,85664.001800,1.000000,640-775 1017-1780,-1.000000,""
391_0_1,w0,profile_391,3528097.000000,808,86517.000000,1,COMPLETED_SUCCESSFULLY,3529760.003450,86516.000000,3616276.003450,1663.003450,88179.003450,1.019222,0-639 3871-4038,-1.000000,""
