job_id,workload_name,profile,submission_time,requested_number_of_resources,requested_time,success,final_state,starting_time,execution_time,finish_time,waiting_time,turnaround_time,stretch,allocated_resources,consumed_energy,metadata
15_0_1,w0,profile_15,0.000000,1024,20117.000000,1,COMPLETED_SUCCESSFULLY,0.006000,20116.000000,20116.006000,0.006000,20116.006000,1.000000,1800-2823,-1.000000,""
10_0_1,w0,profile_10,0.000000,256,21755.000000,1,COMPLETED_SUCCESSFULLY,0.003000,21754.000000,21754.003000,0.003000,21754.003000,1.000000,264-519,-1.000000,""
11_0_1,w0,profile_11,0.000000,256,22731.000000,1,COMPLETED_SUCCESSFULLY,0.003600,22730.000000,22730.003600,0.003600,22730.003600,1.000000,520-775,-1.000000,""
13_0_1,w0,profile_13,0.000000,256,22970.000000,1,COMPLETED_SUCCESSFULLY,0.004800,22969.000000,22969.004800,0.004800,22969.004800,1.000000,1160-1415,-1.000000,""
0_0_1,w0,profile_0,0.000000,264,22983.000000,1,COMPLETED_SUCCESSFULLY,0.002400,22982.000000,22982.002400,0.002400,22982.002400,1.000000,0-263,-1.000000,""
14_0_1,w0,profile_14,0.000000,384,32565.000000,1,COMPLETED_SUCCESSFULLY,0.005400,32564.000000,32564.005400,0.005400,32564.005400,1.000000,1416-1799,-1.000000,""
12_0_1,w0,profile_12,0.000000,384,33573.000000,1,COMPLETED_SUCCESSFULLY,0.004200,33572.000000,33572.004200,0.004200,33572.004200,1.000000,776-1159,-1.000000,""
16_0_1,w0,profile_16,0.000000,1024,38725.000000,1,COMPLETED_SUCCESSFULLY,0.006600,38724.000000,38724.006600,0.006600,38724.006600,1.000000,2824-3847,-1.000000,""
21_0_1,w0,profile_21,0.000000,256,21748.000000,1,COMPLETED_SUCCESSFULLY,22985.004050,21747.000000,44732.004050,22985.004050,44732.004050,2.056928,0-255,-1.000000,""
1_0_1,w0,profile_1,0.000000,264,23012.000000,1,COMPLETED_SUCCESSFULLY,22733.005250,23011.000000,45744.005250,22733.005250,45744.005250,1.987919,520-775 4360-4367,-1.000000,""
20_0_1,w0,profile_20,0.000000,256,22868.000000,1,COMPLETED_SUCCESSFULLY,22972.006450,22867.000000,45839.006450,22972.006450,45839.006450,2.004592,1160-1415,-1.000000,""
18_0_1,w0,profile_18,0.000000,384,32518.000000,1,COMPLETED_SUCCESSFULLY,20119.008250,32517.000000,52636.008250,20119.008250,52636.008250,1.618723,3848-4231,-1.000000,""
19_0_1,w0,profile_19,0.000000,384,32307.000000,1,COMPLETED_SUCCESSFULLY,21757.004650,32306.000000,54063.004650,21757.004650,54063.004650,1.673466,264-519 4232-4359,-1.000000,""
22_0_1,w0,profile_22,0.000000,256,21800.000000,1,COMPLETED_SUCCESSFULLY,32567.007050,21799.000000,54366.007050,32567.007050,54366.007050,2.493968,256-263 1416-1663,-1.000000,""
23_0_1,w0,profile_23,0.000000,256,21715.000000,1,COMPLETED_SUCCESSFULLY,33575.005850,21714.000000,55289.005850,33575.005850,55289.005850,2.546238,776-1031,-1.000000,""
17_0_1,w0,profile_17,0.000000,1024,47331.000000,1,COMPLETED_SUCCESSFULLY,20119.007650,47330.000000,67449.007650,20119.007650,67449.007650,1.425079,1800-2823,-1.000000,""
26_0_1,w0,profile_26,0.000000,384,32648.000000,1,COMPLETED_SUCCESSFULLY,52639.009900,32647.000000,85286.009900,52639.009900,85286.009900,2.612369,3840-4223,-1.000000,""
27_0_1,w0,profile_27,0.000000,384,33518.000000,1,COMPLETED_SUCCESSFULLY,54066.006300,33517.000000,87583.006300,54066.006300,87583.006300,2.613092,264-519 4224-4351,-1.000000,""
24_0_1,w0,profile_24,0.000000,1024,50894.000000,1,COMPLETED_SUCCESSFULLY,38727.008250,50893.000000,89620.008250,38727.008250,89620.008250,1.760950,1032-1159 1664-1799 2824-3583,-1.000000,""
25_0_1,w0,profile_25,0.000000,1024,52241.000000,1,COMPLETED_SUCCESSFULLY,45842.008100,52240.000000,98082.008100,45842.008100,98082.008100,1.877527,0-255 520-775 1160-1415 3584-3839,-1.000000,""
29_0_1,w0,profile_29,0.000000,512,32440.000000,1,COMPLETED_SUCCESSFULLY,67452.009900,32439.000000,99891.009900,67452.009900,99891.009900,3.079349,2312-2823,-1.000000,""
2_0_1,w0,profile_2,0.000000,264,23179.000000,1,COMPLETED_SUCCESSFULLY,85289.011550,23178.000000,108467.011550,85289.011550,108467.011550,4.679740,3840-4103,-1.000000,""
3_0_1,w0,profile_3,0.000000,264,22976.000000,1,COMPLETED_SUCCESSFULLY,87586.007950,22975.000000,110561.007950,87586.007950,110561.007950,4.812231,264-519 4104-4111,-1.000000,""
28_0_1,w0,profile_28,0.000000,1024,51434.000000,1,COMPLETED_SUCCESSFULLY,67452.009300,51433.000000,118885.009300,67452.009300,118885.009300,2.311454,256-263 776-1031 1416-1663 1800-2311,-1.000000,""
4_0_1,w0,profile_4,0.000000,1024,39780.000000,1,COMPLETED_SUCCESSFULLY,89623.009900,39779.000000,129402.009900,89623.009900,129402.009900,3.253023,1032-1159 1664-1799 2824-3583,-1.000000,""
5_0_1,w0,profile_5,0.000000,1024,39692.000000,1,COMPLETED_SUCCESSFULLY,98085.009750,39691.000000,137776.009750,98085.009750,137776.009750,3.471215,0-255 520-775 1160-1415 3584-3839,-1.000000,""
8_0_1,w0,profile_8,0.000000,256,20268.000000,1,COMPLETED_SUCCESSFULLY,118888.011550,20267.000000,139155.011550,118888.011550,139155.011550,6.866088,2056-2311,-1.000000,""
30_0_1,w0,profile_30,225.000000,512,21751.000000,1,COMPLETED_SUCCESSFULLY,129405.012150,21750.000000,151155.012150,129180.012150,150930.012150,6.939311,1792-1799 2824-3327,-1.000000,""
9_0_1,w0,profile_9,0.000000,256,23162.000000,1,COMPLETED_SUCCESSFULLY,129405.011550,23161.000000,152566.011550,129405.011550,152566.011550,6.587194,1032-1159 1664-1791,-1.000000,""
32_0_1,w0,profile_32,13111.000000,256,21693.000000,1,COMPLETED_SUCCESSFULLY,137779.012000,21692.000000,159471.012000,124668.012000,146360.012000,6.747188,3584-3839,-1.000000,""
6_0_1,w0,profile_6,0.000000,1024,55005.000000,1,COMPLETED_SUCCESSFULLY,108470.013200,55004.000000,163474.013200,108470.013200,163474.013200,2.972039,2312-2823 3840-4103 4112-4359,-1.000000,""
7_0_1,w0,profile_7,0.000000,1024,55570.000000,1,COMPLETED_SUCCESSFULLY,118888.010950,55569.000000,174457.010950,118888.010950,174457.010950,3.139466,256-519 776-1031 1416-1663 1800-2055,-1.000000,""
33_0_1,w0,profile_33,52484.000000,384,32359.000000,1,COMPLETED_SUCCESSFULLY,151158.013800,32358.000000,183516.013800,98674.013800,131032.013800,4.049447,1792-1799 2056-2311 2824-2943,-1.000000,""
34_0_1,w0,profile_34,63826.000000,1024,20606.000000,1,COMPLETED_SUCCESSFULLY,163477.014850,20605.000000,184082.014850,99651.014850,120256.014850,5.836254,1032-1159 1664-1791 2312-2823 2944-3199,-1.000000,""
31_0_1,w0,profile_31,9789.000000,1024,54621.000000,1,COMPLETED_SUCCESSFULLY,137779.011400,54620.000000,192399.011400,127990.011400,182610.011400,3.343281,0-255 520-775 1160-1415 3328-3583,-1.000000,""
42_0_1,w0,profile_42,110116.000000,264,22965.000000,1,COMPLETED_SUCCESSFULLY,192402.013650,22964.000000,215366.013650,82286.013650,105250.013650,4.583261,4096-4359,-1.000000,""
37_0_1,w0,profile_37,74972.000000,1024,37378.000000,1,COMPLETED_SUCCESSFULLY,184085.016500,37377.000000,221462.016500,109113.016500,146490.016500,3.919256,1032-1159 1664-1791 2312-2823 2944-3199,-1.000000,""
35_0_1,w0,profile_35,74799.000000,1024,48290.000000,1,COMPLETED_SUCCESSFULLY,174460.012600,48289.000000,222749.012600,99661.012600,147950.012600,3.063845,256-519 776-1031 1416-1663 1800-2055,-1.000000,""
36_0_1,w0,profile_36,74801.000000,1024,48644.000000,1,COMPLETED_SUCCESSFULLY,183519.015450,48643.000000,232162.015450,108718.015450,157361.015450,3.235019,1792-1799 2056-2311 2824-2943 3200-3327 3584-4095,-1.000000,""
38_0_1,w0,profile_38,84713.000000,1024,46132.000000,1,COMPLETED_SUCCESSFULLY,192402.013050,46131.000000,238533.013050,107689.013050,153820.013050,3.334417,0-255 520-775 1160-1415 3328-3583,-1.000000,""
40_0_1,w0,profile_40,86101.000000,640,22923.000000,1,COMPLETED_SUCCESSFULLY,222752.014250,22922.000000,245674.014250,136651.014250,159573.014250,6.961566,256-519 776-1031 1416-1535,-1.000000,""
43_0_1,w0,profile_43,110124.000000,264,22971.000000,1,COMPLETED_SUCCESSFULLY,222752.015450,22970.000000,245722.015450,112628.015450,135598.015450,5.903266,4096-4359,-1.000000,""
44_0_1,w0,profile_44,139399.000000,256,21776.000000,1,COMPLETED_SUCCESSFULLY,232165.017100,21775.000000,253940.017100,92766.017100,114541.017100,5.260207,1792-1799 2056-2303,-1.000000,""
41_0_1,w0,profile_41,92756.000000,384,32519.000000,1,COMPLETED_SUCCESSFULLY,222752.014850,32518.000000,255270.014850,129996.014850,162514.014850,4.997663,1536-1663 1800-2055,-1.000000,""
45_0_1,w0,profile_45,139443.000000,512,32491.000000,1,COMPLETED_SUCCESSFULLY,232165.017700,32490.000000,264655.017700,92722.017700,125212.017700,3.853863,2304-2311 2824-2943 3200-3327 3584-3839,-1.000000,""
48_0_1,w0,profile_48,166647.000000,256,21938.000000,1,COMPLETED_SUCCESSFULLY,245677.016500,21937.000000,267614.016500,79030.016500,100967.016500,4.602590,896-1031 1416-1535,-1.000000,""
49_0_1,w0,profile_49,170680.000000,512,23863.000000,1,COMPLETED_SUCCESSFULLY,245725.017100,23862.000000,269587.017100,75045.017100,98907.017100,4.144959,3840-4351,-1.000000,""
39_0_1,w0,profile_39,84744.000000,1024,54676.000000,1,COMPLETED_SUCCESSFULLY,221465.018150,54675.000000,276140.018150,136721.018150,191396.018150,3.500613,1032-1159 1664-1791 2312-2823 2944-3199,-1.000000,""
51_0_1,w0,profile_51,171123.000000,320,21760.000000,1,COMPLETED_SUCCESSFULLY,255273.017100,21759.000000,277032.017100,84150.017100,105909.017100,4.867366,1984-2303,-1.000000,""
50_0_1,w0,profile_50,170991.000000,320,21777.000000,1,COMPLETED_SUCCESSFULLY,255273.016500,21776.000000,277049.016500,84282.016500,106058.016500,4.870409,1536-1663 1792-1983,-1.000000,""
47_0_1,w0,profile_47,165916.000000,384,33491.000000,1,COMPLETED_SUCCESSFULLY,245677.015900,33490.000000,279167.015900,79761.015900,113251.015900,3.381637,256-519 776-895,-1.000000,""
46_0_1,w0,profile_46,144745.000000,1024,50004.000000,1,COMPLETED_SUCCESSFULLY,238536.014700,50003.000000,288539.014700,93791.014700,143794.014700,2.875708,0-255 520-775 1160-1415 3328-3583,-1.000000,""
52_0_1,w0,profile_52,177421.000000,384,33727.000000,1,COMPLETED_SUCCESSFULLY,264658.019350,33726.000000,298384.019350,87237.019350,120963.019350,3.586640,2304-2311 2824-2943 3200-3327 3584-3711,-1.000000,""
55_0_1,w0,profile_55,231473.000000,1024,20673.000000,1,COMPLETED_SUCCESSFULLY,288542.016350,20672.000000,309214.016350,57069.016350,77741.016350,3.760692,0-895 1160-1287,-1.000000,""
53_0_1,w0,profile_53,197253.000000,1024,37383.000000,1,COMPLETED_SUCCESSFULLY,276143.019800,37382.000000,313525.019800,78890.019800,116272.019800,3.110375,896-1159 1416-1535 1664-1791 2312-2823,-1.000000,""
57_0_1,w0,profile_57,256765.000000,320,21705.000000,1,COMPLETED_SUCCESSFULLY,309217.018000,21704.000000,330921.018000,52452.018000,74156.018000,3.416698,0-319,-1.000000,""
58_0_1,w0,profile_58,259309.000000,256,21718.000000,1,COMPLETED_SUCCESSFULLY,309217.018600,21717.000000,330934.018600,49908.018600,71625.018600,3.298108,320-575,-1.000000,""
56_0_1,w0,profile_56,231497.000000,1024,49951.000000,1,COMPLETED_SUCCESSFULLY,298387.021000,49950.000000,348337.021000,66890.021000,116840.021000,2.339140,1288-1415 1536-1663 1792-1983 2304-2311 2824-2943 3200-3647,-1.000000,""
54_0_1,w0,profile_54,201280.000000,1016,86535.000000,1,COMPLETED_SUCCESSFULLY,277035.018750,86534.000000,363569.018750,75755.018750,162289.018750,1.875436,1984-2303 2944-3199 3712-4151,-1.000000,""
59_0_1,w0,profile_59,262780.000000,802,54283.000000,1,COMPLETED_SUCCESSFULLY,313528.021450,54282.000000,367810.021450,50748.021450,105030.021450,1.934896,576-1287 1416-1505,-1.000000,""
60_0_1,w0,profile_60,272879.000000,1024,44435.000000,1,COMPLETED_SUCCESSFULLY,330924.019650,44434.000000,375358.019650,58045.019650,102479.019650,2.306320,0-319 1506-1535 1664-1791 2312-2823 3648-3681,-1.000000,""
62_0_1,w0,profile_62,316112.000000,384,32311.000000,1,COMPLETED_SUCCESSFULLY,348340.023250,32310.000000,380650.023250,32228.023250,64538.023250,1.997463,3392-3647 3682-3711 4152-4249,-1.000000,""
63_0_1,w0,profile_63,366450.000000,256,21093.000000,1,COMPLETED_SUCCESSFULLY,366450.001800,21092.000000,387542.001800,0.001800,21092.001800,1.000000,1984-2239,-1.000000,""
61_0_1,w0,profile_61,272903.000000,1024,45298.000000,1,COMPLETED_SUCCESSFULLY,348340.022650,45297.000000,393637.022650,75437.022650,120734.022650,2.665387,320-575 1288-1415 1536-1663 1792-1983 2304-2311 2824-2943 3200-3391,-1.000000,""
64_0_1,w0,profile_64,370422.000000,384,32570.000000,1,COMPLETED_SUCCESSFULLY,370422.001800,32569.000000,402991.001800,0.001800,32569.001800,1.000000,576-959,-1.000000,""
66_0_1,w0,profile_66,486378.000000,256,21351.000000,1,COMPLETED_SUCCESSFULLY,486378.001800,21350.000000,507728.001800,0.001800,21350.001800,1.000000,384-639,-1.000000,""
65_0_1,w0,profile_65,479769.000000,384,33594.000000,1,COMPLETED_SUCCESSFULLY,479769.001800,33593.000000,513362.001800,0.001800,33593.001800,1.000000,0-383,-1.000000,""
67_0_1,w0,profile_67,512499.000000,256,21608.000000,1,COMPLETED_SUCCESSFULLY,512499.001800,21607.000000,534106.001800,0.001800,21607.001800,1.000000,384-639,-1.000000,""
68_0_1,w0,profile_68,526321.000000,640,32514.000000,1,COMPLETED_SUCCESSFULLY,526321.001800,32513.000000,558834.001800,0.001800,32513.001800,1.000000,0-383 640-895,-1.000000,""
69_0_1,w0,profile_69,556289.000000,341,21733.000000,1,COMPLETED_SUCCESSFULLY,556289.001800,21732.000000,578021.001800,0.001800,21732.001800,1.000000,384-639 896-980,-1.000000,""
74_0_1,w0,profile_74,570293.000000,256,20693.000000,1,COMPLETED_SUCCESSFULLY,570293.001800,20692.000000,590985.001800,0.001800,20692.001800,1.000000,3669-3924,-1.000000,""
73_0_1,w0,profile_73,568106.000000,256,22950.000000,1,COMPLETED_SUCCESSFULLY,568106.001800,22949.000000,591055.001800,0.001800,22949.001800,1.000000,3413-3668,-1.000000,""
70_0_1,w0,profile_70,564508.000000,1024,42766.000000,1,COMPLETED_SUCCESSFULLY,564508.001800,42765.000000,607273.001800,0.001800,42765.001800,1.000000,0-383 640-895 981-1364,-1.000000,""
71_0_1,w0,profile_71,564587.000000,1024,44626.000000,1,COMPLETED_SUCCESSFULLY,564587.001800,44625.000000,609212.001800,0.001800,44625.001800,1.000000,1365-2388,-1.000000,""
72_0_1,w0,profile_72,564627.000000,1024,44920.000000,1,COMPLETED_SUCCESSFULLY,564627.001800,44919.000000,609546.001800,0.001800,44919.001800,1.000000,2389-3412,-1.000000,""
75_0_1,w0,profile_75,570772.000000,680,43254.000000,1,COMPLETED_SUCCESSFULLY,578024.003450,43253.000000,621277.003450,7252.003450,50505.003450,1.167665,384-639 896-980 3925-4263,-1.000000,""
76_0_1,w0,profile_76,579704.000000,1024,20992.000000,1,COMPLETED_SUCCESSFULLY,607276.003450,20991.000000,628267.003450,27572.003450,48563.003450,2.313515,0-383 640-895 981-1364,-1.000000,""
78_0_1,w0,profile_78,582959.000000,256,21593.000000,1,COMPLETED_SUCCESSFULLY,609215.003450,21592.000000,630807.003450,26256.003450,47848.003450,2.216006,1365-1620,-1.000000,""
80_0_1,w0,profile_80,606205.000000,256,21717.000000,1,COMPLETED_SUCCESSFULLY,609215.004650,21716.000000,630931.004650,3010.004650,24726.004650,1.138608,1962-2217,-1.000000,""
79_0_1,w0,profile_79,588068.000000,341,21751.000000,1,COMPLETED_SUCCESSFULLY,609215.004050,21750.000000,630965.004050,21147.004050,42897.004050,1.972276,1621-1961,-1.000000,""
77_0_1,w0,profile_77,582940.000000,512,32389.000000,1,COMPLETED_SUCCESSFULLY,607276.004050,32388.000000,639664.004050,24336.004050,56724.004050,1.751390,3413-3924,-1.000000,""
81_0_1,w0,profile_81,620879.000000,256,22934.000000,1,COMPLETED_SUCCESSFULLY,620879.001800,22933.000000,643812.001800,0.001800,22933.001800,1.000000,2218-2473,-1.000000,""
82_0_1,w0,profile_82,646673.000000,256,22911.000000,1,COMPLETED_SUCCESSFULLY,646673.001800,22910.000000,669583.001800,0.001800,22910.001800,1.000000,0-255,-1.000000,""
83_0_1,w0,profile_83,647627.000000,256,22869.000000,1,COMPLETED_SUCCESSFULLY,647627.001800,22868.000000,670495.001800,0.001800,22868.001800,1.000000,256-511,-1.000000,""
84_0_1,w0,profile_84,652451.000000,384,32541.000000,1,COMPLETED_SUCCESSFULLY,652451.001800,32540.000000,684991.001800,0.001800,32540.001800,1.000000,512-895,-1.000000,""
89_0_1,w0,profile_89,695287.000000,256,21764.000000,1,COMPLETED_SUCCESSFULLY,695287.001800,21763.000000,717050.001800,0.001800,21763.001800,1.000000,768-895 2944-3071,-1.000000,""
86_0_1,w0,profile_86,667547.000000,1024,51155.000000,1,COMPLETED_SUCCESSFULLY,667547.001800,51154.000000,718701.001800,0.001800,51154.001800,1.000000,1920-2943,-1.000000,""
85_0_1,w0,profile_85,667543.000000,1024,51793.000000,1,COMPLETED_SUCCESSFULLY,667543.001800,51792.000000,719335.001800,0.001800,51792.001800,1.000000,896-1919,-1.000000,""
87_0_1,w0,profile_87,689622.000000,384,32292.000000,1,COMPLETED_SUCCESSFULLY,689622.001800,32291.000000,721913.001800,0.001800,32291.001800,1.000000,0-383,-1.000000,""
88_0_1,w0,profile_88,692809.000000,384,32535.000000,1,COMPLETED_SUCCESSFULLY,692809.001800,32534.000000,725343.001800,0.001800,32534.001800,1.000000,384-767,-1.000000,""
93_0_1,w0,profile_93,737033.000000,256,22926.000000,1,COMPLETED_SUCCESSFULLY,737033.001800,22925.000000,759958.001800,0.001800,22925.001800,1.000000,1024-1279,-1.000000,""
94_0_1,w0,profile_94,737081.000000,256,23092.000000,1,COMPLETED_SUCCESSFULLY,737081.001800,23091.000000,760172.001800,0.001800,23091.001800,1.000000,1280-1535,-1.000000,""
91_0_1,w0,profile_91,726468.000000,524,33720.000000,1,COMPLETED_SUCCESSFULLY,726468.001800,33719.000000,760187.001800,0.001800,33719.001800,1.000000,0-523,-1.000000,""
92_0_1,w0,profile_92,730319.000000,500,32521.000000,1,COMPLETED_SUCCESSFULLY,730319.001800,32520.000000,762839.001800,0.001800,32520.001800,1.000000,524-1023,-1.000000,""
97_0_1,w0,profile_97,748105.000000,256,22893.000000,1,COMPLETED_SUCCESSFULLY,748105.001800,22892.000000,770997.001800,0.001800,22892.001800,1.000000,2176-2431,-1.000000,""
96_0_1,w0,profile_96,748059.000000,256,23008.000000,1,COMPLETED_SUCCESSFULLY,748059.001800,23007.000000,771066.001800,0.001800,23007.001800,1.000000,1920-2175,-1.000000,""
95_0_1,w0,profile_95,740930.000000,384,30726.000000,1,COMPLETED_SUCCESSFULLY,740930.001800,30725.000000,771655.001800,0.001800,30725.001800,1.000000,1536-1919,-1.000000,""
98_0_1,w0,profile_98,748644.000000,256,23056.000000,1,COMPLETED_SUCCESSFULLY,748644.001800,23055.000000,771699.001800,0.001800,23055.001800,1.000000,2432-2687,-1.000000,""
99_0_1,w0,profile_99,748776.000000,256,23076.000000,1,COMPLETED_SUCCESSFULLY,748776.001800,23075.000000,771851.001800,0.001800,23075.001800,1.000000,2688-2943,-1.000000,""
90_0_1,w0,profile_90,715307.000000,1024,61187.000000,1,COMPLETED_SUCCESSFULLY,715307.001800,61186.000000,776493.001800,0.001800,61186.001800,1.000000,3072-4095,-1.000000,""
100_0_1,w0,profile_100,753159.000000,1024,20482.000000,1,COMPLETED_SUCCESSFULLY,760190.003450,20481.000000,780671.003450,7031.003450,27512.003450,1.343294,0-523 1024-1523,-1.000000,""
101_0_1,w0,profile_101,779922.000000,256,21704.000000,1,COMPLETED_SUCCESSFULLY,779922.001800,21703.000000,801625.001800,0.001800,21703.001800,1.000000,524-779,-1.000000,""
103_0_1,w0,profile_103,788899.000000,256,22930.000000,1,COMPLETED_SUCCESSFULLY,788899.001800,22929.000000,811828.001800,0.001800,22929.001800,1.000000,896-1151,-1.000000,""
104_0_1,w0,profile_104,791184.000000,256,21691.000000,1,COMPLETED_SUCCESSFULLY,791184.001800,21690.000000,812874.001800,0.001800,21690.001800,1.000000,1152-1407,-1.000000,""
105_0_1,w0,profile_105,791465.000000,256,21699.000000,1,COMPLETED_SUCCESSFULLY,791465.001800,21698.000000,813163.001800,0.001800,21698.001800,1.000000,1408-1663,-1.000000,""
106_0_1,w0,profile_106,793493.000000,256,21733.000000,1,COMPLETED_SUCCESSFULLY,793493.001800,21732.000000,815225.001800,0.001800,21732.001800,1.000000,1664-1919,-1.000000,""
107_0_1,w0,profile_107,802769.000000,256,21721.000000,1,COMPLETED_SUCCESSFULLY,802769.001800,21720.000000,824489.001800,0.001800,21720.001800,1.000000,524-779,-1.000000,""
102_0_1,w0,profile_102,784785.000000,640,43268.000000,1,COMPLETED_SUCCESSFULLY,784785.001800,43267.000000,828052.001800,0.001800,43267.001800,1.000000,0-523 780-895,-1.000000,""
108_0_1,w0,profile_108,863664.000000,384,30339.000000,1,COMPLETED_SUCCESSFULLY,863664.001800,30338.000000,894002.001800,0.001800,30338.001800,1.000000,0-383,-1.000000,""
110_0_1,w0,profile_110,877361.000000,802,25390.000000,1,COMPLETED_SUCCESSFULLY,877361.001800,25389.000000,902750.001800,0.001800,25389.001800,1.000000,1199-2000,-1.000000,""
109_0_1,w0,profile_109,871837.000000,815,35531.000000,1,COMPLETED_SUCCESSFULLY,871837.001800,35530.000000,907367.001800,0.001800,35530.001800,1.000000,384-1198,-1.000000,""
111_0_1,w0,profile_111,887203.000000,256,23059.000000,1,COMPLETED_SUCCESSFULLY,887203.001800,23058.000000,910261.001800,0.001800,23058.001800,1.000000,2001-2256,-1.000000,""
113_0_1,w0,profile_113,896475.000000,264,22983.000000,1,COMPLETED_SUCCESSFULLY,896475.001800,22982.000000,919457.001800,0.001800,22982.001800,1.000000,264-383 2257-2400,-1.000000,""
112_0_1,w0,profile_112,896470.000000,264,23002.000000,1,COMPLETED_SUCCESSFULLY,896470.001800,23001.000000,919471.001800,0.001800,23001.001800,1.000000,0-263,-1.000000,""
114_0_1,w0,profile_114,922137.000000,1024,47795.000000,1,COMPLETED_SUCCESSFULLY,922137.001800,47794.000000,969931.001800,0.001800,47794.001800,1.000000,0-1023,-1.000000,""
116_0_1,w0,profile_116,922170.000000,1024,48673.000000,1,COMPLETED_SUCCESSFULLY,922170.001800,48672.000000,970842.001800,0.001800,48672.001800,1.000000,2048-3071,-1.000000,""
115_0_1,w0,profile_115,922153.000000,1024,49796.000000,1,COMPLETED_SUCCESSFULLY,922153.001800,49795.000000,971948.001800,0.001800,49795.001800,1.000000,1024-2047,-1.000000,""
118_0_1,w0,profile_118,989557.000000,256,21507.000000,1,COMPLETED_SUCCESSFULLY,989557.001800,21506.000000,1011063.001800,0.001800,21506.001800,1.000000,1024-1279,-1.000000,""
117_0_1,w0,profile_117,970992.000000,1024,43083.000000,1,COMPLETED_SUCCESSFULLY,970992.001800,43082.000000,1014074.001800,0.001800,43082.001800,1.000000,0-1023,-1.000000,""
119_0_1,w0,profile_119,1008422.000000,640,43279.000000,1,COMPLETED_SUCCESSFULLY,1008422.001800,43278.000000,1051700.001800,0.001800,43278.001800,1.000000,1280-1919,-1.000000,""
121_0_1,w0,profile_121,1041871.000000,384,32550.000000,1,COMPLETED_SUCCESSFULLY,1041871.001800,32549.000000,1074420.001800,0.001800,32549.001800,1.000000,0-383,-1.000000,""
122_0_1,w0,profile_122,1059007.000000,256,22985.000000,1,COMPLETED_SUCCESSFULLY,1059007.001800,22984.000000,1081991.001800,0.001800,22984.001800,1.000000,384-639,-1.000000,""
123_0_1,w0,profile_123,1064952.000000,264,22961.000000,1,COMPLETED_SUCCESSFULLY,1064952.001800,22960.000000,1087912.001800,0.001800,22960.001800,1.000000,640-903,-1.000000,""
125_0_1,w0,profile_125,1072134.000000,256,21736.000000,1,COMPLETED_SUCCESSFULLY,1072134.001800,21735.000000,1093869.001800,0.001800,21735.001800,1.000000,1160-1415,-1.000000,""
126_0_1,w0,profile_126,1072237.000000,256,21714.000000,1,COMPLETED_SUCCESSFULLY,1072237.001800,21713.000000,1093950.001800,0.001800,21713.001800,1.000000,1416-1671,-1.000000,""
124_0_1,w0,profile_124,1071639.000000,256,22993.000000,1,COMPLETED_SUCCESSFULLY,1071639.001800,22992.000000,1094631.001800,0.001800,22992.001800,1.000000,904-1159,-1.000000,""
120_0_1,w0,profile_120,1009602.000000,1024,86477.000000,1,COMPLETED_SUCCESSFULLY,1009602.001800,86476.000000,1096078.001800,0.001800,86476.001800,1.000000,1920-2943,-1.000000,""
127_0_1,w0,profile_127,1087084.000000,256,21701.000000,1,COMPLETED_SUCCESSFULLY,1087084.001800,21700.000000,1108784.001800,0.001800,21700.001800,1.000000,0-255,-1.000000,""
128_0_1,w0,profile_128,1091991.000000,256,21749.000000,1,COMPLETED_SUCCESSFULLY,1091991.001800,21748.000000,1113739.001800,0.001800,21748.001800,1.000000,256-511,-1.000000,""
131_0_1,w0,profile_131,1095925.000000,256,21718.000000,1,COMPLETED_SUCCESSFULLY,1095925.001800,21717.000000,1117642.001800,0.001800,21717.001800,1.000000,1664-1919,-1.000000,""
129_0_1,w0,profile_129,1092863.000000,384,32506.000000,1,COMPLETED_SUCCESSFULLY,1092863.001800,32505.000000,1125368.001800,0.001800,32505.001800,1.000000,512-895,-1.000000,""
132_0_1,w0,profile_132,1096860.000000,1024,36270.000000,1,COMPLETED_SUCCESSFULLY,1096860.001800,36269.000000,1133129.001800,0.001800,36269.001800,1.000000,1920-2943,-1.000000,""
130_0_1,w0,profile_130,1094940.000000,768,43217.000000,1,COMPLETED_SUCCESSFULLY,1094940.001800,43216.000000,1138156.001800,0.001800,43216.001800,1.000000,896-1663,-1.000000,""
133_0_1,w0,profile_133,1119027.000000,384,32538.000000,1,COMPLETED_SUCCESSFULLY,1119027.001800,32537.000000,1151564.001800,0.001800,32537.001800,1.000000,0-383,-1.000000,""
134_0_1,w0,profile_134,1160128.000000,1024,54836.000000,1,COMPLETED_SUCCESSFULLY,1160128.001800,54835.000000,1214963.001800,0.001800,54835.001800,1.000000,0-1023,-1.000000,""
135_0_1,w0,profile_135,1160149.000000,1024,54871.000000,1,COMPLETED_SUCCESSFULLY,1160149.001800,54870.000000,1215019.001800,0.001800,54870.001800,1.000000,1024-2047,-1.000000,""
137_0_1,w0,profile_137,1235357.000000,264,23110.000000,1,COMPLETED_SUCCESSFULLY,1235357.001800,23109.000000,1258466.001800,0.001800,23109.001800,1.000000,1016-1279,-1.000000,""
138_0_1,w0,profile_138,1258195.000000,256,21729.000000,1,COMPLETED_SUCCESSFULLY,1258195.001800,21728.000000,1279923.001800,0.001800,21728.001800,1.000000,1280-1535,-1.000000,""
139_0_1,w0,profile_139,1279840.000000,256,21637.000000,1,COMPLETED_SUCCESSFULLY,1279840.001800,21636.000000,1301476.001800,0.001800,21636.001800,1.000000,1016-1271,-1.000000,""
136_0_1,w0,profile_136,1218043.000000,1016,86540.000000,1,COMPLETED_SUCCESSFULLY,1218043.001800,86539.000000,1304582.001800,0.001800,86539.001800,1.000000,0-1015,-1.000000,""
140_0_1,w0,profile_140,1296044.000000,256,21340.000000,1,COMPLETED_SUCCESSFULLY,1296044.001800,21339.000000,1317383.001800,0.001800,21339.001800,1.000000,1272-1527,-1.000000,""
143_0_1,w0,profile_143,1310900.000000,512,24073.000000,1,COMPLETED_SUCCESSFULLY,1310900.001800,24072.000000,1334972.001800,0.001800,24072.001800,1.000000,1000-1015 1912-2407,-1.000000,""
144_0_1,w0,profile_144,1312078.000000,264,23025.000000,1,COMPLETED_SUCCESSFULLY,1312078.001800,23024.000000,1335102.001800,0.001800,23024.001800,1.000000,2408-2671,-1.000000,""
146_0_1,w0,profile_146,1319313.000000,256,21724.000000,1,COMPLETED_SUCCESSFULLY,1319313.001800,21723.000000,1341036.001800,0.001800,21723.001800,1.000000,2672-2927,-1.000000,""
145_0_1,w0,profile_145,1319307.000000,256,21734.000000,1,COMPLETED_SUCCESSFULLY,1319307.001800,21733.000000,1341040.001800,0.001800,21733.001800,1.000000,1272-1527,-1.000000,""
147_0_1,w0,profile_147,1319766.000000,256,21782.000000,1,COMPLETED_SUCCESSFULLY,1319766.001800,21781.000000,1341547.001800,0.001800,21781.001800,1.000000,2928-3183,-1.000000,""
148_0_1,w0,profile_148,1320300.000000,256,21790.000000,1,COMPLETED_SUCCESSFULLY,1320300.001800,21789.000000,1342089.001800,0.001800,21789.001800,1.000000,3184-3439,-1.000000,""
141_0_1,w0,profile_141,1303455.000000,640,43354.000000,1,COMPLETED_SUCCESSFULLY,1303455.001800,43353.000000,1346808.001800,0.001800,43353.001800,1.000000,1016-1271 1528-1911,-1.000000,""
150_0_1,w0,profile_150,1320870.000000,264,23102.000000,1,COMPLETED_SUCCESSFULLY,1334975.004050,23101.000000,1358076.004050,14105.004050,37206.004050,1.610580,3952-4215,-1.000000,""
152_0_1,w0,profile_152,1356990.000000,1024,22026.000000,1,COMPLETED_SUCCESSFULLY,1356990.001800,22025.000000,1379015.001800,0.001800,22025.001800,1.000000,2536-3439 4216-4335,-1.000000,""
153_0_1,w0,profile_153,1358867.000000,256,21701.000000,1,COMPLETED_SUCCESSFULLY,1358867.001800,21700.000000,1380567.001800,0.001800,21700.001800,1.000000,3952-4207,-1.000000,""
142_0_1,w0,profile_142,1304922.000000,1000,86508.000000,1,COMPLETED_SUCCESSFULLY,1304922.001800,86507.000000,1391429.001800,0.001800,86507.001800,1.000000,0-999,-1.000000,""
151_0_1,w0,profile_151,1356963.000000,1024,40603.000000,1,COMPLETED_SUCCESSFULLY,1356963.001800,40602.000000,1397565.001800,0.001800,40602.001800,1.000000,1016-1911 2408-2535,-1.000000,""
149_0_1,w0,profile_149,1320752.000000,1024,62834.000000,1,COMPLETED_SUCCESSFULLY,1334975.003450,62833.000000,1397808.003450,14223.003450,77056.003450,1.226362,1000-1015 1912-2407 3440-3951,-1.000000,""
154_0_1,w0,profile_154,1363535.000000,384,25339.000000,1,COMPLETED_SUCCESSFULLY,1379018.003450,25338.000000,1404356.003450,15483.003450,40821.003450,1.611059,2536-2919,-1.000000,""
158_0_1,w0,profile_158,1392439.000000,256,21644.000000,1,COMPLETED_SUCCESSFULLY,1397568.004650,21643.000000,1419211.004650,5129.004650,26772.004650,1.236982,3328-3439 3952-4095,-1.000000,""
159_0_1,w0,profile_159,1393057.000000,256,23207.000000,1,COMPLETED_SUCCESSFULLY,1397568.005250,23206.000000,1420774.005250,4511.005250,27717.005250,1.194390,4096-4351,-1.000000,""
157_0_1,w0,profile_157,1390327.000000,384,32289.000000,1,COMPLETED_SUCCESSFULLY,1397568.004050,32288.000000,1429856.004050,7241.004050,39529.004050,1.224263,2944-3327,-1.000000,""
155_0_1,w0,profile_155,1373120.000000,1024,42587.000000,1,COMPLETED_SUCCESSFULLY,1391432.003450,42586.000000,1434018.003450,18312.003450,60898.003450,1.430001,0-999 2920-2943,-1.000000,""
156_0_1,w0,profile_156,1373155.000000,1024,43041.000000,1,COMPLETED_SUCCESSFULLY,1397568.003450,43040.000000,1440608.003450,24413.003450,67453.003450,1.567217,1016-1911 2408-2535,-1.000000,""
161_0_1,w0,profile_161,1413799.000000,256,23121.000000,1,COMPLETED_SUCCESSFULLY,1419214.006300,23120.000000,1442334.006300,5415.006300,28535.006300,1.234213,3328-3439 3768-3911,-1.000000,""
163_0_1,w0,profile_163,1418813.000000,256,21731.000000,1,COMPLETED_SUCCESSFULLY,1429859.006300,21730.000000,1451589.006300,11046.006300,32776.006300,1.508330,4052-4307,-1.000000,""
160_0_1,w0,profile_160,1404493.000000,1224,51645.000000,1,COMPLETED_SUCCESSFULLY,1404493.001800,51644.000000,1456137.001800,0.001800,51644.001800,1.000000,1000-1015 1912-2407 2536-2919 3440-3767,-1.000000,""
164_0_1,w0,profile_164,1425716.000000,264,23071.000000,1,COMPLETED_SUCCESSFULLY,1434021.005100,23070.000000,1457091.005100,8305.005100,31375.005100,1.359992,0-263,-1.000000,""
165_0_1,w0,profile_165,1425719.000000,264,23154.000000,1,COMPLETED_SUCCESSFULLY,1434021.005700,23153.000000,1457174.005700,8302.005700,31455.005700,1.358571,264-527,-1.000000,""
162_0_1,w0,profile_162,1416997.000000,524,32536.000000,1,COMPLETED_SUCCESSFULLY,1429859.005700,32535.000000,1462394.005700,12862.005700,45397.005700,1.395328,2944-3327 3912-4051,-1.000000,""
167_0_1,w0,profile_167,1427873.000000,384,23040.000000,1,COMPLETED_SUCCESSFULLY,1456140.003450,23039.000000,1479179.003450,28267.003450,51306.003450,2.226920,1000-1015 1912-2279,-1.000000,""
168_0_1,w0,profile_168,1451188.000000,384,32546.000000,1,COMPLETED_SUCCESSFULLY,1456140.004050,32545.000000,1488685.004050,4952.004050,37497.004050,1.152159,2280-2407 2536-2791,-1.000000,""
166_0_1,w0,profile_166,1426932.000000,2048,49349.000000,1,COMPLETED_SUCCESSFULLY,1451592.007950,49348.000000,1500940.007950,24660.007950,74008.007950,1.499716,528-999 1016-1911 2408-2535 2920-2943 3328-3439 3768-3911 4052-4323,-1.000000,""
170_0_1,w0,profile_170,1488472.000000,256,21231.000000,1,COMPLETED_SUCCESSFULLY,1488472.001800,21230.000000,1509702.001800,0.001800,21230.001800,1.000000,384-527 1000-1015 1912-2007,-1.000000,""
169_0_1,w0,profile_169,1487406.000000,384,23055.000000,1,COMPLETED_SUCCESSFULLY,1487406.001800,23054.000000,1510460.001800,0.001800,23054.001800,1.000000,0-383,-1.000000,""
171_0_1,w0,profile_171,1499278.000000,512,33745.000000,1,COMPLETED_SUCCESSFULLY,1499278.001800,33744.000000,1533022.001800,0.001800,33744.001800,1.000000,2008-2407 2536-2647,-1.000000,""
172_0_1,w0,profile_172,1499819.000000,3072,44696.000000,1,COMPLETED_SUCCESSFULLY,1500943.009600,44695.000000,1545638.009600,1124.009600,45819.009600,1.025148,528-999 1016-1911 2408-2535 2648-4223,-1.000000,""
174_0_1,w0,profile_174,1531198.000000,256,21621.000000,1,COMPLETED_SUCCESSFULLY,1533025.004050,21620.000000,1554645.004050,1827.004050,23447.004050,1.084505,2392-2407 2536-2647 4224-4351,-1.000000,""
173_0_1,w0,profile_173,1507342.000000,1024,22435.000000,1,COMPLETED_SUCCESSFULLY,1533025.003450,22434.000000,1555459.003450,25683.003450,48117.003450,2.144825,0-527 1000-1015 1912-2391,-1.000000,""
175_0_1,w0,profile_175,1534750.000000,384,32519.000000,1,COMPLETED_SUCCESSFULLY,1545641.011250,32518.000000,1578159.011250,10891.011250,43409.011250,1.334923,528-911,-1.000000,""
176_0_1,w0,profile_176,1616371.000000,384,32311.000000,1,COMPLETED_SUCCESSFULLY,1616371.001800,32310.000000,1648681.001800,0.001800,32310.001800,1.000000,0-383,-1.000000,""
177_0_1,w0,profile_177,1702216.000000,384,32519.000000,1,COMPLETED_SUCCESSFULLY,1702216.001800,32518.000000,1734734.001800,0.001800,32518.001800,1.000000,0-383,-1.000000,""
178_0_1,w0,profile_178,1713637.000000,256,22932.000000,1,COMPLETED_SUCCESSFULLY,1713637.001800,22931.000000,1736568.001800,0.001800,22931.001800,1.000000,384-639,-1.000000,""
180_0_1,w0,profile_180,1725555.000000,256,21743.000000,1,COMPLETED_SUCCESSFULLY,1725555.001800,21742.000000,1747297.001800,0.001800,21742.001800,1.000000,1664-1919,-1.000000,""
181_0_1,w0,profile_181,1729215.000000,256,21690.000000,1,COMPLETED_SUCCESSFULLY,1729215.001800,21689.000000,1750904.001800,0.001800,21689.001800,1.000000,1920-2175,-1.000000,""
182_0_1,w0,profile_182,1731171.000000,384,32582.000000,1,COMPLETED_SUCCESSFULLY,1731171.001800,32581.000000,1763752.001800,0.001800,32581.001800,1.000000,2176-2559,-1.000000,""
184_0_1,w0,profile_184,1733252.000000,524,33737.000000,1,COMPLETED_SUCCESSFULLY,1733252.001800,33736.000000,1766988.001800,0.001800,33736.001800,1.000000,3576-4099,-1.000000,""
179_0_1,w0,profile_179,1724924.000000,1024,50352.000000,1,COMPLETED_SUCCESSFULLY,1724924.001800,50351.000000,1775275.001800,0.001800,50351.001800,1.000000,640-1663,-1.000000,""
185_0_1,w0,profile_185,1738097.000000,1224,28936.000000,1,COMPLETED_SUCCESSFULLY,1750907.003450,28935.000000,1779842.003450,12810.003450,41745.003450,1.442717,0-639 1664-2175 4100-4171,-1.000000,""
186_0_1,w0,profile_186,1741140.000000,256,20444.000000,1,COMPLETED_SUCCESSFULLY,1763755.003450,20443.000000,1784198.003450,22615.003450,43058.003450,2.106247,2176-2431,-1.000000,""
187_0_1,w0,profile_187,1741162.000000,256,21729.000000,1,COMPLETED_SUCCESSFULLY,1763755.004050,21728.000000,1785483.004050,22593.004050,44321.004050,2.039811,2432-2559 4172-4299,-1.000000,""
189_0_1,w0,profile_189,1742782.000000,256,21623.000000,1,COMPLETED_SUCCESSFULLY,1766991.004050,21622.000000,1788613.004050,24209.004050,45831.004050,2.119647,3832-4087,-1.000000,""
188_0_1,w0,profile_188,1741174.000000,256,21659.000000,1,COMPLETED_SUCCESSFULLY,1766991.003450,21658.000000,1788649.003450,25817.003450,47475.003450,2.192031,3576-3831,-1.000000,""
190_0_1,w0,profile_190,1743569.000000,384,22937.000000,1,COMPLETED_SUCCESSFULLY,1775278.003450,22936.000000,1798214.003450,31709.003450,54645.003450,2.382499,640-1023,-1.000000,""
192_0_1,w0,profile_192,1760438.000000,264,22961.000000,1,COMPLETED_SUCCESSFULLY,1779845.005700,22960.000000,1802805.005700,19407.005700,42367.005700,1.845253,1408-1671,-1.000000,""
193_0_1,w0,profile_193,1760455.000000,264,22967.000000,1,COMPLETED_SUCCESSFULLY,1779845.006300,22966.000000,1802811.006300,19390.006300,42356.006300,1.844292,1672-1935,-1.000000,""
196_0_1,w0,profile_196,1774967.000000,384,25351.000000,1,COMPLETED_SUCCESSFULLY,1788652.005100,25350.000000,1814002.005100,13685.005100,39035.005100,1.539842,3576-3959,-1.000000,""
195_0_1,w0,profile_195,1771544.000000,384,32529.000000,1,COMPLETED_SUCCESSFULLY,1785486.005700,32528.000000,1818014.005700,13942.005700,46470.005700,1.428616,2432-2559 4092-4347,-1.000000,""
194_0_1,w0,profile_194,1765078.000000,500,34171.000000,1,COMPLETED_SUCCESSFULLY,1784201.005100,34170.000000,1818371.005100,19123.005100,53293.005100,1.559643,1936-2431 4088-4091,-1.000000,""
183_0_1,w0,profile_183,1733086.000000,1016,86536.000000,1,COMPLETED_SUCCESSFULLY,1733086.001800,86535.000000,1819621.001800,0.001800,86535.001800,1.000000,2560-3575,-1.000000,""
197_0_1,w0,profile_197,1791327.000000,384,33841.000000,1,COMPLETED_SUCCESSFULLY,1798217.005100,33840.000000,1832057.005100,6890.005100,40730.005100,1.203605,640-1023,-1.000000,""
199_0_1,w0,profile_199,1795813.000000,256,21657.000000,1,COMPLETED_SUCCESSFULLY,1818017.007350,21656.000000,1839673.007350,22204.007350,43860.007350,2.025305,2432-2559 4072-4087 4092-4203,-1.000000,""
201_0_1,w0,profile_201,1825279.000000,256,21635.000000,1,COMPLETED_SUCCESSFULLY,1825279.001800,21634.000000,1846913.001800,0.001800,21634.001800,1.000000,2560-2815,-1.000000,""
200_0_1,w0,profile_200,1817029.000000,524,32528.000000,1,COMPLETED_SUCCESSFULLY,1818374.006750,32527.000000,1850901.006750,1345.006750,33872.006750,1.041350,1936-2431 4088-4091 4204-4227,-1.000000,""
198_0_1,w0,profile_198,1792162.000000,1024,41343.000000,1,COMPLETED_SUCCESSFULLY,1814005.006750,41342.000000,1855347.006750,21843.006750,63185.006750,1.528349,1408-1935 3576-4071,-1.000000,""
191_0_1,w0,profile_191,1747429.000000,1024,87684.000000,1,COMPLETED_SUCCESSFULLY,1779845.005100,87683.000000,1867528.005100,32416.005100,120099.005100,1.369695,0-639 1024-1407,-1.000000,""
202_0_1,w0,profile_202,1836234.000000,384,32506.000000,1,COMPLETED_SUCCESSFULLY,1836234.001800,32505.000000,1868739.001800,0.001800,32505.001800,1.000000,640-1023,-1.000000,""
203_0_1,w0,profile_203,1854002.000000,384,32523.000000,1,COMPLETED_SUCCESSFULLY,1854002.001800,32522.000000,1886524.001800,0.001800,32522.001800,1.000000,1936-2319,-1.000000,""
205_0_1,w0,profile_205,1885599.000000,256,21615.000000,1,COMPLETED_SUCCESSFULLY,1885599.001800,21614.000000,1907213.001800,0.001800,21614.001800,1.000000,384-639,-1.000000,""
204_0_1,w0,profile_204,1880496.000000,384,32515.000000,1,COMPLETED_SUCCESSFULLY,1880496.001800,32514.000000,1913010.001800,0.001800,32514.001800,1.000000,0-383,-1.000000,""
206_0_1,w0,profile_206,1901600.000000,384,22942.000000,1,COMPLETED_SUCCESSFULLY,1901600.001800,22941.000000,1924541.001800,0.001800,22941.001800,1.000000,640-1023,-1.000000,""
208_0_1,w0,profile_208,1905684.000000,384,21447.000000,1,COMPLETED_SUCCESSFULLY,1905684.001800,21446.000000,1927130.001800,0.001800,21446.001800,1.000000,2040-2423,-1.000000,""
209_0_1,w0,profile_209,1906937.000000,808,28907.000000,1,COMPLETED_SUCCESSFULLY,1906937.001800,28906.000000,1935843.001800,0.001800,28906.001800,1.000000,2424-3231,-1.000000,""
210_0_1,w0,profile_210,1914655.000000,256,21756.000000,1,COMPLETED_SUCCESSFULLY,1914655.001800,21755.000000,1936410.001800,0.001800,21755.001800,1.000000,0-255,-1.000000,""
212_0_1,w0,profile_212,1920826.000000,256,22776.000000,1,COMPLETED_SUCCESSFULLY,1920826.001800,22775.000000,1943601.001800,0.001800,22775.001800,1.000000,3872-4127,-1.000000,""
214_0_1,w0,profile_214,1942433.000000,256,21733.000000,1,COMPLETED_SUCCESSFULLY,1942433.001800,21732.000000,1964165.001800,0.001800,21732.001800,1.000000,0-255,-1.000000,""
211_0_1,w0,profile_211,1920141.000000,1024,54474.000000,1,COMPLETED_SUCCESSFULLY,1920141.001800,54473.000000,1974614.001800,0.001800,54473.001800,1.000000,256-639 3232-3871,-1.000000,""
207_0_1,w0,profile_207,1905100.000000,1016,87770.000000,1,COMPLETED_SUCCESSFULLY,1905100.001800,87769.000000,1992869.001800,0.001800,87769.001800,1.000000,1024-2039,-1.000000,""
215_0_1,w0,profile_215,1970594.000000,384,32211.000000,1,COMPLETED_SUCCESSFULLY,1970594.001800,32210.000000,2002804.001800,0.001800,32210.001800,1.000000,0-255 2424-2551,-1.000000,""
216_0_1,w0,profile_216,1985506.000000,384,32495.000000,1,COMPLETED_SUCCESSFULLY,1985506.001800,32494.000000,2018000.001800,0.001800,32494.001800,1.000000,256-639,-1.000000,""
218_0_1,w0,profile_218,1985763.000000,384,32555.000000,1,COMPLETED_SUCCESSFULLY,1985763.001800,32554.000000,2018317.001800,0.001800,32554.001800,1.000000,3192-3575,-1.000000,""
217_0_1,w0,profile_217,1985705.000000,640,34289.000000,1,COMPLETED_SUCCESSFULLY,1985705.001800,34288.000000,2019993.001800,0.001800,34288.001800,1.000000,2552-3191,-1.000000,""
220_0_1,w0,profile_220,1992484.000000,808,28960.000000,1,COMPLETED_SUCCESSFULLY,1992872.003450,28959.000000,2021831.003450,388.003450,29347.003450,1.013398,1024-1831,-1.000000,""
219_0_1,w0,profile_219,1989673.000000,384,32556.000000,1,COMPLETED_SUCCESSFULLY,1989673.001800,32555.000000,2022228.001800,0.001800,32555.001800,1.000000,3576-3959,-1.000000,""
213_0_1,w0,profile_213,1935171.000000,802,87868.000000,1,COMPLETED_SUCCESSFULLY,1935171.001800,87867.000000,2023038.001800,0.001800,87867.001800,1.000000,640-1023 2040-2423 4128-4161,-1.000000,""
221_0_1,w0,profile_221,1992737.000000,524,33748.000000,1,COMPLETED_SUCCESSFULLY,1992872.004050,33747.000000,2026619.004050,135.004050,33882.004050,1.004000,1832-2039 3960-4127 4162-4309,-1.000000,""
223_0_1,w0,profile_223,2007263.000000,256,21728.000000,1,COMPLETED_SUCCESSFULLY,2018003.004050,21727.000000,2039730.004050,10740.004050,32467.004050,1.494316,529-639 2424-2551 4310-4326,-1.000000,""
224_0_1,w0,profile_224,2007273.000000,256,21748.000000,1,COMPLETED_SUCCESSFULLY,2018320.003450,21747.000000,2040067.003450,11047.003450,32794.003450,1.507978,3192-3447,-1.000000,""
225_0_1,w0,profile_225,2007280.000000,256,20446.000000,1,COMPLETED_SUCCESSFULLY,2019996.003450,20445.000000,2040441.003450,12716.003450,33161.003450,1.621962,2552-2807,-1.000000,""
227_0_1,w0,profile_227,2011891.000000,256,21646.000000,1,COMPLETED_SUCCESSFULLY,2019996.004650,21645.000000,2041641.004650,8105.004650,29750.004650,1.374452,3064-3191 3448-3575,-1.000000,""
226_0_1,w0,profile_226,2009082.000000,256,21663.000000,1,COMPLETED_SUCCESSFULLY,2019996.004050,21662.000000,2041658.004050,10914.004050,32576.004050,1.503832,2808-3063,-1.000000,""
229_0_1,w0,profile_229,2011968.000000,256,21622.000000,1,COMPLETED_SUCCESSFULLY,2021834.005700,21621.000000,2043455.005700,9866.005700,31487.005700,1.456316,1280-1535,-1.000000,""
230_0_1,w0,profile_230,2012004.000000,256,21648.000000,1,COMPLETED_SUCCESSFULLY,2021834.006300,21647.000000,2043481.006300,9830.006300,31477.006300,1.454105,1536-1791,-1.000000,""
228_0_1,w0,profile_228,2011921.000000,256,22759.000000,1,COMPLETED_SUCCESSFULLY,2021834.005100,22758.000000,2044592.005100,9913.005100,32671.005100,1.435583,1024-1279,-1.000000,""
222_0_1,w0,profile_222,2001040.000000,529,32523.000000,1,COMPLETED_SUCCESSFULLY,2018003.003450,32522.000000,2050525.003450,16963.003450,49485.003450,1.521585,0-528,-1.000000,""
231_0_1,w0,profile_231,2015917.000000,500,32816.000000,1,COMPLETED_SUCCESSFULLY,2023041.003450,32815.000000,2055856.003450,7124.003450,39939.003450,1.217096,640-1023 1792-1831 2040-2115,-1.000000,""
232_0_1,w0,profile_232,2032190.000000,1024,47455.000000,1,COMPLETED_SUCCESSFULLY,2032190.001800,47454.000000,2079644.001800,0.001800,47454.001800,1.000000,1832-2039 2116-2423 3576-4083,-1.000000,""
233_0_1,w0,profile_233,2050253.000000,384,32222.000000,1,COMPLETED_SUCCESSFULLY,2050253.001800,32221.000000,2082474.001800,0.001800,32221.001800,1.000000,529-639 1024-1296,-1.000000,""
234_0_1,w0,profile_234,2077389.000000,336,21685.000000,1,COMPLETED_SUCCESSFULLY,2077389.001800,21684.000000,2099073.001800,0.001800,21684.001800,1.000000,0-335,-1.000000,""
235_0_1,w0,profile_235,2094731.000000,808,30200.000000,1,COMPLETED_SUCCESSFULLY,2094731.001800,30199.000000,2124930.001800,0.001800,30199.001800,1.000000,336-1143,-1.000000,""
236_0_1,w0,profile_236,2104514.000000,500,32579.000000,1,COMPLETED_SUCCESSFULLY,2104514.001800,32578.000000,2137092.001800,0.001800,32578.001800,1.000000,0-335 1144-1307,-1.000000,""
237_0_1,w0,profile_237,2120408.000000,1024,38093.000000,1,COMPLETED_SUCCESSFULLY,2120408.001800,38092.000000,2158500.001800,0.001800,38092.001800,1.000000,1308-2331,-1.000000,""
238_0_1,w0,profile_238,2120450.000000,1024,40079.000000,1,COMPLETED_SUCCESSFULLY,2120450.001800,40078.000000,2160528.001800,0.001800,40078.001800,1.000000,2332-3355,-1.000000,""
239_0_1,w0,profile_239,2120491.000000,1024,40680.000000,1,COMPLETED_SUCCESSFULLY,2120491.001800,40679.000000,2161170.001800,0.001800,40679.001800,1.000000,3356-4379,-1.000000,""
240_0_1,w0,profile_240,2120530.000000,1024,42508.000000,1,COMPLETED_SUCCESSFULLY,2137095.003450,42507.000000,2179602.003450,16565.003450,59072.003450,1.389701,0-1023,-1.000000,""
244_0_1,w0,profile_244,2121102.000000,256,21583.000000,1,COMPLETED_SUCCESSFULLY,2161173.004050,21582.000000,2182755.004050,40071.004050,61653.004050,2.856686,4096-4351,-1.000000,""
243_0_1,w0,profile_243,2120673.000000,1024,23726.000000,1,COMPLETED_SUCCESSFULLY,2161173.003450,23725.000000,2184898.003450,40500.003450,64225.003450,2.707060,3072-4095,-1.000000,""
241_0_1,w0,profile_241,2120574.000000,1024,39185.000000,1,COMPLETED_SUCCESSFULLY,2158503.003450,39184.000000,2197687.003450,37929.003450,77113.003450,1.967972,1024-2047,-1.000000,""
242_0_1,w0,profile_242,2120614.000000,1024,38447.000000,1,COMPLETED_SUCCESSFULLY,2160531.003450,38446.000000,2198977.003450,39917.003450,78363.003450,2.038262,2048-3071,-1.000000,""
247_0_1,w0,profile_247,2121130.000000,256,21585.000000,1,COMPLETED_SUCCESSFULLY,2179605.006300,21584.000000,2201189.006300,58475.006300,80059.006300,3.709183,512-767,-1.000000,""
245_0_1,w0,profile_245,2121111.000000,256,21619.000000,1,COMPLETED_SUCCESSFULLY,2179605.005100,21618.000000,2201223.005100,58494.005100,80112.005100,3.705801,0-255,-1.000000,""
246_0_1,w0,profile_246,2121115.000000,256,21621.000000,1,COMPLETED_SUCCESSFULLY,2179605.005700,21620.000000,2201225.005700,58490.005700,80110.005700,3.705366,256-511,-1.000000,""
249_0_1,w0,profile_249,2162805.000000,524,32524.000000,1,COMPLETED_SUCCESSFULLY,2184901.005700,32523.000000,2217424.005700,22096.005700,54619.005700,1.679396,3578-4101,-1.000000,""
254_0_1,w0,profile_254,2195377.000000,256,21712.000000,1,COMPLETED_SUCCESSFULLY,2201229.007800,21711.000000,2222940.007800,5852.007800,27563.007800,1.269541,0-255,-1.000000,""
248_0_1,w0,profile_248,2121175.000000,762,43236.000000,1,COMPLETED_SUCCESSFULLY,2184901.005100,43235.000000,2228136.005100,63726.005100,106961.005100,2.473945,768-1023 3072-3577,-1.000000,""
250_0_1,w0,profile_250,2163938.000000,384,32494.000000,1,COMPLETED_SUCCESSFULLY,2197690.005100,32493.000000,2230183.005100,33752.005100,66245.005100,2.038747,1024-1407,-1.000000,""
253_0_1,w0,profile_253,2181410.000000,529,32481.000000,1,COMPLETED_SUCCESSFULLY,2201192.007950,32480.000000,2233672.007950,19782.007950,52262.007950,1.609052,512-767 2688-2960,-1.000000,""
252_0_1,w0,profile_252,2168873.000000,640,43253.000000,1,COMPLETED_SUCCESSFULLY,2198980.005100,43252.000000,2242232.005100,30107.005100,73359.005100,1.696084,2048-2687,-1.000000,""
257_0_1,w0,profile_257,2216513.000000,384,32225.000000,1,COMPLETED_SUCCESSFULLY,2228139.007350,32224.000000,2260363.007350,11626.007350,43850.007350,1.360787,3328-3577 3979-4101 4264-4274,-1.000000,""
256_0_1,w0,profile_256,2215438.000000,512,33884.000000,1,COMPLETED_SUCCESSFULLY,2228139.006750,33883.000000,2262022.006750,12701.006750,46584.006750,1.374849,768-1023 3072-3327,-1.000000,""
258_0_1,w0,profile_258,2217017.000000,384,32521.000000,1,COMPLETED_SUCCESSFULLY,2230186.006750,32520.000000,2262706.006750,13169.006750,45689.006750,1.404951,1024-1407,-1.000000,""
260_0_1,w0,profile_260,2232496.000000,256,21729.000000,1,COMPLETED_SUCCESSFULLY,2242235.007350,21728.000000,2263963.007350,9739.007350,31467.007350,1.448224,2816-2960 4275-4385,-1.000000,""
261_0_1,w0,profile_261,2236895.000000,256,21722.000000,1,COMPLETED_SUCCESSFULLY,2260366.009000,21721.000000,2282087.009000,23471.009000,45192.009000,2.080568,3328-3577 3979-3984,-1.000000,""
251_0_1,w0,profile_251,2168140.000000,802,86484.000000,1,COMPLETED_SUCCESSFULLY,2197690.005700,86483.000000,2284173.005700,29550.005700,116033.005700,1.341686,1408-2047 4102-4263,-1.000000,""
259_0_1,w0,profile_259,2217092.000000,1024,43288.000000,1,COMPLETED_SUCCESSFULLY,2242235.006750,43287.000000,2285522.006750,25143.006750,68430.006750,1.580844,512-767 2048-2815,-1.000000,""
265_0_1,w0,profile_265,2264294.000000,256,21728.000000,1,COMPLETED_SUCCESSFULLY,2264294.001800,21727.000000,2286021.001800,0.001800,21727.001800,1.000000,3311-3327 3985-4101 4264-4385,-1.000000,""
264_0_1,w0,profile_264,2264292.000000,256,21748.000000,1,COMPLETED_SUCCESSFULLY,2264292.001800,21747.000000,2286039.001800,0.001800,21747.001800,1.000000,2816-2960 3200-3310,-1.000000,""
255_0_1,w0,profile_255,2205053.000000,1024,63946.000000,1,COMPLETED_SUCCESSFULLY,2222943.009450,63945.000000,2286888.009450,17890.009450,81835.009450,1.279772,0-511 2961-3071 3578-3978,-1.000000,""
262_0_1,w0,profile_262,2261421.000000,384,32560.000000,1,COMPLETED_SUCCESSFULLY,2262025.008400,32559.000000,2294584.008400,604.008400,33163.008400,1.018551,768-1023 3072-3199,-1.000000,""
263_0_1,w0,profile_263,2261499.000000,384,32283.000000,1,COMPLETED_SUCCESSFULLY,2262709.008400,32282.000000,2294991.008400,1210.008400,33492.008400,1.037482,1024-1407,-1.000000,""
266_0_1,w0,profile_266,2264295.000000,256,22977.000000,1,COMPLETED_SUCCESSFULLY,2282090.010650,22976.000000,2305066.010650,17795.010650,40771.010650,1.774504,3328-3577 3979-3984,-1.000000,""
269_0_1,w0,profile_269,2264300.000000,256,21710.000000,1,COMPLETED_SUCCESSFULLY,2284176.008550,21709.000000,2305885.008550,19876.008550,41585.008550,1.915565,1920-2047 4102-4229,-1.000000,""
268_0_1,w0,profile_268,2264298.000000,256,21729.000000,1,COMPLETED_SUCCESSFULLY,2284176.007950,21728.000000,2305904.007950,19878.007950,41606.007950,1.914857,1664-1919,-1.000000,""
267_0_1,w0,profile_267,2264297.000000,256,21733.000000,1,COMPLETED_SUCCESSFULLY,2284176.007350,21732.000000,2305908.007350,19879.007350,41611.007350,1.914734,1408-1663,-1.000000,""
273_0_1,w0,profile_273,2264322.000000,256,21701.000000,1,COMPLETED_SUCCESSFULLY,2285525.010200,21700.000000,2307225.010200,21203.010200,42903.010200,1.977097,2560-2815,-1.000000,""
271_0_1,w0,profile_271,2264319.000000,256,21703.000000,1,COMPLETED_SUCCESSFULLY,2285525.009000,21702.000000,2307227.009000,21206.009000,42908.009000,1.977145,2048-2303,-1.000000,""
272_0_1,w0,profile_272,2264321.000000,256,21710.000000,1,COMPLETED_SUCCESSFULLY,2285525.009600,21709.000000,2307234.009600,21204.009600,42913.009600,1.976738,2304-2559,-1.000000,""
270_0_1,w0,profile_270,2264301.000000,256,21716.000000,1,COMPLETED_SUCCESSFULLY,2285525.008400,21715.000000,2307240.008400,21224.008400,42939.008400,1.977389,512-767,-1.000000,""
276_0_1,w0,profile_276,2300799.000000,1024,22229.000000,1,COMPLETED_SUCCESSFULLY,2305888.010200,22228.000000,2328116.010200,5089.010200,27317.010200,1.228946,1024-1407 1920-2047 3328-3577 3979-3984 4096-4351,-1.000000,""
274_0_1,w0,profile_274,2268915.000000,1152,43254.000000,1,COMPLETED_SUCCESSFULLY,2286891.011100,43253.000000,2330144.011100,17976.011100,61229.011100,1.415601,0-511 2816-3071 3200-3327 3578-3833,-1.000000,""
275_0_1,w0,profile_275,2276243.000000,640,43247.000000,1,COMPLETED_SUCCESSFULLY,2294587.010050,43246.000000,2337833.010050,18344.010050,61590.010050,1.424178,768-1023 3072-3199 3834-3978 3985-4095,-1.000000,""
278_0_1,w0,profile_278,2318729.000000,256,21725.000000,1,COMPLETED_SUCCESSFULLY,2318729.001800,21724.000000,2340453.001800,0.001800,21724.001800,1.000000,512-767,-1.000000,""
277_0_1,w0,profile_277,2300878.000000,1024,43236.000000,1,COMPLETED_SUCCESSFULLY,2307231.012900,43235.000000,2350466.012900,6353.012900,49588.012900,1.146941,1408-1919 2048-2303 2560-2815,-1.000000,""
280_0_1,w0,profile_280,2377952.000000,384,26819.000000,1,COMPLETED_SUCCESSFULLY,2377952.001800,26818.000000,2404770.001800,0.001800,26818.001800,1.000000,384-767,-1.000000,""
279_0_1,w0,profile_279,2377883.000000,384,28055.000000,1,COMPLETED_SUCCESSFULLY,2377883.001800,28054.000000,2405937.001800,0.001800,28054.001800,1.000000,0-383,-1.000000,""
281_0_1,w0,profile_281,2412572.000000,1024,30835.000000,1,COMPLETED_SUCCESSFULLY,2412572.001800,30834.000000,2443406.001800,0.001800,30834.001800,1.000000,0-1023,-1.000000,""
282_0_1,w0,profile_282,2423510.000000,256,21135.000000,1,COMPLETED_SUCCESSFULLY,2423510.001800,21134.000000,2444644.001800,0.001800,21134.001800,1.000000,1024-1279,-1.000000,""
283_0_1,w0,profile_283,2424593.000000,256,21596.000000,1,COMPLETED_SUCCESSFULLY,2424593.001800,21595.000000,2446188.001800,0.001800,21595.001800,1.000000,1280-1535,-1.000000,""
284_0_1,w0,profile_284,2472080.000000,1024,43250.000000,1,COMPLETED_SUCCESSFULLY,2472080.001800,43249.000000,2515329.001800,0.001800,43249.001800,1.000000,0-1023,-1.000000,""
285_0_1,w0,profile_285,2500887.000000,256,21671.000000,1,COMPLETED_SUCCESSFULLY,2500887.001800,21670.000000,2522557.001800,0.001800,21670.001800,1.000000,1024-1279,-1.000000,""
289_0_1,w0,profile_289,2525081.000000,256,21619.000000,1,COMPLETED_SUCCESSFULLY,2525081.001800,21618.000000,2546699.001800,0.001800,21618.001800,1.000000,1024-1279,-1.000000,""
286_0_1,w0,profile_286,2502599.000000,4096,47155.000000,1,COMPLETED_SUCCESSFULLY,2515332.003450,47154.000000,2562486.003450,12733.003450,59887.003450,1.270030,0-1023 1280-4351,-1.000000,""
290_0_1,w0,profile_290,2526442.000000,1024,26702.000000,1,COMPLETED_SUCCESSFULLY,2562489.006300,26701.000000,2589190.006300,36047.006300,62748.006300,2.350025,1540-2563,-1.000000,""
287_0_1,w0,profile_287,2513388.000000,524,32538.000000,1,COMPLETED_SUCCESSFULLY,2562489.005100,32537.000000,2595026.005100,49101.005100,81638.005100,2.509082,0-523,-1.000000,""
288_0_1,w0,profile_288,2513588.000000,1016,129978.000000,1,COMPLETED_SUCCESSFULLY,2562489.005700,129977.000000,2692466.005700,48901.005700,178878.005700,1.376228,524-1539,-1.000000,""
