time,nb_sleeping,nb_switching_on,nb_switching_off,nb_idle,nb_computing
0.00240003,0,0,0,4264,128
0.00300004,0,0,0,4256,136
0.00360005,0,0,0,4000,392
0.00420006,0,0,0,2976,1416
0.00480006,0,0,0,1952,2440
0.00540007,0,0,0,1944,2448
0.00600008,0,0,0,1943,2449
0.00660009,0,0,0,1431,2961
0.0072001,0,0,0,407,3985
0.0078001,0,0,0,399,3993
0.00840011,0,0,0,391,4001
20009,0,0,0,399,3993
20049,0,0,0,407,3985
20052,0,0,0,5,4387
20177,0,0,0,13,4379
20272,0,0,0,21,4371
21702,0,0,0,277,4115
21705,0,0,0,149,4243
21705,0,0,0,21,4371
21717,0,0,0,22,4370
21760,0,0,0,150,4242
35860,0,0,0,1174,3218
35863,0,0,0,772,3620
35863,0,0,0,672,3720
35863,0,0,0,544,3848
35863,0,0,0,416,3976
35863,0,0,0,288,4104
35863,0,0,0,160,4232
35863,0,0,0,152,4240
35863,0,0,0,144,4248
35863,0,0,0,44,4348
43284,0,0,0,556,3836
43287,0,0,0,428,3964
43287,0,0,0,328,4064
43287,0,0,0,72,4320
43287,0,0,0,64,4328
43370,0,0,0,192,4200
43384,0,0,0,320,4072
43387,0,0,0,123,4269
55926,0,0,0,131,4261
56109,0,0,0,139,4253
57552,0,0,0,267,4125
57555,0,0,0,63,4329
57569,0,0,0,191,4201
57585,0,0,0,319,4073
57607,0,0,0,447,3945
57608,0,0,0,547,3845
57613,0,0,0,35,4357
58516,0,0,0,135,4257
63353,0,0,0,537,3855
63356,0,0,0,25,4367
63559,0,0,0,33,4359
64328,0,0,0,289,4103
64331,0,0,0,106,4286
64556,0,0,0,303,4089
64559,0,0,0,112,4280
64967,0,0,0,240,4152
64970,0,0,0,112,4280
65028,0,0,0,212,4180
65031,0,0,0,11,4381
79147,0,0,0,413,3979
79150,0,0,0,157,4235
79150,0,0,0,29,4363
79231,0,0,0,233,4159
79234,0,0,0,105,4287
79332,0,0,0,617,3775
79335,0,0,0,489,3903
85108,0,0,0,1001,3391
85320,0,0,0,1184,3208
86236,0,0,0,1375,3017
86485,0,0,0,2399,1993
86488,0,0,0,863,3529
86500,0,0,0,1887,2505
86503,0,0,0,863,3529
86503,0,0,0,855,3537
86503,0,0,0,663,3729
86503,0,0,0,655,3737
86503,0,0,0,647,3745
86697,0,0,0,775,3617
86706,0,0,0,976,3416
100827,0,0,0,1232,3160
100828,0,0,0,1360,3032
100914,0,0,0,1488,2904
101032,0,0,0,1616,2776
101035,0,0,0,80,4312
106608,0,0,0,88,4304
107057,0,0,0,96,4296
107090,0,0,0,104,4288
108187,0,0,0,296,4096
108190,0,0,0,168,4224
108753,0,0,0,1704,2688
108756,0,0,0,680,3712
108756,0,0,0,424,3968
108756,0,0,0,168,4224
108756,0,0,0,104,4288
108756,0,0,0,40,4352
109427,0,0,0,1064,3328
109430,0,0,0,1000,3392
109430,0,0,0,936,3456
109430,0,0,0,872,3520
109430,0,0,0,808,3584
109430,0,0,0,744,3648
109430,0,0,0,680,3712
109430,0,0,0,616,3776
109430,0,0,0,552,3840
109430,0,0,0,488,3904
109430,0,0,0,424,3968
109430,0,0,0,360,4032
109430,0,0,0,296,4096
109430,0,0,0,232,4160
109430,0,0,0,168,4224
109430,0,0,0,104,4288
109430,0,0,0,40,4352
123376,0,0,0,1576,2816
123379,0,0,0,1512,2880
123379,0,0,0,1448,2944
123379,0,0,0,1320,3072
123379,0,0,0,1192,3200
129584,0,0,0,1320,3072
130442,0,0,0,1384,3008
130445,0,0,0,1640,2752
130448,0,0,0,104,4288
130448,0,0,0,40,4352
130510,0,0,0,104,4288
130513,0,0,0,40,4352
131104,0,0,0,104,4288
131105,0,0,0,168,4224
131105,0,0,0,232,4160
131106,0,0,0,296,4096
131110,0,0,0,360,4032
131112,0,0,0,424,3968
131112,0,0,0,488,3904
131116,0,0,0,552,3840
131121,0,0,0,616,3776
131123,0,0,0,680,3712
131124,0,0,0,744,3648
131129,0,0,0,808,3584
131132,0,0,0,872,3520
131143,0,0,0,808,3584
131143,0,0,0,744,3648
131143,0,0,0,680,3712
131143,0,0,0,616,3776
131143,0,0,0,552,3840
131143,0,0,0,488,3904
131143,0,0,0,424,3968
131143,0,0,0,360,4032
131143,0,0,0,352,4040
131143,0,0,0,224,4168
131149,0,0,0,288,4104
131165,0,0,0,352,4040
131270,0,0,0,608,3784
131798,0,0,0,1632,2760
132058,0,0,0,1696,2696
143427,0,0,0,1824,2568
145059,0,0,0,1888,2504
145060,0,0,0,1952,2440
145065,0,0,0,2080,2312
151175,0,0,0,2088,2304
152152,0,0,0,2152,2240
152209,0,0,0,2216,2176
152695,0,0,0,3752,640
152838,0,0,0,3816,576
152845,0,0,0,3880,512
152848,0,0,0,3944,448
152849,0,0,0,4008,384
152888,0,0,0,4136,256
153781,0,0,0,4200,192
153784,0,0,0,4264,128
153935,0,0,0,4328,64
153966,0,0,0,4392,0
162720,0,0,0,4008,384
193578,0,0,0,3496,896
197405,0,0,0,3880,512
197743,0,0,0,3304,1088
201219,0,0,0,3176,1216
210050,0,0,0,3016,1376
210960,0,0,0,1992,2400
216010,0,0,0,1864,2528
222918,0,0,0,1992,2400
229457,0,0,0,1478,2914
230633,0,0,0,966,3426
231264,0,0,0,958,3434
231751,0,0,0,1118,3274
236873,0,0,0,1630,2762
237713,0,0,0,1758,2634
238871,0,0,0,1750,2642
241066,0,0,0,2326,2066
247392,0,0,0,2262,2130
247394,0,0,0,2198,2194
248007,0,0,0,2134,2258
248019,0,0,0,2070,2322
248621,0,0,0,2006,2386
248622,0,0,0,1942,2450
249230,0,0,0,1878,2514
249232,0,0,0,1814,2578
249840,0,0,0,1750,2642
249841,0,0,0,1686,2706
252351,0,0,0,2198,2194
252539,0,0,0,2206,2186
256655,0,0,0,2198,2194
260555,0,0,0,2206,2186
264658,0,0,0,1694,2698
269083,0,0,0,1758,2634
269099,0,0,0,1822,2570
269702,0,0,0,1886,2506
269716,0,0,0,1950,2442
270320,0,0,0,2014,2378
270337,0,0,0,2078,2314
270927,0,0,0,2142,2250
270945,0,0,0,2206,2186
271548,0,0,0,2270,2122
272686,0,0,0,2334,2058
273802,0,0,0,2848,1544
277099,0,0,0,2856,1536
280037,0,0,0,2848,1544
281747,0,0,0,3872,520
285866,0,0,0,3808,584
285867,0,0,0,3744,648
289471,0,0,0,3680,712
289479,0,0,0,3616,776
290349,0,0,0,3608,784
298480,0,0,0,3204,1188
298563,0,0,0,2800,1592
298661,0,0,0,2396,1996
300135,0,0,0,2404,1988
301726,0,0,0,2396,1996
307539,0,0,0,2460,1932
307574,0,0,0,2524,1868
307980,0,0,0,3036,1356
311207,0,0,0,3100,1292
312102,0,0,0,3164,1228
312958,0,0,0,3172,1220
319391,0,0,0,1636,2756
322431,0,0,0,1644,2748
328006,0,0,0,1636,2756
334355,0,0,0,1628,2764
341966,0,0,0,2032,2360
342677,0,0,0,2436,1956
342936,0,0,0,2840,1552
348096,0,0,0,2776,1616
348098,0,0,0,2712,1680
348700,0,0,0,2648,1744
348701,0,0,0,2584,1808
349718,0,0,0,2592,1800
354956,0,0,0,2600,1792
358807,0,0,0,2472,1920
360873,0,0,0,2344,2048
365566,0,0,0,2336,2056
369779,0,0,0,2400,1992
369800,0,0,0,2464,1928
370398,0,0,0,2528,1864
370410,0,0,0,2592,1800
376326,0,0,0,2528,1864
376335,0,0,0,2464,1928
380493,0,0,0,2592,1800
381123,0,0,0,2720,1672
381437,0,0,0,2592,1800
384803,0,0,0,2584,1808
386059,0,0,0,2592,1800
386106,0,0,0,2584,1808
390537,0,0,0,1816,2576
394344,0,0,0,1752,2640
394345,0,0,0,1688,2704
398030,0,0,0,1752,2640
398034,0,0,0,1816,2576
403142,0,0,0,1944,2448
405249,0,0,0,3480,912
406434,0,0,0,3488,904
406495,0,0,0,3496,896
406521,0,0,0,2984,1408
408157,0,0,0,2920,1472
408158,0,0,0,2856,1536
408760,0,0,0,2792,1600
408761,0,0,0,2728,1664
410969,0,0,0,2720,1672
411164,0,0,0,2656,1736
411166,0,0,0,2592,1800
416060,0,0,0,2656,1736
416063,0,0,0,2720,1672
423708,0,0,0,2592,1800
423728,0,0,0,2336,2056
423746,0,0,0,1824,2568
429872,0,0,0,1888,2504
429873,0,0,0,1952,2440
430126,0,0,0,2720,1672
430443,0,0,0,2784,1608
430526,0,0,0,2848,1544
431260,0,0,0,2856,1536
432017,0,0,0,2848,1544
432791,0,0,0,2784,1608
432792,0,0,0,2720,1672
432897,0,0,0,2784,1608
432900,0,0,0,2848,1544
444198,0,0,0,2784,1608
444199,0,0,0,2720,1672
445396,0,0,0,2848,1544
445442,0,0,0,3360,1032
445458,0,0,0,3616,776
447801,0,0,0,3552,840
447802,0,0,0,3488,904
449848,0,0,0,4000,392
452721,0,0,0,4008,384
454488,0,0,0,4072,320
454503,0,0,0,4136,256
455016,0,0,0,4072,320
455017,0,0,0,4008,384
458623,0,0,0,3944,448
458624,0,0,0,3880,512
459025,0,0,0,3752,640
465908,0,0,0,3816,576
465910,0,0,0,3880,512
466252,0,0,0,3752,640
466432,0,0,0,3688,704
466433,0,0,0,3624,768
468838,0,0,0,3560,832
468890,0,0,0,3496,896
469491,0,0,0,3432,960
469493,0,0,0,3368,1024
469514,0,0,0,3432,960
470432,0,0,0,3496,896
472936,0,0,0,3488,904
476717,0,0,0,3552,840
476754,0,0,0,3616,776
480320,0,0,0,3680,712
480327,0,0,0,3744,648
480723,0,0,0,3872,520
480905,0,0,0,3808,584
480907,0,0,0,3744,648
485426,0,0,0,2720,1672
486267,0,0,0,2336,2056
487946,0,0,0,2464,1928
488138,0,0,0,2528,1864
488143,0,0,0,2592,1800
490564,0,0,0,2656,1736
490574,0,0,0,2720,1672
491200,0,0,0,2784,1608
491220,0,0,0,2848,1544
493062,0,0,0,2856,1536
495488,0,0,0,2848,1544
498316,0,0,0,2784,1608
498318,0,0,0,2720,1672
502592,0,0,0,2784,1608
502615,0,0,0,2848,1544
512645,0,0,0,3872,520
515553,0,0,0,3880,512
520008,0,0,0,3944,448
520037,0,0,0,4008,384
522352,0,0,0,4392,0
644781,0,0,0,3529,863
655991,0,0,0,3465,927
655993,0,0,0,3401,991
656007,0,0,0,3337,1055
656009,0,0,0,3273,1119
656011,0,0,0,3209,1183
656013,0,0,0,3145,1247
656016,0,0,0,3081,1311
676136,0,0,0,3145,1247
677685,0,0,0,3209,1183
677710,0,0,0,3273,1119
677711,0,0,0,3337,1055
677712,0,0,0,3401,991
677721,0,0,0,3465,927
677730,0,0,0,3529,863
683595,0,0,0,4392,0
690144,0,0,0,4384,8
710315,0,0,0,4392,0
713688,0,0,0,4384,8
734258,0,0,0,4392,0
736234,0,0,0,4292,100
736273,0,0,0,4192,200
736292,0,0,0,4092,300
736840,0,0,0,3992,400
741372,0,0,0,3864,528
742801,0,0,0,3856,536
752331,0,0,0,3342,1050
753342,0,0,0,3278,1114
753343,0,0,0,3214,1178
753957,0,0,0,3150,1242
753958,0,0,0,3086,1306
754568,0,0,0,3022,1370
754569,0,0,0,2958,1434
757995,0,0,0,3058,1334
758026,0,0,0,3158,1234
758563,0,0,0,3258,1134
758881,0,0,0,3358,1034
761513,0,0,0,3486,906
763323,0,0,0,3494,898
775684,0,0,0,3558,834
776002,0,0,0,3622,770
776019,0,0,0,3686,706
776044,0,0,0,3678,714
776271,0,0,0,3742,650
776274,0,0,0,3806,586
776589,0,0,0,3870,522
781969,0,0,0,3486,906
789990,0,0,0,3422,970
789992,0,0,0,3358,1034
796449,0,0,0,3366,1026
796469,0,0,0,3358,1034
796596,0,0,0,3872,520
808304,0,0,0,3744,648
808322,0,0,0,3616,776
811665,0,0,0,3680,712
811707,0,0,0,3744,648
813277,0,0,0,3616,776
813311,0,0,0,3360,1032
813330,0,0,0,2848,1544
813351,0,0,0,1824,2568
813357,0,0,0,800,3592
813625,0,0,0,736,3656
813626,0,0,0,672,3720
817553,0,0,0,680,3712
819143,0,0,0,672,3720
825258,0,0,0,1056,3336
830058,0,0,0,1184,3208
830923,0,0,0,1312,3080
834998,0,0,0,1824,2568
835009,0,0,0,1952,2440
835027,0,0,0,2208,2184
835313,0,0,0,2272,2120
835337,0,0,0,2336,2056
836835,0,0,0,1312,3080
839456,0,0,0,1248,3144
839458,0,0,0,1184,3208
839626,0,0,0,1192,3200
839741,0,0,0,1184,3208
860008,0,0,0,1176,3216
860039,0,0,0,1184,3208
860153,0,0,0,672,3720
861042,0,0,0,1696,2696
861138,0,0,0,1760,2632
861142,0,0,0,1824,2568
864064,0,0,0,1760,2632
864066,0,0,0,1696,2696
864667,0,0,0,1632,2760
864668,0,0,0,1568,2824
865870,0,0,0,1504,2888
865871,0,0,0,1440,2952
866992,0,0,0,2464,1928
868282,0,0,0,2400,1992
868283,0,0,0,2336,2056
880160,0,0,0,2344,2048
881880,0,0,0,2856,1536
884005,0,0,0,2848,1544
885771,0,0,0,2912,1480
885873,0,0,0,2976,1416
886367,0,0,0,3040,1352
886372,0,0,0,3104,1288
887562,0,0,0,3168,1224
887600,0,0,0,3232,1160
889979,0,0,0,3296,1096
890927,0,0,0,3360,1032
891736,0,0,0,3232,1160
900709,0,0,0,3168,1224
900710,0,0,0,3104,1288
905485,0,0,0,3112,1280
906786,0,0,0,2249,2143
907812,0,0,0,2241,2151
910331,0,0,0,2177,2215
910332,0,0,0,2113,2279
912478,0,0,0,2241,2151
920645,0,0,0,1665,2727
920847,0,0,0,1633,2759
920849,0,0,0,1601,2791
920851,0,0,0,1569,2823
920853,0,0,0,1537,2855
922408,0,0,0,1601,2791
922410,0,0,0,1665,2727
923346,0,0,0,2689,1703
923479,0,0,0,2177,2215
928292,0,0,0,2185,2207
932028,0,0,0,2249,2143
932033,0,0,0,2313,2079
933354,0,0,0,2305,2087
940367,0,0,0,2241,2151
940368,0,0,0,2177,2215
942535,0,0,0,2209,2183
942558,0,0,0,2241,2151
942574,0,0,0,2273,2119
942581,0,0,0,2305,2087
945202,0,0,0,2817,1575
953831,0,0,0,2825,1567
954338,0,0,0,2817,1575
960079,0,0,0,3680,712
962070,0,0,0,3744,648
963028,0,0,0,3808,584
963930,0,0,0,4384,8
973382,0,0,0,4320,72
973393,0,0,0,4256,136
974563,0,0,0,4264,128
974608,0,0,0,4256,136
981922,0,0,0,4192,200
981924,0,0,0,4128,264
981926,0,0,0,4064,328
981928,0,0,0,4000,392
983596,0,0,0,3936,456
983597,0,0,0,3872,520
986499,0,0,0,3360,1032
994401,0,0,0,3296,1096
994402,0,0,0,3232,1160
994762,0,0,0,3240,1152
994796,0,0,0,3232,1160
995004,0,0,0,3168,1224
995006,0,0,0,3104,1288
995071,0,0,0,3168,1224
996201,0,0,0,3232,1160
1.0036e+06,0,0,0,3296,1096
1.00362e+06,0,0,0,3360,1032
1.00362e+06,0,0,0,3424,968
1.00365e+06,0,0,0,3488,904
1.0053e+06,0,0,0,3552,840
1.0053e+06,0,0,0,3616,776
1.00658e+06,0,0,0,2944,1448
1.00817e+06,0,0,0,3456,936
1.00997e+06,0,0,0,3328,1064
1.00999e+06,0,0,0,2816,1576
1.01004e+06,0,0,0,1792,2600
1.01609e+06,0,0,0,1856,2536
1.01611e+06,0,0,0,1920,2472
1.01656e+06,0,0,0,1928,2464
1.01671e+06,0,0,0,1992,2400
1.01672e+06,0,0,0,2056,2336
1.02915e+06,0,0,0,2048,2344
1.03167e+06,0,0,0,2176,2216
1.03403e+06,0,0,0,1792,2600
1.03462e+06,0,0,0,1728,2664
1.03462e+06,0,0,0,1664,2728
1.04183e+06,0,0,0,1600,2792
1.04183e+06,0,0,0,1536,2856
1.04942e+06,0,0,0,1544,2848
1.05326e+06,0,0,0,2056,2336
1.05631e+06,0,0,0,2120,2272
1.05632e+06,0,0,0,2184,2208
1.05985e+06,0,0,0,2120,2272
1.05985e+06,0,0,0,2056,2336
1.06355e+06,0,0,0,2120,2272
1.06356e+06,0,0,0,2184,2208
1.07736e+06,0,0,0,2568,1824
1.08024e+06,0,0,0,1992,2400
1.08153e+06,0,0,0,2056,2336
1.08155e+06,0,0,0,2120,2272
1.08369e+06,0,0,0,2112,2280
1.08555e+06,0,0,0,3136,1256
1.09287e+06,0,0,0,3072,1320
1.09287e+06,0,0,0,3008,1384
1.09309e+06,0,0,0,3680,712
1.09408e+06,0,0,0,3616,776
1.09409e+06,0,0,0,3552,840
1.09626e+06,0,0,0,3040,1352
1.10373e+06,0,0,0,3048,1344
1.1074e+06,0,0,0,2048,2344
1.11094e+06,0,0,0,2040,2352
1.11455e+06,0,0,0,2104,2288
1.11457e+06,0,0,0,2168,2224
1.11578e+06,0,0,0,2232,2160
1.11579e+06,0,0,0,2296,2096
1.11763e+06,0,0,0,1912,2480
1.11796e+06,0,0,0,2424,1968
1.12313e+06,0,0,0,2040,2352
1.12356e+06,0,0,0,2616,1776
1.12531e+06,0,0,0,2552,1840
1.12531e+06,0,0,0,2488,1904
1.12711e+06,0,0,0,2424,1968
1.12711e+06,0,0,0,2360,2032
1.12891e+06,0,0,0,2296,2096
1.12892e+06,0,0,0,2232,2160
1.12952e+06,0,0,0,2168,2224
1.12952e+06,0,0,0,2104,2288
1.13105e+06,0,0,0,2096,2296
1.13107e+06,0,0,0,2104,2288
1.13495e+06,0,0,0,2040,2352
1.13495e+06,0,0,0,1976,2416
1.14699e+06,0,0,0,2040,2352
1.14704e+06,0,0,0,2104,2288
1.14876e+06,0,0,0,2040,2352
1.14876e+06,0,0,0,1976,2416
1.14882e+06,0,0,0,2040,2352
1.14884e+06,0,0,0,2104,2288
1.14936e+06,0,0,0,2040,2352
1.14937e+06,0,0,0,1976,2416
1.15058e+06,0,0,0,1912,2480
1.15058e+06,0,0,0,1848,2544
1.15062e+06,0,0,0,1912,2480
1.15063e+06,0,0,0,1976,2416
1.15072e+06,0,0,0,2976,1416
1.15077e+06,0,0,0,1952,2440
1.15121e+06,0,0,0,2016,2376
1.15122e+06,0,0,0,2024,2368
1.15124e+06,0,0,0,2088,2304
1.15125e+06,0,0,0,2080,2312
1.15178e+06,0,0,0,2016,2376
1.15178e+06,0,0,0,1952,2440
1.15582e+06,0,0,0,1440,2952
1.15659e+06,0,0,0,1376,3016
1.15659e+06,0,0,0,1312,3080
1.15664e+06,0,0,0,1376,3016
1.15666e+06,0,0,0,1440,2952
1.16095e+06,0,0,0,1824,2568
1.16641e+06,0,0,0,2208,2184
1.17047e+06,0,0,0,2272,2120
1.17048e+06,0,0,0,2336,2056
1.17107e+06,0,0,0,2400,1992
1.17108e+06,0,0,0,2464,1928
1.17187e+06,0,0,0,2472,1920
1.17226e+06,0,0,0,2536,1856
1.17232e+06,0,0,0,2600,1792
1.17349e+06,0,0,0,2664,1728
1.17351e+06,0,0,0,2520,1872
1.17351e+06,0,0,0,2584,1808
1.17752e+06,0,0,0,3096,1296
1.17827e+06,0,0,0,3160,1232
1.17828e+06,0,0,0,3224,1168
1.18054e+06,0,0,0,3096,1296
1.19189e+06,0,0,0,3088,1304
1.19524e+06,0,0,0,3232,1160
1.1986e+06,0,0,0,2720,1672
1.20185e+06,0,0,0,2848,1544
1.20369e+06,0,0,0,2720,1672
1.21194e+06,0,0,0,2336,2056
1.21213e+06,0,0,0,2328,2064
1.21216e+06,0,0,0,2336,2056
1.21428e+06,0,0,0,3360,1032
1.2203e+06,0,0,0,3872,520
1.22537e+06,0,0,0,4000,392
1.2322e+06,0,0,0,3488,904
1.23292e+06,0,0,0,3496,896
1.233e+06,0,0,0,3488,904
1.25236e+06,0,0,0,3232,1160
1.2531e+06,0,0,0,3240,1152
1.25315e+06,0,0,0,3232,1160
1.25389e+06,0,0,0,3744,648
1.25394e+06,0,0,0,3232,1160
1.25523e+06,0,0,0,3616,776
1.2606e+06,0,0,0,3552,840
1.2606e+06,0,0,0,3488,904
1.26121e+06,0,0,0,3424,968
1.26121e+06,0,0,0,3360,1032
1.26182e+06,0,0,0,3296,1096
1.26182e+06,0,0,0,3232,1160
1.26242e+06,0,0,0,3168,1224
1.26242e+06,0,0,0,3104,1288
1.26304e+06,0,0,0,3040,1352
1.26304e+06,0,0,0,2976,1416
1.26365e+06,0,0,0,2912,1480
1.26365e+06,0,0,0,2848,1544
1.26426e+06,0,0,0,2784,1608
1.26426e+06,0,0,0,2720,1672
1.26486e+06,0,0,0,2656,1736
1.26486e+06,0,0,0,2592,1800
1.26546e+06,0,0,0,2528,1864
1.26546e+06,0,0,0,2464,1928
1.26607e+06,0,0,0,2400,1992
1.26607e+06,0,0,0,2336,2056
1.27265e+06,0,0,0,1952,2440
1.27333e+06,0,0,0,1944,2448
1.27333e+06,0,0,0,1952,2440
1.27404e+06,0,0,0,2208,2184
1.27562e+06,0,0,0,2720,1672
1.27805e+06,0,0,0,2208,2184
1.2823e+06,0,0,0,2272,2120
1.28231e+06,0,0,0,2336,2056
1.28288e+06,0,0,0,2272,2120
1.28289e+06,0,0,0,2208,2184
1.2829e+06,0,0,0,2272,2120
1.28291e+06,0,0,0,2336,2056
1.28349e+06,0,0,0,2272,2120
1.28349e+06,0,0,0,2208,2184
1.2835e+06,0,0,0,2272,2120
1.28351e+06,0,0,0,2336,2056
1.28411e+06,0,0,0,2400,1992
1.28415e+06,0,0,0,2464,1928
1.2847e+06,0,0,0,2400,1992
1.2847e+06,0,0,0,2336,2056
1.28472e+06,0,0,0,2400,1992
1.28473e+06,0,0,0,2464,1928
1.28531e+06,0,0,0,2400,1992
1.28531e+06,0,0,0,2336,2056
1.28533e+06,0,0,0,2400,1992
1.28536e+06,0,0,0,2464,1928
1.28593e+06,0,0,0,2528,1864
1.28596e+06,0,0,0,2592,1800
1.28657e+06,0,0,0,2656,1736
1.2866e+06,0,0,0,2720,1672
1.28712e+06,0,0,0,2656,1736
1.28712e+06,0,0,0,2592,1800
1.28713e+06,0,0,0,2656,1736
1.28715e+06,0,0,0,2720,1672
1.28774e+06,0,0,0,2784,1608
1.28779e+06,0,0,0,2848,1544
1.29321e+06,0,0,0,2464,1928
1.29355e+06,0,0,0,2456,1936
1.29355e+06,0,0,0,2464,1928
1.29973e+06,0,0,0,2976,1416
1.30455e+06,0,0,0,2912,1480
1.30455e+06,0,0,0,2848,1544
1.30457e+06,0,0,0,2912,1480
1.30462e+06,0,0,0,2976,1416
1.30518e+06,0,0,0,3040,1352
1.3052e+06,0,0,0,3104,1288
1.30577e+06,0,0,0,3040,1352
1.30577e+06,0,0,0,2976,1416
1.30639e+06,0,0,0,3040,1352
1.30643e+06,0,0,0,3104,1288
1.30699e+06,0,0,0,3168,1224
1.307e+06,0,0,0,3232,1160
1.30877e+06,0,0,0,3168,1224
1.30877e+06,0,0,0,3104,1288
1.30882e+06,0,0,0,3168,1224
1.30883e+06,0,0,0,3232,1160
1.30998e+06,0,0,0,3168,1224
1.30998e+06,0,0,0,3104,1288
1.31239e+06,0,0,0,3040,1352
1.31239e+06,0,0,0,2976,1416
1.31376e+06,0,0,0,2984,1408
1.31401e+06,0,0,0,2976,1416
1.31594e+06,0,0,0,3360,1032
1.32626e+06,0,0,0,3424,968
1.32626e+06,0,0,0,3488,904
1.32745e+06,0,0,0,3552,840
1.3275e+06,0,0,0,3616,776
1.33046e+06,0,0,0,3680,712
1.33051e+06,0,0,0,3744,648
1.33168e+06,0,0,0,3808,584
1.3317e+06,0,0,0,3872,520
1.33407e+06,0,0,0,3936,456
1.33409e+06,0,0,0,4000,392
1.33423e+06,0,0,0,4008,384
1.33654e+06,0,0,0,4392,0
1.39368e+06,0,0,0,4384,8
1.40266e+06,0,0,0,4320,72
1.40268e+06,0,0,0,4256,136
1.40268e+06,0,0,0,4192,200
1.40269e+06,0,0,0,4128,264
1.40269e+06,0,0,0,4064,328
1.40269e+06,0,0,0,4000,392
1.40271e+06,0,0,0,3936,456
1.40272e+06,0,0,0,3872,520
1.40366e+06,0,0,0,3009,1383
1.4142e+06,0,0,0,3001,1391
1.41423e+06,0,0,0,3009,1383
1.41434e+06,0,0,0,2881,1511
1.41434e+06,0,0,0,2753,1639
1.41434e+06,0,0,0,2625,1767
1.41435e+06,0,0,0,2497,1895
1.41435e+06,0,0,0,2369,2023
1.41435e+06,0,0,0,2241,2151
1.41435e+06,0,0,0,2113,2279
1.41435e+06,0,0,0,1985,2407
1.41435e+06,0,0,0,1857,2535
1.41435e+06,0,0,0,1729,2663
1.41436e+06,0,0,0,1601,2791
1.41436e+06,0,0,0,1473,2919
1.42352e+06,0,0,0,1345,3047
1.42436e+06,0,0,0,1409,2983
1.42436e+06,0,0,0,1473,2919
1.42437e+06,0,0,0,1537,2855
1.42439e+06,0,0,0,1153,3239
1.42439e+06,0,0,0,1217,3175
1.4244e+06,0,0,0,1281,3111
1.42442e+06,0,0,0,1345,3047
1.42443e+06,0,0,0,1409,2983
1.42444e+06,0,0,0,1473,2919
1.42468e+06,0,0,0,1465,2927
1.42775e+06,0,0,0,1401,2991
1.42775e+06,0,0,0,1337,3055
1.42835e+06,0,0,0,1273,3119
1.42835e+06,0,0,0,1209,3183
1.42897e+06,0,0,0,1145,3247
1.42898e+06,0,0,0,1081,3311
1.42913e+06,0,0,0,697,3695
1.42958e+06,0,0,0,633,3759
1.42958e+06,0,0,0,569,3823
1.43019e+06,0,0,0,505,3887
1.43019e+06,0,0,0,441,3951
1.4308e+06,0,0,0,377,4015
1.4308e+06,0,0,0,313,4079
1.4314e+06,0,0,0,249,4143
1.4314e+06,0,0,0,185,4207
1.432e+06,0,0,0,121,4271
1.432e+06,0,0,0,57,4335
1.43528e+06,0,0,0,65,4327
1.43528e+06,0,0,0,1,4391
1.43602e+06,0,0,0,129,4263
1.43603e+06,0,0,0,65,4327
1.43603e+06,0,0,0,1,4391
1.43603e+06,0,0,0,129,4263
1.43604e+06,0,0,0,65,4327
1.43605e+06,0,0,0,193,4199
1.43606e+06,0,0,0,321,4071
1.43606e+06,0,0,0,449,3943
1.43606e+06,0,0,0,577,3815
1.43607e+06,0,0,0,705,3687
1.43608e+06,0,0,0,833,3559
1.43608e+06,0,0,0,961,3431
1.43699e+06,0,0,0,1089,3303
1.43699e+06,0,0,0,1217,3175
1.43699e+06,0,0,0,1345,3047
1.44509e+06,0,0,0,1353,3039
1.44521e+06,0,0,0,1481,2911
1.44943e+06,0,0,0,1545,2847
1.44943e+06,0,0,0,9,4383
1.44943e+06,0,0,0,1,4391
1.45005e+06,0,0,0,65,4327
1.45005e+06,0,0,0,129,4263
1.45005e+06,0,0,0,97,4295
1.45005e+06,0,0,0,65,4327
1.45038e+06,0,0,0,129,4263
1.45039e+06,0,0,0,1,4391
1.4506e+06,0,0,0,864,3528
1.45125e+06,0,0,0,928,3464
1.45132e+06,0,0,0,992,3400
1.45163e+06,0,0,0,1056,3336
1.4518e+06,0,0,0,1120,3272
1.45187e+06,0,0,0,1184,3208
1.45188e+06,0,0,0,1248,3144
1.4525e+06,0,0,0,1312,3080
1.45309e+06,0,0,0,1376,3016
1.45347e+06,0,0,0,1440,2952
1.45369e+06,0,0,0,1504,2888
1.45375e+06,0,0,0,1568,2824
1.45402e+06,0,0,0,1632,2760
1.45699e+06,0,0,0,1696,2696
1.45772e+06,0,0,0,1760,2632
1.45773e+06,0,0,0,1824,2568
1.45774e+06,0,0,0,1888,2504
1.46768e+06,0,0,0,2272,2120
1.47092e+06,0,0,0,2280,2112
1.47175e+06,0,0,0,2312,2080
1.47176e+06,0,0,0,2344,2048
1.47208e+06,0,0,0,2472,1920
1.47337e+06,0,0,0,2856,1536
1.53623e+06,0,0,0,4392,0
