job_id,workload_name,profile,submission_time,requested_number_of_resources,requested_time,success,final_state,starting_time,execution_time,finish_time,waiting_time,turnaround_time,stretch,allocated_resources,consumed_energy,metadata
12_0_1,w0,profile_12,0.000000,256,21652.000000,1,COMPLETED_SUCCESSFULLY,0.004200,21651.000000,21651.004200,0.004200,21651.004200,1.000000,1536-1791,-1.000000,""
14_0_1,w0,profile_14,0.000000,256,21652.000000,1,COMPLETED_SUCCESSFULLY,0.005400,21651.000000,21651.005400,0.005400,21651.005400,1.000000,2048-2303,-1.000000,""
13_0_1,w0,profile_13,0.000000,256,21653.000000,1,COMPLETED_SUCCESSFULLY,0.004800,21652.000000,21652.004800,0.004800,21652.004800,1.000000,1792-2047,-1.000000,""
10_0_1,w0,profile_10,0.000000,256,21655.000000,1,COMPLETED_SUCCESSFULLY,0.003000,21654.000000,21654.003000,0.003000,21654.003000,1.000000,1024-1279,-1.000000,""
11_0_1,w0,profile_11,0.000000,256,21656.000000,1,COMPLETED_SUCCESSFULLY,0.003600,21655.000000,21655.003600,0.003600,21655.003600,1.000000,1280-1535,-1.000000,""
17_0_1,w0,profile_17,0.000000,512,32381.000000,1,COMPLETED_SUCCESSFULLY,0.007200,32380.000000,32380.007200,0.007200,32380.007200,1.000000,3678-4189,-1.000000,""
16_0_1,w0,profile_16,0.000000,512,32427.000000,1,COMPLETED_SUCCESSFULLY,0.006600,32426.000000,32426.006600,0.006600,32426.006600,1.000000,3166-3677,-1.000000,""
18_0_1,w0,profile_18,0.000000,1024,21600.000000,1,COMPLETED_SUCCESSFULLY,21666.010050,21556.000000,43222.010050,21666.010050,43222.010050,2.005103,1024-2047,-1.000000,""
22_0_1,w0,profile_22,0.000000,608,21600.000000,1,COMPLETED_SUCCESSFULLY,43225.012300,20969.000000,64194.012300,43225.012300,64194.012300,3.061377,3518-3677 3934-4381,-1.000000,""
0_0_1,w0,profile_0,0.000000,1024,72047.000000,1,COMPLETED_SUCCESSFULLY,0.002400,72046.000000,72046.002400,0.002400,72046.002400,1.000000,0-1023,-1.000000,""
15_0_1,w0,profile_15,0.000000,862,86400.000000,1,COMPLETED_SUCCESSFULLY,0.006000,85932.000000,85932.006000,0.006000,85932.006000,1.000000,2304-3165,-1.000000,""
19_0_1,w0,profile_19,0.000000,512,64800.000000,1,COMPLETED_SUCCESSFULLY,32383.008850,59505.000000,91888.008850,32383.008850,91888.008850,1.544207,2048-2303 3678-3933,-1.000000,""
21_0_1,w0,profile_21,0.000000,1024,21683.000000,1,COMPLETED_SUCCESSFULLY,85935.007650,21682.000000,107617.007650,85935.007650,107617.007650,4.963426,2304-3165 3518-3677 3934-3935,-1.000000,""
23_0_1,w0,profile_23,0.000000,608,21600.000000,1,COMPLETED_SUCCESSFULLY,91891.010500,21147.000000,113038.010500,91891.010500,113038.010500,5.345345,2048-2303 3678-3933 3936-4031,-1.000000,""
20_0_1,w0,profile_20,0.000000,1024,86400.000000,1,COMPLETED_SUCCESSFULLY,72049.004050,56659.000000,128708.004050,72049.004050,128708.004050,2.271625,0-1023,-1.000000,""
1_0_1,w0,profile_1,0.000000,1376,86511.000000,1,COMPLETED_SUCCESSFULLY,43225.011700,86510.000000,129735.011700,43225.011700,129735.011700,1.499653,1024-2047 3166-3517,-1.000000,""
24_0_1,w0,profile_24,0.000000,512,32400.000000,1,COMPLETED_SUCCESSFULLY,107620.009300,24059.000000,131679.009300,107620.009300,131679.009300,5.473171,2304-2815,-1.000000,""
25_0_1,w0,profile_25,0.000000,512,32340.000000,1,COMPLETED_SUCCESSFULLY,107620.009900,30634.000000,138254.009900,107620.009900,138254.009900,4.513090,2816-3165 3518-3677 3934-3935,-1.000000,""
27_0_1,w0,profile_27,0.000000,256,21651.000000,1,COMPLETED_SUCCESSFULLY,128711.005700,21650.000000,150361.005700,128711.005700,150361.005700,6.945081,0-255,-1.000000,""
28_0_1,w0,profile_28,0.000000,1024,21600.000000,1,COMPLETED_SUCCESSFULLY,129738.013350,21597.000000,151335.013350,129738.013350,151335.013350,7.007224,256-1279,-1.000000,""
29_0_1,w0,profile_29,0.000000,512,32400.000000,1,COMPLETED_SUCCESSFULLY,129738.013950,22734.000000,152472.013950,129738.013950,152472.013950,6.706783,1280-1791,-1.000000,""
34_0_1,w0,profile_34,0.000000,256,21623.000000,1,COMPLETED_SUCCESSFULLY,138257.012150,21622.000000,159879.012150,138257.012150,159879.012150,7.394275,3072-3165 3422-3583,-1.000000,""
33_0_1,w0,profile_33,0.000000,256,21645.000000,1,COMPLETED_SUCCESSFULLY,138257.011550,21644.000000,159901.011550,138257.011550,159901.011550,7.387775,2816-3071,-1.000000,""
3_0_1,w0,profile_3,0.000000,256,21697.000000,1,COMPLETED_SUCCESSFULLY,159904.013200,21696.000000,181600.013200,159904.013200,181600.013200,8.370207,2816-3071,-1.000000,""
26_0_1,w0,profile_26,0.000000,862,86400.000000,1,COMPLETED_SUCCESSFULLY,113041.012150,85958.000000,198999.012150,113041.012150,198999.012150,2.315073,2048-2303 3678-3933 3936-4285,-1.000000,""
2_0_1,w0,profile_2,0.000000,1024,86400.000000,1,COMPLETED_SUCCESSFULLY,131682.010950,84812.000000,216494.010950,131682.010950,216494.010950,2.552634,1792-2047 2304-2815 3166-3421,-1.000000,""
31_0_1,w0,profile_31,0.000000,512,25226.000000,1,COMPLETED_SUCCESSFULLY,199002.013800,25225.000000,224227.013800,199002.013800,224227.013800,8.889079,2048-2303 2816-3071,-1.000000,""
5_0_1,w0,profile_5,0.000000,256,21614.000000,1,COMPLETED_SUCCESSFULLY,216497.013800,21613.000000,238110.013800,216497.013800,238110.013800,11.016981,4096-4351,-1.000000,""
32_0_1,w0,profile_32,0.000000,1024,21626.000000,1,COMPLETED_SUCCESSFULLY,216497.012600,21625.000000,238122.012600,216497.012600,238122.012600,11.011423,1792-2047 2304-2815 3166-3421,-1.000000,""
7_0_1,w0,profile_7,0.000000,256,21600.000000,1,COMPLETED_SUCCESSFULLY,224230.015450,21571.000000,245801.015450,224230.015450,245801.015450,11.394975,2048-2303,-1.000000,""
9_0_1,w0,profile_9,0.000000,256,21673.000000,1,COMPLETED_SUCCESSFULLY,224230.016050,21672.000000,245902.016050,224230.016050,245902.016050,11.346531,2816-3071,-1.000000,""
30_0_1,w0,profile_30,0.000000,2048,86474.000000,1,COMPLETED_SUCCESSFULLY,159882.013800,86473.000000,246355.013800,159882.013800,246355.013800,2.848924,0-1791 3072-3165 3422-3583,-1.000000,""
38_0_1,w0,profile_38,0.000000,512,32400.000000,1,COMPLETED_SUCCESSFULLY,246358.016650,22909.000000,269267.016650,246358.016650,269267.016650,11.753766,3072-3583,-1.000000,""
6_0_1,w0,profile_6,0.000000,256,22911.000000,1,COMPLETED_SUCCESSFULLY,246358.017250,22910.000000,269268.017250,246358.017250,269268.017250,11.753296,4096-4351,-1.000000,""
37_0_1,w0,profile_37,0.000000,1024,23072.000000,1,COMPLETED_SUCCESSFULLY,246358.016050,23071.000000,269429.016050,246358.016050,269429.016050,11.678255,2048-3071,-1.000000,""
36_0_1,w0,profile_36,0.000000,2048,86400.000000,1,COMPLETED_SUCCESSFULLY,246358.015450,40591.000000,286949.015450,246358.015450,286949.015450,7.069277,0-2047,-1.000000,""
41_0_1,w0,profile_41,78956.000000,256,21622.000000,1,COMPLETED_SUCCESSFULLY,269432.018900,21621.000000,291053.018900,190476.018900,212097.018900,9.809769,4096-4351,-1.000000,""
4_0_1,w0,profile_4,0.000000,512,32400.000000,1,COMPLETED_SUCCESSFULLY,269273.019350,22446.000000,291719.019350,269273.019350,291719.019350,12.996481,3072-3583,-1.000000,""
39_0_1,w0,profile_39,69018.000000,512,32400.000000,1,COMPLETED_SUCCESSFULLY,269432.018300,23696.000000,293128.018300,200414.018300,224110.018300,9.457715,2560-3071,-1.000000,""
8_0_1,w0,profile_8,0.000000,512,32340.000000,1,COMPLETED_SUCCESSFULLY,269432.017700,27686.000000,297118.017700,269432.017700,297118.017700,10.731706,2048-2559,-1.000000,""
35_0_1,w0,profile_35,0.000000,512,97140.000000,1,COMPLETED_SUCCESSFULLY,216497.013200,84459.000000,300956.013200,216497.013200,300956.013200,3.563339,3584-4095,-1.000000,""
43_0_1,w0,profile_43,117368.000000,1024,21600.000000,1,COMPLETED_SUCCESSFULLY,286952.018300,21550.000000,308502.018300,169584.018300,191134.018300,8.869328,1024-2047,-1.000000,""
42_0_1,w0,profile_42,94730.000000,512,32400.000000,1,COMPLETED_SUCCESSFULLY,286952.017700,23840.000000,310792.017700,192222.017700,216062.017700,9.063004,512-1023,-1.000000,""
44_0_1,w0,profile_44,117372.000000,1024,21644.000000,1,COMPLETED_SUCCESSFULLY,293131.019950,21643.000000,314774.019950,175759.019950,197402.019950,9.120825,2560-3583,-1.000000,""
40_0_1,w0,profile_40,76525.000000,512,27936.000000,1,COMPLETED_SUCCESSFULLY,286952.017100,27935.000000,314887.017100,210427.017100,238362.017100,8.532737,0-511,-1.000000,""
46_0_1,w0,profile_46,125521.000000,256,21628.000000,1,COMPLETED_SUCCESSFULLY,308505.020550,21627.000000,330132.020550,182984.020550,204611.020550,9.460906,4096-4351,-1.000000,""
47_0_1,w0,profile_47,157426.000000,512,32400.000000,1,COMPLETED_SUCCESSFULLY,310795.019350,21914.000000,332709.019350,153369.019350,175283.019350,7.998678,512-1023,-1.000000,""
48_0_1,w0,profile_48,157660.000000,256,23095.000000,1,COMPLETED_SUCCESSFULLY,314777.021600,23094.000000,337871.021600,157117.021600,180211.021600,7.803370,2560-2815,-1.000000,""
49_0_1,w0,profile_49,158341.000000,256,23110.000000,1,COMPLETED_SUCCESSFULLY,314777.022200,23109.000000,337886.022200,156436.022200,179545.022200,7.769485,2816-3071,-1.000000,""
53_0_1,w0,profile_53,253011.000000,256,21667.000000,1,COMPLETED_SUCCESSFULLY,332712.021600,21666.000000,354378.021600,79701.021600,101367.021600,4.678622,3422-3583 4096-4189,-1.000000,""
51_0_1,w0,profile_51,245699.000000,512,32400.000000,1,COMPLETED_SUCCESSFULLY,332712.021000,22364.000000,355076.021000,87013.021000,109377.021000,4.890763,512-1023,-1.000000,""
68_0_1,w0,profile_68,311184.000000,256,21600.000000,1,COMPLETED_SUCCESSFULLY,337889.023850,20530.000000,358419.023850,26705.023850,47235.023850,2.300781,2816-3071,-1.000000,""
54_0_1,w0,profile_54,255572.000000,256,21679.000000,1,COMPLETED_SUCCESSFULLY,337874.023250,21678.000000,359552.023250,82302.023250,103980.023250,4.796569,2560-2815,-1.000000,""
52_0_1,w0,profile_52,248264.000000,1024,21661.000000,1,COMPLETED_SUCCESSFULLY,358422.025500,21660.000000,380082.025500,110158.025500,131818.025500,6.085781,512-1023 2816-3071 3422-3583 4096-4189,-1.000000,""
45_0_1,w0,profile_45,117617.000000,2048,86400.000000,1,COMPLETED_SUCCESSFULLY,308505.019950,85067.000000,393572.019950,190888.019950,275955.019950,3.243973,1024-2559 3584-4095,-1.000000,""
55_0_1,w0,profile_55,258036.000000,1024,21657.000000,1,COMPLETED_SUCCESSFULLY,380085.027150,21656.000000,401741.027150,122049.027150,143705.027150,6.635807,512-1023 2560-3071,-1.000000,""
50_0_1,w0,profile_50,237643.000000,862,87237.000000,1,COMPLETED_SUCCESSFULLY,314890.018750,87236.000000,402126.018750,77247.018750,164483.018750,1.885495,0-511 3072-3421,-1.000000,""
57_0_1,w0,profile_57,272222.000000,1088,43200.000000,1,COMPLETED_SUCCESSFULLY,393575.022200,20695.000000,414270.022200,121353.022200,142048.022200,6.863881,1596-2559 3422-3545,-1.000000,""
58_0_1,w0,profile_58,272981.000000,512,32400.000000,1,COMPLETED_SUCCESSFULLY,393575.022800,22295.000000,415870.022800,120594.022800,142889.022800,6.409016,3546-4057,-1.000000,""
59_0_1,w0,profile_59,274320.000000,1024,21624.000000,1,COMPLETED_SUCCESSFULLY,401744.028800,21623.000000,423367.028800,127424.028800,149047.028800,6.892986,512-1023 2560-3071,-1.000000,""
74_0_1,w0,profile_74,352144.000000,256,21640.000000,1,COMPLETED_SUCCESSFULLY,402129.021600,21639.000000,423768.021600,49985.021600,71624.021600,3.309951,4092-4347,-1.000000,""
69_0_1,w0,profile_69,325658.000000,384,21654.000000,1,COMPLETED_SUCCESSFULLY,402129.021000,21653.000000,423782.021000,76471.021000,98124.021000,4.531659,3072-3421 4058-4091,-1.000000,""
56_0_1,w0,profile_56,258382.000000,572,32447.000000,1,COMPLETED_SUCCESSFULLY,393575.021600,32446.000000,426021.021600,135193.021600,167639.021600,5.166708,1024-1595,-1.000000,""
60_0_1,w0,profile_60,292102.000000,512,25245.000000,1,COMPLETED_SUCCESSFULLY,402129.020400,25244.000000,427373.020400,110027.020400,135271.020400,5.358541,0-511,-1.000000,""
75_0_1,w0,profile_75,352147.000000,256,21649.000000,1,COMPLETED_SUCCESSFULLY,427376.022650,21648.000000,449024.022650,75229.022650,96877.022650,4.475103,4096-4351,-1.000000,""
76_0_1,w0,profile_76,352150.000000,256,21656.000000,1,COMPLETED_SUCCESSFULLY,449027.024300,21655.000000,470682.024300,96877.024300,118532.024300,5.473656,4096-4351,-1.000000,""
77_0_1,w0,profile_77,352158.000000,256,21728.000000,1,COMPLETED_SUCCESSFULLY,470685.025950,21727.000000,492412.025950,118527.025950,140254.025950,6.455287,4096-4351,-1.000000,""
61_0_1,w0,profile_61,304191.000000,2048,86400.000000,1,COMPLETED_SUCCESSFULLY,423370.030450,85325.000000,508695.030450,119179.030450,204504.030450,2.396766,512-1023 1596-3071 3422-3481,-1.000000,""
62_0_1,w0,profile_62,304207.000000,2048,86400.000000,1,COMPLETED_SUCCESSFULLY,427376.022050,85323.000000,512699.022050,123169.022050,208492.022050,2.443562,0-511 1024-1595 3072-3421 3482-4095,-1.000000,""
78_0_1,w0,profile_78,352160.000000,256,21662.000000,1,COMPLETED_SUCCESSFULLY,512702.024300,21661.000000,534363.024300,160542.024300,182203.024300,8.411570,4096-4351,-1.000000,""
87_0_1,w0,profile_87,430105.000000,256,21615.000000,1,COMPLETED_SUCCESSFULLY,534366.025950,21614.000000,555980.025950,104261.025950,125875.025950,5.823773,4096-4351,-1.000000,""
91_0_1,w0,profile_91,509575.000000,256,21600.000000,1,COMPLETED_SUCCESSFULLY,555983.027600,21553.000000,577536.027600,46408.027600,67961.027600,3.153205,4096-4351,-1.000000,""
63_0_1,w0,profile_63,304214.000000,2048,86400.000000,1,COMPLETED_SUCCESSFULLY,508698.032100,85315.000000,594013.032100,204484.032100,289799.032100,3.396812,512-1023 1596-3071 3422-3481,-1.000000,""
64_0_1,w0,profile_64,304226.000000,2048,86422.000000,1,COMPLETED_SUCCESSFULLY,512702.023700,86421.000000,599123.023700,208476.023700,294897.023700,3.412331,0-511 1024-1595 3072-3421 3482-4095,-1.000000,""
92_0_1,w0,profile_92,509658.000000,256,21600.000000,1,COMPLETED_SUCCESSFULLY,599126.025950,21565.000000,620691.025950,89468.025950,111033.025950,5.148761,4096-4351,-1.000000,""
102_0_1,w0,profile_102,649683.000000,256,21657.000000,1,COMPLETED_SUCCESSFULLY,649683.001800,21656.000000,671339.001800,0.001800,21656.001800,1.000000,4096-4351,-1.000000,""
65_0_1,w0,profile_65,304233.000000,2048,86400.000000,1,COMPLETED_SUCCESSFULLY,594016.033750,85130.000000,679146.033750,289783.033750,374913.033750,4.404006,512-1023 1596-3071 3422-3481,-1.000000,""
66_0_1,w0,profile_66,304246.000000,2048,86400.000000,1,COMPLETED_SUCCESSFULLY,599126.025350,85272.000000,684398.025350,294880.025350,380152.025350,4.458111,0-511 1024-1595 3072-3421 3482-4095,-1.000000,""
103_0_1,w0,profile_103,666944.000000,256,21540.000000,1,COMPLETED_SUCCESSFULLY,684401.028200,21333.000000,705734.028200,17457.028200,38790.028200,1.818311,3584-3839,-1.000000,""
105_0_1,w0,profile_105,684353.000000,256,21600.000000,1,COMPLETED_SUCCESSFULLY,684401.028800,21560.000000,705961.028800,48.028800,21608.028800,1.002228,3840-4095,-1.000000,""
71_0_1,w0,profile_71,333231.000000,1024,21600.000000,1,COMPLETED_SUCCESSFULLY,684401.027600,21562.000000,705963.027600,351170.027600,372732.027600,17.286524,1024-1595 3072-3421 3482-3583,-1.000000,""
70_0_1,w0,profile_70,332045.000000,512,32400.000000,1,COMPLETED_SUCCESSFULLY,684401.027000,22678.000000,707079.027000,352356.027000,375034.027000,16.537350,0-511,-1.000000,""
106_0_1,w0,profile_106,686089.000000,256,21600.000000,1,COMPLETED_SUCCESSFULLY,705967.032700,21582.000000,727549.032700,19878.032700,41460.032700,1.921047,3968-4223,-1.000000,""
72_0_1,w0,profile_72,333242.000000,1024,21607.000000,1,COMPLETED_SUCCESSFULLY,705967.031500,21606.000000,727573.031500,372725.031500,394331.031500,18.250997,1024-1595 3072-3421 3482-3583,-1.000000,""
73_0_1,w0,profile_73,340804.000000,384,32459.000000,1,COMPLETED_SUCCESSFULLY,705967.032100,32458.000000,738425.032100,365163.032100,397621.032100,12.250324,3584-3967,-1.000000,""
97_0_1,w0,profile_97,617087.000000,384,21657.000000,1,COMPLETED_SUCCESSFULLY,727576.034350,21656.000000,749232.034350,110489.034350,132145.034350,6.102006,3968-4351,-1.000000,""
79_0_1,w0,profile_79,356316.000000,1024,21676.000000,1,COMPLETED_SUCCESSFULLY,727576.033150,21675.000000,749251.033150,371260.033150,392935.033150,18.128491,0-511 1024-1535,-1.000000,""
80_0_1,w0,profile_80,364788.000000,512,32400.000000,1,COMPLETED_SUCCESSFULLY,727576.033750,22427.000000,750003.033750,362788.033750,385215.033750,17.176396,1536-1595 3072-3421 3482-3583,-1.000000,""
67_0_1,w0,profile_67,304264.000000,2048,86400.000000,1,COMPLETED_SUCCESSFULLY,679149.035400,85105.000000,764254.035400,374885.035400,459990.035400,5.404971,512-1023 1596-3071 3422-3481,-1.000000,""
82_0_1,w0,profile_82,418509.000000,512,32400.000000,1,COMPLETED_SUCCESSFULLY,749254.035400,22547.000000,771801.035400,330745.035400,353292.035400,15.669137,3616-4127,-1.000000,""
83_0_1,w0,profile_83,420579.000000,2048,22950.000000,1,COMPLETED_SUCCESSFULLY,764257.037050,22949.000000,787206.037050,343678.037050,366627.037050,15.975730,512-1023 1536-3071,-1.000000,""
81_0_1,w0,profile_81,394135.000000,1056,86400.000000,1,COMPLETED_SUCCESSFULLY,749254.034800,40106.000000,789360.034800,355119.034800,395225.034800,9.854511,0-511 1024-1535 3584-3615,-1.000000,""
85_0_1,w0,profile_85,427171.000000,640,43200.000000,1,COMPLETED_SUCCESSFULLY,771804.037050,27820.000000,799624.037050,344633.037050,372453.037050,13.387960,3616-4127 4256-4383,-1.000000,""
84_0_1,w0,profile_84,427025.000000,640,43275.000000,1,COMPLETED_SUCCESSFULLY,764257.037650,43274.000000,807531.037650,337232.037650,380506.037650,8.792948,3072-3583 4128-4255,-1.000000,""
88_0_1,w0,profile_88,442754.000000,512,32400.000000,1,COMPLETED_SUCCESSFULLY,787209.039300,23389.000000,810598.039300,344455.039300,367844.039300,15.727224,2048-2559,-1.000000,""
89_0_1,w0,profile_89,443080.000000,1024,21650.000000,1,COMPLETED_SUCCESSFULLY,789363.036450,21649.000000,811012.036450,346283.036450,367932.036450,16.995336,0-511 1024-1535,-1.000000,""
94_0_1,w0,profile_94,526172.000000,1024,21634.000000,1,COMPLETED_SUCCESSFULLY,811015.038100,21633.000000,832648.038100,284843.038100,306476.038100,14.167061,0-511 1024-1535,-1.000000,""
95_0_1,w0,profile_95,541816.000000,512,32400.000000,1,COMPLETED_SUCCESSFULLY,811015.038700,22945.000000,833960.038700,269199.038700,292144.038700,12.732362,2048-2559,-1.000000,""
93_0_1,w0,profile_93,520106.000000,640,43200.000000,1,COMPLETED_SUCCESSFULLY,807534.039300,28775.000000,836309.039300,287428.039300,316203.039300,10.988811,3072-3583 4128-4255,-1.000000,""
98_0_1,w0,profile_98,617320.000000,512,32400.000000,1,COMPLETED_SUCCESSFULLY,832651.040350,22561.000000,855212.040350,215331.040350,237892.040350,10.544393,1084-1535 4256-4315,-1.000000,""
112_0_1,w0,profile_112,698602.000000,256,21663.000000,1,COMPLETED_SUCCESSFULLY,836312.041550,21662.000000,857974.041550,137710.041550,159372.041550,7.357217,3200-3455,-1.000000,""
113_0_1,w0,profile_113,698650.000000,256,21746.000000,1,COMPLETED_SUCCESSFULLY,836312.042150,21745.000000,858057.042150,137662.042150,159407.042150,7.330745,3456-3583 4128-4255,-1.000000,""
86_0_1,w0,profile_86,429076.000000,1024,72060.000000,1,COMPLETED_SUCCESSFULLY,787209.038700,72059.000000,859268.038700,358133.038700,430192.038700,5.969997,512-1023 1536-2047,-1.000000,""
96_0_1,w0,profile_96,563302.000000,572,32501.000000,1,COMPLETED_SUCCESSFULLY,832651.039750,32500.000000,865151.039750,269349.039750,301849.039750,9.287663,0-511 1024-1083,-1.000000,""
99_0_1,w0,profile_99,640886.000000,640,43200.000000,1,COMPLETED_SUCCESSFULLY,836312.040950,41922.000000,878234.040950,195426.040950,237348.040950,5.661658,2048-2559 3072-3199,-1.000000,""
104_0_1,w0,profile_104,673205.000000,512,32400.000000,1,COMPLETED_SUCCESSFULLY,859271.040950,23150.000000,882421.040950,186066.040950,209216.040950,9.037410,1664-2047 3388-3515,-1.000000,""
90_0_1,w0,profile_90,450701.000000,1056,86529.000000,1,COMPLETED_SUCCESSFULLY,799627.038700,86528.000000,886155.038700,348926.038700,435454.038700,5.032522,2560-3071 3584-4127,-1.000000,""
101_0_1,w0,profile_101,641008.000000,640,43200.000000,1,COMPLETED_SUCCESSFULLY,859271.040350,40694.000000,899965.040350,218263.040350,258957.040350,6.363519,512-1023 1536-1663,-1.000000,""
100_0_1,w0,profile_100,640942.000000,640,44446.000000,1,COMPLETED_SUCCESSFULLY,857977.043200,44445.000000,902422.043200,217035.043200,261480.043200,5.883227,1084-1535 3200-3387,-1.000000,""
107_0_1,w0,profile_107,692083.000000,640,43266.000000,1,COMPLETED_SUCCESSFULLY,865154.041400,43265.000000,908419.041400,173071.041400,216336.041400,5.000255,0-511 1024-1083 3516-3583,-1.000000,""
108_0_1,w0,profile_108,692154.000000,640,43200.000000,1,COMPLETED_SUCCESSFULLY,878237.042600,40863.000000,919100.042600,186083.042600,226946.042600,5.553827,2048-2559 3072-3199,-1.000000,""
114_0_1,w0,profile_114,698686.000000,256,21639.000000,1,COMPLETED_SUCCESSFULLY,899968.042600,21638.000000,921606.042600,201282.042600,222920.042600,10.302248,3712-3967,-1.000000,""
109_0_1,w0,profile_109,692564.000000,640,43200.000000,1,COMPLETED_SUCCESSFULLY,882424.042600,40960.000000,923384.042600,189860.042600,230820.042600,5.635255,1664-2047 3388-3515 4128-4255,-1.000000,""
116_0_1,w0,profile_116,704511.000000,256,21603.000000,1,COMPLETED_SUCCESSFULLY,902425.045450,21602.000000,924027.045450,197914.045450,219516.045450,10.161839,3260-3387 3968-4095,-1.000000,""
115_0_1,w0,profile_115,699350.000000,512,32400.000000,1,COMPLETED_SUCCESSFULLY,902425.044850,25276.000000,927701.044850,203075.044850,228351.044850,9.034303,1084-1535 3200-3259,-1.000000,""
110_0_1,w0,profile_110,692706.000000,640,43200.000000,1,COMPLETED_SUCCESSFULLY,886158.040350,41987.000000,928145.040350,193452.040350,235439.040350,5.607427,2560-3071 3584-3711,-1.000000,""
117_0_1,w0,profile_117,714756.000000,256,21620.000000,1,COMPLETED_SUCCESSFULLY,908422.043050,21619.000000,930041.043050,193666.043050,215285.043050,9.958141,0-255,-1.000000,""
118_0_1,w0,profile_118,730769.000000,512,32400.000000,1,COMPLETED_SUCCESSFULLY,908422.043650,26379.000000,934801.043650,177653.043650,204032.043650,7.734639,256-511 1024-1083 3516-3583 4096-4127 4256-4351,-1.000000,""
111_0_1,w0,profile_111,692724.000000,640,43200.000000,1,COMPLETED_SUCCESSFULLY,899968.042000,40709.000000,940677.042000,207244.042000,247953.042000,6.090865,512-1023 1536-1663,-1.000000,""
121_0_1,w0,profile_121,751278.000000,256,21610.000000,1,COMPLETED_SUCCESSFULLY,927704.046500,21609.000000,949313.046500,176426.046500,198035.046500,9.164471,1084-1339,-1.000000,""
122_0_1,w0,profile_122,752909.000000,256,21624.000000,1,COMPLETED_SUCCESSFULLY,927704.047100,21622.000000,949326.047100,174795.047100,196417.047100,9.084129,1340-1535 3200-3259,-1.000000,""
119_0_1,w0,profile_119,748789.000000,802,28958.000000,1,COMPLETED_SUCCESSFULLY,921609.044250,28957.000000,950566.044250,172820.044250,201777.044250,6.968161,2048-2559 3072-3199 3712-3873,-1.000000,""
124_0_1,w0,profile_124,772231.000000,512,21600.000000,1,COMPLETED_SUCCESSFULLY,930044.044700,21586.000000,951630.044700,157813.044700,179399.044700,8.310898,0-255 3584-3711 4036-4095 4128-4195,-1.000000,""
123_0_1,w0,profile_123,764164.000000,512,32400.000000,1,COMPLETED_SUCCESSFULLY,928148.042000,24601.000000,952749.042000,163984.042000,188585.042000,7.665747,2560-3071,-1.000000,""
120_0_1,w0,profile_120,748806.000000,802,28862.000000,1,COMPLETED_SUCCESSFULLY,924030.047100,28861.000000,952891.047100,175224.047100,204085.047100,7.071309,1664-2047 3260-3515 3874-4035,-1.000000,""
125_0_1,w0,profile_125,780600.000000,256,21663.000000,1,COMPLETED_SUCCESSFULLY,934804.045300,21662.000000,956466.045300,154204.045300,175866.045300,8.118643,256-511,-1.000000,""
126_0_1,w0,profile_126,780617.000000,256,21664.000000,1,COMPLETED_SUCCESSFULLY,934804.045900,21663.000000,956467.045900,154187.045900,175850.045900,8.117530,1024-1083 3516-3583 4096-4127 4196-4291,-1.000000,""
127_0_1,w0,profile_127,780658.000000,256,21646.000000,1,COMPLETED_SUCCESSFULLY,940680.043650,21645.000000,962325.043650,160022.043650,181667.043650,8.393026,512-767,-1.000000,""
128_0_1,w0,profile_128,780697.000000,256,21689.000000,1,COMPLETED_SUCCESSFULLY,940680.044250,21688.000000,962368.044250,159983.044250,181671.044250,8.376570,768-1023,-1.000000,""
131_0_1,w0,profile_131,788091.000000,256,21540.000000,1,COMPLETED_SUCCESSFULLY,950569.047100,20633.000000,971202.047100,162478.047100,183111.047100,8.874669,3712-3873 4292-4385,-1.000000,""
130_0_1,w0,profile_130,784309.000000,256,21658.000000,1,COMPLETED_SUCCESSFULLY,950569.046500,21657.000000,972226.046500,166260.046500,187917.046500,8.676966,2492-2559 3072-3259,-1.000000,""
132_0_1,w0,profile_132,807739.000000,280,21656.000000,1,COMPLETED_SUCCESSFULLY,951633.046350,21655.000000,973288.046350,143894.046350,165549.046350,7.644842,0-255 3584-3607,-1.000000,""
129_0_1,w0,profile_129,782846.000000,1024,23010.000000,1,COMPLETED_SUCCESSFULLY,950569.045900,23009.000000,973578.045900,167723.045900,190732.045900,8.289454,1084-1663 2048-2491,-1.000000,""
133_0_1,w0,profile_133,816476.000000,256,21600.000000,1,COMPLETED_SUCCESSFULLY,952752.043650,21514.000000,974266.043650,136276.043650,157790.043650,7.334296,2560-2815,-1.000000,""
134_0_1,w0,profile_134,816482.000000,256,21603.000000,1,COMPLETED_SUCCESSFULLY,952752.044250,21602.000000,974354.044250,136270.044250,157872.044250,7.308214,2816-3071,-1.000000,""
135_0_1,w0,profile_135,818935.000000,256,21636.000000,1,COMPLETED_SUCCESSFULLY,952894.048750,21635.000000,974529.048750,133959.048750,155594.048750,7.191775,1664-1919,-1.000000,""
137_0_1,w0,profile_137,848471.000000,512,32400.000000,1,COMPLETED_SUCCESSFULLY,956472.048000,22323.000000,978795.048000,108001.048000,130324.048000,5.838106,256-511 1024-1083 3516-3583 3656-3711 3874-3945,-1.000000,""
136_0_1,w0,profile_136,832309.000000,432,32509.000000,1,COMPLETED_SUCCESSFULLY,952894.049350,32508.000000,985402.049350,120585.049350,153093.049350,4.709396,1920-2047 3260-3515 3608-3655,-1.000000,""
139_0_1,w0,profile_139,863007.000000,256,21600.000000,1,COMPLETED_SUCCESSFULLY,971205.048750,21557.000000,992762.048750,108198.048750,129755.048750,6.019161,3712-3873 4074-4167,-1.000000,""
147_0_1,w0,profile_147,866884.000000,256,21631.000000,1,COMPLETED_SUCCESSFULLY,974532.050400,21630.000000,996162.050400,107648.050400,129278.050400,5.976794,1664-1919,-1.000000,""
150_0_1,w0,profile_150,880533.000000,256,21596.000000,1,COMPLETED_SUCCESSFULLY,978798.050250,21595.000000,1000393.050250,98265.050250,119860.050250,5.550361,1024-1083 3516-3607 3656-3711 3874-3921,-1.000000,""
148_0_1,w0,profile_148,866929.000000,256,21662.000000,1,COMPLETED_SUCCESSFULLY,978798.049650,21661.000000,1000459.049650,111869.049650,133530.049650,6.164538,256-511,-1.000000,""
138_0_1,w0,profile_138,861100.000000,640,43200.000000,1,COMPLETED_SUCCESSFULLY,962371.045900,40658.000000,1003029.045900,101271.045900,141929.045900,3.490802,512-1023 3946-4073,-1.000000,""
151_0_1,w0,profile_151,881130.000000,256,21540.000000,1,COMPLETED_SUCCESSFULLY,1003032.048150,21395.000000,1024427.048150,121902.048150,143297.048150,6.697689,4096-4351,-1.000000,""
159_0_1,w0,profile_159,967848.000000,256,21540.000000,1,COMPLETED_SUCCESSFULLY,1024430.049800,20023.000000,1044453.049800,56582.049800,76605.049800,3.825853,4096-4351,-1.000000,""
140_0_1,w0,profile_140,863884.000000,2048,86400.000000,1,COMPLETED_SUCCESSFULLY,974357.045900,85119.000000,1059476.045900,110473.045900,195592.045900,2.297866,0-255 1084-1663 2048-3259,-1.000000,""
164_0_1,w0,profile_164,1046876.000000,256,21610.000000,1,COMPLETED_SUCCESSFULLY,1059479.048150,21609.000000,1081088.048150,12603.048150,34212.048150,1.583231,4096-4351,-1.000000,""
141_0_1,w0,profile_141,863897.000000,2048,86400.000000,1,COMPLETED_SUCCESSFULLY,1003032.047550,85085.000000,1088117.047550,139135.047550,224220.047550,2.635248,256-1083 1664-2047 3260-4095,-1.000000,""
172_0_1,w0,profile_172,1082910.000000,256,21672.000000,1,COMPLETED_SUCCESSFULLY,1088120.049800,21671.000000,1109791.049800,5210.049800,26881.049800,1.240416,4096-4351,-1.000000,""
173_0_1,w0,profile_173,1082914.000000,256,21667.000000,1,COMPLETED_SUCCESSFULLY,1109794.051450,21666.000000,1131460.051450,26880.051450,48546.051450,2.240656,4096-4351,-1.000000,""
142_0_1,w0,profile_142,863904.000000,2048,86400.000000,1,COMPLETED_SUCCESSFULLY,1059479.047550,85104.000000,1144583.047550,195575.047550,280679.047550,3.298071,0-255 1084-1663 2048-3259,-1.000000,""
174_0_1,w0,profile_174,1082917.000000,256,21680.000000,1,COMPLETED_SUCCESSFULLY,1144586.049800,21679.000000,1166265.049800,61669.049800,83348.049800,3.844645,4096-4351,-1.000000,""
143_0_1,w0,profile_143,863918.000000,2048,86400.000000,1,COMPLETED_SUCCESSFULLY,1088120.049200,85076.000000,1173196.049200,224202.049200,309278.049200,3.635315,256-1083 1664-2047 3260-4095,-1.000000,""
175_0_1,w0,profile_175,1082930.000000,256,21648.000000,1,COMPLETED_SUCCESSFULLY,1173199.051450,21647.000000,1194846.051450,90269.051450,111916.051450,5.170049,4096-4351,-1.000000,""
176_0_1,w0,profile_176,1082933.000000,256,21644.000000,1,COMPLETED_SUCCESSFULLY,1194849.053100,21643.000000,1216492.053100,111916.053100,133559.053100,6.171005,4096-4351,-1.000000,""
144_0_1,w0,profile_144,863925.000000,2048,86400.000000,1,COMPLETED_SUCCESSFULLY,1144586.049200,85113.000000,1229699.049200,280661.049200,365774.049200,4.297511,0-255 1084-1663 2048-3259,-1.000000,""
181_0_1,w0,profile_181,1121908.000000,256,21600.000000,1,COMPLETED_SUCCESSFULLY,1229702.052650,21553.000000,1251255.052650,107794.052650,129347.052650,6.001348,3240-3259 4096-4331,-1.000000,""
146_0_1,w0,profile_146,866103.000000,1024,21711.000000,1,COMPLETED_SUCCESSFULLY,1229702.050850,21710.000000,1251412.050850,363599.050850,385309.050850,17.747999,0-255 1084-1663 2048-2235,-1.000000,""
145_0_1,w0,profile_145,863940.000000,2048,86400.000000,1,COMPLETED_SUCCESSFULLY,1173199.050850,85076.000000,1258275.050850,309259.050850,394335.050850,4.635092,256-1083 1664-2047 3260-4095,-1.000000,""
152_0_1,w0,profile_152,882795.000000,432,32495.000000,1,COMPLETED_SUCCESSFULLY,1229702.052050,32494.000000,1262196.052050,346907.052050,379401.052050,11.676034,2808-3239,-1.000000,""
149_0_1,w0,profile_149,871584.000000,572,32513.000000,1,COMPLETED_SUCCESSFULLY,1229702.051450,32512.000000,1262214.051450,358118.051450,390630.051450,12.014950,2236-2807,-1.000000,""
154_0_1,w0,profile_154,893902.000000,802,28856.000000,1,COMPLETED_SUCCESSFULLY,1251415.053100,28855.000000,1280270.053100,357513.053100,386368.053100,13.389986,1340-1663 2048-2235 3240-3259 4096-4365,-1.000000,""
156_0_1,w0,profile_156,932648.000000,512,32400.000000,1,COMPLETED_SUCCESSFULLY,1258278.053100,24177.000000,1282455.053100,325630.053100,349807.053100,14.468588,1058-1083 1664-2047 3260-3361,-1.000000,""
153_0_1,w0,profile_153,889383.000000,512,32492.000000,1,COMPLETED_SUCCESSFULLY,1251415.052500,32491.000000,1283906.052500,362032.052500,394523.052500,12.142533,0-255 1084-1339,-1.000000,""
157_0_1,w0,profile_157,958983.000000,1024,21748.000000,1,COMPLETED_SUCCESSFULLY,1262199.053700,21747.000000,1283946.053700,303216.053700,324963.053700,14.942891,2808-3239 3362-3953,-1.000000,""
155_0_1,w0,profile_155,893914.000000,802,28845.000000,1,COMPLETED_SUCCESSFULLY,1258278.052500,28844.000000,1287122.052500,364364.052500,393208.052500,13.632230,256-1057,-1.000000,""
158_0_1,w0,profile_158,967415.000000,512,32460.000000,1,COMPLETED_SUCCESSFULLY,1262217.053100,32459.000000,1294676.053100,294802.053100,327261.053100,10.082290,2236-2747,-1.000000,""
162_0_1,w0,profile_162,1029775.000000,512,21600.000000,1,COMPLETED_SUCCESSFULLY,1283909.054150,21542.000000,1305451.054150,254134.054150,275676.054150,12.797143,0-255 1084-1339,-1.000000,""
163_0_1,w0,profile_163,1046095.000000,1024,21640.000000,1,COMPLETED_SUCCESSFULLY,1283949.055350,21639.000000,1305588.055350,237854.055350,259493.055350,11.991915,2808-3239 3362-3953,-1.000000,""
165_0_1,w0,profile_165,1046884.000000,512,32400.000000,1,COMPLETED_SUCCESSFULLY,1287125.054150,23162.000000,1310287.054150,240241.054150,263403.054150,11.372207,256-767,-1.000000,""
160_0_1,w0,profile_160,974300.000000,512,32451.000000,1,COMPLETED_SUCCESSFULLY,1280273.054750,32450.000000,1312723.054750,305973.054750,338423.054750,10.429062,1340-1663 2048-2235,-1.000000,""
166_0_1,w0,profile_166,1052105.000000,512,32512.000000,1,COMPLETED_SUCCESSFULLY,1287125.054750,32511.000000,1319636.054750,235020.054750,267531.054750,8.228940,768-1057 4002-4223,-1.000000,""
161_0_1,w0,profile_161,998661.000000,640,43200.000000,1,COMPLETED_SUCCESSFULLY,1282458.054750,40568.000000,1323026.054750,283797.054750,324365.054750,7.995589,1058-1083 1664-2047 2748-2807 3240-3361 3954-4001,-1.000000,""
168_0_1,w0,profile_168,1057327.000000,512,32340.000000,1,COMPLETED_SUCCESSFULLY,1305454.055800,23026.000000,1328480.055800,248127.055800,271153.055800,11.775951,0-255 1084-1339,-1.000000,""
170_0_1,w0,profile_170,1073114.000000,512,32400.000000,1,COMPLETED_SUCCESSFULLY,1310290.055800,23174.000000,1333464.055800,237176.055800,260350.055800,11.234576,256-767,-1.000000,""
167_0_1,w0,profile_167,1052519.000000,640,43227.000000,1,COMPLETED_SUCCESSFULLY,1294679.054750,43226.000000,1337905.054750,242160.054750,285386.054750,6.602185,2236-2747 4224-4351,-1.000000,""
177_0_1,w0,profile_177,1107071.000000,512,32340.000000,1,COMPLETED_SUCCESSFULLY,1319639.056400,22352.000000,1341991.056400,212568.056400,234920.056400,10.510024,768-1057 3570-3791,-1.000000,""
171_0_1,w0,profile_171,1080045.000000,512,32441.000000,1,COMPLETED_SUCCESSFULLY,1312726.056400,32440.000000,1345166.056400,232681.056400,265121.056400,8.172659,1340-1663 2048-2235,-1.000000,""
178_0_1,w0,profile_178,1109260.000000,512,32400.000000,1,COMPLETED_SUCCESSFULLY,1323029.056400,23835.000000,1346864.056400,213769.056400,237604.056400,9.968704,1058-1083 1664-2047 2748-2807 3240-3281,-1.000000,""
169_0_1,w0,profile_169,1072897.000000,640,43291.000000,1,COMPLETED_SUCCESSFULLY,1305591.057000,43290.000000,1348881.057000,232694.057000,275984.057000,6.375238,2808-3239 3362-3569,-1.000000,""
182_0_1,w0,profile_182,1121914.000000,256,21600.000000,1,COMPLETED_SUCCESSFULLY,1337908.057000,21530.000000,1359438.057000,215994.057000,237524.057000,11.032237,4002-4257,-1.000000,""
180_0_1,w0,profile_180,1121609.000000,1024,21723.000000,1,COMPLETED_SUCCESSFULLY,1337908.056400,21722.000000,1359630.056400,216299.056400,238021.056400,10.957603,256-767 2236-2747,-1.000000,""
183_0_1,w0,profile_183,1121928.000000,256,21600.000000,1,COMPLETED_SUCCESSFULLY,1341994.058050,21555.000000,1363549.058050,220066.058050,241621.058050,11.209513,768-1023,-1.000000,""
184_0_1,w0,profile_184,1171735.000000,802,28858.000000,1,COMPLETED_SUCCESSFULLY,1345169.058050,28857.000000,1374026.058050,173434.058050,202291.058050,7.010121,1024-1057 1340-1663 2048-2235 3570-3791 4258-4291,-1.000000,""
185_0_1,w0,profile_185,1171755.000000,802,28904.000000,1,COMPLETED_SUCCESSFULLY,1348884.058650,28903.000000,1377787.058650,177129.058650,206032.058650,7.128397,1058-1083 1664-2047 2748-3139,-1.000000,""
187_0_1,w0,profile_187,1193491.000000,512,32400.000000,1,COMPLETED_SUCCESSFULLY,1359633.058050,22614.000000,1382247.058050,166142.058050,188756.058050,8.346867,256-767,-1.000000,""
189_0_1,w0,profile_189,1214737.000000,256,21680.000000,1,COMPLETED_SUCCESSFULLY,1363552.059700,21679.000000,1385231.059700,148815.059700,170494.059700,7.864480,768-1023,-1.000000,""
186_0_1,w0,profile_186,1177629.000000,512,32474.000000,1,COMPLETED_SUCCESSFULLY,1359441.058650,32473.000000,1391914.058650,181812.058650,214285.058650,6.598869,3140-3281 3362-3569 4002-4163,-1.000000,""
188_0_1,w0,profile_188,1213281.000000,469,32445.000000,1,COMPLETED_SUCCESSFULLY,1359633.058650,32444.000000,1392077.058650,146352.058650,178796.058650,5.510913,2236-2704,-1.000000,""
179_0_1,w0,profile_179,1119611.000000,802,86521.000000,1,COMPLETED_SUCCESSFULLY,1328483.057450,86520.000000,1415003.057450,208872.057450,295392.057450,3.414148,0-255 1084-1339 3282-3361 3792-4001,-1.000000,""
190_0_1,w0,profile_190,1232408.000000,640,43200.000000,1,COMPLETED_SUCCESSFULLY,1374029.059700,41265.000000,1415294.059700,141621.059700,182886.059700,4.431990,1024-1057 1340-1663 2048-2235 2705-2747 3570-3620,-1.000000,""
191_0_1,w0,profile_191,1232427.000000,640,43200.000000,1,COMPLETED_SUCCESSFULLY,1377790.060300,41211.000000,1419001.060300,145363.060300,186574.060300,4.527288,1058-1083 1664-2047 2748-2977,-1.000000,""
192_0_1,w0,profile_192,1232435.000000,640,43200.000000,1,COMPLETED_SUCCESSFULLY,1382250.059700,41763.000000,1424013.059700,149815.059700,191578.059700,4.587268,256-767 2978-3105,-1.000000,""
193_0_1,w0,profile_193,1232450.000000,640,43200.000000,1,COMPLETED_SUCCESSFULLY,1385234.061350,40110.000000,1425344.061350,152784.061350,192894.061350,4.809126,768-1023 3106-3139 3621-3791 4164-4342,-1.000000,""
194_0_1,w0,profile_194,1232457.000000,640,43200.000000,1,COMPLETED_SUCCESSFULLY,1392080.060300,40474.000000,1432554.060300,159623.060300,200097.060300,4.943842,2236-2704 3140-3281 3362-3390,-1.000000,""
195_0_1,w0,profile_195,1280905.000000,512,32400.000000,1,COMPLETED_SUCCESSFULLY,1415006.059100,23005.000000,1438011.059100,134101.059100,157106.059100,6.829214,0-255 1084-1339,-1.000000,""
197_0_1,w0,profile_197,1307152.000000,512,32400.000000,1,COMPLETED_SUCCESSFULLY,1419004.061950,23957.000000,1442961.061950,111852.061950,135809.061950,5.668868,1058-1083 1664-2047 2748-2849,-1.000000,""
198_0_1,w0,profile_198,1360845.000000,512,32400.000000,1,COMPLETED_SUCCESSFULLY,1424016.061350,24350.000000,1448366.061350,63171.061350,87521.061350,3.594294,256-767,-1.000000,""
200_0_1,w0,profile_200,1386544.000000,512,32400.000000,1,COMPLETED_SUCCESSFULLY,1432557.061950,24568.000000,1457125.061950,46013.061950,70581.061950,2.872886,2236-2704 3140-3182,-1.000000,""
196_0_1,w0,profile_196,1290955.000000,1000,43320.000000,1,COMPLETED_SUCCESSFULLY,1415297.061350,43319.000000,1458616.061350,124342.061350,167661.061350,3.870382,1024-1057 1340-1663 2048-2235 2705-2747 3282-3361 3391-3620 3792-3892,-1.000000,""
201_0_1,w0,profile_201,1452973.000000,512,32400.000000,1,COMPLETED_SUCCESSFULLY,1452973.001800,22898.000000,1475871.001800,0.001800,22898.001800,1.000000,0-511,-1.000000,""
199_0_1,w0,profile_199,1381518.000000,1024,72093.000000,1,COMPLETED_SUCCESSFULLY,1425347.063000,72092.000000,1497439.063000,43829.063000,115921.063000,1.607960,768-1023 2850-3139 3621-3791 3893-4199,-1.000000,""
203_0_1,w0,profile_203,1478891.000000,256,21600.000000,1,COMPLETED_SUCCESSFULLY,1478891.001800,21488.000000,1500379.001800,0.001800,21488.001800,1.000000,256-511,-1.000000,""
202_0_1,w0,profile_202,1478781.000000,256,21685.000000,1,COMPLETED_SUCCESSFULLY,1478781.001800,21684.000000,1500465.001800,0.001800,21684.001800,1.000000,0-255,-1.000000,""
208_0_1,w0,profile_208,1508461.000000,256,21768.000000,1,COMPLETED_SUCCESSFULLY,1508461.001800,21767.000000,1530228.001800,0.001800,21767.001800,1.000000,0-255,-1.000000,""
204_0_1,w0,profile_204,1479506.000000,2048,86454.000000,1,COMPLETED_SUCCESSFULLY,1479506.001800,86453.000000,1565959.001800,0.001800,86453.001800,1.000000,512-767 1024-2815,-1.000000,""
205_0_1,w0,profile_205,1479525.000000,2048,86400.000000,1,COMPLETED_SUCCESSFULLY,1500382.003450,85077.000000,1585459.003450,20857.003450,105934.003450,1.245154,256-511 768-1023 2816-4351,-1.000000,""
216_0_1,w0,profile_216,1596657.000000,256,21682.000000,1,COMPLETED_SUCCESSFULLY,1596657.001800,21681.000000,1618338.001800,0.001800,21681.001800,1.000000,4096-4351,-1.000000,""
217_0_1,w0,profile_217,1596660.000000,256,21702.000000,1,COMPLETED_SUCCESSFULLY,1618341.003450,21701.000000,1640042.003450,21681.003450,43382.003450,1.999079,4096-4351,-1.000000,""
206_0_1,w0,profile_206,1479533.000000,2048,86400.000000,1,COMPLETED_SUCCESSFULLY,1565962.003450,85091.000000,1651053.003450,86429.003450,171520.003450,2.015724,0-255 512-767 1024-2559,-1.000000,""
207_0_1,w0,profile_207,1479546.000000,2048,86400.000000,1,COMPLETED_SUCCESSFULLY,1585462.005100,85181.000000,1670643.005100,105916.005100,191097.005100,2.243423,256-511 768-1023 2560-4095,-1.000000,""
209_0_1,w0,profile_209,1512706.000000,400,21594.000000,1,COMPLETED_SUCCESSFULLY,1651056.005100,21593.000000,1672649.005100,138350.005100,159943.005100,7.407169,0-255 512-655,-1.000000,""
210_0_1,w0,profile_210,1540445.000000,512,32400.000000,1,COMPLETED_SUCCESSFULLY,1651056.005700,22792.000000,1673848.005700,110611.005700,133403.005700,5.853063,656-767 1024-1423,-1.000000,""
211_0_1,w0,profile_211,1551006.000000,936,31532.000000,1,COMPLETED_SUCCESSFULLY,1651056.006300,31531.000000,1682587.006300,100050.006300,131581.006300,4.173068,1424-2359,-1.000000,""
214_0_1,w0,profile_214,1591361.000000,512,32400.000000,1,COMPLETED_SUCCESSFULLY,1670646.007950,21231.000000,1691877.007950,79285.007950,100516.007950,4.734398,2872-3383,-1.000000,""
218_0_1,w0,profile_218,1596663.000000,256,21666.000000,1,COMPLETED_SUCCESSFULLY,1670646.009150,21665.000000,1692311.009150,73983.009150,95648.009150,4.414863,3896-4151,-1.000000,""
212_0_1,w0,profile_212,1563804.000000,512,32400.000000,1,COMPLETED_SUCCESSFULLY,1670646.006750,23248.000000,1693894.006750,106842.006750,130090.006750,5.595750,256-511 768-1023,-1.000000,""
219_0_1,w0,profile_219,1596666.000000,256,21645.000000,1,COMPLETED_SUCCESSFULLY,1672652.006750,21644.000000,1694296.006750,75986.006750,97630.006750,4.510719,0-255,-1.000000,""
220_0_1,w0,profile_220,1596681.000000,256,21733.000000,1,COMPLETED_SUCCESSFULLY,1672652.007350,21732.000000,1694384.007350,75971.007350,97703.007350,4.495813,512-655 4152-4263,-1.000000,""
215_0_1,w0,profile_215,1593240.000000,512,25235.000000,1,COMPLETED_SUCCESSFULLY,1670646.008550,25234.000000,1695880.008550,77406.008550,102640.008550,4.067528,3384-3895,-1.000000,""
213_0_1,w0,profile_213,1567137.000000,512,32554.000000,1,COMPLETED_SUCCESSFULLY,1670646.007350,32553.000000,1703199.007350,103509.007350,136062.007350,4.179707,2360-2871,-1.000000,""
222_0_1,w0,profile_222,1634878.000000,512,21600.000000,1,COMPLETED_SUCCESSFULLY,1682590.007950,21567.000000,1704157.007950,47712.007950,69279.007950,3.212269,1424-1935,-1.000000,""
223_0_1,w0,profile_223,1635199.000000,299,22733.000000,1,COMPLETED_SUCCESSFULLY,1682590.008550,22732.000000,1705322.008550,47391.008550,70123.008550,3.084771,1936-2234,-1.000000,""
221_0_1,w0,profile_221,1630682.000000,512,32452.000000,1,COMPLETED_SUCCESSFULLY,1673851.007350,32451.000000,1706302.007350,43169.007350,75620.007350,2.330283,656-767 1024-1423,-1.000000,""
224_0_1,w0,profile_224,1637138.000000,1024,21633.000000,1,COMPLETED_SUCCESSFULLY,1693897.008400,21632.000000,1715529.008400,56759.008400,78391.008400,3.623845,256-511 768-1023 2235-2359 2872-3258,-1.000000,""
227_0_1,w0,profile_227,1645306.000000,702,21669.000000,1,COMPLETED_SUCCESSFULLY,1704160.009600,21668.000000,1725828.009600,58854.009600,80522.009600,3.716172,1424-1935 3628-3817,-1.000000,""
228_0_1,w0,profile_228,1651432.000000,512,32400.000000,1,COMPLETED_SUCCESSFULLY,1705325.010200,21798.000000,1727123.010200,53893.010200,75691.010200,3.472383,1936-2234 3818-3895 4152-4263 4267-4289,-1.000000,""
225_0_1,w0,profile_225,1642399.000000,640,43200.000000,1,COMPLETED_SUCCESSFULLY,1694299.008400,41223.000000,1735522.008400,51900.008400,93123.008400,2.259006,0-255 3259-3383 3896-4151 4264-4266,-1.000000,""
230_0_1,w0,profile_230,1665900.000000,512,21600.000000,1,COMPLETED_SUCCESSFULLY,1715532.010650,21563.000000,1737095.010650,49632.010650,71195.010650,3.301721,1100-1423 2235-2359 2872-2934,-1.000000,""
231_0_1,w0,profile_231,1685935.000000,256,21628.000000,1,COMPLETED_SUCCESSFULLY,1715532.011250,21627.000000,1737159.011250,29597.011250,51224.011250,2.368521,2935-3190,-1.000000,""
229_0_1,w0,profile_229,1656685.000000,700,25276.000000,1,COMPLETED_SUCCESSFULLY,1715532.010050,25275.000000,1740807.010050,58847.010050,84122.010050,3.328269,256-511 656-1099,-1.000000,""
226_0_1,w0,profile_226,1642879.000000,900,44605.000000,1,COMPLETED_SUCCESSFULLY,1703202.009000,44604.000000,1747806.009000,60323.009000,104927.009000,2.352413,512-655 2360-2871 3384-3627,-1.000000,""
232_0_1,w0,profile_232,1710674.000000,512,32400.000000,1,COMPLETED_SUCCESSFULLY,1725831.011250,21986.000000,1747817.011250,15157.011250,37143.011250,1.689394,1424-1935,-1.000000,""
233_0_1,w0,profile_233,1727155.000000,512,21627.000000,1,COMPLETED_SUCCESSFULLY,1727155.001800,21626.000000,1748781.001800,0.001800,21626.001800,1.000000,1936-2234 3191-3258 3628-3772,-1.000000,""
234_0_1,w0,profile_234,1737185.000000,256,21740.000000,1,COMPLETED_SUCCESSFULLY,1737185.001800,21739.000000,1758924.001800,0.001800,21739.001800,1.000000,0-255,-1.000000,""
235_0_1,w0,profile_235,1766170.000000,512,32400.000000,1,COMPLETED_SUCCESSFULLY,1766170.001800,22426.000000,1788596.001800,0.001800,22426.001800,1.000000,0-511,-1.000000,""
236_0_1,w0,profile_236,1767654.000000,1024,21697.000000,1,COMPLETED_SUCCESSFULLY,1767654.001800,21696.000000,1789350.001800,0.001800,21696.001800,1.000000,512-1535,-1.000000,""
237_0_1,w0,profile_237,1835664.000000,256,22318.000000,1,COMPLETED_SUCCESSFULLY,1835664.001800,22317.000000,1857981.001800,0.001800,22317.001800,1.000000,0-255,-1.000000,""
240_0_1,w0,profile_240,1839482.000000,700,28800.000000,1,COMPLETED_SUCCESSFULLY,1839482.001800,23551.000000,1863033.001800,0.001800,23551.001800,1.000000,3256-3955,-1.000000,""
239_0_1,w0,profile_239,1838582.000000,600,25302.000000,1,COMPLETED_SUCCESSFULLY,1838582.001800,25301.000000,1863883.001800,0.001800,25301.001800,1.000000,2656-3255,-1.000000,""
241_0_1,w0,profile_241,1839654.000000,512,32400.000000,1,COMPLETED_SUCCESSFULLY,1857984.003450,21907.000000,1879891.003450,18330.003450,40237.003450,1.836719,0-255 3956-4211,-1.000000,""
238_0_1,w0,profile_238,1838314.000000,2400,43238.000000,1,COMPLETED_SUCCESSFULLY,1838314.001800,43237.000000,1881551.001800,0.001800,43237.001800,1.000000,256-2655,-1.000000,""
242_0_1,w0,profile_242,1844718.000000,256,21644.000000,1,COMPLETED_SUCCESSFULLY,1863036.003450,21643.000000,1884679.003450,18318.003450,39961.003450,1.846371,3256-3511,-1.000000,""
244_0_1,w0,profile_244,1857920.000000,256,21600.000000,1,COMPLETED_SUCCESSFULLY,1863886.003450,21228.000000,1885114.003450,5966.003450,27194.003450,1.281044,2656-2911,-1.000000,""
245_0_1,w0,profile_245,1863128.000000,384,32340.000000,1,COMPLETED_SUCCESSFULLY,1863886.004050,24890.000000,1888776.004050,758.004050,25648.004050,1.030454,2912-3255 4216-4255,-1.000000,""
243_0_1,w0,profile_243,1857460.000000,448,28839.000000,1,COMPLETED_SUCCESSFULLY,1863036.004050,28838.000000,1891874.004050,5576.004050,34414.004050,1.193356,3512-3955 4212-4215,-1.000000,""
246_0_1,w0,profile_246,1886862.000000,512,32400.000000,1,COMPLETED_SUCCESSFULLY,1886862.001800,21871.000000,1908733.001800,0.001800,21871.001800,1.000000,0-511,-1.000000,""
247_0_1,w0,profile_247,1903145.000000,448,32400.000000,1,COMPLETED_SUCCESSFULLY,1903145.001800,31093.000000,1934238.001800,0.001800,31093.001800,1.000000,512-959,-1.000000,""
249_0_1,w0,profile_249,1916766.000000,256,21748.000000,1,COMPLETED_SUCCESSFULLY,1916766.001800,21747.000000,1938513.001800,0.001800,21747.001800,1.000000,384-511 960-1087,-1.000000,""
248_0_1,w0,profile_248,1913604.000000,384,32430.000000,1,COMPLETED_SUCCESSFULLY,1913604.001800,32429.000000,1946033.001800,0.001800,32429.001800,1.000000,0-383,-1.000000,""
250_0_1,w0,profile_250,1927391.000000,512,32400.000000,1,COMPLETED_SUCCESSFULLY,1927391.001800,22242.000000,1949633.001800,0.001800,22242.001800,1.000000,1088-1599,-1.000000,""
251_0_1,w0,profile_251,1930749.000000,256,21734.000000,1,COMPLETED_SUCCESSFULLY,1930749.001800,21733.000000,1952482.001800,0.001800,21733.001800,1.000000,1600-1855,-1.000000,""
252_0_1,w0,profile_252,1930857.000000,256,21663.000000,1,COMPLETED_SUCCESSFULLY,1930857.001800,21662.000000,1952519.001800,0.001800,21662.001800,1.000000,1856-2111,-1.000000,""
253_0_1,w0,profile_253,1931168.000000,256,21684.000000,1,COMPLETED_SUCCESSFULLY,1931168.001800,21683.000000,1952851.001800,0.001800,21683.001800,1.000000,2112-2367,-1.000000,""
254_0_1,w0,profile_254,1937602.000000,512,32400.000000,1,COMPLETED_SUCCESSFULLY,1937602.001800,22618.000000,1960220.001800,0.001800,22618.001800,1.000000,512-959 2368-2431,-1.000000,""
255_0_1,w0,profile_255,1939494.000000,700,28800.000000,1,COMPLETED_SUCCESSFULLY,1939494.001800,23310.000000,1962804.001800,0.001800,23310.001800,1.000000,384-511 960-1087 2432-2875,-1.000000,""
256_0_1,w0,profile_256,1945345.000000,448,32427.000000,1,COMPLETED_SUCCESSFULLY,1945345.001800,32426.000000,1977771.001800,0.001800,32426.001800,1.000000,2876-3323,-1.000000,""
257_0_1,w0,profile_257,1977283.000000,512,32400.000000,1,COMPLETED_SUCCESSFULLY,1977283.001800,25117.000000,2002400.001800,0.001800,25117.001800,1.000000,0-511,-1.000000,""
258_0_1,w0,profile_258,1983392.000000,256,21693.000000,1,COMPLETED_SUCCESSFULLY,1983392.001800,21692.000000,2005084.001800,0.001800,21692.001800,1.000000,512-767,-1.000000,""
259_0_1,w0,profile_259,1984010.000000,256,21675.000000,1,COMPLETED_SUCCESSFULLY,1984010.001800,21674.000000,2005684.001800,0.001800,21674.001800,1.000000,768-1023,-1.000000,""
260_0_1,w0,profile_260,1984239.000000,256,21652.000000,1,COMPLETED_SUCCESSFULLY,1984239.001800,21651.000000,2005890.001800,0.001800,21651.001800,1.000000,1024-1279,-1.000000,""
261_0_1,w0,profile_261,1984973.000000,512,21600.000000,1,COMPLETED_SUCCESSFULLY,1984973.001800,21574.000000,2006547.001800,0.001800,21574.001800,1.000000,1280-1791,-1.000000,""
262_0_1,w0,profile_262,1986625.000000,256,21757.000000,1,COMPLETED_SUCCESSFULLY,1986625.001800,21756.000000,2008381.001800,0.001800,21756.001800,1.000000,1792-2047,-1.000000,""
265_0_1,w0,profile_265,1995725.000000,272,21748.000000,1,COMPLETED_SUCCESSFULLY,2008384.003450,21747.000000,2030131.003450,12659.003450,34406.003450,1.582103,1792-2047 4352-4367,-1.000000,""
263_0_1,w0,profile_263,1990781.000000,4096,86400.000000,1,COMPLETED_SUCCESSFULLY,2006550.003450,44986.000000,2051536.003450,15769.003450,60755.003450,1.350531,0-1791 2048-4351,-1.000000,""
268_0_1,w0,profile_268,2027321.000000,256,22610.000000,1,COMPLETED_SUCCESSFULLY,2030134.005100,22609.000000,2052743.005100,2813.005100,25422.005100,1.124420,1792-2047,-1.000000,""
269_0_1,w0,profile_269,2045541.000000,256,21675.000000,1,COMPLETED_SUCCESSFULLY,2052746.006750,21674.000000,2074420.006750,7205.006750,28879.006750,1.332426,1792-2047,-1.000000,""
272_0_1,w0,profile_272,2079986.000000,256,21654.000000,1,COMPLETED_SUCCESSFULLY,2079986.001800,21653.000000,2101639.001800,0.001800,21653.001800,1.000000,1792-2047,-1.000000,""
275_0_1,w0,profile_275,2096798.000000,256,21734.000000,1,COMPLETED_SUCCESSFULLY,2101642.003450,21733.000000,2123375.003450,4844.003450,26577.003450,1.222887,1792-2047,-1.000000,""
264_0_1,w0,profile_264,1991438.000000,4096,87808.000000,1,COMPLETED_SUCCESSFULLY,2051539.005100,87807.000000,2139346.005100,60101.005100,147908.005100,1.684467,0-1791 2048-4351,-1.000000,""
273_0_1,w0,profile_273,2080366.000000,1024,21721.000000,1,COMPLETED_SUCCESSFULLY,2139349.009150,21720.000000,2161069.009150,58983.009150,80703.009150,3.715608,2236-3259,-1.000000,""
266_0_1,w0,profile_266,2007991.000000,512,32400.000000,1,COMPLETED_SUCCESSFULLY,2139349.006750,22256.000000,2161605.006750,131358.006750,153614.006750,6.902139,0-511,-1.000000,""
267_0_1,w0,profile_267,2009615.000000,700,28800.000000,1,COMPLETED_SUCCESSFULLY,2139349.007350,23807.000000,2163156.007350,129734.007350,153541.007350,6.449406,512-1211,-1.000000,""
271_0_1,w0,profile_271,2079532.000000,512,40108.000000,1,COMPLETED_SUCCESSFULLY,2139349.008550,40107.000000,2179456.008550,59817.008550,99924.008550,2.491436,1724-2235,-1.000000,""
270_0_1,w0,profile_270,2052588.000000,512,40439.000000,1,COMPLETED_SUCCESSFULLY,2139349.007950,40438.000000,2179787.007950,86761.007950,127199.007950,3.145532,1212-1723,-1.000000,""
274_0_1,w0,profile_274,2082241.000000,1024,86400.000000,1,COMPLETED_SUCCESSFULLY,2139349.009750,40451.000000,2179800.009750,57108.009750,97559.009750,2.411782,3260-4283,-1.000000,""
279_0_1,w0,profile_279,2096818.000000,256,21634.000000,1,COMPLETED_SUCCESSFULLY,2161072.012600,21633.000000,2182705.012600,64254.012600,85887.012600,3.970185,3004-3259,-1.000000,""
278_0_1,w0,profile_278,2096815.000000,256,21653.000000,1,COMPLETED_SUCCESSFULLY,2161072.012000,21652.000000,2182724.012000,64257.012000,85909.012000,3.967717,2748-3003,-1.000000,""
276_0_1,w0,profile_276,2096801.000000,256,21681.000000,1,COMPLETED_SUCCESSFULLY,2161072.010800,21680.000000,2182752.010800,64271.010800,85951.010800,3.964530,2236-2491,-1.000000,""
277_0_1,w0,profile_277,2096804.000000,256,21681.000000,1,COMPLETED_SUCCESSFULLY,2161072.011400,21680.000000,2182752.011400,64268.011400,85948.011400,3.964392,2492-2747,-1.000000,""
280_0_1,w0,profile_280,2119894.000000,256,21637.000000,1,COMPLETED_SUCCESSFULLY,2161608.008400,21636.000000,2183244.008400,41714.008400,63350.008400,2.927991,0-255,-1.000000,""
281_0_1,w0,profile_281,2166977.000000,256,23139.000000,1,COMPLETED_SUCCESSFULLY,2166977.001800,23138.000000,2190115.001800,0.001800,23138.001800,1.000000,256-511,-1.000000,""
282_0_1,w0,profile_282,2247701.000000,256,21720.000000,1,COMPLETED_SUCCESSFULLY,2247701.001800,21719.000000,2269420.001800,0.001800,21719.001800,1.000000,0-255,-1.000000,""
283_0_1,w0,profile_283,2248179.000000,1024,21659.000000,1,COMPLETED_SUCCESSFULLY,2248179.001800,21658.000000,2269837.001800,0.001800,21658.001800,1.000000,256-1279,-1.000000,""
284_0_1,w0,profile_284,2249557.000000,700,28800.000000,1,COMPLETED_SUCCESSFULLY,2249557.001800,23798.000000,2273355.001800,0.001800,23798.001800,1.000000,1280-1979,-1.000000,""
287_0_1,w0,profile_287,2270225.000000,256,21644.000000,1,COMPLETED_SUCCESSFULLY,2273358.004050,21643.000000,2295001.004050,3133.004050,24776.004050,1.144758,4096-4351,-1.000000,""
289_0_1,w0,profile_289,2290806.000000,2,28027.000000,1,COMPLETED_SUCCESSFULLY,2290806.001800,28026.000000,2318832.001800,0.001800,28026.001800,1.000000,4352-4353,-1.000000,""
291_0_1,w0,profile_291,2298787.000000,6,20188.000000,1,COMPLETED_SUCCESSFULLY,2298787.001800,20187.000000,2318974.001800,0.001800,20187.001800,1.000000,4096-4101,-1.000000,""
285_0_1,w0,profile_285,2250248.000000,4096,86400.000000,1,COMPLETED_SUCCESSFULLY,2273358.003450,62133.000000,2335491.003450,23110.003450,85243.003450,1.371944,0-4095,-1.000000,""
288_0_1,w0,profile_288,2277041.000000,512,32400.000000,1,COMPLETED_SUCCESSFULLY,2335494.005700,22006.000000,2357500.005700,58453.005700,80459.005700,3.656230,896-1407,-1.000000,""
293_0_1,w0,profile_293,2344045.000000,256,21648.000000,1,COMPLETED_SUCCESSFULLY,2344045.001800,21647.000000,2365692.001800,0.001800,21647.001800,1.000000,2922-3177,-1.000000,""
290_0_1,w0,profile_290,2291942.000000,458,32456.000000,1,COMPLETED_SUCCESSFULLY,2335494.006300,32455.000000,2367949.006300,43552.006300,76007.006300,2.341920,1408-1865,-1.000000,""
294_0_1,w0,profile_294,2358534.000000,288,21743.000000,1,COMPLETED_SUCCESSFULLY,2358534.001800,21742.000000,2380276.001800,0.001800,21742.001800,1.000000,896-1183,-1.000000,""
292_0_1,w0,profile_292,2329536.000000,1056,86512.000000,1,COMPLETED_SUCCESSFULLY,2335494.006900,86511.000000,2422005.006900,5958.006900,92469.006900,1.068870,1866-2921,-1.000000,""
286_0_1,w0,profile_286,2258450.000000,896,86535.000000,1,COMPLETED_SUCCESSFULLY,2335494.005100,86534.000000,2422028.005100,77044.005100,163578.005100,1.890332,0-895,-1.000000,""
295_0_1,w0,profile_295,2360705.000000,1024,86400.000000,1,COMPLETED_SUCCESSFULLY,2360705.001800,85111.000000,2445816.001800,0.001800,85111.001800,1.000000,1184-1407 3178-3977,-1.000000,""
299_0_1,w0,profile_299,2381334.000000,512,32340.000000,1,COMPLETED_SUCCESSFULLY,2422031.007350,27169.000000,2449200.007350,40697.007350,67866.007350,2.497921,512-895 2602-2729,-1.000000,""
296_0_1,w0,profile_296,2360722.000000,1024,86400.000000,1,COMPLETED_SUCCESSFULLY,2367952.007950,85081.000000,2453033.007950,7230.007950,92311.007950,1.084978,1408-1865 2922-3177 3978-4287,-1.000000,""
298_0_1,w0,profile_298,2372415.000000,512,32412.000000,1,COMPLETED_SUCCESSFULLY,2422031.006750,32411.000000,2454442.006750,49616.006750,82027.006750,2.530839,0-511,-1.000000,""
302_0_1,w0,profile_302,2457751.000000,256,21627.000000,1,COMPLETED_SUCCESSFULLY,2457751.001800,21626.000000,2479377.001800,0.001800,21626.001800,1.000000,0-255,-1.000000,""
304_0_1,w0,profile_304,2457773.000000,256,21621.000000,1,COMPLETED_SUCCESSFULLY,2457773.001800,21620.000000,2479393.001800,0.001800,21620.001800,1.000000,512-767,-1.000000,""
303_0_1,w0,profile_303,2457755.000000,256,21668.000000,1,COMPLETED_SUCCESSFULLY,2457755.001800,21667.000000,2479422.001800,0.001800,21667.001800,1.000000,256-511,-1.000000,""
305_0_1,w0,profile_305,2457793.000000,256,21641.000000,1,COMPLETED_SUCCESSFULLY,2457793.001800,21640.000000,2479433.001800,0.001800,21640.001800,1.000000,768-895 1184-1311,-1.000000,""
306_0_1,w0,profile_306,2457901.000000,256,21705.000000,1,COMPLETED_SUCCESSFULLY,2457901.001800,21704.000000,2479605.001800,0.001800,21704.001800,1.000000,1312-1567,-1.000000,""
307_0_1,w0,profile_307,2457949.000000,256,21698.000000,1,COMPLETED_SUCCESSFULLY,2457949.001800,21697.000000,2479646.001800,0.001800,21697.001800,1.000000,1568-1823,-1.000000,""
308_0_1,w0,profile_308,2458327.000000,256,21733.000000,1,COMPLETED_SUCCESSFULLY,2458327.001800,21732.000000,2480059.001800,0.001800,21732.001800,1.000000,1824-1865 2602-2815,-1.000000,""
309_0_1,w0,profile_309,2488429.000000,512,32400.000000,1,COMPLETED_SUCCESSFULLY,2488429.001800,21792.000000,2510221.001800,0.001800,21792.001800,1.000000,0-511,-1.000000,""
310_0_1,w0,profile_310,2508512.000000,384,32458.000000,1,COMPLETED_SUCCESSFULLY,2508512.001800,32457.000000,2540969.001800,0.001800,32457.001800,1.000000,512-895,-1.000000,""
311_0_1,w0,profile_311,2523948.000000,1024,21733.000000,1,COMPLETED_SUCCESSFULLY,2523948.001800,21732.000000,2545680.001800,0.001800,21732.001800,1.000000,0-511 1184-1695,-1.000000,""
312_0_1,w0,profile_312,2523969.000000,1024,21733.000000,1,COMPLETED_SUCCESSFULLY,2523969.001800,21732.000000,2545701.001800,0.001800,21732.001800,1.000000,1696-1865 2602-3455,-1.000000,""
297_0_1,w0,profile_297,2360729.000000,1024,124767.000000,1,COMPLETED_SUCCESSFULLY,2422008.008550,124766.000000,2546774.008550,61279.008550,186045.008550,1.491152,896-1183 1866-2601,-1.000000,""
313_0_1,w0,profile_313,2541632.000000,288,21600.000000,1,COMPLETED_SUCCESSFULLY,2546777.010800,21568.000000,2568345.010800,5145.010800,26713.010800,1.238548,4096-4383,-1.000000,""
300_0_1,w0,profile_300,2431069.000000,4096,86400.000000,1,COMPLETED_SUCCESSFULLY,2546777.010200,52300.000000,2599077.010200,115708.010200,168008.010200,3.212390,0-4095,-1.000000,""
301_0_1,w0,profile_301,2431175.000000,4096,86400.000000,1,COMPLETED_SUCCESSFULLY,2599080.011850,53002.000000,2652082.011850,167905.011850,220907.011850,4.167900,0-4095,-1.000000,""
315_0_1,w0,profile_315,2673586.000000,296,21351.000000,1,COMPLETED_SUCCESSFULLY,2673586.001800,21350.000000,2694936.001800,0.001800,21350.001800,1.000000,640-935,-1.000000,""
316_0_1,w0,profile_316,2679059.000000,256,21805.000000,1,COMPLETED_SUCCESSFULLY,2679059.001800,21804.000000,2700863.001800,0.001800,21804.001800,1.000000,936-1191,-1.000000,""
317_0_1,w0,profile_317,2679079.000000,256,21803.000000,1,COMPLETED_SUCCESSFULLY,2679079.001800,21802.000000,2700881.001800,0.001800,21802.001800,1.000000,1192-1447,-1.000000,""
318_0_1,w0,profile_318,2679199.000000,256,21764.000000,1,COMPLETED_SUCCESSFULLY,2679199.001800,21763.000000,2700962.001800,0.001800,21763.001800,1.000000,1448-1703,-1.000000,""
314_0_1,w0,profile_314,2673346.000000,640,43324.000000,1,COMPLETED_SUCCESSFULLY,2673346.001800,43323.000000,2716669.001800,0.001800,43323.001800,1.000000,0-639,-1.000000,""
321_0_1,w0,profile_321,2684333.000000,1024,21694.000000,1,COMPLETED_SUCCESSFULLY,2700866.003450,21693.000000,2722559.003450,16533.003450,38226.003450,1.762135,640-1191 3752-4223,-1.000000,""
322_0_1,w0,profile_322,2696887.000000,288,21705.000000,1,COMPLETED_SUCCESSFULLY,2700884.003450,21704.000000,2722588.003450,3997.003450,25701.003450,1.184160,1192-1447 4224-4255,-1.000000,""
319_0_1,w0,profile_319,2683476.000000,1024,43318.000000,1,COMPLETED_SUCCESSFULLY,2683476.001800,43317.000000,2726793.001800,0.001800,43317.001800,1.000000,1704-2727,-1.000000,""
320_0_1,w0,profile_320,2684194.000000,1024,43325.000000,1,COMPLETED_SUCCESSFULLY,2684194.001800,43324.000000,2727518.001800,0.001800,43324.001800,1.000000,2728-3751,-1.000000,""
324_0_1,w0,profile_324,2720688.000000,256,21596.000000,1,COMPLETED_SUCCESSFULLY,2722562.005700,21595.000000,2744157.005700,1874.005700,23469.005700,1.086780,1056-1191 1448-1567,-1.000000,""
325_0_1,w0,profile_325,2721518.000000,802,21639.000000,1,COMPLETED_SUCCESSFULLY,2722591.005100,21638.000000,2744229.005100,1073.005100,22711.005100,1.049589,1192-1447 1568-1703 3752-4161,-1.000000,""
326_0_1,w0,profile_326,2755245.000000,1024,21600.000000,1,COMPLETED_SUCCESSFULLY,2755245.001800,21543.000000,2776788.001800,0.001800,21543.001800,1.000000,1056-2079,-1.000000,""
323_0_1,w0,profile_323,2705267.000000,1056,86400.000000,1,COMPLETED_SUCCESSFULLY,2722562.005100,67017.000000,2789579.005100,17295.005100,84312.005100,1.258069,0-1055,-1.000000,""
332_0_1,w0,profile_332,2788425.000000,256,21641.000000,1,COMPLETED_SUCCESSFULLY,2789582.007950,21640.000000,2811222.007950,1157.007950,22797.007950,1.053466,768-1023,-1.000000,""
330_0_1,w0,profile_330,2781848.000000,512,32450.000000,1,COMPLETED_SUCCESSFULLY,2789582.006750,32449.000000,2822031.006750,7734.006750,40183.006750,1.238343,0-511,-1.000000,""
333_0_1,w0,profile_333,2791272.000000,804,21631.000000,1,COMPLETED_SUCCESSFULLY,2822034.008400,21630.000000,2843664.008400,30762.008400,52392.008400,2.422192,0-511 768-1055 4160-4163,-1.000000,""
327_0_1,w0,profile_327,2759028.000000,1024,86512.000000,1,COMPLETED_SUCCESSFULLY,2759028.001800,86511.000000,2845539.001800,0.001800,86511.001800,1.000000,2080-3103,-1.000000,""
329_0_1,w0,profile_329,2779949.000000,1056,86400.000000,1,COMPLETED_SUCCESSFULLY,2779949.001800,68203.000000,2848152.001800,0.001800,68203.001800,1.000000,1056-2079 4128-4159,-1.000000,""
335_0_1,w0,profile_335,2843052.000000,256,21588.000000,1,COMPLETED_SUCCESSFULLY,2845542.003450,21587.000000,2867129.003450,2490.003450,24077.003450,1.115347,2080-2335,-1.000000,""
336_0_1,w0,profile_336,2845191.000000,1024,21600.000000,1,COMPLETED_SUCCESSFULLY,2848155.003450,21583.000000,2869738.003450,2964.003450,24547.003450,1.137330,1056-2079,-1.000000,""
337_0_1,w0,profile_337,2858732.000000,288,21651.000000,1,COMPLETED_SUCCESSFULLY,2858732.001800,21650.000000,2880382.001800,0.001800,21650.001800,1.000000,2336-2623,-1.000000,""
338_0_1,w0,profile_338,2860756.000000,256,23079.000000,1,COMPLETED_SUCCESSFULLY,2860756.001800,23078.000000,2883834.001800,0.001800,23078.001800,1.000000,2624-2879,-1.000000,""
331_0_1,w0,profile_331,2781928.000000,256,114796.000000,1,COMPLETED_SUCCESSFULLY,2789582.007350,114795.000000,2904377.007350,7654.007350,122449.007350,1.066675,512-767,-1.000000,""
340_0_1,w0,profile_340,2882395.000000,802,28912.000000,1,COMPLETED_SUCCESSFULLY,2882395.001800,28911.000000,2911306.001800,0.001800,28911.001800,1.000000,2080-2623 2880-3103 4128-4159 4164-4165,-1.000000,""
328_0_1,w0,profile_328,2768544.000000,1024,163333.000000,1,COMPLETED_SUCCESSFULLY,2768544.001800,163332.000000,2931876.001800,0.001800,163332.001800,1.000000,3104-4127,-1.000000,""
334_0_1,w0,profile_334,2805567.000000,804,94642.000000,1,COMPLETED_SUCCESSFULLY,2843667.010050,94641.000000,2938308.010050,38100.010050,132741.010050,1.402574,0-511 768-1055 4160-4163,-1.000000,""
341_0_1,w0,profile_341,2882479.000000,802,28927.000000,1,COMPLETED_SUCCESSFULLY,2911309.003450,28926.000000,2940235.003450,28830.003450,57756.003450,1.996681,512-767 2080-2625,-1.000000,""
342_0_1,w0,profile_342,2934924.000000,256,21648.000000,1,COMPLETED_SUCCESSFULLY,2934924.001800,21647.000000,2956571.001800,0.001800,21647.001800,1.000000,2626-2881,-1.000000,""
343_0_1,w0,profile_343,2934925.000000,256,21649.000000,1,COMPLETED_SUCCESSFULLY,2934925.001800,21648.000000,2956573.001800,0.001800,21648.001800,1.000000,2882-3137,-1.000000,""
344_0_1,w0,profile_344,2934926.000000,256,21649.000000,1,COMPLETED_SUCCESSFULLY,2934926.001800,21648.000000,2956574.001800,0.001800,21648.001800,1.000000,3138-3393,-1.000000,""
347_0_1,w0,profile_347,2934940.000000,256,21653.000000,1,COMPLETED_SUCCESSFULLY,2934940.001800,21652.000000,2956592.001800,0.001800,21652.001800,1.000000,3906-4159 4164-4165,-1.000000,""
345_0_1,w0,profile_345,2934937.000000,256,21660.000000,1,COMPLETED_SUCCESSFULLY,2934937.001800,21659.000000,2956596.001800,0.001800,21659.001800,1.000000,3394-3649,-1.000000,""
346_0_1,w0,profile_346,2934939.000000,256,21850.000000,1,COMPLETED_SUCCESSFULLY,2934939.001800,21849.000000,2956788.001800,0.001800,21849.001800,1.000000,3650-3905,-1.000000,""
348_0_1,w0,profile_348,2934941.000000,256,21653.000000,1,COMPLETED_SUCCESSFULLY,2938311.011700,21652.000000,2959963.011700,3370.011700,25022.011700,1.155644,0-255,-1.000000,""
349_0_1,w0,profile_349,2934943.000000,256,21656.000000,1,COMPLETED_SUCCESSFULLY,2938311.012300,21655.000000,2959966.012300,3368.012300,25023.012300,1.155530,256-511,-1.000000,""
350_0_1,w0,profile_350,2934944.000000,256,21656.000000,1,COMPLETED_SUCCESSFULLY,2938311.012900,21655.000000,2959966.012900,3367.012900,25022.012900,1.155484,768-1023,-1.000000,""
351_0_1,w0,profile_351,2934946.000000,256,21656.000000,1,COMPLETED_SUCCESSFULLY,2938311.013500,21655.000000,2959966.013500,3365.013500,25020.013500,1.155392,1024-1055 4160-4163 4166-4385,-1.000000,""
352_0_1,w0,profile_352,2938458.000000,384,32499.000000,1,COMPLETED_SUCCESSFULLY,2940238.005100,32498.000000,2972736.005100,1780.005100,34278.005100,1.054773,512-767 2080-2207,-1.000000,""
353_0_1,w0,profile_353,2939689.000000,1251,21715.000000,1,COMPLETED_SUCCESSFULLY,2956595.003450,21714.000000,2978309.003450,16906.003450,38620.003450,1.778576,2208-3393 3906-3970,-1.000000,""
339_0_1,w0,profile_339,2863927.000000,1024,108583.000000,1,COMPLETED_SUCCESSFULLY,2869741.005100,108582.000000,2978323.005100,5814.005100,114396.005100,1.053545,1056-2079,-1.000000,""
355_0_1,w0,profile_355,2956132.000000,2,93380.000000,1,COMPLETED_SUCCESSFULLY,2956595.004650,93379.000000,3049974.004650,463.004650,93842.004650,1.004958,3975-3976,-1.000000,""
354_0_1,w0,profile_354,2954981.000000,4,94594.000000,1,COMPLETED_SUCCESSFULLY,2956595.004050,94593.000000,3051188.004050,1614.004050,96207.004050,1.017063,3971-3974,-1.000000,""
356_0_1,w0,profile_356,3049540.000000,256,23157.000000,1,COMPLETED_SUCCESSFULLY,3049540.001800,23156.000000,3072696.001800,0.001800,23156.001800,1.000000,0-255,-1.000000,""
357_0_1,w0,profile_357,3054475.000000,4096,86400.000000,1,COMPLETED_SUCCESSFULLY,3054475.001800,39443.000000,3093918.001800,0.001800,39443.001800,1.000000,256-4351,-1.000000,""
358_0_1,w0,profile_358,3065931.000000,256,21644.000000,1,COMPLETED_SUCCESSFULLY,3072699.003450,21643.000000,3094342.003450,6768.003450,28411.003450,1.312711,0-255,-1.000000,""
361_0_1,w0,profile_361,3069497.000000,256,21643.000000,1,COMPLETED_SUCCESSFULLY,3093921.004650,21642.000000,3115563.004650,24424.004650,46066.004650,2.128547,1860-2115,-1.000000,""
359_0_1,w0,profile_359,3068051.000000,802,28823.000000,1,COMPLETED_SUCCESSFULLY,3093921.003450,28822.000000,3122743.003450,25870.003450,54692.003450,1.897578,256-1057,-1.000000,""
360_0_1,w0,profile_360,3068059.000000,802,28893.000000,1,COMPLETED_SUCCESSFULLY,3093921.004050,28892.000000,3122813.004050,25862.004050,54754.004050,1.895127,1058-1859,-1.000000,""
362_0_1,w0,profile_362,3108370.000000,1024,21622.000000,1,COMPLETED_SUCCESSFULLY,3108370.001800,21621.000000,3129991.001800,0.001800,21621.001800,1.000000,0-255 2116-2883,-1.000000,""
363_0_1,w0,profile_363,3120441.000000,1024,21600.000000,1,COMPLETED_SUCCESSFULLY,3120441.001800,21591.000000,3142032.001800,0.001800,21591.001800,1.000000,1860-2115 2884-3651,-1.000000,""
364_0_1,w0,profile_364,3140766.000000,1024,21690.000000,1,COMPLETED_SUCCESSFULLY,3140766.001800,21689.000000,3162455.001800,0.001800,21689.001800,1.000000,0-1023,-1.000000,""
368_0_1,w0,profile_368,3143701.000000,1024,21730.000000,1,COMPLETED_SUCCESSFULLY,3162458.003450,21729.000000,3184187.003450,18757.003450,40486.003450,1.863224,0-1023,-1.000000,""
371_0_1,w0,profile_371,3195675.000000,256,21600.000000,1,COMPLETED_SUCCESSFULLY,3195675.001800,20150.000000,3215825.001800,0.001800,20150.001800,1.000000,4132-4387,-1.000000,""
370_0_1,w0,profile_370,3193312.000000,256,23032.000000,1,COMPLETED_SUCCESSFULLY,3193312.001800,23031.000000,3216343.001800,0.001800,23031.001800,1.000000,804-1023 4096-4131,-1.000000,""
365_0_1,w0,profile_365,3142051.000000,1024,86400.000000,1,COMPLETED_SUCCESSFULLY,3142051.001800,85042.000000,3227093.001800,0.001800,85042.001800,1.000000,1024-2047,-1.000000,""
366_0_1,w0,profile_366,3142070.000000,1024,86400.000000,1,COMPLETED_SUCCESSFULLY,3142070.001800,85079.000000,3227149.001800,0.001800,85079.001800,1.000000,2048-3071,-1.000000,""
367_0_1,w0,profile_367,3142077.000000,1024,86400.000000,1,COMPLETED_SUCCESSFULLY,3142077.001800,85089.000000,3227166.001800,0.001800,85089.001800,1.000000,3072-4095,-1.000000,""
373_0_1,w0,profile_373,3207368.000000,256,21600.000000,1,COMPLETED_SUCCESSFULLY,3216346.003450,20740.000000,3237086.003450,8978.003450,29718.003450,1.432883,804-1023 4096-4131,-1.000000,""
372_0_1,w0,profile_372,3205526.000000,256,21698.000000,1,COMPLETED_SUCCESSFULLY,3215828.003450,21697.000000,3237525.003450,10302.003450,31999.003450,1.474812,4132-4387,-1.000000,""
378_0_1,w0,profile_378,3225799.000000,2,21681.000000,1,COMPLETED_SUCCESSFULLY,3227096.004650,21680.000000,3248776.004650,1297.004650,22977.004650,1.059825,1920-1921,-1.000000,""
380_0_1,w0,profile_380,3233030.000000,2,21705.000000,1,COMPLETED_SUCCESSFULLY,3233030.001800,21704.000000,3254734.001800,0.001800,21704.001800,1.000000,1922-1923,-1.000000,""
374_0_1,w0,profile_374,3207372.000000,384,32400.000000,1,COMPLETED_SUCCESSFULLY,3227096.003450,31555.000000,3258651.003450,19724.003450,51279.003450,1.625067,1024-1407,-1.000000,""
376_0_1,w0,profile_376,3219857.000000,512,32394.000000,1,COMPLETED_SUCCESSFULLY,3227096.004050,32393.000000,3259489.004050,7239.004050,39632.004050,1.223474,1408-1919,-1.000000,""
369_0_1,w0,profile_369,3158386.000000,804,86439.000000,1,COMPLETED_SUCCESSFULLY,3184190.005100,86438.000000,3270628.005100,25804.005100,112242.005100,1.298526,0-803,-1.000000,""
381_0_1,w0,profile_381,3250006.000000,256,21648.000000,1,COMPLETED_SUCCESSFULLY,3270631.007350,21646.000000,3292277.007350,20625.007350,42271.007350,1.952832,4096-4351,-1.000000,""
382_0_1,w0,profile_382,3278925.000000,256,21834.000000,1,COMPLETED_SUCCESSFULLY,3292280.009000,21833.000000,3314113.009000,13355.009000,35188.009000,1.611689,4096-4351,-1.000000,""
375_0_1,w0,profile_375,3219534.000000,4096,87874.000000,1,COMPLETED_SUCCESSFULLY,3270631.006750,87873.000000,3358504.006750,51097.006750,138970.006750,1.581487,0-4095,-1.000000,""
377_0_1,w0,profile_377,3220260.000000,4096,86540.000000,1,COMPLETED_SUCCESSFULLY,3358507.008400,86539.000000,3445046.008400,138247.008400,224786.008400,2.597511,0-4095,-1.000000,""
383_0_1,w0,profile_383,3282878.000000,700,25265.000000,1,COMPLETED_SUCCESSFULLY,3445049.010650,25264.000000,3470313.010650,162171.010650,187435.010650,7.419055,1024-1723,-1.000000,""
384_0_1,w0,profile_384,3283191.000000,384,32519.000000,1,COMPLETED_SUCCESSFULLY,3445049.011250,32518.000000,3477567.011250,161858.011250,194376.011250,5.977490,1724-2107,-1.000000,""
379_0_1,w0,profile_379,3231250.000000,1024,86500.000000,1,COMPLETED_SUCCESSFULLY,3445049.010050,86499.000000,3531548.010050,213799.010050,300298.010050,3.471693,0-1023,-1.000000,""
