time,nb_sleeping,nb_switching_on,nb_switching_off,nb_idle,nb_computing
0.00240003,0,0,0,4136,256
0.00300004,0,0,0,3992,400
0.00360005,0,0,0,3848,544
0.00420006,0,0,0,3720,672
0.00480006,0,0,0,3592,800
0.00540007,0,0,0,3080,1312
0.00600008,0,0,0,2952,1440
0.00660009,0,0,0,2824,1568
0.0072001,0,0,0,2696,1696
0.0078001,0,0,0,2568,1824
0.00840011,0,0,0,2440,1952
0.00900012,0,0,0,2125,2267
0.00960013,0,0,0,1997,2395
0.0102001,0,0,0,1869,2523
0.0108001,0,0,0,1628,2764
0.0114002,0,0,0,1372,3020
0.0120002,0,0,0,1244,3148
0.0126002,0,0,0,1116,3276
0.0132002,0,0,0,988,3404
0.0138002,0,0,0,860,3532
0.0144002,0,0,0,732,3660
0.0150002,0,0,0,476,3916
0.0156002,0,0,0,161,4231
5301.01,0,0,0,289,4103
5304.01,0,0,0,33,4359
5421.01,0,0,0,161,4231
5457.01,0,0,0,289,4103
5460.01,0,0,0,33,4359
5529.01,0,0,0,161,4231
6994.01,0,0,0,289,4103
8308.01,0,0,0,417,3975
8807.01,0,0,0,545,3847
10440,0,0,0,689,3703
10464,0,0,0,833,3559
10786,0,0,0,961,3431
10789,0,0,0,64,4328
10862,0,0,0,192,4200
10876,0,0,0,320,4072
10879,0,0,0,64,4328
10899,0,0,0,192,4200
10902,0,0,0,448,3944
10903,0,0,0,576,3816
10908,0,0,0,320,4072
10908,0,0,0,64,4328
10920,0,0,0,192,4200
10923,0,0,0,64,4328
10936,0,0,0,192,4200
11509,0,0,0,507,3885
11512,0,0,0,251,4141
11570,0,0,0,566,3826
11573,0,0,0,54,4338
13334,0,0,0,310,4082
13337,0,0,0,182,4210
14268,0,0,0,694,3698
14271,0,0,0,379,4013
14271,0,0,0,251,4141
14271,0,0,0,123,4269
21676,0,0,0,379,4013
21817,0,0,0,507,3885
21894,0,0,0,635,3757
22365,0,0,0,763,3629
22483,0,0,0,1275,3117
22486,0,0,0,251,4141
22486,0,0,0,123,4269
22646,0,0,0,251,4141
22649,0,0,0,123,4269
25137,0,0,0,438,3954
25140,0,0,0,310,4082
25140,0,0,0,182,4210
25140,0,0,0,54,4338
26561,0,0,0,310,4082
26564,0,0,0,182,4210
26564,0,0,0,54,4338
27006,0,0,0,310,4082
29766,0,0,0,438,3954
30085,0,0,0,566,3826
30387,0,0,0,822,3570
31222,0,0,0,950,3442
31375,0,0,0,1078,3314
31804,0,0,0,1206,3186
32021,0,0,0,1334,3058
32036,0,0,0,1462,2930
32534,0,0,0,1718,2674
32537,0,0,0,1974,2418
32609,0,0,0,2230,2162
32612,0,0,0,182,4210
32612,0,0,0,30,4362
43065,0,0,0,182,4210
43208,0,0,0,1079,3313
43211,0,0,0,247,4145
43211,0,0,0,119,4273
51627,0,0,0,247,4145
51630,0,0,0,119,4273
57051,0,0,0,1143,3249
57054,0,0,0,902,3490
57054,0,0,0,653,3739
57054,0,0,0,412,3980
57054,0,0,0,284,4108
57054,0,0,0,156,4236
57054,0,0,0,155,4237
57054,0,0,0,27,4365
60378,0,0,0,155,4237
60381,0,0,0,27,4365
66755,0,0,0,155,4237
66758,0,0,0,27,4365
67897,0,0,0,155,4237
67900,0,0,0,27,4365
67926,0,0,0,155,4237
67929,0,0,0,27,4365
67967,0,0,0,155,4237
67970,0,0,0,27,4365
73611,0,0,0,155,4237
73614,0,0,0,27,4365
74913,0,0,0,155,4237
74916,0,0,0,27,4365
77079,0,0,0,155,4237
77082,0,0,0,27,4365
77107,0,0,0,155,4237
77110,0,0,0,27,4365
77261,0,0,0,26,4366
78762,0,0,0,27,4365
80416,0,0,0,155,4237
80419,0,0,0,27,4365
81723,0,0,0,155,4237
81726,0,0,0,27,4365
86601,0,0,0,155,4237
86604,0,0,0,27,4365
87060,0,0,0,155,4237
87063,0,0,0,27,4365
87949,0,0,0,155,4237
87952,0,0,0,27,4365
88186,0,0,0,155,4237
88189,0,0,0,11,4381
95203,0,0,0,139,4253
95206,0,0,0,11,4381
97459,0,0,0,139,4253
97896,0,0,0,267,4125
98528,0,0,0,411,3981
98928,0,0,0,412,3980
102458,0,0,0,540,3852
104385,0,0,0,2588,1804
104388,0,0,0,1180,3212
104388,0,0,0,283,4109
104388,0,0,0,27,4365
123572,0,0,0,283,4109
123575,0,0,0,27,4365
128868,0,0,0,859,3533
128871,0,0,0,731,3661
128871,0,0,0,603,3789
136175,0,0,0,731,3661
136184,0,0,0,859,3533
136814,0,0,0,1756,2636
136817,0,0,0,732,3660
136817,0,0,0,476,3916
136817,0,0,0,220,4172
145255,0,0,0,476,3916
145258,0,0,0,227,4165
145816,0,0,0,1251,3141
145819,0,0,0,936,3456
145819,0,0,0,621,3771
145819,0,0,0,365,4027
147765,0,0,0,1773,2619
147768,0,0,0,1261,3131
147768,0,0,0,1005,3387
147768,0,0,0,877,3515
156019,0,0,0,1005,3387
156151,0,0,0,1320,3072
156154,0,0,0,296,4096
156154,0,0,0,40,4352
156750,0,0,0,355,4037
156753,0,0,0,99,4293
158515,0,0,0,355,4037
158518,0,0,0,99,4293
158561,0,0,0,355,4037
158564,0,0,0,99,4293
166439,0,0,0,1123,3269
166442,0,0,0,867,3525
166442,0,0,0,611,3781
166442,0,0,0,355,4037
166442,0,0,0,99,4293
167388,0,0,0,355,4037
167391,0,0,0,99,4293
167656,0,0,0,355,4037
167659,0,0,0,99,4293
168259,0,0,0,355,4037
168262,0,0,0,99,4293
168635,0,0,0,611,3781
169308,0,0,0,867,3525
169900,0,0,0,1116,3276
169966,0,0,0,1372,3020
170047,0,0,0,1628,2764
170050,0,0,0,92,4300
177870,0,0,0,348,4044
177873,0,0,0,92,4300
177891,0,0,0,348,4044
177894,0,0,0,92,4300
177900,0,0,0,348,4044
177903,0,0,0,92,4300
177919,0,0,0,348,4044
177922,0,0,0,92,4300
178870,0,0,0,348,4044
178873,0,0,0,92,4300
179114,0,0,0,348,4044
179117,0,0,0,92,4300
179693,0,0,0,348,4044
179696,0,0,0,92,4300
189349,0,0,0,348,4044
189352,0,0,0,92,4300
189365,0,0,0,348,4044
189367,0,0,0,604,3788
189371,0,0,0,348,4044
189391,0,0,0,604,3788
189394,0,0,0,92,4300
190318,0,0,0,348,4044
190542,0,0,0,604,3788
191121,0,0,0,860,3532
193444,0,0,0,2396,1996
193447,0,0,0,860,3532
193447,0,0,0,668,3724
193447,0,0,0,540,3852
198635,0,0,0,668,3724
200174,0,0,0,860,3532
200806,0,0,0,1116,3276
200807,0,0,0,1372,3020
200812,0,0,0,475,3917
200812,0,0,0,329,4063
200812,0,0,0,201,4191
200812,0,0,0,73,4319
209402,0,0,0,219,4173
210085,0,0,0,347,4045
210420,0,0,0,475,3917
215844,0,0,0,2011,2381
215847,0,0,0,475,3917
215847,0,0,0,219,4173
219062,0,0,0,731,3661
219065,0,0,0,475,3917
223405,0,0,0,716,3676
223408,0,0,0,204,4188
223408,0,0,0,76,4316
224737,0,0,0,325,4067
224740,0,0,0,197,4195
224740,0,0,0,69,4323
232570,0,0,0,197,4195
232780,0,0,0,325,4067
233247,0,0,0,453,3939
233248,0,0,0,1350,3042
233253,0,0,0,838,3554
233253,0,0,0,358,4034
233253,0,0,0,214,4178
233253,0,0,0,86,4306
237563,0,0,0,342,4050
237566,0,0,0,86,4306
240759,0,0,0,342,4050
243695,0,0,0,486,3906
244096,0,0,0,614,3778
244953,0,0,0,870,3522
245070,0,0,0,1382,3010
245073,0,0,0,485,3907
245073,0,0,0,229,4163
245073,0,0,0,101,4291
255980,0,0,0,229,4163
257208,0,0,0,1765,2627
257211,0,0,0,1509,2883
257211,0,0,0,509,3883
263361,0,0,0,1021,3371
263874,0,0,0,1277,3115
263877,0,0,0,77,4315
265894,0,0,0,557,3835
265897,0,0,0,301,4091
265897,0,0,0,45,4347
273170,0,0,0,286,4106
273173,0,0,0,37,4355
275852,0,0,0,293,4099
277536,0,0,0,1190,3202
277539,0,0,0,149,4243
284950,0,0,0,1190,3202
284953,0,0,0,934,3458
284953,0,0,0,806,3586
284953,0,0,0,662,3730
284953,0,0,0,162,4230
284953,0,0,0,18,4374
287534,0,0,0,274,4118
287537,0,0,0,146,4246
287537,0,0,0,18,4374
287564,0,0,0,274,4118
287567,0,0,0,146,4246
287567,0,0,0,18,4374
295264,0,0,0,162,4230
295512,0,0,0,306,4086
295817,0,0,0,434,3958
296084,0,0,0,562,3830
297272,0,0,0,690,3702
297333,0,0,0,939,3453
297336,0,0,0,42,4350
298409,0,0,0,170,4222
298412,0,0,0,42,4350
298455,0,0,0,170,4222
298458,0,0,0,42,4350
300847,0,0,0,1042,3350
302995,0,0,0,1542,2850
302998,0,0,0,134,4258
302998,0,0,0,6,4386
303133,0,0,0,262,4130
303136,0,0,0,6,4386
309318,0,0,0,134,4258
309432,0,0,0,262,4130
310878,0,0,0,390,4002
313105,0,0,0,646,3746
313134,0,0,0,1846,2546
313137,0,0,0,438,3954
313137,0,0,0,310,4082
313137,0,0,0,182,4210
313137,0,0,0,54,4338
316399,0,0,0,295,4097
316402,0,0,0,167,4225
316402,0,0,0,39,4353
323993,0,0,0,167,4225
324012,0,0,0,295,4097
324035,0,0,0,423,3969
327239,0,0,0,551,3841
327342,0,0,0,679,3713
329688,0,0,0,1576,2816
329691,0,0,0,168,4224
329691,0,0,0,40,4352
340609,0,0,0,168,4224
346319,0,0,0,1576,2816
346322,0,0,0,168,4224
346322,0,0,0,40,4352
354801,0,0,0,168,4224
356449,0,0,0,1576,2816
356452,0,0,0,168,4224
356452,0,0,0,40,4352
367351,0,0,0,168,4224
373054,0,0,0,1576,2816
373057,0,0,0,168,4224
373057,0,0,0,40,4352
383956,0,0,0,168,4224
389656,0,0,0,1576,2816
389659,0,0,0,168,4224
389659,0,0,0,40,4352
397872,0,0,0,168,4224
399702,0,0,0,1576,2816
399705,0,0,0,168,4224
399705,0,0,0,40,4352
410557,0,0,0,168,4224
410560,0,0,0,22,4370
416320,0,0,0,168,4224
416408,0,0,0,1576,2816
416411,0,0,0,168,4224
416411,0,0,0,40,4352
427259,0,0,0,168,4224
433028,0,0,0,1576,2816
433031,0,0,0,168,4224
433031,0,0,0,40,4352
443047,0,0,0,1448,2944
443050,0,0,0,1320,3072
443050,0,0,0,1192,3200
443050,0,0,0,1064,3328
443050,0,0,0,936,3456
443050,0,0,0,808,3584
443050,0,0,0,680,3712
443050,0,0,0,552,3840
443050,0,0,0,424,3968
443050,0,0,0,296,4096
443050,0,0,0,168,4224
443050,0,0,0,40,4352
443877,0,0,0,168,4224
443880,0,0,0,40,4352
452471,0,0,0,168,4224
453788,0,0,0,296,4096
453870,0,0,0,424,3968
453873,0,0,0,552,3840
453881,0,0,0,680,3712
453882,0,0,0,808,3584
453885,0,0,0,936,3456
453893,0,0,0,1064,3328
453896,0,0,0,40,4352
453901,0,0,0,168,4224
453925,0,0,0,296,4096
453926,0,0,0,424,3968
453927,0,0,0,552,3840
453934,0,0,0,168,4224
453934,0,0,0,40,4352
459674,0,0,0,1448,2944
459677,0,0,0,1064,3328
459677,0,0,0,808,3584
459677,0,0,0,552,3840
459677,0,0,0,424,3968
464186,0,0,0,1448,2944
464189,0,0,0,248,4144
464824,0,0,0,376,4016
464827,0,0,0,120,4272
470528,0,0,0,248,4144
475651,0,0,0,632,3760
475654,0,0,0,248,4144
476338,0,0,0,1656,2736
476341,0,0,0,632,3760
476341,0,0,0,504,3888
477922,0,0,0,1704,2688
477925,0,0,0,168,4224
477925,0,0,0,40,4352
481314,0,0,0,424,3968
481379,0,0,0,680,3712
481382,0,0,0,168,4224
481382,0,0,0,24,4368
481431,0,0,0,280,4112
482993,0,0,0,536,3856
483051,0,0,0,2072,2320
483054,0,0,0,536,3856
483054,0,0,0,392,4000
483054,0,0,0,391,4001
483054,0,0,0,263,4129
483054,0,0,0,7,4385
486643,0,0,0,1031,3361
486646,0,0,0,775,3617
486646,0,0,0,519,3873
486646,0,0,0,391,4001
486646,0,0,0,135,4257
487185,0,0,0,263,4129
487188,0,0,0,7,4385
488321,0,0,0,135,4257
491919,0,0,0,279,4113
491922,0,0,0,23,4369
493640,0,0,0,167,4225
493951,0,0,0,295,4097
493954,0,0,0,39,4353
493983,0,0,0,423,3969
494167,0,0,0,935,3457
494170,0,0,0,295,4097
494170,0,0,0,39,4353
497549,0,0,0,167,4225
497552,0,0,0,39,4353
504788,0,0,0,295,4097
504806,0,0,0,296,4096
504837,0,0,0,424,3968
505001,0,0,0,1960,2432
505004,0,0,0,1063,3329
505004,0,0,0,807,3585
505004,0,0,0,307,4085
508284,0,0,0,563,3829
508338,0,0,0,819,3573
508353,0,0,0,1075,3317
508356,0,0,0,51,4341
508815,0,0,0,307,4085
508818,0,0,0,179,4213
513558,0,0,0,435,3957
515520,0,0,0,691,3701
515690,0,0,0,819,3573
515698,0,0,0,1075,3317
515701,0,0,0,51,4341
526656,0,0,0,1075,3317
526659,0,0,0,819,3573
526659,0,0,0,319,4073
526659,0,0,0,63,4329
526827,0,0,0,319,4073
526830,0,0,0,63,4329
536299,0,0,0,563,3829
537400,0,0,0,1203,3189
537403,0,0,0,162,4230
537413,0,0,0,1059,3333
537416,0,0,0,803,3589
537416,0,0,0,675,3717
537416,0,0,0,547,3845
537416,0,0,0,419,3973
537416,0,0,0,291,4101
537416,0,0,0,163,4229
537416,0,0,0,35,4357
546753,0,0,0,163,4229
546912,0,0,0,291,4101
547076,0,0,0,419,3973
547118,0,0,0,547,3845
547211,0,0,0,675,3717
548271,0,0,0,803,3589
548301,0,0,0,1059,3333
548304,0,0,0,35,4357
548393,0,0,0,291,4101
548396,0,0,0,163,4229
548396,0,0,0,35,4357
548524,0,0,0,291,4101
548527,0,0,0,163,4229
548527,0,0,0,35,4357
557986,0,0,0,163,4229
558016,0,0,0,291,4101
558174,0,0,0,419,3973
558179,0,0,0,547,3845
559138,0,0,0,803,3589
559180,0,0,0,1303,3089
559183,0,0,0,279,4113
559183,0,0,0,151,4241
559183,0,0,0,23,4369
566432,0,0,0,151,4241
566491,0,0,0,279,4113
567692,0,0,0,1303,3089
567695,0,0,0,279,4113
567695,0,0,0,149,4243
567695,0,0,0,21,4371
577223,0,0,0,149,4243
578594,0,0,0,279,4113
582842,0,0,0,1320,3072
582845,0,0,0,296,4096
582845,0,0,0,40,4352
596486,0,0,0,35,4357
603753,0,0,0,40,4352
604473,0,0,0,296,4096
607312,0,0,0,1320,3072
607315,0,0,0,296,4096
608922,0,0,0,1320,3072
608925,0,0,0,296,4096
608925,0,0,0,168,4224
608925,0,0,0,40,4352
618624,0,0,0,168,4224
618662,0,0,0,296,4096
621209,0,0,0,1320,3072
621212,0,0,0,296,4096
621212,0,0,0,168,4224
621212,0,0,0,40,4352
630834,0,0,0,168,4224
630837,0,0,0,40,4352
630934,0,0,0,168,4224
630937,0,0,0,40,4352
640302,0,0,0,168,4224
640439,0,0,0,296,4096
642497,0,0,0,1320,3072
642500,0,0,0,296,4096
642500,0,0,0,40,4352
664140,0,0,0,296,4096
666397,0,0,0,1320,3072
666400,0,0,0,296,4096
666400,0,0,0,40,4352
670895,0,0,0,1064,3328
670898,0,0,0,764,3628
670898,0,0,0,464,3928
670898,0,0,0,164,4228
670898,0,0,0,36,4356
680492,0,0,0,164,4228
680564,0,0,0,1188,3204
680567,0,0,0,888,3504
680567,0,0,0,588,3804
680567,0,0,0,288,4104
680567,0,0,0,160,4232
680567,0,0,0,32,4360
687838,0,0,0,160,4232
687865,0,0,0,288,4104
688061,0,0,0,544,3848
688064,0,0,0,244,4148
691458,0,0,0,544,3848
691461,0,0,0,244,4148
691546,0,0,0,544,3848
691549,0,0,0,244,4148
691701,0,0,0,544,3848
691704,0,0,0,244,4148
691704,0,0,0,116,4276
697198,0,0,0,244,4148
697561,0,0,0,1268,3124
697564,0,0,0,968,3424
697564,0,0,0,668,3724
697564,0,0,0,412,3980
697564,0,0,0,156,4236
701143,0,0,0,456,3936
701146,0,0,0,200,4192
701163,0,0,0,500,3892
701166,0,0,0,244,4148
701416,0,0,0,544,3848
701419,0,0,0,288,4104
701419,0,0,0,32,4360
709210,0,0,0,332,4060
709213,0,0,0,76,4316
712186,0,0,0,376,4016
712189,0,0,0,120,4272
712300,0,0,0,420,3972
712303,0,0,0,164,4228
712318,0,0,0,464,3928
712321,0,0,0,208,4184
718776,0,0,0,508,3884
718779,0,0,0,252,4140
719193,0,0,0,508,3884
719196,0,0,0,252,4140
719209,0,0,0,508,3884
719212,0,0,0,252,4140
719302,0,0,0,552,3840
719305,0,0,0,296,4096
722801,0,0,0,552,3840
722804,0,0,0,40,4352
722830,0,0,0,296,4096
723067,0,0,0,552,3840
723112,0,0,0,808,3584
728273,0,0,0,1832,2560
728276,0,0,0,935,3457
728276,0,0,0,679,3713
728276,0,0,0,423,3969
728276,0,0,0,39,4353
730873,0,0,0,295,4097
730876,0,0,0,167,4225
730876,0,0,0,39,4353
733817,0,0,0,295,4097
733820,0,0,0,167,4225
733943,0,0,0,423,3969
733953,0,0,0,679,3713
740463,0,0,0,935,3457
740466,0,0,0,133,4259
740566,0,0,0,261,4131
740569,0,0,0,5,4387
740876,0,0,0,261,4131
740879,0,0,0,5,4387
740937,0,0,0,261,4131
740985,0,0,0,517,3875
740988,0,0,0,133,4259
741039,0,0,0,261,4131
743202,0,0,0,389,4003
743205,0,0,0,5,4387
749918,0,0,0,261,4131
749926,0,0,0,517,3875
749929,0,0,0,5,4387
752994,0,0,0,517,3875
752997,0,0,0,365,4027
752997,0,0,0,221,4171
752997,0,0,0,93,4299
756842,0,0,0,605,3787
756845,0,0,0,477,3915
756845,0,0,0,349,4043
756845,0,0,0,93,4299
759139,0,0,0,349,4043
759142,0,0,0,93,4299
759673,0,0,0,349,4043
759676,0,0,0,93,4299
760675,0,0,0,221,4171
760678,0,0,0,93,4299
760684,0,0,0,990,3402
760687,0,0,0,862,3530
760687,0,0,0,734,3658
760687,0,0,0,478,3914
760687,0,0,0,350,4042
760687,0,0,0,222,4170
760806,0,0,0,606,3786
760809,0,0,0,350,4042
760809,0,0,0,94,4298
763510,0,0,0,238,4154
763678,0,0,0,390,4002
763681,0,0,0,120,4272
767675,0,0,0,248,4144
767737,0,0,0,376,4016
767740,0,0,0,120,4272
768842,0,0,0,248,4144
768845,0,0,0,120,4272
769009,0,0,0,248,4144
769012,0,0,0,120,4272
770169,0,0,0,248,4144
770172,0,0,0,120,4272
770300,0,0,0,248,4144
770303,0,0,0,120,4272
771587,0,0,0,248,4144
771590,0,0,0,120,4272
773148,0,0,0,376,4016
773151,0,0,0,248,4144
773151,0,0,0,120,4272
773248,0,0,0,376,4016
773251,0,0,0,224,4168
773251,0,0,0,96,4296
773495,0,0,0,480,3912
773498,0,0,0,352,4040
773498,0,0,0,224,4168
773498,0,0,0,96,4296
773759,0,0,0,352,4040
773762,0,0,0,224,4168
773762,0,0,0,96,4296
775639,0,0,0,480,3912
775642,0,0,0,352,4040
775642,0,0,0,224,4168
775642,0,0,0,96,4296
779715,0,0,0,224,4168
779873,0,0,0,352,4040
779985,0,0,0,480,3912
780119,0,0,0,608,3784
781052,0,0,0,736,3656
781562,0,0,0,864,3528
782355,0,0,0,1120,3272
782477,0,0,0,1376,3016
782485,0,0,0,1632,2760
782802,0,0,0,1760,2632
782823,0,0,0,1888,2504
783043,0,0,0,2016,2376
783296,0,0,0,2144,2248
783356,0,0,0,2272,2120
783382,0,0,0,2400,1992
783782,0,0,0,2552,1840
784042,0,0,0,2680,1712
785135,0,0,0,2808,1584
785139,0,0,0,2936,1456
785357,0,0,0,3064,1328
785394,0,0,0,3334,1058
785397,0,0,0,262,4130
785397,0,0,0,6,4386
789411,0,0,0,262,4130
789414,0,0,0,6,4386
807045,0,0,0,262,4130
807048,0,0,0,21,4371
811096,0,0,0,277,4115
811099,0,0,0,21,4371
817810,0,0,0,277,4115
818407,0,0,0,3349,1043
818410,0,0,0,2837,1555
818410,0,0,0,2325,2067
818410,0,0,0,1813,2579
818410,0,0,0,1301,3091
818410,0,0,0,789,3603
818410,0,0,0,277,4115
821790,0,0,0,1079,3313
821793,0,0,0,55,4337
831168,0,0,0,567,3825
831171,0,0,0,439,3953
831171,0,0,0,183,4209
831171,0,0,0,55,4337
839587,0,0,0,183,4209
839761,0,0,0,439,3953
839782,0,0,0,567,3825
839956,0,0,0,1591,2801
839959,0,0,0,567,3825
840036,0,0,0,1079,3313
840039,0,0,0,55,4337
849129,0,0,0,567,3825
849132,0,0,0,439,3953
849132,0,0,0,311,4081
849132,0,0,0,167,4225
849132,0,0,0,39,4353
849135,0,0,0,551,3841
849138,0,0,0,167,4225
849138,0,0,0,39,4353
849171,0,0,0,551,3841
849243,0,0,0,1063,3329
850264,0,0,0,2087,2305
850267,0,0,0,899,3493
850267,0,0,0,771,3621
850267,0,0,0,259,4133
850267,0,0,0,131,4261
850267,0,0,0,3,4389
856549,0,0,0,131,4261
857948,0,0,0,259,4133
858035,0,0,0,1283,3109
858038,0,0,0,259,4133
858989,0,0,0,387,4005
859231,0,0,0,515,3877
859522,0,0,0,659,3733
859984,0,0,0,787,3605
859997,0,0,0,915,3477
861191,0,0,0,1043,3349
861194,0,0,0,19,4373
878767,0,0,0,1043,3349
878770,0,0,0,531,3861
878770,0,0,0,403,3989
878770,0,0,0,275,4117
878770,0,0,0,19,4373
880430,0,0,0,531,3861
880433,0,0,0,275,4117
880433,0,0,0,147,4245
880433,0,0,0,19,4373
881565,0,0,0,403,3989
881568,0,0,0,275,4117
881568,0,0,0,117,4275
888803,0,0,0,629,3763
888806,0,0,0,471,3921
888806,0,0,0,319,4073
888806,0,0,0,175,4217
888806,0,0,0,15,4377
889132,0,0,0,143,4249
889135,0,0,0,15,4377
889624,0,0,0,143,4249
889627,0,0,0,15,4377
891266,0,0,0,143,4249
891269,0,0,0,15,4377
891332,0,0,0,143,4249
891335,0,0,0,15,4377
892455,0,0,0,143,4249
892458,0,0,0,15,4377
892460,0,0,0,173,4219
892463,0,0,0,45,4347
893664,0,0,0,1233,3159
893667,0,0,0,1105,3287
893667,0,0,0,977,3415
893667,0,0,0,849,3543
893667,0,0,0,593,3799
893667,0,0,0,336,4056
893667,0,0,0,208,4184
893667,0,0,0,80,4312
894120,0,0,0,1104,3288
894123,0,0,0,591,3801
894123,0,0,0,463,3929
894123,0,0,0,335,4057
894123,0,0,0,79,4313
899184,0,0,0,223,4169
899187,0,0,0,95,4297
899356,0,0,0,247,4145
899359,0,0,0,119,4273
899683,0,0,0,279,4113
899686,0,0,0,151,4241
899714,0,0,0,309,4083
899717,0,0,0,68,4324
900026,0,0,0,196,4196
900377,0,0,0,452,3940
900380,0,0,0,196,4196
900507,0,0,0,324,4068
900510,0,0,0,68,4324
900514,0,0,0,196,4196
900638,0,0,0,452,3940
900641,0,0,0,196,4196
902142,0,0,0,324,4068
902145,0,0,0,68,4324
902229,0,0,0,196,4196
902930,0,0,0,324,4068
902933,0,0,0,68,4324
903352,0,0,0,196,4196
903724,0,0,0,324,4068
903727,0,0,0,68,4324
904449,0,0,0,324,4068
904452,0,0,0,196,4196
904452,0,0,0,68,4324
904488,0,0,0,196,4196
904491,0,0,0,68,4324
904498,0,0,0,196,4196
904501,0,0,0,68,4324
904517,0,0,0,196,4196
904520,0,0,0,38,4354
904525,0,0,0,166,4226
905054,0,0,0,294,4098
905057,0,0,0,38,4354
907125,0,0,0,551,3841
908324,0,0,0,679,3713
909000,0,0,0,807,3585
909496,0,0,0,935,3457
912228,0,0,0,1191,3201
912248,0,0,0,1447,2945
912630,0,0,0,1575,2817
912780,0,0,0,1733,2659
913076,0,0,0,1989,2403
913155,0,0,0,2117,2275
913158,0,0,0,69,4323
915053,0,0,0,326,4066
915056,0,0,0,70,4322
915310,0,0,0,326,4066
915359,0,0,0,454,3938
915373,0,0,0,582,3810
922131,0,0,0,838,3554
922139,0,0,0,1094,3298
922140,0,0,0,1350,3042
922145,0,0,0,150,4242
922388,0,0,0,406,3986
922391,0,0,0,150,4242
924678,0,0,0,406,3986
924681,0,0,0,150,4242
924681,0,0,0,22,4370
932360,0,0,0,150,4242
933777,0,0,0,391,4001
933780,0,0,0,135,4257
933780,0,0,0,7,4385
943021,0,0,0,135,4257
944103,0,0,0,391,4001
944106,0,0,0,135,4257
946427,0,0,0,391,4001
946430,0,0,0,135,4257
955542,0,0,0,391,4001
955545,0,0,0,135,4257
963662,0,0,0,2183,2209
963665,0,0,0,1927,2465
963665,0,0,0,1671,2721
963665,0,0,0,1415,2977
963665,0,0,0,1159,3233
963665,0,0,0,903,3489
963665,0,0,0,647,3745
965755,0,0,0,903,3489
968131,0,0,0,1159,3233
970819,0,0,0,1415,2977
971463,0,0,0,2615,1777
971466,0,0,0,567,3825
971466,0,0,0,311,4081
971466,0,0,0,183,4209
971466,0,0,0,39,4353
977229,0,0,0,295,4097
981910,0,0,0,551,3841
981934,0,0,0,695,3697
982320,0,0,0,823,3569
985294,0,0,0,1079,3313
985297,0,0,0,182,4210
985299,0,0,0,438,3954
985302,0,0,0,182,4210
985309,0,0,0,438,3954
985312,0,0,0,54,4338
985358,0,0,0,310,4082
985361,0,0,0,54,4338
985404,0,0,0,310,4082
985407,0,0,0,54,4338
1.00093e+06,0,0,0,310,4082
1.00093e+06,0,0,0,54,4338
1.00696e+06,0,0,0,310,4082
1.00696e+06,0,0,0,166,4226
1.00696e+06,0,0,0,22,4370
1.00701e+06,0,0,0,278,4114
1.00702e+06,0,0,0,134,4258
1.01637e+06,0,0,0,390,4002
1.01736e+06,0,0,0,534,3858
1.01736e+06,0,0,0,678,3714
1.01756e+06,0,0,0,822,3570
1.01773e+06,0,0,0,1719,2673
1.01773e+06,0,0,0,695,3697
1.01781e+06,0,0,0,1079,3313
1.01782e+06,0,0,0,55,4337
1.02868e+06,0,0,0,1079,3313
1.02868e+06,0,0,0,199,4193
1.03068e+06,0,0,0,1223,3169
1.03069e+06,0,0,0,839,3553
1.03069e+06,0,0,0,455,3937
1.03069e+06,0,0,0,71,4321
1.03875e+06,0,0,0,951,3441
1.03875e+06,0,0,0,567,3825
1.03875e+06,0,0,0,183,4209
1.03875e+06,0,0,0,55,4337
1.04961e+06,0,0,0,183,4209
1.04961e+06,0,0,0,37,4355
1.05522e+06,0,0,0,183,4209
1.05653e+06,0,0,0,2231,2161
1.05653e+06,0,0,0,1847,2545
1.05653e+06,0,0,0,1463,2929
1.05653e+06,0,0,0,1079,3313
1.05653e+06,0,0,0,695,3697
1.05653e+06,0,0,0,311,4081
1.05653e+06,0,0,0,55,4337
1.06319e+06,0,0,0,439,3953
1.06319e+06,0,0,0,311,4081
1.06321e+06,0,0,0,695,3697
1.06322e+06,0,0,0,1079,3313
1.06927e+06,0,0,0,1207,3185
1.07121e+06,0,0,0,1591,2801
1.07121e+06,0,0,0,55,4337
1.07127e+06,0,0,0,439,3953
1.07127e+06,0,0,0,311,4081
1.07127e+06,0,0,0,55,4337
1.0763e+06,0,0,0,1591,2801
1.0763e+06,0,0,0,1321,3071
1.0763e+06,0,0,0,1051,3341
1.0763e+06,0,0,0,795,3597
1.0763e+06,0,0,0,539,3853
1.0763e+06,0,0,0,411,3981
1.0763e+06,0,0,0,253,4139
1.0763e+06,0,0,0,125,4267
1.07816e+06,0,0,0,381,4011
1.07816e+06,0,0,0,253,4139
1.07816e+06,0,0,0,125,4267
1.08213e+06,0,0,0,253,4139
1.08717e+06,0,0,0,411,3981
1.0872e+06,0,0,0,539,3853
1.08725e+06,0,0,0,667,3725
1.08899e+06,0,0,0,795,3597
1.08904e+06,0,0,0,923,3469
1.08904e+06,0,0,0,1307,3085
1.08904e+06,0,0,0,1691,2701
1.08904e+06,0,0,0,667,3725
1.08906e+06,0,0,0,1051,3341
1.08908e+06,0,0,0,1435,2957
1.0891e+06,0,0,0,1819,2573
1.0891e+06,0,0,0,283,4109
1.0891e+06,0,0,0,27,4365
1.09292e+06,0,0,0,283,4109
1.09795e+06,0,0,0,539,3853
1.09795e+06,0,0,0,795,3597
1.09795e+06,0,0,0,283,4109
1.09795e+06,0,0,0,27,4365
1.09802e+06,0,0,0,297,4095
1.09802e+06,0,0,0,41,4351
1.09803e+06,0,0,0,311,4081
1.09803e+06,0,0,0,55,4337
1.09994e+06,0,0,0,1079,3313
1.09994e+06,0,0,0,823,3569
1.09994e+06,0,0,0,567,3825
1.1106e+06,0,0,0,2103,2289
1.1106e+06,0,0,0,567,3825
1.11082e+06,0,0,0,823,3569
1.11082e+06,0,0,0,183,4209
1.11931e+06,0,0,0,424,3968
1.11967e+06,0,0,0,936,3456
1.11967e+06,0,0,0,296,4096
1.11967e+06,0,0,0,55,4337
1.11967e+06,0,0,0,311,4081
1.11967e+06,0,0,0,183,4209
1.11968e+06,0,0,0,439,3953
1.1197e+06,0,0,0,695,3697
1.12147e+06,0,0,0,2231,2161
1.12147e+06,0,0,0,1031,3361
1.12158e+06,0,0,0,1287,3105
1.12158e+06,0,0,0,87,4305
1.1216e+06,0,0,0,343,4049
1.1216e+06,0,0,0,87,4305
1.13064e+06,0,0,0,215,4177
1.13935e+06,0,0,0,855,3537
1.13935e+06,0,0,0,599,3793
1.13935e+06,0,0,0,471,3921
1.13935e+06,0,0,0,343,4049
1.13935e+06,0,0,0,215,4177
1.13935e+06,0,0,0,87,4305
1.14331e+06,0,0,0,343,4049
1.14331e+06,0,0,0,215,4177
1.14331e+06,0,0,0,87,4305
1.15019e+06,0,0,0,215,4177
1.15019e+06,0,0,0,87,4305
1.15023e+06,0,0,0,215,4177
1.15023e+06,0,0,0,87,4305
1.15024e+06,0,0,0,215,4177
1.15024e+06,0,0,0,87,4305
1.15024e+06,0,0,0,215,4177
1.15024e+06,0,0,0,87,4305
1.15293e+06,0,0,0,727,3665
1.15294e+06,0,0,0,599,3793
1.1542e+06,0,0,0,727,3665
1.15421e+06,0,0,0,855,3537
1.16103e+06,0,0,0,1111,3281
1.16106e+06,0,0,0,1239,3153
1.16106e+06,0,0,0,39,4353
1.16107e+06,0,0,0,167,4225
1.16112e+06,0,0,0,295,4097
1.16112e+06,0,0,0,39,4353
1.16113e+06,0,0,0,167,4225
1.16381e+06,0,0,0,295,4097
1.16382e+06,0,0,0,39,4353
1.16669e+06,0,0,0,1239,3153
1.16669e+06,0,0,0,983,3409
1.16669e+06,0,0,0,727,3665
1.16669e+06,0,0,0,599,3793
1.16669e+06,0,0,0,343,4049
1.16669e+06,0,0,0,87,4305
1.1707e+06,0,0,0,1287,3105
1.17071e+06,0,0,0,1031,3361
1.17071e+06,0,0,0,873,3519
1.17071e+06,0,0,0,729,3663
1.17762e+06,0,0,0,857,3535
1.1816e+06,0,0,0,1001,3391
1.18162e+06,0,0,0,1159,3233
1.18282e+06,0,0,0,1415,2977
1.18282e+06,0,0,0,204,4188
1.18544e+06,0,0,0,460,3932
1.18835e+06,0,0,0,716,3676
1.18837e+06,0,0,0,972,3420
1.18842e+06,0,0,0,1228,3164
1.18842e+06,0,0,0,40,4352
1.18843e+06,0,0,0,296,4096
1.18843e+06,0,0,0,40,4352
1.19133e+06,0,0,0,1251,3141
1.19134e+06,0,0,0,995,3397
1.19134e+06,0,0,0,739,3653
1.19134e+06,0,0,0,483,3909
1.19134e+06,0,0,0,227,4165
1.19134e+06,0,0,0,99,4293
1.19237e+06,0,0,0,355,4037
1.19238e+06,0,0,0,227,4165
1.19238e+06,0,0,0,99,4293
1.20221e+06,0,0,0,227,4165
1.20323e+06,0,0,0,355,4037
1.20326e+06,0,0,0,483,3909
1.20616e+06,0,0,0,1683,2709
1.20617e+06,0,0,0,659,3733
1.20617e+06,0,0,0,531,3861
1.20617e+06,0,0,0,403,3989
1.2101e+06,0,0,0,659,3733
1.21293e+06,0,0,0,787,3605
1.21296e+06,0,0,0,1043,3349
1.21296e+06,0,0,0,1171,3221
1.213e+06,0,0,0,1427,2965
1.213e+06,0,0,0,1683,2709
1.21301e+06,0,0,0,147,4245
1.21308e+06,0,0,0,403,3989
1.21308e+06,0,0,0,147,4245
1.21308e+06,0,0,0,19,4373
1.22393e+06,0,0,0,147,4245
1.22394e+06,0,0,0,19,4373
1.23483e+06,0,0,0,147,4245
1.23484e+06,0,0,0,403,3989
1.23484e+06,0,0,0,147,4245
1.23511e+06,0,0,0,1335,3057
1.23511e+06,0,0,0,1079,3313
1.23511e+06,0,0,0,823,3569
1.23511e+06,0,0,0,567,3825
1.23511e+06,0,0,0,311,4081
1.23511e+06,0,0,0,55,4337
1.23748e+06,0,0,0,1079,3313
1.23748e+06,0,0,0,823,3569
1.23748e+06,0,0,0,567,3825
1.23748e+06,0,0,0,326,4066
1.23748e+06,0,0,0,198,4194
1.23748e+06,0,0,0,70,4322
1.24524e+06,0,0,0,198,4194
1.24524e+06,0,0,0,70,4322
1.24837e+06,0,0,0,198,4194
1.24838e+06,0,0,0,70,4322
1.24917e+06,0,0,0,326,4066
1.24917e+06,0,0,0,198,4194
1.24917e+06,0,0,0,70,4322
1.25227e+06,0,0,0,198,4194
1.25614e+06,0,0,0,326,4066
1.25619e+06,0,0,0,454,3938
1.25638e+06,0,0,0,582,3810
1.25656e+06,0,0,0,838,3554
1.25676e+06,0,0,0,1094,3298
1.25676e+06,0,0,0,70,4322
1.25676e+06,0,0,0,326,4066
1.25684e+06,0,0,0,582,3810
1.25685e+06,0,0,0,838,3554
1.25687e+06,0,0,0,1094,3298
1.25687e+06,0,0,0,70,4322
1.25911e+06,0,0,0,326,4066
1.25911e+06,0,0,0,70,4322
1.25959e+06,0,0,0,1606,2786
1.2596e+06,0,0,0,790,3602
1.26298e+06,0,0,0,1814,2578
1.26298e+06,0,0,0,998,3394
1.26298e+06,0,0,0,182,4210
1.26324e+06,0,0,0,1206,3186
1.26324e+06,0,0,0,390,4002
1.26324e+06,0,0,0,262,4130
1.26324e+06,0,0,0,134,4258
1.26324e+06,0,0,0,6,4386
1.27014e+06,0,0,0,134,4258
1.27014e+06,0,0,0,6,4386
1.27126e+06,0,0,0,134,4258
1.27127e+06,0,0,0,6,4386
1.27134e+06,0,0,0,134,4258
1.27295e+06,0,0,0,6,4386
1.28022e+06,0,0,0,134,4258
1.28022e+06,0,0,0,6,4386
1.28079e+06,0,0,0,262,4130
1.28079e+06,0,0,0,6,4386
1.28092e+06,0,0,0,134,4258
1.28221e+06,0,0,0,262,4130
1.28221e+06,0,0,0,118,4274
1.29119e+06,0,0,0,246,4146
1.2912e+06,0,0,0,86,4306
1.29312e+06,0,0,0,230,4162
1.29313e+06,0,0,0,72,4320
1.30203e+06,0,0,0,232,4160
1.30204e+06,0,0,0,104,4288
1.30249e+06,0,0,0,360,4032
1.30249e+06,0,0,0,104,4288
1.30398e+06,0,0,0,262,4130
1.30398e+06,0,0,0,6,4386
1.3129e+06,0,0,0,134,4258
1.3129e+06,0,0,0,6,4386
1.31309e+06,0,0,0,262,4130
1.3131e+06,0,0,0,6,4386
1.32174e+06,0,0,0,262,4130
1.32174e+06,0,0,0,6,4386
1.32378e+06,0,0,0,134,4258
1.32378e+06,0,0,0,6,4386
1.32566e+06,0,0,0,262,4130
1.32566e+06,0,0,0,6,4386
1.32862e+06,0,0,0,262,4130
1.32863e+06,0,0,0,6,4386
1.33173e+06,0,0,0,262,4130
1.33173e+06,0,0,0,104,4288
1.33459e+06,0,0,0,232,4160
1.33459e+06,0,0,0,104,4288
1.33559e+06,0,0,0,360,4032
1.34265e+06,0,0,0,518,3874
1.34548e+06,0,0,0,646,3746
1.34611e+06,0,0,0,1462,2930
1.34611e+06,0,0,0,646,3746
1.34947e+06,0,0,0,1462,2930
1.34953e+06,0,0,0,2278,2114
1.34953e+06,0,0,0,230,4162
1.34953e+06,0,0,0,102,4290
1.3498e+06,0,0,0,918,3474
1.3498e+06,0,0,0,662,3730
1.3498e+06,0,0,0,406,3986
1.3498e+06,0,0,0,150,4242
1.3498e+06,0,0,0,22,4370
1.35374e+06,0,0,0,263,4129
1.35374e+06,0,0,0,7,4385
1.36013e+06,0,0,0,135,4257
1.36014e+06,0,0,0,7,4385
1.36074e+06,0,0,0,135,4257
1.36187e+06,0,0,0,7,4385
1.36941e+06,0,0,0,263,4129
1.37107e+06,0,0,0,391,4001
1.37135e+06,0,0,0,647,3745
1.37135e+06,0,0,0,903,3489
1.37135e+06,0,0,0,1159,3233
1.3728e+06,0,0,0,1287,3105
1.37456e+06,0,0,0,3335,1057
1.37456e+06,0,0,0,1287,3105
1.37456e+06,0,0,0,263,4129
1.37456e+06,0,0,0,103,4289
1.3854e+06,0,0,0,263,4129
1.38991e+06,0,0,0,2311,2081
1.38991e+06,0,0,0,1287,3105
1.38991e+06,0,0,0,263,4129
1.38991e+06,0,0,0,103,4289
1.40077e+06,0,0,0,263,4129
1.40184e+06,0,0,0,1287,3105
1.40185e+06,0,0,0,263,4129
1.40185e+06,0,0,0,103,4289
1.41267e+06,0,0,0,263,4129
1.41389e+06,0,0,0,1287,3105
1.41389e+06,0,0,0,689,3703
1.41928e+06,0,0,0,1713,2679
1.41928e+06,0,0,0,177,4215
1.42301e+06,0,0,0,1201,3191
1.42301e+06,0,0,0,689,3703
1.42301e+06,0,0,0,561,3831
1.43109e+06,0,0,0,689,3703
1.43176e+06,0,0,0,2225,2167
1.43176e+06,0,0,0,689,3703
1.43176e+06,0,0,0,433,3959
1.43176e+06,0,0,0,177,4215
1.4326e+06,0,0,0,993,3399
1.4326e+06,0,0,0,737,3655
1.44316e+06,0,0,0,2273,2119
1.44316e+06,0,0,0,225,4167
1.44651e+06,0,0,0,823,3569
1.44652e+06,0,0,0,567,3825
1.44652e+06,0,0,0,439,3953
1.44652e+06,0,0,0,183,4209
1.45091e+06,0,0,0,2231,2161
1.45091e+06,0,0,0,1975,2417
1.45091e+06,0,0,0,1719,2673
1.45091e+06,0,0,0,1463,2929
1.45091e+06,0,0,0,1159,3233
1.45091e+06,0,0,0,81,4311
1.45335e+06,0,0,0,337,4055
1.45341e+06,0,0,0,593,3799
1.45377e+06,0,0,0,1105,3287
1.45432e+06,0,0,0,1361,3031
1.45433e+06,0,0,0,150,4242
1.45433e+06,0,0,0,22,4370
1.45737e+06,0,0,0,150,4242
1.45737e+06,0,0,0,22,4370
1.46099e+06,0,0,0,1100,3292
1.46099e+06,0,0,0,972,3420
1.46099e+06,0,0,0,844,3548
1.46099e+06,0,0,0,716,3676
1.46099e+06,0,0,0,588,3804
1.46099e+06,0,0,0,460,3932
1.46099e+06,0,0,0,332,4060
1.46099e+06,0,0,0,204,4188
1.46099e+06,0,0,0,76,4316
1.46528e+06,0,0,0,204,4188
1.46528e+06,0,0,0,76,4316
1.46814e+06,0,0,0,332,4060
1.46815e+06,0,0,0,204,4188
1.46815e+06,0,0,0,76,4316
1.46822e+06,0,0,0,332,4060
1.46822e+06,0,0,0,204,4188
1.46822e+06,0,0,0,76,4316
1.46828e+06,0,0,0,204,4188
1.46828e+06,0,0,0,76,4316
1.47025e+06,0,0,0,204,4188
1.47025e+06,0,0,0,76,4316
1.47028e+06,0,0,0,204,4188
1.47028e+06,0,0,0,332,4060
1.47029e+06,0,0,0,204,4188
1.47029e+06,0,0,0,76,4316
1.47033e+06,0,0,0,204,4188
1.47033e+06,0,0,0,332,4060
1.47033e+06,0,0,0,174,4218
1.47033e+06,0,0,0,46,4346
1.47042e+06,0,0,0,174,4218
1.47042e+06,0,0,0,46,4346
1.4719e+06,0,0,0,174,4218
1.47193e+06,0,0,0,302,4090
1.47193e+06,0,0,0,46,4346
1.47248e+06,0,0,0,302,4090
1.47254e+06,0,0,0,558,3834
1.47255e+06,0,0,0,46,4346
1.47257e+06,0,0,0,302,4090
1.47266e+06,0,0,0,606,3786
1.47544e+06,0,0,0,734,3658
1.47545e+06,0,0,0,94,4298
1.47745e+06,0,0,0,222,4170
1.47745e+06,0,0,0,94,4298
1.47746e+06,0,0,0,222,4170
1.47748e+06,0,0,0,350,4042
1.47749e+06,0,0,0,109,4283
1.47754e+06,0,0,0,237,4155
1.47756e+06,0,0,0,365,4027
1.47756e+06,0,0,0,124,4268
1.4788e+06,0,0,0,252,4140
1.47955e+06,0,0,0,380,4012
1.48063e+06,0,0,0,508,3884
1.48121e+06,0,0,0,636,3756
1.48121e+06,0,0,0,794,3598
1.48126e+06,0,0,0,922,3470
1.4828e+06,0,0,0,1178,3214
1.48343e+06,0,0,0,1690,2702
1.48477e+06,0,0,0,2901,1491
1.48633e+06,0,0,0,3541,851
1.48833e+06,0,0,0,3669,723
1.48912e+06,0,0,0,2133,2259
1.48962e+06,0,0,0,2374,2018
1.49438e+06,0,0,0,2118,2274
1.49442e+06,0,0,0,1862,2530
1.4946e+06,0,0,0,1606,2786
1.49479e+06,0,0,0,1350,3042
1.49489e+06,0,0,0,1094,3298
1.49507e+06,0,0,0,838,3554
1.49519e+06,0,0,0,678,3714
1.50165e+06,0,0,0,934,3458
1.5021e+06,0,0,0,1190,3202
1.50236e+06,0,0,0,1446,2946
1.50261e+06,0,0,0,1702,2690
1.506e+06,0,0,0,1862,2530
1.51628e+06,0,0,0,2118,2274
1.51659e+06,0,0,0,2374,2018
1.51739e+06,0,0,0,2246,2146
1.51983e+06,0,0,0,3782,610
1.52825e+06,0,0,0,3910,482
1.53401e+06,0,0,0,3782,610
1.54e+06,0,0,0,3910,482
1.54705e+06,0,0,0,3782,610
1.55798e+06,0,0,0,3910,482
1.5687e+06,0,0,0,3094,1298
1.56871e+06,0,0,0,2278,2114
1.56872e+06,0,0,0,1462,2930
1.56896e+06,0,0,0,646,3746
1.57591e+06,0,0,0,262,4130
1.58776e+06,0,0,0,134,4258
1.5986e+06,0,0,0,262,4130
1.5986e+06,0,0,0,116,4276
1.60467e+06,0,0,0,262,4130
1.6084e+06,0,0,0,646,3746
1.60841e+06,0,0,0,262,4130
1.61871e+06,0,0,0,134,4258
1.6249e+06,0,0,0,262,4130
1.62936e+06,0,0,0,134,4258
1.64021e+06,0,0,0,262,4130
1.64092e+06,0,0,0,646,3746
1.65521e+06,0,0,0,1462,2930
1.65522e+06,0,0,0,646,3746
1.65522e+06,0,0,0,262,4130
1.65522e+06,0,0,0,6,4386
1.65523e+06,0,0,0,822,3570
1.65525e+06,0,0,0,1638,2754
1.65526e+06,0,0,0,1510,2882
1.65552e+06,0,0,0,2326,2066
1.66059e+06,0,0,0,2198,2194
1.66107e+06,0,0,0,2326,2066
1.66249e+06,0,0,0,2070,2322
1.66249e+06,0,0,0,1814,2578
1.6625e+06,0,0,0,1558,2834
1.6625e+06,0,0,0,1302,3090
1.66298e+06,0,0,0,1046,3346
1.66411e+06,0,0,0,790,3602
1.66411e+06,0,0,0,534,3858
1.66411e+06,0,0,0,278,4114
1.66413e+06,0,0,0,22,4370
1.67144e+06,0,0,0,150,4242
1.67696e+06,0,0,0,406,3986
1.67697e+06,0,0,0,150,4242
1.68412e+06,0,0,0,406,3986
1.68413e+06,0,0,0,150,4242
1.68414e+06,0,0,0,406,3986
1.68414e+06,0,0,0,150,4242
1.68421e+06,0,0,0,406,3986
1.68422e+06,0,0,0,150,4242
1.68423e+06,0,0,0,406,3986
1.68423e+06,0,0,0,150,4242
1.68468e+06,0,0,0,406,3986
1.68468e+06,0,0,0,150,4242
1.68577e+06,0,0,0,406,3986
1.68578e+06,0,0,0,150,4242
1.68579e+06,0,0,0,406,3986
1.68582e+06,0,0,0,662,3730
1.68583e+06,0,0,0,918,3474
1.68777e+06,0,0,0,1302,3090
1.68777e+06,0,0,0,312,4080
1.68777e+06,0,0,0,154,4238
1.69404e+06,0,0,0,395,3997
1.69864e+06,0,0,0,651,3741
1.69866e+06,0,0,0,809,3583
1.70202e+06,0,0,0,1050,3342
1.70579e+06,0,0,0,1306,3086
1.70579e+06,0,0,0,106,4286
1.70584e+06,0,0,0,362,4030
1.70586e+06,0,0,0,618,3774
1.70587e+06,0,0,0,874,3518
1.70633e+06,0,0,0,1130,3262
1.70743e+06,0,0,0,1386,3006
1.70743e+06,0,0,0,186,4206
1.70743e+06,0,0,0,58,4334
1.71578e+06,0,0,0,186,4206
1.71578e+06,0,0,0,58,4334
1.72319e+06,0,0,0,186,4206
1.72319e+06,0,0,0,58,4334
1.73414e+06,0,0,0,186,4206
1.74173e+06,0,0,0,1002,3390
1.74173e+06,0,0,0,482,3910
1.74173e+06,0,0,0,226,4166
1.74826e+06,0,0,0,746,3646
1.74827e+06,0,0,0,234,4158
1.74908e+06,0,0,0,490,3902
1.75259e+06,0,0,0,1690,2702
1.75259e+06,0,0,0,666,3726
1.7551e+06,0,0,0,1866,2526
1.7551e+06,0,0,0,330,4062
1.7551e+06,0,0,0,74,4318
1.75576e+06,0,0,0,586,3806
1.76234e+06,0,0,0,842,3550
1.76241e+06,0,0,0,1832,2560
1.76242e+06,0,0,0,808,3584
1.76242e+06,0,0,0,650,3742
1.76242e+06,0,0,0,522,3870
1.76242e+06,0,0,0,394,3998
1.76242e+06,0,0,0,266,4126
1.76242e+06,0,0,0,10,4382
1.77087e+06,0,0,0,138,4254
1.77115e+06,0,0,0,266,4126
1.77132e+06,0,0,0,394,3998
1.77167e+06,0,0,0,650,3742
1.7733e+06,0,0,0,1674,2718
1.77334e+06,0,0,0,1832,2560
1.77688e+06,0,0,0,3368,1024
1.77689e+06,0,0,0,1320,3072
1.78189e+06,0,0,0,2344,2048
1.78189e+06,0,0,0,296,4096
1.7938e+06,0,0,0,2344,2048
1.7938e+06,0,0,0,1320,3072
1.7938e+06,0,0,0,808,3584
1.7938e+06,0,0,0,296,4096
1.7938e+06,0,0,0,168,4224
1.80064e+06,0,0,0,2216,2176
1.80064e+06,0,0,0,1946,2446
1.80064e+06,0,0,0,1676,2716
1.80064e+06,0,0,0,1420,2972
1.80064e+06,0,0,0,1164,3228
1.80064e+06,0,0,0,1036,3356
1.80064e+06,0,0,0,780,3612
1.80064e+06,0,0,0,524,3868
1.80064e+06,0,0,0,268,4124
1.80064e+06,0,0,0,12,4380
1.80465e+06,0,0,0,524,3868
1.80465e+06,0,0,0,4,4388
1.80468e+06,0,0,0,516,3876
1.80469e+06,0,0,0,356,4036
1.80469e+06,0,0,0,196,4196
1.80469e+06,0,0,0,68,4324
1.80472e+06,0,0,0,196,4196
1.80473e+06,0,0,0,68,4324
1.80476e+06,0,0,0,1092,3300
1.80476e+06,0,0,0,964,3428
1.80476e+06,0,0,0,836,3556
1.80476e+06,0,0,0,324,4068
1.80546e+06,0,0,0,196,4196
1.80677e+06,0,0,0,68,4324
1.80847e+06,0,0,0,196,4196
1.81127e+06,0,0,0,716,3676
1.81335e+06,0,0,0,844,3548
1.81342e+06,0,0,0,972,3420
1.81345e+06,0,0,0,1100,3292
1.81346e+06,0,0,0,76,4316
1.81515e+06,0,0,0,204,4188
1.81555e+06,0,0,0,364,4028
1.81559e+06,0,0,0,524,3868
1.81634e+06,0,0,0,652,3740
1.81777e+06,0,0,0,780,3612
1.82011e+06,0,0,0,1804,2588
1.8204e+06,0,0,0,2316,2076
1.82218e+06,0,0,0,2572,1820
1.8222e+06,0,0,0,2828,1564
1.82221e+06,0,0,0,3084,1308
1.82221e+06,0,0,0,3340,1052
1.82223e+06,0,0,0,3596,796
1.82226e+06,0,0,0,3852,540
1.82232e+06,0,0,0,4122,270
1.82232e+06,0,0,0,26,4366
1.82235e+06,0,0,0,296,4096
1.8228e+06,0,0,0,40,4352
1.84452e+06,0,0,0,296,4096
1.84452e+06,0,0,0,168,4224
1.84452e+06,0,0,0,40,4352
1.85247e+06,0,0,0,168,4224
1.85546e+06,0,0,0,296,4096
1.86222e+06,0,0,0,168,4224
1.8623e+06,0,0,0,40,4352
1.87316e+06,0,0,0,168,4224
1.87316e+06,0,0,0,40,4352
1.87321e+06,0,0,0,168,4224
1.88386e+06,0,0,0,10,4382
1.88405e+06,0,0,0,138,4254
1.89473e+06,0,0,0,296,4096
1.89473e+06,0,0,0,40,4352
1.90567e+06,0,0,0,296,4096
1.90916e+06,0,0,0,4392,0
1.90916e+06,0,0,0,296,4096
1.91554e+06,0,0,0,4392,0
1.91554e+06,0,0,0,296,4096
1.91554e+06,0,0,0,40,4352
1.9373e+06,0,0,0,296,4096
1.9373e+06,0,0,0,40,4352
1.95887e+06,0,0,0,296,4096
1.95888e+06,0,0,0,168,4224
1.95888e+06,0,0,0,24,4368
1.96593e+06,0,0,0,168,4224
1.96757e+06,0,0,0,296,4096
1.9692e+06,0,0,0,4392,0
1.9692e+06,0,0,0,296,4096
1.9692e+06,0,0,0,40,4352
1.99079e+06,0,0,0,296,4096
1.9908e+06,0,0,0,40,4352
2.01233e+06,0,0,0,296,4096
2.01233e+06,0,0,0,136,4256
2.01233e+06,0,0,0,8,4384
2.02319e+06,0,0,0,136,4256
2.0232e+06,0,0,0,8,4384
2.02324e+06,0,0,0,168,4224
2.02324e+06,0,0,0,24,4368
2.0339e+06,0,0,0,152,4240
2.0339e+06,0,0,0,8,4384
2.03411e+06,0,0,0,152,4240
2.03411e+06,0,0,0,8,4384
2.04474e+06,0,0,0,152,4240
2.04474e+06,0,0,0,24,4368
2.04496e+06,0,0,0,168,4224
2.04496e+06,0,0,0,40,4352
2.055e+06,0,0,0,168,4224
2.05558e+06,0,0,0,296,4096
2.05577e+06,0,0,0,4392,0
2.05577e+06,0,0,0,2856,1536
2.05577e+06,0,0,0,1832,2560
2.05577e+06,0,0,0,1312,3080
2.05577e+06,0,0,0,472,3920
2.05577e+06,0,0,0,344,4048
2.05577e+06,0,0,0,216,4176
2.05577e+06,0,0,0,56,4336
2.06123e+06,0,0,0,184,4208
2.06123e+06,0,0,0,56,4336
2.06233e+06,0,0,0,896,3496
2.06233e+06,0,0,0,288,4104
2.06233e+06,0,0,0,160,4232
2.06233e+06,0,0,0,32,4360
2.06236e+06,0,0,0,552,3840
2.06236e+06,0,0,0,40,4352
2.06247e+06,0,0,0,1064,3328
2.06248e+06,0,0,0,456,3936
2.06248e+06,0,0,0,328,4064
2.06248e+06,0,0,0,200,4192
2.06248e+06,0,0,0,72,4320
2.06662e+06,0,0,0,232,4160
2.06662e+06,0,0,0,104,4288
2.06665e+06,0,0,0,232,4160
2.06666e+06,0,0,0,104,4288
2.06987e+06,0,0,0,232,4160
2.06987e+06,0,0,0,104,4288
2.07094e+06,0,0,0,232,4160
2.07133e+06,0,0,0,840,3552
2.07133e+06,0,0,0,584,3808
2.07184e+06,0,0,0,1192,3200
2.07315e+06,0,0,0,1320,3072
2.0732e+06,0,0,0,1832,2560
2.07334e+06,0,0,0,1960,2432
2.07336e+06,0,0,0,2088,2304
2.07341e+06,0,0,0,2216,2176
2.07675e+06,0,0,0,2472,1920
2.0772e+06,0,0,0,2600,1792
2.0773e+06,0,0,0,2728,1664
2.07749e+06,0,0,0,2856,1536
2.07764e+06,0,0,0,4392,0
2.07764e+06,0,0,0,1320,3072
2.07764e+06,0,0,0,712,3680
2.07764e+06,0,0,0,200,4192
2.07764e+06,0,0,0,56,4336
2.08485e+06,0,0,0,200,4192
2.08675e+06,0,0,0,808,3584
2.08676e+06,0,0,0,200,4192
2.08676e+06,0,0,0,56,4336
2.09404e+06,0,0,0,200,4192
2.09663e+06,0,0,0,808,3584
2.09663e+06,0,0,0,200,4192
2.0993e+06,0,0,0,712,3680
2.0993e+06,0,0,0,471,3921
2.10224e+06,0,0,0,3543,849
2.10224e+06,0,0,0,3031,1361
2.10224e+06,0,0,0,2519,1873
2.10224e+06,0,0,0,2007,2385
2.10224e+06,0,0,0,1495,2897
2.10224e+06,0,0,0,454,3938
2.10224e+06,0,0,0,326,4066
2.10655e+06,0,0,0,934,3458
2.10656e+06,0,0,0,326,4066
2.10656e+06,0,0,0,166,4226
2.10656e+06,0,0,0,38,4354
2.11288e+06,0,0,0,166,4226
2.11289e+06,0,0,0,38,4354
2.11318e+06,0,0,0,550,3842
2.11318e+06,0,0,0,390,4002
2.11318e+06,0,0,0,262,4130
2.11318e+06,0,0,0,134,4258
2.11318e+06,0,0,0,6,4386
2.11741e+06,0,0,0,166,4226
2.11741e+06,0,0,0,38,4354
2.11742e+06,0,0,0,166,4226
2.11742e+06,0,0,0,38,4354
2.12375e+06,0,0,0,166,4226
2.12384e+06,0,0,0,294,4098
2.12403e+06,0,0,0,422,3970
2.12407e+06,0,0,0,582,3810
2.12412e+06,0,0,0,710,3682
2.12473e+06,0,0,0,838,3554
2.12783e+06,0,0,0,966,3426
2.12789e+06,0,0,0,2007,2385
2.1279e+06,0,0,0,471,3921
2.1279e+06,0,0,0,313,4079
2.12821e+06,0,0,0,921,3471
2.12821e+06,0,0,0,321,4071
2.12821e+06,0,0,0,193,4199
2.12821e+06,0,0,0,65,4327
2.13334e+06,0,0,0,193,4199
2.13476e+06,0,0,0,705,3687
2.13477e+06,0,0,0,449,3943
2.13477e+06,0,0,0,249,4143
2.13477e+06,0,0,0,82,4310
2.13481e+06,0,0,0,594,3798
2.13481e+06,0,0,0,1106,3286
2.13481e+06,0,0,0,978,3414
2.13481e+06,0,0,0,850,3542
2.13481e+06,0,0,0,634,3758
2.13481e+06,0,0,0,490,3902
2.13481e+06,0,0,0,326,4066
2.13481e+06,0,0,0,198,4194
2.13481e+06,0,0,0,70,4322
2.13877e+06,0,0,0,228,4164
2.13877e+06,0,0,0,100,4292
2.13914e+06,0,0,0,228,4164
2.13914e+06,0,0,0,100,4292
2.14087e+06,0,0,0,700,3692
2.14087e+06,0,0,0,572,3820
2.14087e+06,0,0,0,444,3948
2.14087e+06,0,0,0,316,4076
2.14087e+06,0,0,0,164,4228
2.14538e+06,0,0,0,308,4084
2.1456e+06,0,0,0,475,3917
2.14562e+06,0,0,0,675,3717
2.14564e+06,0,0,0,803,3589
2.14564e+06,0,0,0,1,4391
2.14565e+06,0,0,0,129,4263
2.14565e+06,0,0,0,1,4391
2.14566e+06,0,0,0,129,4263
2.14567e+06,0,0,0,1,4391
2.14567e+06,0,0,0,217,4175
2.14567e+06,0,0,0,59,4333
2.14568e+06,0,0,0,187,4205
2.14568e+06,0,0,0,59,4333
2.1457e+06,0,0,0,223,4169
2.1492e+06,0,0,0,479,3913
2.14921e+06,0,0,0,47,4345
2.14955e+06,0,0,0,1583,2809
2.14956e+06,0,0,0,1455,2937
2.14956e+06,0,0,0,1327,3065
2.14956e+06,0,0,0,1199,3193
2.14956e+06,0,0,0,1071,3321
2.14956e+06,0,0,0,943,3449
2.14956e+06,0,0,0,799,3593
2.14956e+06,0,0,0,671,3721
2.14966e+06,0,0,0,799,3593
2.15001e+06,0,0,0,927,3465
2.15094e+06,0,0,0,1055,3337
2.15135e+06,0,0,0,1183,3209
2.15171e+06,0,0,0,1311,3081
2.15171e+06,0,0,0,111,4281
2.15176e+06,0,0,0,263,4129
2.15334e+06,0,0,0,391,4001
2.15364e+06,0,0,0,519,3873
2.15658e+06,0,0,0,677,3715
2.15661e+06,0,0,0,805,3587
2.15681e+06,0,0,0,949,3443
2.15985e+06,0,0,0,1077,3315
2.16017e+06,0,0,0,1509,2883
2.16017e+06,0,0,0,309,4083
2.16017e+06,0,0,0,181,4211
2.1604e+06,0,0,0,309,4083
2.16041e+06,0,0,0,437,3955
2.16042e+06,0,0,0,565,3827
2.1605e+06,0,0,0,693,3699
2.16051e+06,0,0,0,821,3571
2.171e+06,0,0,0,949,3443
2.17765e+06,0,0,0,821,3571
2.1827e+06,0,0,0,437,3955
2.18544e+06,0,0,0,309,4083
2.18849e+06,0,0,0,437,3955
2.19612e+06,0,0,0,309,4083
2.19627e+06,0,0,0,437,3955
2.19633e+06,0,0,0,309,4083
2.19675e+06,0,0,0,1509,2883
2.19779e+06,0,0,0,1365,3027
2.19847e+06,0,0,0,1211,3181
2.19865e+06,0,0,0,1067,3325
2.20698e+06,0,0,0,1195,3197
2.20727e+06,0,0,0,1323,3069
2.20737e+06,0,0,0,1467,2925
2.20781e+06,0,0,0,1621,2771
2.20924e+06,0,0,0,1765,2627
2.2095e+06,0,0,0,2965,1427
2.2106e+06,0,0,0,3767,625
2.21515e+06,0,0,0,4151,241
2.21793e+06,0,0,0,4023,369
2.22486e+06,0,0,0,3895,497
2.22878e+06,0,0,0,4023,369
2.22953e+06,0,0,0,3895,497
2.23575e+06,0,0,0,4023,369
2.23866e+06,0,0,0,2999,1393
2.23877e+06,0,0,0,1975,2417
2.23883e+06,0,0,0,951,3441
2.24041e+06,0,0,0,1079,3313
2.24041e+06,0,0,0,55,4337
2.2441e+06,0,0,0,1079,3313
2.24411e+06,0,0,0,55,4337
2.2442e+06,0,0,0,1079,3313
2.24421e+06,0,0,0,55,4337
2.24439e+06,0,0,0,1079,3313
2.24439e+06,0,0,0,55,4337
2.24583e+06,0,0,0,1079,3313
2.24584e+06,0,0,0,951,3441
2.24948e+06,0,0,0,1975,2417
2.24965e+06,0,0,0,2999,1393
2.24976e+06,0,0,0,4023,369
2.25155e+06,0,0,0,3895,497
2.25457e+06,0,0,0,3767,625
2.25538e+06,0,0,0,3639,753
2.25621e+06,0,0,0,3511,881
2.25673e+06,0,0,0,3639,753
2.26242e+06,0,0,0,3767,625
2.26519e+06,0,0,0,3639,753
2.26541e+06,0,0,0,3767,625
2.26622e+06,0,0,0,3895,497
2.2671e+06,0,0,0,4023,369
2.2724e+06,0,0,0,4151,241
2.2727e+06,0,0,0,2963,1429
2.28956e+06,0,0,0,2819,1573
2.28971e+06,0,0,0,2675,1717
2.29822e+06,0,0,0,2819,1573
2.29842e+06,0,0,0,2963,1429
2.3042e+06,0,0,0,1747,2645
2.30882e+06,0,0,0,1619,2773
2.30884e+06,0,0,0,1491,2901
2.30884e+06,0,0,0,1363,3029
2.31058e+06,0,0,0,2551,1841
2.31132e+06,0,0,0,2792,1600
2.31259e+06,0,0,0,2664,1728
2.31307e+06,0,0,0,2464,1928
2.31345e+06,0,0,0,1952,2440
2.3172e+06,0,0,0,1440,2952
2.31944e+06,0,0,0,1568,2824
2.31945e+06,0,0,0,1696,2696
2.31952e+06,0,0,0,1824,2568
2.32163e+06,0,0,0,2336,2056
2.32342e+06,0,0,0,2464,1928
2.32391e+06,0,0,0,2664,1728
2.32436e+06,0,0,0,3880,512
2.32436e+06,0,0,0,700,3692
2.32436e+06,0,0,0,548,3844
2.32436e+06,0,0,0,420,3972
2.32439e+06,0,0,0,220,4172
2.32523e+06,0,0,0,92,4300
2.33421e+06,0,0,0,3272,1120
2.33422e+06,0,0,0,3144,1248
2.33422e+06,0,0,0,3016,1376
2.33422e+06,0,0,0,2888,1504
2.33422e+06,0,0,0,2760,1632
2.33422e+06,0,0,0,2632,1760
2.33422e+06,0,0,0,2504,1888
2.33422e+06,0,0,0,2376,2016
2.33422e+06,0,0,0,2248,2144
2.33422e+06,0,0,0,2120,2272
2.33422e+06,0,0,0,1096,3296
2.33422e+06,0,0,0,72,4320
2.33427e+06,0,0,0,200,4192
2.33427e+06,0,0,0,72,4320
2.3352e+06,0,0,0,224,4168
2.33521e+06,0,0,0,96,4296
2.33524e+06,0,0,0,296,4096
2.33525e+06,0,0,0,424,3968
2.3409e+06,0,0,0,552,3840
2.34091e+06,0,0,0,40,4352
2.34094e+06,0,0,0,168,4224
2.34101e+06,0,0,0,296,4096
2.34113e+06,0,0,0,424,3968
2.34114e+06,0,0,0,552,3840
2.34114e+06,0,0,0,40,4352
2.34117e+06,0,0,0,168,4224
2.34117e+06,0,0,0,24,4368
2.34118e+06,0,0,0,152,4240
2.34122e+06,0,0,0,280,4112
2.34298e+06,0,0,0,408,3984
2.34522e+06,0,0,0,536,3856
2.34522e+06,0,0,0,104,4288
2.34611e+06,0,0,0,232,4160
2.34611e+06,0,0,0,88,4304
2.34769e+06,0,0,0,600,3792
2.3477e+06,0,0,0,0,4392
2.34851e+06,0,0,0,144,4248
2.34851e+06,0,0,0,0,4392
2.35176e+06,0,0,0,512,3880
2.35176e+06,0,0,0,0,4392
2.35609e+06,0,0,0,432,3960
2.3561e+06,0,0,0,288,4104
2.35658e+06,0,0,0,432,3960
2.35872e+06,0,0,0,944,3448
2.35872e+06,0,0,0,142,4250
2.35893e+06,0,0,0,286,4106
2.35958e+06,0,0,0,1310,3082
2.35959e+06,0,0,0,798,3594
2.35959e+06,0,0,0,286,4106
2.35959e+06,0,0,0,86,4306
2.36036e+06,0,0,0,686,3706
2.36037e+06,0,0,0,486,3906
2.36037e+06,0,0,0,286,4106
2.3609e+06,0,0,0,1310,3082
2.36091e+06,0,0,0,798,3594
2.36091e+06,0,0,0,286,4106
2.36091e+06,0,0,0,128,4264
2.36091e+06,0,0,0,0,4392
2.36261e+06,0,0,0,512,3880
2.36261e+06,0,0,0,92,4300
2.36462e+06,0,0,0,604,3788
2.36462e+06,0,0,0,460,3932
2.36585e+06,0,0,0,604,3788
2.37001e+06,0,0,0,1024,3368
2.37041e+06,0,0,0,1224,3168
2.37042e+06,0,0,0,146,4246
2.37042e+06,0,0,0,18,4374
2.37124e+06,0,0,0,218,4174
2.37125e+06,0,0,0,90,4302
2.37131e+06,0,0,0,290,4102
2.37132e+06,0,0,0,162,4230
2.37132e+06,0,0,0,34,4358
2.37179e+06,0,0,0,192,4200
2.37179e+06,0,0,0,64,4328
2.3718e+06,0,0,0,192,4200
2.37181e+06,0,0,0,704,3688
2.37434e+06,0,0,0,848,3544
2.37656e+06,0,0,0,976,3416
2.37721e+06,0,0,0,1104,3288
2.37907e+06,0,0,0,1616,2776
2.38012e+06,0,0,0,1744,2648
2.38048e+06,0,0,0,1872,2520
2.38213e+06,0,0,0,2000,2392
2.3931e+06,0,0,0,1872,2520
2.39348e+06,0,0,0,2384,2008
2.39476e+06,0,0,0,3186,1206
2.39656e+06,0,0,0,3058,1334
2.39661e+06,0,0,0,2930,1462
2.39668e+06,0,0,0,2802,1590
2.39674e+06,0,0,0,2674,1718
2.39686e+06,0,0,0,2546,1846
2.39724e+06,0,0,0,2418,1974
2.39727e+06,0,0,0,2290,2102
2.39743e+06,0,0,0,2162,2230
2.39755e+06,0,0,0,2034,2358
2.39761e+06,0,0,0,1906,2486
2.39769e+06,0,0,0,1778,2614
2.39822e+06,0,0,0,1650,2742
2.3984e+06,0,0,0,1522,2870
2.39875e+06,0,0,0,1394,2998
2.39894e+06,0,0,0,1266,3126
2.40087e+06,0,0,0,1138,3254
2.40353e+06,0,0,0,1266,3126
2.40381e+06,0,0,0,1394,2998
2.40388e+06,0,0,0,1522,2870
2.40392e+06,0,0,0,1650,2742
2.40397e+06,0,0,0,1778,2614
2.40409e+06,0,0,0,1906,2486
2.40458e+06,0,0,0,2034,2358
2.40473e+06,0,0,0,2162,2230
2.40482e+06,0,0,0,2290,2102
2.40489e+06,0,0,0,2418,1974
2.40496e+06,0,0,0,2546,1846
2.40561e+06,0,0,0,2394,1998
2.40819e+06,0,0,0,2522,1870
2.40831e+06,0,0,0,2394,1998
2.40911e+06,0,0,0,2522,1870
2.40924e+06,0,0,0,2650,1742
2.40958e+06,0,0,0,2778,1614
2.40963e+06,0,0,0,2578,1814
2.40986e+06,0,0,0,2706,1686
2.41172e+06,0,0,0,2834,1558
2.41365e+06,0,0,0,3912,480
2.41651e+06,0,0,0,4064,328
2.41652e+06,0,0,0,3464,928
2.41791e+06,0,0,0,3320,1072
2.41849e+06,0,0,0,1272,3120
2.41921e+06,0,0,0,1400,2992
2.4204e+06,0,0,0,1256,3136
2.42045e+06,0,0,0,1128,3264
2.42051e+06,0,0,0,1328,3064
2.42074e+06,0,0,0,1184,3208
2.42085e+06,0,0,0,1040,3352
2.42284e+06,0,0,0,882,3510
2.42393e+06,0,0,0,754,3638
2.42508e+06,0,0,0,370,4022
2.42648e+06,0,0,0,114,4278
2.4269e+06,0,0,0,242,4150
2.42756e+06,0,0,0,386,4006
2.42917e+06,0,0,0,986,3406
2.43048e+06,0,0,0,1130,3262
2.43083e+06,0,0,0,1274,3118
2.4314e+06,0,0,0,1418,2974
2.43238e+06,0,0,0,1674,2718
2.43367e+06,0,0,0,1832,2560
2.43852e+06,0,0,0,1448,2944
2.4417e+06,0,0,0,1576,2816
2.45633e+06,0,0,0,1448,2944
2.45762e+06,0,0,0,1832,2560
2.46718e+06,0,0,0,1960,2432
2.471e+06,0,0,0,2344,2048
2.47103e+06,0,0,0,2216,2176
2.47186e+06,0,0,0,2088,2304
2.47191e+06,0,0,0,1960,2432
2.47557e+06,0,0,0,1832,2560
2.47812e+06,0,0,0,1704,2688
2.48086e+06,0,0,0,1576,2816
2.48096e+06,0,0,0,1192,3200
2.48097e+06,0,0,0,808,3584
2.48114e+06,0,0,0,680,3712
2.4813e+06,0,0,0,552,3840
2.48184e+06,0,0,0,168,4224
2.48201e+06,0,0,0,296,4096
2.48276e+06,0,0,0,424,3968
2.48427e+06,0,0,0,552,3840
2.48647e+06,0,0,0,680,3712
2.49177e+06,0,0,0,808,3584
2.49204e+06,0,0,0,936,3456
2.49217e+06,0,0,0,1064,3328
2.49217e+06,0,0,0,40,4352
2.49488e+06,0,0,0,168,4224
2.49489e+06,0,0,0,40,4352
2.50005e+06,0,0,0,1064,3328
2.50005e+06,0,0,0,936,3456
2.50005e+06,0,0,0,336,4056
2.50521e+06,0,0,0,2384,2008
2.50521e+06,0,0,0,1952,2440
2.50521e+06,0,0,0,1824,2568
2.50521e+06,0,0,0,1696,2696
2.50521e+06,0,0,0,1538,2854
2.50521e+06,0,0,0,1530,2862
2.50521e+06,0,0,0,1402,2990
2.50521e+06,0,0,0,1400,2992
2.50521e+06,0,0,0,1399,2993
2.50521e+06,0,0,0,1398,2994
2.50521e+06,0,0,0,1397,2995
2.50698e+06,0,0,0,373,4019
2.51038e+06,0,0,0,501,3891
2.51102e+06,0,0,0,629,3763
2.51269e+06,0,0,0,1229,3163
2.51338e+06,0,0,0,1613,2779
2.5134e+06,0,0,0,1997,2395
2.51433e+06,0,0,0,2381,2011
2.51605e+06,0,0,0,2509,1883
2.51605e+06,0,0,0,2941,1451
2.51606e+06,0,0,0,3069,1323
2.51618e+06,0,0,0,3227,1165
2.51914e+06,0,0,0,3228,1164
2.51947e+06,0,0,0,3356,1036
2.52007e+06,0,0,0,3357,1035
2.52023e+06,0,0,0,3358,1034
2.52064e+06,0,0,0,3360,1032
2.52173e+06,0,0,0,3368,1024
2.57139e+06,0,0,0,3240,1152
2.57148e+06,0,0,0,2438,1954
2.57317e+06,0,0,0,2310,2082
2.57654e+06,0,0,0,2166,2226
2.57672e+06,0,0,0,2022,2370
2.57733e+06,0,0,0,1870,2522
2.57827e+06,0,0,0,1718,2674
2.58014e+06,0,0,0,1462,2930
2.58086e+06,0,0,0,862,3530
2.58232e+06,0,0,0,990,3402
2.58281e+06,0,0,0,862,3530
2.58408e+06,0,0,0,990,3402
2.58622e+06,0,0,0,1134,3258
2.58703e+06,0,0,0,1286,3106
2.58713e+06,0,0,0,1430,2962
2.5892e+06,0,0,0,1582,2810
2.59355e+06,0,0,0,2182,2210
2.59355e+06,0,0,0,134,4258
2.59355e+06,0,0,0,6,4386
2.59368e+06,0,0,0,134,4258
2.59386e+06,0,0,0,1158,3234
2.59386e+06,0,0,0,902,3490
2.59386e+06,0,0,0,646,3746
2.59386e+06,0,0,0,502,3890
2.5961e+06,0,0,0,374,4018
2.59673e+06,0,0,0,246,4146
2.59698e+06,0,0,0,118,4274
2.60152e+06,0,0,0,246,4146
2.60183e+06,0,0,0,502,3890
2.6043e+06,0,0,0,646,3746
2.60476e+06,0,0,0,488,3904
2.60696e+06,0,0,0,616,3776
2.60757e+06,0,0,0,744,3648
2.60787e+06,0,0,0,872,3520
2.61471e+06,0,0,0,616,3776
2.61552e+06,0,0,0,872,3520
2.61553e+06,0,0,0,1128,3264
2.61553e+06,0,0,0,104,4288
2.61563e+06,0,0,0,262,4130
2.61656e+06,0,0,0,134,4258
2.61912e+06,0,0,0,6,4386
2.62351e+06,0,0,0,1030,3362
2.62351e+06,0,0,0,6,4386
2.6274e+06,0,0,0,134,4258
2.628e+06,0,0,0,6,4386
2.62911e+06,0,0,0,262,4130
2.62942e+06,0,0,0,390,4002
2.6314e+06,0,0,0,1414,2978
2.6314e+06,0,0,0,198,4194
2.63285e+06,0,0,0,70,4322
2.63884e+06,0,0,0,198,4194
2.63961e+06,0,0,0,1414,2978
2.64374e+06,0,0,0,1542,2850
2.64606e+06,0,0,0,3590,802
2.64606e+06,0,0,0,1542,2850
2.64606e+06,0,0,0,518,3874
2.64606e+06,0,0,0,390,4002
2.65398e+06,0,0,0,1414,2978
2.65693e+06,0,0,0,1542,2850
2.65802e+06,0,0,0,2344,2048
2.65802e+06,0,0,0,744,3648
2.65802e+06,0,0,0,616,3776
2.66343e+06,0,0,0,744,3648
2.66533e+06,0,0,0,2344,2048
2.66533e+06,0,0,0,1320,3072
2.66533e+06,0,0,0,296,4096
2.67322e+06,0,0,0,1320,3072
2.67323e+06,0,0,0,296,4096
2.67326e+06,0,0,0,1320,3072
2.67327e+06,0,0,0,296,4096
2.67699e+06,0,0,0,2344,2048
2.67699e+06,0,0,0,1320,3072
2.67699e+06,0,0,0,1000,3392
2.6811e+06,0,0,0,2024,2368
2.6811e+06,0,0,0,824,3568
2.6811e+06,0,0,0,696,3696
2.6811e+06,0,0,0,120,4272
2.68113e+06,0,0,0,1144,3248
2.68113e+06,0,0,0,544,3848
2.68113e+06,0,0,0,416,3976
2.68113e+06,0,0,0,288,4104
2.68113e+06,0,0,0,160,4232
2.68113e+06,0,0,0,32,4360
2.68842e+06,0,0,0,608,3784
2.68842e+06,0,0,0,480,3912
2.68842e+06,0,0,0,352,4040
2.692e+06,0,0,0,480,3912
2.69201e+06,0,0,0,608,3784
2.69201e+06,0,0,0,736,3656
2.69204e+06,0,0,0,864,3528
2.69204e+06,0,0,0,992,3400
2.69379e+06,0,0,0,1592,2800
2.69585e+06,0,0,0,1720,2672
2.69652e+06,0,0,0,1848,2544
2.69865e+06,0,0,0,2872,1520
2.69865e+06,0,0,0,824,3568
2.69865e+06,0,0,0,696,3696
2.69865e+06,0,0,0,568,3824
2.69865e+06,0,0,0,440,3952
2.69865e+06,0,0,0,312,4080
2.69865e+06,0,0,0,184,4208
2.69865e+06,0,0,0,56,4336
2.69869e+06,0,0,0,376,4016
2.69869e+06,0,0,0,248,4144
2.69869e+06,0,0,0,120,4272
2.70953e+06,0,0,0,248,4144
2.70953e+06,0,0,0,120,4272
2.70953e+06,0,0,0,248,4144
2.70954e+06,0,0,0,48,4344
2.70954e+06,0,0,0,176,4216
2.70954e+06,0,0,0,304,4088
2.70955e+06,0,0,0,48,4344
2.70955e+06,0,0,0,176,4216
2.70955e+06,0,0,0,48,4344
2.70957e+06,0,0,0,176,4216
2.70957e+06,0,0,0,48,4344
2.7096e+06,0,0,0,176,4216
2.7096e+06,0,0,0,48,4344
2.70961e+06,0,0,0,176,4216
2.70961e+06,0,0,0,48,4344
2.7204e+06,0,0,0,176,4216
2.7204e+06,0,0,0,18,4374
2.7204e+06,0,0,0,218,4174
2.7204e+06,0,0,0,18,4374
2.72044e+06,0,0,0,146,4246
2.72044e+06,0,0,0,274,4118
2.72044e+06,0,0,0,146,4246
2.72044e+06,0,0,0,18,4374
2.72049e+06,0,0,0,146,4246
2.7205e+06,0,0,0,18,4374
2.72056e+06,0,0,0,146,4246
2.72056e+06,0,0,0,18,4374
2.73122e+06,0,0,0,274,4118
2.73128e+06,0,0,0,474,3918
2.73128e+06,0,0,0,602,3790
2.73128e+06,0,0,0,760,3632
2.73135e+06,0,0,0,888,3504
2.73145e+06,0,0,0,1016,3376
2.73146e+06,0,0,0,1144,3248
2.7353e+06,0,0,0,2344,2048
2.7353e+06,0,0,0,296,4096
2.7353e+06,0,0,0,40,4352
2.75701e+06,0,0,0,296,4096
2.75701e+06,0,0,0,40,4352
2.77439e+06,0,0,0,2088,2304
2.77439e+06,0,0,0,1832,2560
2.77439e+06,0,0,0,1576,2816
2.77439e+06,0,0,0,535,3857
2.77439e+06,0,0,0,407,3985
2.77439e+06,0,0,0,151,4241
2.77883e+06,0,0,0,407,3985
2.78115e+06,0,0,0,663,3729
2.7826e+06,0,0,0,791,3601
2.7852e+06,0,0,0,2839,1553
2.7852e+06,0,0,0,1975,2417
2.7852e+06,0,0,0,1591,2801
2.7852e+06,0,0,0,1335,3057
2.7852e+06,0,0,0,951,3441
2.7852e+06,0,0,0,567,3825
2.7852e+06,0,0,0,367,4025
2.7852e+06,0,0,0,111,4281
2.79559e+06,0,0,0,975,3417
2.79559e+06,0,0,0,463,3929
2.79559e+06,0,0,0,335,4057
2.79559e+06,0,0,0,207,4185
2.79559e+06,0,0,0,79,4313
2.7961e+06,0,0,0,335,4057
2.79611e+06,0,0,0,191,4201
2.79611e+06,0,0,0,47,4345
2.79613e+06,0,0,0,247,4145
2.79614e+06,0,0,0,103,4289
2.79617e+06,0,0,0,359,4033
2.79617e+06,0,0,0,215,4177
2.79617e+06,0,0,0,15,4377
2.80295e+06,0,0,0,527,3865
2.80295e+06,0,0,0,271,4121
2.80295e+06,0,0,0,15,4377
2.80647e+06,0,0,0,143,4249
2.80647e+06,0,0,0,15,4377
2.80649e+06,0,0,0,143,4249
2.80649e+06,0,0,0,15,4377
2.80656e+06,0,0,0,143,4249
2.80656e+06,0,0,0,15,4377
2.80694e+06,0,0,0,159,4233
2.80694e+06,0,0,0,415,3977
2.80694e+06,0,0,0,159,4233
2.80694e+06,0,0,0,14,4378
2.80698e+06,0,0,0,270,4122
2.80698e+06,0,0,0,14,4378
2.807e+06,0,0,0,158,4234
2.80702e+06,0,0,0,302,4090
2.80702e+06,0,0,0,46,4346
2.80704e+06,0,0,0,190,4202
2.80715e+06,0,0,0,390,4002
2.80715e+06,0,0,0,134,4258
2.80997e+06,0,0,0,390,4002
2.80997e+06,0,0,0,646,3746
2.80998e+06,0,0,0,390,4002
2.81382e+06,0,0,0,646,3746
2.81383e+06,0,0,0,902,3490
2.81391e+06,0,0,0,1158,3234
2.81404e+06,0,0,0,1414,2978
2.81502e+06,0,0,0,1559,2833
2.81692e+06,0,0,0,1815,2577
2.81734e+06,0,0,0,1943,2449
2.81741e+06,0,0,0,2071,2321
2.81745e+06,0,0,0,2199,2193
2.8177e+06,0,0,0,2583,1809
2.81774e+06,0,0,0,2967,1425
2.81776e+06,0,0,0,3351,1041
2.81777e+06,0,0,0,171,4221
2.81777e+06,0,0,0,43,4349
2.82862e+06,0,0,0,171,4221
2.83683e+06,0,0,0,3351,1041
2.83683e+06,0,0,0,2711,1681
2.83683e+06,0,0,0,2071,2321
2.83683e+06,0,0,0,1431,2961
2.83683e+06,0,0,0,791,3601
2.83683e+06,0,0,0,191,4201
2.84646e+06,0,0,0,1232,3160
2.84646e+06,0,0,0,16,4376
2.84948e+06,0,0,0,616,3776
2.84948e+06,0,0,0,488,3904
2.84948e+06,0,0,0,360,4032
2.84948e+06,0,0,0,232,4160
2.84948e+06,0,0,0,104,4288
2.86033e+06,0,0,0,232,4160
2.86034e+06,0,0,0,360,4032
2.86035e+06,0,0,0,488,3904
2.86045e+06,0,0,0,616,3776
2.86567e+06,0,0,0,1256,3136
2.86568e+06,0,0,0,40,4352
2.86575e+06,0,0,0,680,3712
2.86575e+06,0,0,0,424,3968
2.86794e+06,0,0,0,1640,2752
2.86794e+06,0,0,0,616,3776
2.873e+06,0,0,0,1640,2752
2.873e+06,0,0,0,616,3776
2.873e+06,0,0,0,488,3904
2.873e+06,0,0,0,360,4032
2.873e+06,0,0,0,232,4160
2.873e+06,0,0,0,104,4288
2.87898e+06,0,0,0,744,3648
2.87898e+06,0,0,0,462,3930
2.87898e+06,0,0,0,334,4058
2.87898e+06,0,0,0,206,4186
2.87898e+06,0,0,0,78,4314
2.87907e+06,0,0,0,718,3674
2.87907e+06,0,0,0,436,3956
2.87907e+06,0,0,0,308,4084
2.87907e+06,0,0,0,180,4212
2.87907e+06,0,0,0,36,4356
2.88383e+06,0,0,0,164,4228
2.88383e+06,0,0,0,36,4356
2.88387e+06,0,0,0,164,4228
2.88388e+06,0,0,0,36,4356
2.8839e+06,0,0,0,164,4228
2.8839e+06,0,0,0,20,4372
2.88394e+06,0,0,0,148,4244
2.88394e+06,0,0,0,20,4372
2.88605e+06,0,0,0,302,4090
2.88605e+06,0,0,0,131,4261
2.88605e+06,0,0,0,3,4389
2.88735e+06,0,0,0,1219,3173
2.88735e+06,0,0,0,195,4197
2.88737e+06,0,0,0,477,3915
2.88738e+06,0,0,0,221,4171
2.88744e+06,0,0,0,477,3915
2.88874e+06,0,0,0,621,3771
2.88982e+06,0,0,0,749,3643
2.88991e+06,0,0,0,877,3515
2.88995e+06,0,0,0,1005,3387
2.88995e+06,0,0,0,1133,3259
2.88997e+06,0,0,0,1261,3131
2.88997e+06,0,0,0,46,4346
2.89375e+06,0,0,0,190,4202
2.89376e+06,0,0,0,28,4364
2.89476e+06,0,0,0,156,4236
2.8948e+06,0,0,0,284,4108
2.8949e+06,0,0,0,412,3980
2.89645e+06,0,0,0,583,3809
2.89693e+06,0,0,0,711,3681
2.90021e+06,0,0,0,583,3809
2.90036e+06,0,0,0,455,3937
2.90259e+06,0,0,0,327,4065
2.90397e+06,0,0,0,489,3903
2.90639e+06,0,0,0,1513,2879
2.90902e+06,0,0,0,1769,2623
2.91007e+06,0,0,0,2984,1408
2.91106e+06,0,0,0,3112,1280
2.9112e+06,0,0,0,3240,1152
2.91342e+06,0,0,0,3368,1024
2.91632e+06,0,0,0,4392,0
2.91632e+06,0,0,0,296,4096
2.91632e+06,0,0,0,40,4352
2.93758e+06,0,0,0,296,4096
2.93758e+06,0,0,0,168,4224
2.93758e+06,0,0,0,40,4352
2.94845e+06,0,0,0,168,4224
2.94847e+06,0,0,0,296,4096
2.95045e+06,0,0,0,4392,0
2.95045e+06,0,0,0,3368,1024
2.95045e+06,0,0,0,2153,2239
2.95045e+06,0,0,0,1129,3263
2.95045e+06,0,0,0,873,3519
2.95045e+06,0,0,0,745,3647
2.95045e+06,0,0,0,545,3847
2.95045e+06,0,0,0,345,4047
2.95045e+06,0,0,0,217,4175
2.95045e+06,0,0,0,59,4333
2.96131e+06,0,0,0,259,4133
2.96132e+06,0,0,0,131,4261
2.96132e+06,0,0,0,3,4389
2.96133e+06,0,0,0,161,4231
2.96134e+06,0,0,0,33,4359
2.96136e+06,0,0,0,161,4231
2.96136e+06,0,0,0,289,4103
2.96136e+06,0,0,0,161,4231
2.96136e+06,0,0,0,8,4384
2.96137e+06,0,0,0,208,4184
2.96138e+06,0,0,0,55,4337
2.96823e+06,0,0,0,1270,3122
2.96824e+06,0,0,0,750,3642
2.96824e+06,0,0,0,238,4154
2.96824e+06,0,0,0,85,4307
2.97024e+06,0,0,0,213,4179
2.97212e+06,0,0,0,469,3923
2.97216e+06,0,0,0,597,3795
2.97223e+06,0,0,0,725,3667
2.97226e+06,0,0,0,878,3514
2.97227e+06,0,0,0,1031,3361
2.97227e+06,0,0,0,1159,3233
2.97348e+06,0,0,0,1679,2713
2.97888e+06,0,0,0,2191,2201
2.97911e+06,0,0,0,2344,2048
2.97916e+06,0,0,0,3368,1024
2.97917e+06,0,0,0,188,4204
2.97917e+06,0,0,0,44,4348
2.98885e+06,0,0,0,188,4204
2.98924e+06,0,0,0,3368,1024
2.98924e+06,0,0,0,2344,2048
2.98924e+06,0,0,0,1832,2560
2.98924e+06,0,0,0,1320,3072
2.98924e+06,0,0,0,808,3584
2.98924e+06,0,0,0,208,4184
2.98924e+06,0,0,0,79,4313
2.99983e+06,0,0,0,591,3801
2.99983e+06,0,0,0,335,4057
2.99983e+06,0,0,0,79,4313
3.00012e+06,0,0,0,208,4184
3.00197e+06,0,0,0,808,3584
3.00197e+06,0,0,0,552,3840
3.00494e+06,0,0,0,1064,3328
3.00494e+06,0,0,0,1576,2816
3.00758e+06,0,0,0,1832,2560
3.00758e+06,0,0,0,2088,2304
3.00971e+06,0,0,0,2344,2048
3.01027e+06,0,0,0,3368,1024
3.01027e+06,0,0,0,188,4204
3.01027e+06,0,0,0,60,4332
3.02115e+06,0,0,0,188,4204
3.02115e+06,0,0,0,60,4332
3.03204e+06,0,0,0,188,4204
3.03459e+06,0,0,0,1212,3180
3.03459e+06,0,0,0,188,4204
3.03918e+06,0,0,0,3368,1024
3.03918e+06,0,0,0,2566,1826
3.03918e+06,0,0,0,2310,2082
3.03918e+06,0,0,0,2054,2338
3.03918e+06,0,0,0,1798,2594
3.03918e+06,0,0,0,1542,2850
3.03918e+06,0,0,0,1286,3106
3.03918e+06,0,0,0,1030,3362
3.03918e+06,0,0,0,774,3618
3.03918e+06,0,0,0,518,3874
3.03918e+06,0,0,0,262,4130
3.03918e+06,0,0,0,6,4386
3.06081e+06,0,0,0,262,4130
3.06081e+06,0,0,0,518,3874
3.06082e+06,0,0,0,248,4144
3.06082e+06,0,0,0,504,3888
3.06083e+06,0,0,0,234,4158
3.06083e+06,0,0,0,490,3902
3.06084e+06,0,0,0,746,3646
3.06085e+06,0,0,0,206,4186
3.06087e+06,0,0,0,462,3930
3.06087e+06,0,0,0,206,4186
3.0609e+06,0,0,0,462,3930
3.0609e+06,0,0,0,158,4234
3.06097e+06,0,0,0,414,3978
3.06097e+06,0,0,0,158,4234
3.0611e+06,0,0,0,414,3978
3.0611e+06,0,0,0,158,4234
3.0611e+06,0,0,0,5,4387
3.07029e+06,0,0,0,261,4131
3.07132e+06,0,0,0,414,3978
3.07515e+06,0,0,0,1438,2954
3.07516e+06,0,0,0,574,3818
3.07516e+06,0,0,0,573,3819
3.07516e+06,0,0,0,445,3947
3.07516e+06,0,0,0,317,4075
3.07516e+06,0,0,0,189,4203
3.07516e+06,0,0,0,61,4331
3.08184e+06,0,0,0,189,4203
3.08192e+06,0,0,0,317,4075
3.08202e+06,0,0,0,445,3947
3.08205e+06,0,0,0,573,3819
3.08245e+06,0,0,0,843,3549
3.08246e+06,0,0,0,1099,3293
3.08248e+06,0,0,0,1369,3023
3.08251e+06,0,0,0,1909,2483
3.08253e+06,0,0,0,2165,2227
3.0826e+06,0,0,0,2469,1923
3.0826e+06,0,0,0,39,4353
3.0826e+06,0,0,0,31,4361
3.0826e+06,0,0,0,23,4369
3.08263e+06,0,0,0,279,4113
3.08263e+06,0,0,0,126,4266
3.08543e+06,0,0,0,990,3402
3.08543e+06,0,0,0,846,3546
3.08543e+06,0,0,0,693,3699
3.08543e+06,0,0,0,535,3857
3.08543e+06,0,0,0,407,3985
3.08543e+06,0,0,0,279,4113
3.08543e+06,0,0,0,151,4241
3.08543e+06,0,0,0,23,4369
3.0909e+06,0,0,0,151,4241
3.09091e+06,0,0,0,23,4369
3.0925e+06,0,0,0,176,4216
3.09251e+06,0,0,0,48,4344
3.09368e+06,0,0,0,176,4216
3.09507e+06,0,0,0,320,4072
3.09551e+06,0,0,0,448,3944
3.09621e+06,0,0,0,576,3816
3.09622e+06,0,0,0,729,3663
3.09631e+06,0,0,0,737,3655
3.09631e+06,0,0,0,895,3497
3.09632e+06,0,0,0,93,4299
3.09788e+06,0,0,0,101,4291
3.09975e+06,0,0,0,229,4163
3.1015e+06,0,0,0,1031,3361
3.10174e+06,0,0,0,1159,3233
3.10334e+06,0,0,0,3589,803
3.10334e+06,0,0,0,1159,3233
3.10334e+06,0,0,0,1031,3361
3.11422e+06,0,0,0,1159,3233
3.12491e+06,0,0,0,3589,803
3.12491e+06,0,0,0,1159,3233
3.12491e+06,0,0,0,775,3617
3.12491e+06,0,0,0,391,4001
3.12573e+06,0,0,0,1193,3199
3.14731e+06,0,0,0,1194,3198
3.15199e+06,0,0,0,1578,2814
3.15199e+06,0,0,0,1962,2430
3.21131e+06,0,0,0,4392,0
3.21131e+06,0,0,0,1962,2430
3.21131e+06,0,0,0,1834,2558
3.21131e+06,0,0,0,1032,3360
3.21131e+06,0,0,0,230,4162
3.21649e+06,0,0,0,77,4315
3.21979e+06,0,0,0,879,3513
3.2198e+06,0,0,0,623,3769
3.2198e+06,0,0,0,367,4025
3.2198e+06,0,0,0,111,4281
3.22078e+06,0,0,0,913,3479
3.22078e+06,0,0,0,657,3735
3.22078e+06,0,0,0,401,3991
3.22078e+06,0,0,0,145,4247
3.22078e+06,0,0,0,1,4391
3.22223e+06,0,0,0,129,4263
3.22224e+06,0,0,0,1,4391
3.22666e+06,0,0,0,154,4238
3.22666e+06,0,0,0,1,4391
3.22909e+06,0,0,0,129,4263
3.22909e+06,0,0,0,1,4391
3.23044e+06,0,0,0,145,4247
3.23045e+06,0,0,0,17,4375
3.23596e+06,0,0,0,145,4247
3.23597e+06,0,0,0,17,4375
3.2374e+06,0,0,0,145,4247
3.23741e+06,0,0,0,17,4375
3.23752e+06,0,0,0,170,4222
3.23752e+06,0,0,0,42,4350
3.23793e+06,0,0,0,298,4094
3.23793e+06,0,0,0,42,4350
3.23829e+06,0,0,0,298,4094
3.23829e+06,0,0,0,42,4350
3.23833e+06,0,0,0,298,4094
3.23834e+06,0,0,0,42,4350
3.23978e+06,0,0,0,298,4094
3.23979e+06,0,0,0,42,4350
3.24045e+06,0,0,0,298,4094
3.24045e+06,0,0,0,170,4222
3.24045e+06,0,0,0,42,4350
3.24076e+06,0,0,0,298,4094
3.24076e+06,0,0,0,170,4222
3.243e+06,0,0,0,298,4094
3.243e+06,0,0,0,42,4350
3.24437e+06,0,0,0,170,4222
3.24461e+06,0,0,0,298,4094
3.24724e+06,0,0,0,426,3966
3.24725e+06,0,0,0,42,4350
3.24729e+06,0,0,0,170,4222
3.24766e+06,0,0,0,298,4094
3.25259e+06,0,0,0,42,4350
3.25688e+06,0,0,0,298,4094
3.2571e+06,0,0,0,554,3838
3.25753e+06,0,0,0,810,3582
3.2605e+06,0,0,0,298,4094
3.26159e+06,0,0,0,554,3838
3.26159e+06,0,0,0,42,4350
3.26473e+06,0,0,0,298,4094
3.26853e+06,0,0,0,170,4222
3.26853e+06,0,0,0,42,4350
3.27241e+06,0,0,0,554,3838
3.27241e+06,0,0,0,42,4350
3.27395e+06,0,0,0,170,4222
3.27395e+06,0,0,0,42,4350
3.27397e+06,0,0,0,170,4222
3.27397e+06,0,0,0,42,4350
3.27432e+06,0,0,0,298,4094
3.27432e+06,0,0,0,170,4222
3.27432e+06,0,0,0,42,4350
3.27656e+06,0,0,0,554,3838
3.27656e+06,0,0,0,426,3966
3.27656e+06,0,0,0,298,4094
3.27656e+06,0,0,0,170,4222
3.27656e+06,0,0,0,42,4350
3.27943e+06,0,0,0,170,4222
3.27943e+06,0,0,0,42,4350
3.27943e+06,0,0,0,170,4222
3.27943e+06,0,0,0,42,4350
3.27962e+06,0,0,0,426,3966
3.27963e+06,0,0,0,298,4094
3.27963e+06,0,0,0,170,4222
3.27963e+06,0,0,0,42,4350
3.27968e+06,0,0,0,170,4222
3.27969e+06,0,0,0,42,4350
3.27985e+06,0,0,0,170,4222
3.27986e+06,0,0,0,42,4350
3.28171e+06,0,0,0,170,4222
3.28171e+06,0,0,0,42,4350
3.28205e+06,0,0,0,170,4222
3.28211e+06,0,0,0,298,4094
3.28313e+06,0,0,0,810,3582
3.28661e+06,0,0,0,610,3782
3.28688e+06,0,0,0,410,3982
3.28744e+06,0,0,0,538,3854
3.29025e+06,0,0,0,666,3726
3.29026e+06,0,0,0,794,3598
3.2905e+06,0,0,0,922,3470
3.29057e+06,0,0,0,1050,3342
3.29059e+06,0,0,0,1178,3214
3.29062e+06,0,0,0,1306,3086
3.29076e+06,0,0,0,1434,2958
3.29263e+06,0,0,0,1562,2830
3.29753e+06,0,0,0,1762,2630
3.29774e+06,0,0,0,1962,2430
3.29777e+06,0,0,0,4392,0
3.29777e+06,0,0,0,1962,2430
3.29777e+06,0,0,0,1706,2686
3.29777e+06,0,0,0,1506,2886
3.29777e+06,0,0,0,906,3486
3.29777e+06,0,0,0,706,3686
3.29777e+06,0,0,0,450,3942
3.30864e+06,0,0,0,650,3742
3.30866e+06,0,0,0,850,3542
3.31041e+06,0,0,0,1450,2942
3.31071e+06,0,0,0,1322,3070
3.3124e+06,0,0,0,1194,3198
3.31743e+06,0,0,0,1322,3070
3.31945e+06,0,0,0,1578,2814
3.31948e+06,0,0,0,1834,2558
3.31984e+06,0,0,0,1962,2430
3.33611e+06,0,0,0,1834,2558
3.33624e+06,0,0,0,1706,2686
3.33651e+06,0,0,0,1578,2814
3.33674e+06,0,0,0,1450,2942
3.33683e+06,0,0,0,1322,3070
3.33697e+06,0,0,0,1194,3198
3.34332e+06,0,0,0,1066,3326
3.34343e+06,0,0,0,938,3454
3.34365e+06,0,0,0,810,3582
3.3462e+06,0,0,0,554,3838
3.34694e+06,0,0,0,682,3710
3.34712e+06,0,0,0,810,3582
3.34736e+06,0,0,0,938,3454
3.34736e+06,0,0,0,98,4294
3.34761e+06,0,0,0,226,4166
3.34766e+06,0,0,0,354,4038
3.34785e+06,0,0,0,482,3910
3.34868e+06,0,0,0,610,3782
3.34879e+06,0,0,0,738,3654
3.34903e+06,0,0,0,866,3526
3.34903e+06,0,0,0,26,4366
3.36788e+06,0,0,0,282,4110
3.36788e+06,0,0,0,154,4238
3.37073e+06,0,0,0,994,3398
3.37374e+06,0,0,0,1122,3270
3.37444e+06,0,0,0,1962,2430
3.38385e+06,0,0,0,4392,0
3.38385e+06,0,0,0,1962,2430
3.38385e+06,0,0,0,1122,3270
3.38385e+06,0,0,0,282,4110
3.38385e+06,0,0,0,26,4366
3.40556e+06,0,0,0,282,4110
3.40556e+06,0,0,0,129,4263
3.40556e+06,0,0,0,1,4391
3.41101e+06,0,0,0,129,4263
3.41101e+06,0,0,0,1,4391
3.41637e+06,0,0,0,129,4263
3.41637e+06,0,0,0,1,4391
3.41643e+06,0,0,0,154,4238
3.41643e+06,0,0,0,1,4391
3.42184e+06,0,0,0,129,4263
3.42184e+06,0,0,0,1,4391
3.4268e+06,0,0,0,841,3551
3.4268e+06,0,0,0,1,4391
3.42704e+06,0,0,0,841,3551
3.42704e+06,0,0,0,1,4391
3.42729e+06,0,0,0,154,4238
3.42729e+06,0,0,0,26,4366
3.42729e+06,0,0,0,154,4238
3.42729e+06,0,0,0,26,4366
3.43246e+06,0,0,0,154,4238
3.43246e+06,0,0,0,26,4366
3.43284e+06,0,0,0,154,4238
3.43285e+06,0,0,0,26,4366
3.43789e+06,0,0,0,154,4238
3.43789e+06,0,0,0,26,4366
3.43836e+06,0,0,0,154,4238
3.43837e+06,0,0,0,26,4366
3.44338e+06,0,0,0,154,4238
3.44338e+06,0,0,0,26,4366
3.44374e+06,0,0,0,154,4238
3.44374e+06,0,0,0,1,4391
3.44845e+06,0,0,0,841,3551
3.44846e+06,0,0,0,706,3686
3.44846e+06,0,0,0,578,3814
3.44846e+06,0,0,0,450,3942
3.4489e+06,0,0,0,578,3814
3.44952e+06,0,0,0,322,4070
3.44956e+06,0,0,0,66,4326
3.45383e+06,0,0,0,219,4173
3.45544e+06,0,0,0,1059,3333
3.45923e+06,0,0,0,1194,3198
3.4593e+06,0,0,0,1322,3070
3.45933e+06,0,0,0,1450,2942
3.46037e+06,0,0,0,1706,2686
3.46041e+06,0,0,0,1962,2430
3.47017e+06,0,0,0,4392,0
3.47017e+06,0,0,0,1962,2430
3.48022e+06,0,0,0,1834,2558
3.48022e+06,0,0,0,1706,2686
3.48142e+06,0,0,0,1578,2814
3.48262e+06,0,0,0,1450,2942
3.48383e+06,0,0,0,1322,3070
3.48504e+06,0,0,0,1194,3198
3.49107e+06,0,0,0,1322,3070
3.49107e+06,0,0,0,1450,2942
3.49227e+06,0,0,0,1578,2814
3.49357e+06,0,0,0,1706,2686
3.49468e+06,0,0,0,1834,2558
3.49526e+06,0,0,0,1706,2686
3.4959e+06,0,0,0,1834,2558
3.50612e+06,0,0,0,1706,2686
3.50622e+06,0,0,0,1834,2558
3.51703e+06,0,0,0,1962,2430
3.5245e+06,0,0,0,1804,2588
3.52619e+06,0,0,0,1548,2844
3.52926e+06,0,0,0,1412,2980
3.53231e+06,0,0,0,1212,3180
3.53339e+06,0,0,0,956,3436
3.53359e+06,0,0,0,700,3692
3.53536e+06,0,0,0,858,3534
3.53908e+06,0,0,0,658,3734
3.53964e+06,0,0,0,530,3862
3.54021e+06,0,0,0,666,3726
3.54318e+06,0,0,0,866,3526
3.54695e+06,0,0,0,994,3398
3.54696e+06,0,0,0,81,4311
3.54784e+06,0,0,0,337,4055
3.54997e+06,0,0,0,537,3855
3.55369e+06,0,0,0,1450,2942
3.55509e+06,0,0,0,1706,2686
3.55524e+06,0,0,0,1962,2430
3.55641e+06,0,0,0,4392,0
3.55641e+06,0,0,0,1962,2430
3.55916e+06,0,0,0,1834,2558
3.55918e+06,0,0,0,1706,2686
3.5592e+06,0,0,0,1578,2814
3.55922e+06,0,0,0,1450,2942
3.55924e+06,0,0,0,1322,3070
3.56454e+06,0,0,0,1194,3198
3.56459e+06,0,0,0,1322,3070
3.56465e+06,0,0,0,1450,2942
3.56465e+06,0,0,0,1578,2814
3.56468e+06,0,0,0,1706,2686
3.56469e+06,0,0,0,1834,2558
3.57544e+06,0,0,0,1962,2430
3.57805e+06,0,0,0,4392,0
3.57805e+06,0,0,0,1962,2430
3.57805e+06,0,0,0,1834,2558
3.57805e+06,0,0,0,1706,2686
3.57805e+06,0,0,0,1578,2814
3.57805e+06,0,0,0,1450,2942
3.57805e+06,0,0,0,1322,3070
3.58344e+06,0,0,0,1450,2942
3.58351e+06,0,0,0,1578,2814
3.58352e+06,0,0,0,1706,2686
3.58563e+06,0,0,0,1834,2558
3.58659e+06,0,0,0,1962,2430
3.59916e+06,0,0,0,4392,0
3.59916e+06,0,0,0,542,3850
3.60826e+06,0,0,0,4392,0
3.60826e+06,0,0,0,1962,2430
3.60826e+06,0,0,0,1834,2558
3.60826e+06,0,0,0,1706,2686
3.60826e+06,0,0,0,1578,2814
3.60833e+06,0,0,0,1576,2816
3.60847e+06,0,0,0,1376,3016
3.60851e+06,0,0,0,1176,3216
3.6125e+06,0,0,0,576,3816
3.61252e+06,0,0,0,448,3944
3.61468e+06,0,0,0,450,3942
3.61852e+06,0,0,0,322,4070
3.61852e+06,0,0,0,194,4198
3.61915e+06,0,0,0,322,4070
3.61916e+06,0,0,0,450,3942
3.61919e+06,0,0,0,578,3814
3.6194e+06,0,0,0,778,3614
3.61944e+06,0,0,0,978,3414
3.62338e+06,0,0,0,1106,3286
3.62394e+06,0,0,0,1234,3158
3.62401e+06,0,0,0,1362,3030
3.62516e+06,0,0,0,1962,2430
3.62983e+06,0,0,0,4392,0
3.62984e+06,0,0,0,1962,2430
3.62984e+06,0,0,0,1834,2558
3.62984e+06,0,0,0,1706,2686
3.62984e+06,0,0,0,1578,2814
3.62984e+06,0,0,0,1450,2942
3.62984e+06,0,0,0,1322,3070
3.62984e+06,0,0,0,1194,3198
3.62984e+06,0,0,0,1066,3326
3.62984e+06,0,0,0,938,3454
3.62984e+06,0,0,0,810,3582
3.62984e+06,0,0,0,682,3710
3.62984e+06,0,0,0,554,3838
3.62984e+06,0,0,0,426,3966
3.62984e+06,0,0,0,298,4094
3.62984e+06,0,0,0,170,4222
3.62984e+06,0,0,0,42,4350
3.62984e+06,0,0,0,32,4360
3.63612e+06,0,0,0,160,4232
3.63613e+06,0,0,0,32,4360
3.63625e+06,0,0,0,160,4232
3.63625e+06,0,0,0,32,4360
3.6363e+06,0,0,0,160,4232
3.6363e+06,0,0,0,32,4360
3.63632e+06,0,0,0,160,4232
3.63637e+06,0,0,0,288,4104
3.63645e+06,0,0,0,416,3976
3.63646e+06,0,0,0,92,4300
3.63656e+06,0,0,0,220,4172
3.63657e+06,0,0,0,348,4044
3.63658e+06,0,0,0,476,3916
3.63688e+06,0,0,0,604,3788
3.63756e+06,0,0,0,732,3660
3.63771e+06,0,0,0,860,3532
3.63793e+06,0,0,0,988,3404
3.63804e+06,0,0,0,1116,3276
3.63867e+06,0,0,0,1244,3148
3.64431e+06,0,0,0,1372,3020
3.64442e+06,0,0,0,1500,2892
3.64453e+06,0,0,0,1628,2764
3.64734e+06,0,0,0,1952,2440
3.64815e+06,0,0,0,1962,2430
3.65042e+06,0,0,0,4392,0
3.65042e+06,0,0,0,1962,2430
3.65042e+06,0,0,0,1706,2686
3.67043e+06,0,0,0,1962,2430
3.67172e+06,0,0,0,4392,0
3.67172e+06,0,0,0,1962,2430
3.67172e+06,0,0,0,1122,3270
3.67172e+06,0,0,0,866,3526
3.67172e+06,0,0,0,610,3782
3.67172e+06,0,0,0,354,4038
3.67172e+06,0,0,0,344,4048
3.67172e+06,0,0,0,88,4304
3.69335e+06,0,0,0,344,4048
3.69335e+06,0,0,0,88,4304
3.69337e+06,0,0,0,344,4048
3.69337e+06,0,0,0,216,4176
3.69338e+06,0,0,0,472,3920
3.69342e+06,0,0,0,728,3664
3.69343e+06,0,0,0,738,3654
3.69421e+06,0,0,0,728,3664
3.69423e+06,0,0,0,600,3792
3.69634e+06,0,0,0,472,3920
3.69886e+06,0,0,0,600,3792
3.69966e+06,0,0,0,728,3664
3.7072e+06,0,0,0,856,3536
3.71229e+06,0,0,0,1112,3280
3.71268e+06,0,0,0,1122,3270
3.7196e+06,0,0,0,1120,3272
3.72184e+06,0,0,0,1118,3274
3.72192e+06,0,0,0,1116,3276
3.722e+06,0,0,0,1114,3278
3.72208e+06,0,0,0,1112,3280
3.72512e+06,0,0,0,1110,3282
3.73121e+06,0,0,0,1112,3280
3.7313e+06,0,0,0,1114,3278
3.73133e+06,0,0,0,1116,3276
3.73134e+06,0,0,0,1118,3274
3.73135e+06,0,0,0,1120,3272
3.73435e+06,0,0,0,736,3656
3.74068e+06,0,0,0,738,3654
3.75364e+06,0,0,0,1122,3270
3.75806e+06,0,0,0,1962,2430
3.75822e+06,0,0,0,4392,0
3.75822e+06,0,0,0,1962,2430
3.75822e+06,0,0,0,1122,3270
3.75822e+06,0,0,0,320,4072
3.76196e+06,0,0,0,192,4200
3.77283e+06,0,0,0,320,4072
3.77283e+06,0,0,0,64,4328
3.78349e+06,0,0,0,63,4329
3.79029e+06,0,0,0,64,4328
3.7945e+06,0,0,0,320,4072
3.7945e+06,0,0,0,71,4321
3.80118e+06,0,0,0,320,4072
3.80118e+06,0,0,0,192,4200
3.80118e+06,0,0,0,63,4329
3.81199e+06,0,0,0,191,4201
3.812e+06,0,0,0,63,4329
3.81207e+06,0,0,0,192,4200
3.81207e+06,0,0,0,64,4328
3.81953e+06,0,0,0,192,4200
3.81953e+06,0,0,0,64,4328
3.82283e+06,0,0,0,192,4200
3.82747e+06,0,0,0,64,4328
3.82921e+06,0,0,0,192,4200
3.83693e+06,0,0,0,64,4328
3.83839e+06,0,0,0,192,4200
3.84381e+06,0,0,0,320,4072
3.84473e+06,0,0,0,1122,3270
3.84476e+06,0,0,0,1962,2430
3.84479e+06,0,0,0,4392,0
3.8448e+06,0,0,0,1962,2430
3.8448e+06,0,0,0,1122,3270
3.8448e+06,0,0,0,320,4072
3.8448e+06,0,0,0,192,4200
3.84664e+06,0,0,0,64,4328
3.85567e+06,0,0,0,192,4200
3.85747e+06,0,0,0,320,4072
3.86447e+06,0,0,0,2750,1642
3.86447e+06,0,0,0,702,3690
3.86447e+06,0,0,0,318,4074
3.86447e+06,0,0,0,190,4202
3.86447e+06,0,0,0,62,4330
3.87534e+06,0,0,0,190,4202
3.87534e+06,0,0,0,318,4074
3.87534e+06,0,0,0,62,4330
3.89704e+06,0,0,0,446,3946
3.89705e+06,0,0,0,190,4202
3.89709e+06,0,0,0,446,3946
3.89709e+06,0,0,0,190,4202
3.91867e+06,0,0,0,446,3946
3.91867e+06,0,0,0,190,4202
3.91873e+06,0,0,0,446,3946
3.91874e+06,0,0,0,190,4202
3.93137e+06,0,0,0,992,3400
3.94023e+06,0,0,0,1248,3144
3.94023e+06,0,0,0,224,4168
3.94029e+06,0,0,0,480,3912
3.94723e+06,0,0,0,1504,2888
3.95098e+06,0,0,0,3552,840
3.95098e+06,0,0,0,480,3912
3.9562e+06,0,0,0,3552,840
3.9562e+06,0,0,0,38,4354
3.96348e+06,0,0,0,3552,840
3.96348e+06,0,0,0,38,4354
3.96488e+06,0,0,0,878,3514
3.97074e+06,0,0,0,4392,0
3.97075e+06,0,0,0,878,3514
3.97798e+06,0,0,0,4392,0
3.97799e+06,0,0,0,878,3514
3.98531e+06,0,0,0,4392,0
3.98531e+06,0,0,0,2025,2367
3.98531e+06,0,0,0,1776,2616
3.9915e+06,0,0,0,4143,249
3.9915e+06,0,0,0,963,3429
4.00954e+06,0,0,0,4143,249
4.00954e+06,0,0,0,3119,1273
4.00954e+06,0,0,0,2095,2297
4.00954e+06,0,0,0,1839,2553
4.00954e+06,0,0,0,1583,2809
4.0311e+06,0,0,0,1839,2553
4.03116e+06,0,0,0,2095,2297
4.04982e+06,0,0,0,3119,1273
4.06541e+06,0,0,0,4143,249
4.15399e+06,0,0,0,4392,0
