time,nb_sleeping,nb_switching_on,nb_switching_off,nb_idle,nb_computing
0.00240003,0,0,0,4136,256
0.00300004,0,0,0,3304,1088
0.00360005,0,0,0,3055,1337
0.00420006,0,0,0,2814,1578
0.00480006,0,0,0,2686,1706
0.00540007,0,0,0,1278,3114
0.00600008,0,0,0,963,3429
0.00660009,0,0,0,648,3744
0.0072001,0,0,0,407,3985
0.0078001,0,0,0,279,4113
0.00840011,0,0,0,151,4241
0.00900012,0,0,0,23,4369
10843,0,0,0,151,4241
10866,0,0,0,466,3926
10867,0,0,0,594,3798
10872,0,0,0,722,3670
10902,0,0,0,978,3414
10905,0,0,0,81,4311
10913,0,0,0,209,4183
11509,0,0,0,524,3868
11512,0,0,0,268,4124
11512,0,0,0,12,4380
30696,0,0,0,268,4124
30699,0,0,0,12,4380
33192,0,0,0,268,4124
33195,0,0,0,12,4380
33195,0,0,0,11,4381
43331,0,0,0,908,3484
43334,0,0,0,659,3733
43334,0,0,0,344,4048
43334,0,0,0,29,4363
43377,0,0,0,1437,2955
43380,0,0,0,1181,3211
43380,0,0,0,925,3467
52443,0,0,0,1181,3211
52446,0,0,0,157,4235
53666,0,0,0,472,3920
53669,0,0,0,216,4176
54265,0,0,0,531,3861
54268,0,0,0,275,4117
54268,0,0,0,19,4373
54893,0,0,0,275,4117
54903,0,0,0,276,4116
62731,0,0,0,1300,3092
62734,0,0,0,788,3604
62734,0,0,0,532,3860
62734,0,0,0,276,4116
62734,0,0,0,20,4372
64920,0,0,0,276,4116
64923,0,0,0,20,4372
64949,0,0,0,276,4116
64952,0,0,0,20,4372
65171,0,0,0,276,4116
65174,0,0,0,20,4372
65716,0,0,0,276,4116
65719,0,0,0,20,4372
65774,0,0,0,276,4116
65777,0,0,0,20,4372
67976,0,0,0,269,4123
67979,0,0,0,13,4379
74183,0,0,0,269,4123
74186,0,0,0,13,4379
74192,0,0,0,269,4123
74217,0,0,0,525,3867
76351,0,0,0,781,3611
76429,0,0,0,1037,3355
76653,0,0,0,1293,3099
77174,0,0,0,1549,2843
77177,0,0,0,13,4379
77208,0,0,0,269,4123
77211,0,0,0,13,4379
79497,0,0,0,269,4123
79500,0,0,0,13,4379
83601,0,0,0,525,3867
83604,0,0,0,269,4123
83604,0,0,0,13,4379
85657,0,0,0,845,3547
85657,0,0,0,1101,3291
85663,0,0,0,845,3547
85663,0,0,0,589,3803
85663,0,0,0,333,4059
88657,0,0,0,589,3803
88660,0,0,0,77,4315
90945,0,0,0,333,4059
95029,0,0,0,589,3803
95049,0,0,0,845,3547
97088,0,0,0,1101,3291
97091,0,0,0,204,4188
97098,0,0,0,460,3932
97118,0,0,0,716,3676
100571,0,0,0,2252,2140
100574,0,0,0,716,3676
100574,0,0,0,588,3804
100574,0,0,0,332,4060
100574,0,0,0,76,4316
100574,0,0,0,75,4317
100574,0,0,0,74,4318
111429,0,0,0,202,4190
111432,0,0,0,74,4318
118328,0,0,0,586,3806
118331,0,0,0,442,3950
118331,0,0,0,298,4094
118331,0,0,0,170,4222
118331,0,0,0,42,4350
122241,0,0,0,43,4349
122265,0,0,0,171,4221
122268,0,0,0,427,3965
122290,0,0,0,683,3709
122326,0,0,0,684,3708
128670,0,0,0,828,3564
128773,0,0,0,972,3420
129174,0,0,0,1100,3292
129238,0,0,0,1228,3164
129527,0,0,0,2125,2267
129530,0,0,0,589,3803
129530,0,0,0,77,4315
141935,0,0,0,1613,2779
141938,0,0,0,1101,3291
141938,0,0,0,204,4188
151192,0,0,0,716,3676
151195,0,0,0,460,3932
151195,0,0,0,204,4188
151927,0,0,0,1740,2652
151930,0,0,0,1260,3132
151930,0,0,0,60,4332
167683,0,0,0,309,4083
167686,0,0,0,53,4339
169836,0,0,0,309,4083
169839,0,0,0,53,4339
169996,0,0,0,309,4083
169999,0,0,0,60,4332
172046,0,0,0,572,3820
172049,0,0,0,316,4076
172049,0,0,0,188,4204
172049,0,0,0,44,4348
174401,0,0,0,941,3451
182360,0,0,0,1085,3307
182363,0,0,0,85,4307
182913,0,0,0,213,4179
182916,0,0,0,69,4323
184571,0,0,0,549,3843
184574,0,0,0,421,3971
184574,0,0,0,293,4099
189353,0,0,0,549,3843
190229,0,0,0,805,3587
191476,0,0,0,1061,3331
191479,0,0,0,164,4228
191479,0,0,0,36,4356
193475,0,0,0,180,4212
193478,0,0,0,36,4356
194159,0,0,0,285,4107
194162,0,0,0,141,4251
194162,0,0,0,13,4379
195446,0,0,0,141,4251
195449,0,0,0,13,4379
195492,0,0,0,141,4251
201187,0,0,0,1341,3051
201190,0,0,0,829,3563
201190,0,0,0,329,4063
201190,0,0,0,201,4191
201190,0,0,0,73,4319
202385,0,0,0,201,4191
203918,0,0,0,345,4047
203921,0,0,0,104,4288
204626,0,0,0,248,4144
205061,0,0,0,376,4016
205064,0,0,0,120,4272
206325,0,0,0,248,4144
206328,0,0,0,120,4272
212052,0,0,0,248,4144
212055,0,0,0,120,4272
212110,0,0,0,248,4144
212113,0,0,0,120,4272
215458,0,0,0,632,3760
215461,0,0,0,376,4016
215461,0,0,0,120,4272
216116,0,0,0,361,4031
216119,0,0,0,105,4287
217114,0,0,0,233,4159
217117,0,0,0,105,4287
218398,0,0,0,361,4031
219232,0,0,0,861,3531
222958,0,0,0,989,3403
222961,0,0,0,92,4300
223049,0,0,0,220,4172
223831,0,0,0,1117,3275
223834,0,0,0,861,3531
223834,0,0,0,605,3787
223834,0,0,0,349,4043
223834,0,0,0,221,4171
225999,0,0,0,1221,3171
226002,0,0,0,965,3427
226002,0,0,0,453,3939
226002,0,0,0,301,4091
226002,0,0,0,173,4219
226002,0,0,0,45,4347
228091,0,0,0,173,4219
234728,0,0,0,301,4091
236455,0,0,0,453,3939
236877,0,0,0,581,3811
236900,0,0,0,709,3683
236912,0,0,0,1221,3171
236915,0,0,0,197,4195
236915,0,0,0,69,4323
237137,0,0,0,325,4067
237140,0,0,0,10,4382
237163,0,0,0,266,4126
237166,0,0,0,138,4254
237166,0,0,0,10,4382
237220,0,0,0,266,4126
237223,0,0,0,138,4254
237223,0,0,0,10,4382
244877,0,0,0,266,4126
244880,0,0,0,138,4254
245463,0,0,0,394,3998
245489,0,0,0,650,3742
245535,0,0,0,906,3486
247771,0,0,0,1034,3358
248003,0,0,0,1162,3230
248106,0,0,0,1290,3102
248122,0,0,0,1418,2974
248141,0,0,0,1546,2846
248710,0,0,0,1861,2531
255276,0,0,0,1989,2403
255380,0,0,0,2886,1506
255383,0,0,0,838,3554
255383,0,0,0,710,3682
255383,0,0,0,582,3810
255383,0,0,0,454,3938
255383,0,0,0,326,4066
255383,0,0,0,198,4194
255383,0,0,0,70,4322
259345,0,0,0,311,4081
259348,0,0,0,183,4209
259348,0,0,0,55,4337
266203,0,0,0,183,4209
266206,0,0,0,311,4081
266229,0,0,0,439,3953
266231,0,0,0,567,3825
266235,0,0,0,695,3697
266282,0,0,0,823,3569
270191,0,0,0,951,3441
270224,0,0,0,1079,3313
271480,0,0,0,2103,2289
271483,0,0,0,695,3697
271483,0,0,0,567,3825
271483,0,0,0,439,3953
271483,0,0,0,311,4081
271483,0,0,0,183,4209
271483,0,0,0,55,4337
282314,0,0,0,183,4209
282315,0,0,0,311,4081
282320,0,0,0,183,4209
282320,0,0,0,55,4337
282334,0,0,0,183,4209
282337,0,0,0,55,4337
282358,0,0,0,183,4209
282360,0,0,0,311,4081
282364,0,0,0,55,4337
293171,0,0,0,183,4209
293174,0,0,0,55,4337
293181,0,0,0,183,4209
293184,0,0,0,55,4337
293210,0,0,0,183,4209
293213,0,0,0,39,4353
303750,0,0,0,183,4209
303753,0,0,0,39,4353
303922,0,0,0,167,4225
303925,0,0,0,39,4353
304009,0,0,0,167,4225
304066,0,0,0,423,3969
314339,0,0,0,567,3825
314780,0,0,0,695,3697
314804,0,0,0,2103,2289
314807,0,0,0,695,3697
314807,0,0,0,567,3825
314807,0,0,0,439,3953
314807,0,0,0,309,4083
325704,0,0,0,437,3955
325706,0,0,0,567,3825
325710,0,0,0,695,3697
327156,0,0,0,2743,1649
327159,0,0,0,1335,3057
327159,0,0,0,311,4081
327159,0,0,0,55,4337
337449,0,0,0,1079,3313
337452,0,0,0,823,3569
337452,0,0,0,439,3953
337452,0,0,0,139,4253
337452,0,0,0,11,4381
347615,0,0,0,139,4253
348913,0,0,0,395,3997
355618,0,0,0,651,3741
355781,0,0,0,1035,3357
358012,0,0,0,1335,3057
358119,0,0,0,2743,1649
358122,0,0,0,1335,3057
358122,0,0,0,311,4081
368424,0,0,0,1335,3057
370522,0,0,0,2743,1649
370525,0,0,0,1335,3057
370525,0,0,0,951,3441
370525,0,0,0,567,3825
370525,0,0,0,55,4337
383310,0,0,0,567,3825
383313,0,0,0,415,3977
383313,0,0,0,271,4121
392162,0,0,0,655,3737
392242,0,0,0,1039,3353
393826,0,0,0,1183,3209
393994,0,0,0,1335,3057
401456,0,0,0,2743,1649
401459,0,0,0,1335,3057
401459,0,0,0,311,4081
412414,0,0,0,1335,3057
413775,0,0,0,2743,1649
413778,0,0,0,1335,3057
427326,0,0,0,1576,2816
427329,0,0,0,168,4224
444810,0,0,0,1576,2816
444813,0,0,0,168,4224
457147,0,0,0,1576,2816
457150,0,0,0,168,4224
470671,0,0,0,1576,2816
470674,0,0,0,376,4016
470674,0,0,0,248,4144
470674,0,0,0,120,4272
481504,0,0,0,248,4144
481566,0,0,0,376,4016
484407,0,0,0,1576,2816
484410,0,0,0,40,4352
488076,0,0,0,1448,2944
488079,0,0,0,1192,3200
488079,0,0,0,936,3456
488079,0,0,0,680,3712
488079,0,0,0,424,3968
488079,0,0,0,168,4224
500457,0,0,0,1576,2816
500460,0,0,0,1320,3072
500460,0,0,0,1064,3328
500460,0,0,0,424,3968
500460,0,0,0,168,4224
506357,0,0,0,1704,2688
506360,0,0,0,807,3585
506360,0,0,0,551,3841
506360,0,0,0,51,4341
509706,0,0,0,307,4085
509717,0,0,0,563,3829
509771,0,0,0,819,3573
509786,0,0,0,1075,3317
509789,0,0,0,51,4341
509813,0,0,0,307,4085
509816,0,0,0,51,4341
521988,0,0,0,307,4085
522026,0,0,0,563,3829
522029,0,0,0,63,4329
522096,0,0,0,319,4073
522099,0,0,0,63,4329
528183,0,0,0,319,4073
528186,0,0,0,63,4329
531550,0,0,0,319,4073
537655,0,0,0,819,3573
538769,0,0,0,1716,2676
538772,0,0,0,675,3717
538772,0,0,0,419,3973
543690,0,0,0,1059,3333
543693,0,0,0,35,4357
543741,0,0,0,291,4101
543744,0,0,0,139,4253
543744,0,0,0,11,4381
549880,0,0,0,267,4125
553875,0,0,0,395,3997
554275,0,0,0,547,3845
554550,0,0,0,1047,3345
554553,0,0,0,23,4369
560494,0,0,0,279,4113
569125,0,0,0,1303,3089
569128,0,0,0,279,4113
569128,0,0,0,23,4369
583234,0,0,0,279,4113
584211,0,0,0,1320,3072
584214,0,0,0,296,4096
584214,0,0,0,40,4352
600517,0,0,0,296,4096
602701,0,0,0,1320,3072
602704,0,0,0,296,4096
610355,0,0,0,1320,3072
610358,0,0,0,296,4096
616579,0,0,0,1320,3072
616582,0,0,0,296,4096
616582,0,0,0,40,4352
638210,0,0,0,296,4096
643866,0,0,0,1320,3072
643869,0,0,0,296,4096
643869,0,0,0,40,4352
657952,0,0,0,296,4096
661786,0,0,0,1320,3072
661789,0,0,0,296,4096
661789,0,0,0,40,4352
672328,0,0,0,1064,3328
672331,0,0,0,808,3584
672331,0,0,0,508,3884
672331,0,0,0,208,4184
675934,0,0,0,1232,3160
675937,0,0,0,932,3460
675937,0,0,0,632,3760
675937,0,0,0,332,4060
675937,0,0,0,32,4360
683429,0,0,0,288,4104
692979,0,0,0,588,3804
692982,0,0,0,288,4104
693134,0,0,0,588,3804
693137,0,0,0,288,4104
693992,0,0,0,544,3848
693995,0,0,0,244,4148
696513,0,0,0,544,3848
696516,0,0,0,244,4148
696533,0,0,0,544,3848
696536,0,0,0,244,4148
696786,0,0,0,544,3848
696789,0,0,0,288,4104
696789,0,0,0,32,4360
697083,0,0,0,332,4060
697086,0,0,0,76,4316
698930,0,0,0,1100,3292
698933,0,0,0,844,3548
698933,0,0,0,588,3804
698933,0,0,0,332,4060
698933,0,0,0,76,4316
713774,0,0,0,376,4016
713777,0,0,0,120,4272
713821,0,0,0,420,3972
713824,0,0,0,164,4228
714609,0,0,0,464,3928
714612,0,0,0,208,4184
717728,0,0,0,508,3884
717731,0,0,0,252,4140
718274,0,0,0,552,3840
718277,0,0,0,296,4096
718277,0,0,0,40,4352
718418,0,0,0,296,4096
718421,0,0,0,40,4352
718434,0,0,0,296,4096
718741,0,0,0,552,3840
718744,0,0,0,40,4352
720581,0,0,0,296,4096
720593,0,0,0,552,3840
720597,0,0,0,808,3584
720626,0,0,0,1064,3328
720629,0,0,0,167,4225
723662,0,0,0,1191,3201
723665,0,0,0,935,3457
723665,0,0,0,679,3713
723665,0,0,0,295,4097
723665,0,0,0,167,4225
723665,0,0,0,39,4353
734535,0,0,0,167,4225
734565,0,0,0,295,4097
735405,0,0,0,551,3841
735474,0,0,0,807,3585
735477,0,0,0,5,4387
736234,0,0,0,261,4131
736237,0,0,0,5,4387
739415,0,0,0,261,4131
739418,0,0,0,5,4387
739941,0,0,0,261,4131
740018,0,0,0,517,3875
740021,0,0,0,133,4259
740101,0,0,0,389,4003
740104,0,0,0,5,4387
745307,0,0,0,261,4131
745310,0,0,0,5,4387
745315,0,0,0,261,4131
745318,0,0,0,5,4387
748934,0,0,0,517,3875
748937,0,0,0,261,4131
753037,0,0,0,1158,3234
753040,0,0,0,888,3504
753040,0,0,0,632,3760
753040,0,0,0,504,3888
753040,0,0,0,248,4144
753040,0,0,0,120,4272
754807,0,0,0,376,4016
754810,0,0,0,248,4144
754810,0,0,0,120,4272
756195,0,0,0,504,3888
756198,0,0,0,360,4032
756198,0,0,0,232,4160
756198,0,0,0,104,4288
758212,0,0,0,360,4032
758215,0,0,0,232,4160
758215,0,0,0,104,4288
763901,0,0,0,232,4160
763904,0,0,0,80,4312
763920,0,0,0,208,4184
763923,0,0,0,64,4328
764909,0,0,0,192,4200
765701,0,0,0,320,4072
766588,0,0,0,464,3928
766978,0,0,0,720,3672
766986,0,0,0,976,3416
767050,0,0,0,1104,3288
767057,0,0,0,1232,3160
768577,0,0,0,1360,3032
769139,0,0,0,1488,2904
770613,0,0,0,1744,2648
772528,0,0,0,2128,2264
772538,0,0,0,2512,1880
774301,0,0,0,2656,1736
774454,0,0,0,2808,1584
774688,0,0,0,3064,1328
774711,0,0,0,3320,1072
774714,0,0,0,248,4144
774753,0,0,0,518,3874
774756,0,0,0,262,4130
774756,0,0,0,21,4371
796438,0,0,0,277,4115
796441,0,0,0,149,4243
796441,0,0,0,21,4371
807295,0,0,0,149,4243
807340,0,0,0,277,4115
807724,0,0,0,3349,1043
807727,0,0,0,2837,1555
807727,0,0,0,2325,2067
807727,0,0,0,1813,2579
807727,0,0,0,1301,3091
807727,0,0,0,789,3603
807727,0,0,0,277,4115
816801,0,0,0,1079,3313
816804,0,0,0,55,4337
820485,0,0,0,567,3825
829353,0,0,0,1079,3313
829356,0,0,0,55,4337
834967,0,0,0,1079,3313
834970,0,0,0,55,4337
838446,0,0,0,567,3825
838449,0,0,0,183,4209
838452,0,0,0,695,3697
838488,0,0,0,1207,3185
838491,0,0,0,19,4373
838560,0,0,0,531,3861
838563,0,0,0,19,4373
845195,0,0,0,1043,3349
845198,0,0,0,19,4373
847432,0,0,0,1043,3349
847435,0,0,0,19,4373
865008,0,0,0,1043,3349
865011,0,0,0,531,3861
865011,0,0,0,275,4117
865011,0,0,0,19,4373
868726,0,0,0,531,3861
868729,0,0,0,403,3989
868729,0,0,0,275,4117
868729,0,0,0,117,4275
870876,0,0,0,501,3891
870879,0,0,0,343,4049
870879,0,0,0,183,4209
870879,0,0,0,55,4337
875044,0,0,0,567,3825
875047,0,0,0,439,3953
875047,0,0,0,311,4081
875047,0,0,0,183,4209
875047,0,0,0,55,4337
879562,0,0,0,183,4209
879565,0,0,0,55,4337
879616,0,0,0,183,4209
879619,0,0,0,55,4337
879621,0,0,0,213,4179
879624,0,0,0,85,4307
881280,0,0,0,1109,3283
881283,0,0,0,853,3539
881283,0,0,0,596,3796
881283,0,0,0,468,3924
881756,0,0,0,628,3764
881759,0,0,0,115,4277
881770,0,0,0,243,4149
881773,0,0,0,115,4277
881787,0,0,0,273,4119
881790,0,0,0,17,4375
881888,0,0,0,1205,3187
881891,0,0,0,964,3428
881891,0,0,0,708,3684
881891,0,0,0,452,3940
881891,0,0,0,196,4196
885216,0,0,0,452,3940
885219,0,0,0,196,4196
885920,0,0,0,324,4068
885923,0,0,0,68,4324
885927,0,0,0,196,4196
885930,0,0,0,68,4324
885941,0,0,0,196,4196
885941,0,0,0,324,4068
885947,0,0,0,196,4196
886618,0,0,0,452,3940
890415,0,0,0,580,3812
890445,0,0,0,708,3684
890450,0,0,0,836,3556
892116,0,0,0,1092,3300
892141,0,0,0,1220,3172
892704,0,0,0,1348,3044
894761,0,0,0,1861,2531
896150,0,0,0,2117,2275
896153,0,0,0,69,4323
896837,0,0,0,197,4195
896868,0,0,0,325,4067
901485,0,0,0,566,3826
902669,0,0,0,823,3569
902926,0,0,0,1079,3313
903520,0,0,0,1335,3057
903523,0,0,0,135,4257
903638,0,0,0,391,4001
903641,0,0,0,135,4257
903651,0,0,0,391,4001
903654,0,0,0,135,4257
907668,0,0,0,391,4001
907671,0,0,0,135,4257
907671,0,0,0,7,4385
918525,0,0,0,135,4257
925353,0,0,0,391,4001
925356,0,0,0,135,4257
925400,0,0,0,391,4001
925403,0,0,0,135,4257
929433,0,0,0,391,4001
929436,0,0,0,135,4257
929436,0,0,0,7,4385
940294,0,0,0,135,4257
946657,0,0,0,2183,2209
946660,0,0,0,1927,2465
946660,0,0,0,1671,2721
946660,0,0,0,1415,2977
946660,0,0,0,1159,3233
946660,0,0,0,903,3489
947005,0,0,0,1159,3233
947104,0,0,0,1415,2977
951120,0,0,0,1671,2721
952841,0,0,0,2871,1521
952844,0,0,0,823,3569
952844,0,0,0,567,3825
952844,0,0,0,311,4081
952844,0,0,0,167,4225
952844,0,0,0,23,4369
963247,0,0,0,167,4225
963288,0,0,0,423,3969
963312,0,0,0,567,3825
968281,0,0,0,823,3569
968289,0,0,0,1079,3313
968292,0,0,0,182,4210
968294,0,0,0,438,3954
968297,0,0,0,182,4210
968304,0,0,0,438,3954
968307,0,0,0,54,4338
968353,0,0,0,310,4082
968356,0,0,0,54,4338
968399,0,0,0,310,4082
968402,0,0,0,54,4338
983923,0,0,0,310,4082
983926,0,0,0,182,4210
983926,0,0,0,54,4338
989952,0,0,0,310,4082
989955,0,0,0,166,4226
989955,0,0,0,22,4370
990009,0,0,0,278,4114
994784,0,0,0,406,3986
994823,0,0,0,534,3858
1.00035e+06,0,0,0,678,3714
1.00049e+06,0,0,0,822,3570
1.00072e+06,0,0,0,1719,2673
1.00073e+06,0,0,0,695,3697
1.00081e+06,0,0,0,1079,3313
1.00081e+06,0,0,0,55,4337
1.01167e+06,0,0,0,1079,3313
1.01168e+06,0,0,0,199,4193
1.01368e+06,0,0,0,1223,3169
1.01368e+06,0,0,0,839,3553
1.01368e+06,0,0,0,455,3937
1.01368e+06,0,0,0,71,4321
1.02174e+06,0,0,0,951,3441
1.02174e+06,0,0,0,567,3825
1.02174e+06,0,0,0,183,4209
1.02174e+06,0,0,0,25,4367
1.03261e+06,0,0,0,183,4209
1.03791e+06,0,0,0,2231,2161
1.03791e+06,0,0,0,1847,2545
1.03791e+06,0,0,0,1463,2929
1.03791e+06,0,0,0,1079,3313
1.03791e+06,0,0,0,695,3697
1.03791e+06,0,0,0,311,4081
1.03791e+06,0,0,0,55,4337
1.04618e+06,0,0,0,439,3953
1.04618e+06,0,0,0,183,4209
1.0462e+06,0,0,0,567,3825
1.0462e+06,0,0,0,297,4095
1.0462e+06,0,0,0,27,4365
1.04621e+06,0,0,0,411,3981
1.04621e+06,0,0,0,155,4237
1.0542e+06,0,0,0,539,3853
1.0542e+06,0,0,0,283,4109
1.0542e+06,0,0,0,155,4237
1.0542e+06,0,0,0,27,4365
1.05426e+06,0,0,0,411,3981
1.05427e+06,0,0,0,283,4109
1.05427e+06,0,0,0,155,4237
1.05427e+06,0,0,0,27,4365
1.05953e+06,0,0,0,283,4109
1.06509e+06,0,0,0,411,3981
1.06514e+06,0,0,0,539,3853
1.06515e+06,0,0,0,667,3725
1.06515e+06,0,0,0,795,3597
1.06517e+06,0,0,0,923,3469
1.06783e+06,0,0,0,1179,3213
1.06784e+06,0,0,0,155,4237
1.06786e+06,0,0,0,411,3981
1.06792e+06,0,0,0,681,3711
1.06793e+06,0,0,0,951,3441
1.07042e+06,0,0,0,1335,3057
1.07042e+06,0,0,0,1719,2673
1.07042e+06,0,0,0,183,4209
1.07043e+06,0,0,0,567,3825
1.07044e+06,0,0,0,311,4081
1.07046e+06,0,0,0,695,3697
1.07046e+06,0,0,0,183,4209
1.07048e+06,0,0,0,567,3825
1.07048e+06,0,0,0,311,4081
1.07048e+06,0,0,0,55,4337
1.07585e+06,0,0,0,311,4081
1.07585e+06,0,0,0,55,4337
1.07873e+06,0,0,0,1079,3313
1.07873e+06,0,0,0,823,3569
1.07873e+06,0,0,0,567,3825
1.07873e+06,0,0,0,439,3953
1.07873e+06,0,0,0,311,4081
1.07873e+06,0,0,0,183,4209
1.07873e+06,0,0,0,55,4337
1.08957e+06,0,0,0,183,4209
1.08961e+06,0,0,0,311,4081
1.08962e+06,0,0,0,439,3953
1.08962e+06,0,0,0,567,3825
1.09192e+06,0,0,0,2103,2289
1.09192e+06,0,0,0,567,3825
1.09215e+06,0,0,0,823,3569
1.09215e+06,0,0,0,1079,3313
1.09216e+06,0,0,0,439,3953
1.09218e+06,0,0,0,951,3441
1.09218e+06,0,0,0,311,4081
1.09218e+06,0,0,0,70,4322
1.0922e+06,0,0,0,326,4066
1.0975e+06,0,0,0,582,3810
1.10037e+06,0,0,0,838,3554
1.10039e+06,0,0,0,1094,3298
1.10149e+06,0,0,0,1335,3057
1.10149e+06,0,0,0,135,4257
1.10279e+06,0,0,0,1671,2721
1.10279e+06,0,0,0,471,3921
1.10279e+06,0,0,0,215,4177
1.11186e+06,0,0,0,855,3537
1.11186e+06,0,0,0,599,3793
1.11186e+06,0,0,0,471,3921
1.11186e+06,0,0,0,343,4049
1.11186e+06,0,0,0,215,4177
1.11186e+06,0,0,0,87,4305
1.12269e+06,0,0,0,215,4177
1.12269e+06,0,0,0,87,4305
1.1227e+06,0,0,0,215,4177
1.1227e+06,0,0,0,87,4305
1.12276e+06,0,0,0,215,4177
1.12277e+06,0,0,0,87,4305
1.12279e+06,0,0,0,215,4177
1.1245e+06,0,0,0,471,3921
1.13354e+06,0,0,0,727,3665
1.13358e+06,0,0,0,855,3537
1.13358e+06,0,0,0,983,3409
1.13369e+06,0,0,0,1111,3281
1.13427e+06,0,0,0,1751,2641
1.13427e+06,0,0,0,551,3841
1.13427e+06,0,0,0,295,4097
1.13427e+06,0,0,0,39,4353
1.14789e+06,0,0,0,1239,3153
1.1479e+06,0,0,0,983,3409
1.1479e+06,0,0,0,727,3665
1.1479e+06,0,0,0,471,3921
1.1479e+06,0,0,0,215,4177
1.15073e+06,0,0,0,1415,2977
1.15073e+06,0,0,0,1159,3233
1.1559e+06,0,0,0,1415,2977
1.15591e+06,0,0,0,227,4165
1.15597e+06,0,0,0,483,3909
1.15597e+06,0,0,0,227,4165
1.15597e+06,0,0,0,69,4323
1.16689e+06,0,0,0,227,4165
1.16956e+06,0,0,0,483,3909
1.16956e+06,0,0,0,227,4165
1.16958e+06,0,0,0,483,3909
1.16958e+06,0,0,0,227,4165
1.16962e+06,0,0,0,483,3909
1.16963e+06,0,0,0,227,4165
1.16964e+06,0,0,0,483,3909
1.16964e+06,0,0,0,227,4165
1.16964e+06,0,0,0,83,4309
1.17239e+06,0,0,0,339,4053
1.17764e+06,0,0,0,595,3797
1.17937e+06,0,0,0,1795,2597
1.17938e+06,0,0,0,771,3621
1.18053e+06,0,0,0,915,3477
1.19119e+06,0,0,0,1171,3221
1.19125e+06,0,0,0,1427,2965
1.19129e+06,0,0,0,1683,2709
1.19129e+06,0,0,0,147,4245
1.19138e+06,0,0,0,403,3989
1.19138e+06,0,0,0,147,4245
1.19138e+06,0,0,0,19,4373
1.20226e+06,0,0,0,147,4245
1.2026e+06,0,0,0,1335,3057
1.2026e+06,0,0,0,1079,3313
1.2026e+06,0,0,0,823,3569
1.2026e+06,0,0,0,567,3825
1.2026e+06,0,0,0,311,4081
1.2026e+06,0,0,0,55,4337
1.21069e+06,0,0,0,1079,3313
1.21069e+06,0,0,0,823,3569
1.21069e+06,0,0,0,695,3697
1.21069e+06,0,0,0,567,3825
1.21069e+06,0,0,0,439,3953
1.21069e+06,0,0,0,183,4209
1.21314e+06,0,0,0,439,3953
1.21314e+06,0,0,0,183,4209
1.22155e+06,0,0,0,311,4081
1.22155e+06,0,0,0,439,3953
1.22155e+06,0,0,0,198,4194
1.22155e+06,0,0,0,70,4322
1.22158e+06,0,0,0,198,4194
1.22425e+06,0,0,0,454,3938
1.22425e+06,0,0,0,198,4194
1.22432e+06,0,0,0,454,3938
1.22433e+06,0,0,0,710,3682
1.22433e+06,0,0,0,966,3426
1.22434e+06,0,0,0,150,4242
1.22436e+06,0,0,0,406,3986
1.22483e+06,0,0,0,662,3730
1.23232e+06,0,0,0,918,3474
1.23232e+06,0,0,0,102,4290
1.23234e+06,0,0,0,358,4034
1.23245e+06,0,0,0,486,3906
1.23788e+06,0,0,0,2022,2370
1.23788e+06,0,0,0,1206,3186
1.23788e+06,0,0,0,1078,3314
1.23788e+06,0,0,0,262,4130
1.23788e+06,0,0,0,6,4386
1.24593e+06,0,0,0,262,4130
1.24593e+06,0,0,0,118,4274
1.24877e+06,0,0,0,246,4146
1.24878e+06,0,0,0,118,4274
1.25684e+06,0,0,0,262,4130
1.25685e+06,0,0,0,6,4386
1.25885e+06,0,0,0,134,4258
1.25885e+06,0,0,0,6,4386
1.25958e+06,0,0,0,262,4130
1.25959e+06,0,0,0,6,4386
1.26745e+06,0,0,0,262,4130
1.2698e+06,0,0,0,390,4002
1.2739e+06,0,0,0,134,4258
1.2763e+06,0,0,0,6,4386
1.28126e+06,0,0,0,262,4130
1.28126e+06,0,0,0,102,4290
1.28728e+06,0,0,0,230,4162
1.28728e+06,0,0,0,72,4320
1.2921e+06,0,0,0,232,4160
1.2921e+06,0,0,0,104,4288
1.29545e+06,0,0,0,360,4032
1.29813e+06,0,0,0,518,3874
1.2997e+06,0,0,0,390,4002
1.2999e+06,0,0,0,232,4160
1.30296e+06,0,0,0,360,4032
1.31058e+06,0,0,0,488,3904
1.31082e+06,0,0,0,646,3746
1.31085e+06,0,0,0,1462,2930
1.31086e+06,0,0,0,646,3746
1.312e+06,0,0,0,518,3874
1.31201e+06,0,0,0,390,4002
1.31887e+06,0,0,0,1206,3186
1.3228e+06,0,0,0,1334,3058
1.3229e+06,0,0,0,1462,2930
1.32437e+06,0,0,0,2278,2114
1.32437e+06,0,0,0,230,4162
1.32437e+06,0,0,0,102,4290
1.32444e+06,0,0,0,918,3474
1.32444e+06,0,0,0,662,3730
1.32444e+06,0,0,0,406,3986
1.32444e+06,0,0,0,150,4242
1.32444e+06,0,0,0,22,4370
1.32625e+06,0,0,0,263,4129
1.32626e+06,0,0,0,7,4385
1.33497e+06,0,0,0,135,4257
1.33497e+06,0,0,0,7,4385
1.33538e+06,0,0,0,135,4257
1.3401e+06,0,0,0,391,4001
1.34591e+06,0,0,0,519,3873
1.34598e+06,0,0,0,775,3617
1.34599e+06,0,0,0,1031,3361
1.34791e+06,0,0,0,1287,3105
1.34939e+06,0,0,0,3335,1057
1.3494e+06,0,0,0,1287,3105
1.3494e+06,0,0,0,263,4129
1.36474e+06,0,0,0,2311,2081
1.36475e+06,0,0,0,1287,3105
1.36475e+06,0,0,0,263,4129
1.36475e+06,0,0,0,103,4289
1.37559e+06,0,0,0,263,4129
1.37668e+06,0,0,0,1287,3105
1.37669e+06,0,0,0,263,4129
1.37669e+06,0,0,0,103,4289
1.38754e+06,0,0,0,263,4129
1.38873e+06,0,0,0,1287,3105
1.38873e+06,0,0,0,689,3703
1.39411e+06,0,0,0,1713,2679
1.39412e+06,0,0,0,177,4215
1.39734e+06,0,0,0,993,3399
1.39734e+06,0,0,0,481,3911
1.39784e+06,0,0,0,1505,2887
1.4066e+06,0,0,0,3041,1351
1.4066e+06,0,0,0,1505,2887
1.4066e+06,0,0,0,1249,3143
1.4066e+06,0,0,0,993,3399
1.4066e+06,0,0,0,737,3655
1.4066e+06,0,0,0,577,3815
1.4066e+06,0,0,0,449,3943
1.4066e+06,0,0,0,321,4071
1.4066e+06,0,0,0,65,4327
1.41742e+06,0,0,0,225,4167
1.41745e+06,0,0,0,353,4039
1.41745e+06,0,0,0,97,4295
1.41754e+06,0,0,0,225,4167
1.418e+06,0,0,0,1761,2631
1.418e+06,0,0,0,1505,2887
1.418e+06,0,0,0,1249,3143
1.418e+06,0,0,0,945,3447
1.42135e+06,0,0,0,1543,2849
1.42135e+06,0,0,0,465,3927
1.42811e+06,0,0,0,977,3415
1.42819e+06,0,0,0,1233,3159
1.42819e+06,0,0,0,22,4370
1.42823e+06,0,0,0,278,4114
1.42823e+06,0,0,0,150,4242
1.42823e+06,0,0,0,22,4370
1.4283e+06,0,0,0,278,4114
1.42832e+06,0,0,0,534,3858
1.43143e+06,0,0,0,1612,2780
1.43903e+06,0,0,0,1868,2524
1.43914e+06,0,0,0,1996,2396
1.43918e+06,0,0,0,2124,2268
1.43964e+06,0,0,0,2380,2012
1.43966e+06,0,0,0,2636,1756
1.43975e+06,0,0,0,2940,1452
1.44036e+06,0,0,0,2812,1580
1.44038e+06,0,0,0,2684,1708
1.44042e+06,0,0,0,2556,1836
1.44331e+06,0,0,0,2428,1964
1.45058e+06,0,0,0,2556,1836
1.45127e+06,0,0,0,2684,1708
1.45132e+06,0,0,0,2812,1580
1.45204e+06,0,0,0,2654,1738
1.45365e+06,0,0,0,2782,1610
1.45864e+06,0,0,0,3993,399
1.46e+06,0,0,0,3865,527
1.46291e+06,0,0,0,4023,369
1.46315e+06,0,0,0,3895,497
1.46317e+06,0,0,0,3639,753
1.46319e+06,0,0,0,3127,1265
1.4632e+06,0,0,0,2487,1905
1.46373e+06,0,0,0,2359,2033
1.46412e+06,0,0,0,2118,2274
1.46455e+06,0,0,0,1877,2515
1.47087e+06,0,0,0,2005,2387
1.47369e+06,0,0,0,2246,2146
1.47399e+06,0,0,0,2374,2018
1.47403e+06,0,0,0,2630,1762
1.47407e+06,0,0,0,3142,1250
1.47409e+06,0,0,0,3782,610
1.47461e+06,0,0,0,3910,482
1.48912e+06,0,0,0,2374,2018
1.4946e+06,0,0,0,2118,2274
1.49479e+06,0,0,0,1862,2530
1.49519e+06,0,0,0,1702,2690
1.506e+06,0,0,0,1862,2530
1.51628e+06,0,0,0,2118,2274
1.51659e+06,0,0,0,2374,2018
1.51739e+06,0,0,0,2246,2146
1.51983e+06,0,0,0,3782,610
1.52825e+06,0,0,0,3910,482
1.54705e+06,0,0,0,3782,610
1.55798e+06,0,0,0,3910,482
1.5687e+06,0,0,0,3094,1298
1.56871e+06,0,0,0,2278,2114
1.56872e+06,0,0,0,1462,2930
1.56896e+06,0,0,0,646,3746
1.57591e+06,0,0,0,262,4130
1.58776e+06,0,0,0,134,4258
1.5986e+06,0,0,0,262,4130
1.6084e+06,0,0,0,646,3746
1.60841e+06,0,0,0,262,4130
1.62936e+06,0,0,0,134,4258
1.64021e+06,0,0,0,262,4130
1.64092e+06,0,0,0,646,3746
1.65521e+06,0,0,0,1462,2930
1.65522e+06,0,0,0,646,3746
1.65522e+06,0,0,0,262,4130
1.65522e+06,0,0,0,6,4386
1.65523e+06,0,0,0,822,3570
1.65525e+06,0,0,0,1638,2754
1.65552e+06,0,0,0,2454,1938
1.66059e+06,0,0,0,2326,2066
1.66249e+06,0,0,0,2070,2322
1.66249e+06,0,0,0,1814,2578
1.6625e+06,0,0,0,1558,2834
1.6625e+06,0,0,0,1302,3090
1.66298e+06,0,0,0,1046,3346
1.66411e+06,0,0,0,790,3602
1.66411e+06,0,0,0,534,3858
1.66411e+06,0,0,0,278,4114
1.66413e+06,0,0,0,22,4370
1.67144e+06,0,0,0,150,4242
1.67696e+06,0,0,0,406,3986
1.67697e+06,0,0,0,150,4242
1.68102e+06,0,0,0,391,4001
1.68102e+06,0,0,0,135,4257
1.68412e+06,0,0,0,391,4001
1.68413e+06,0,0,0,135,4257
1.68414e+06,0,0,0,391,4001
1.68414e+06,0,0,0,135,4257
1.68421e+06,0,0,0,391,4001
1.68422e+06,0,0,0,135,4257
1.68423e+06,0,0,0,391,4001
1.68423e+06,0,0,0,135,4257
1.68468e+06,0,0,0,391,4001
1.68468e+06,0,0,0,135,4257
1.68577e+06,0,0,0,391,4001
1.68579e+06,0,0,0,647,3745
1.68582e+06,0,0,0,903,3489
1.68583e+06,0,0,0,1159,3233
1.68583e+06,0,0,0,169,4223
1.68583e+06,0,0,0,11,4381
1.68777e+06,0,0,0,395,3997
1.68865e+06,0,0,0,636,3756
1.69673e+06,0,0,0,794,3598
1.69864e+06,0,0,0,1050,3342
1.70269e+06,0,0,0,1306,3086
1.70269e+06,0,0,0,106,4286
1.70578e+06,0,0,0,362,4030
1.70582e+06,0,0,0,618,3774
1.70586e+06,0,0,0,874,3518
1.70588e+06,0,0,0,1130,3262
1.70633e+06,0,0,0,1386,3006
1.70634e+06,0,0,0,186,4206
1.71952e+06,0,0,0,58,4334
1.73047e+06,0,0,0,186,4206
1.73047e+06,0,0,0,28,4364
1.7414e+06,0,0,0,186,4206
1.74173e+06,0,0,0,1002,3390
1.75149e+06,0,0,0,2202,2190
1.7515e+06,0,0,0,1178,3214
1.752e+06,0,0,0,2378,2014
1.752e+06,0,0,0,842,3550
1.76048e+06,0,0,0,1832,2560
1.76048e+06,0,0,0,808,3584
1.76054e+06,0,0,0,296,4096
1.77136e+06,0,0,0,1320,3072
1.77139e+06,0,0,0,1832,2560
1.77378e+06,0,0,0,3368,1024
1.77379e+06,0,0,0,1320,3072
1.78079e+06,0,0,0,2344,2048
1.78079e+06,0,0,0,296,4096
1.7907e+06,0,0,0,2344,2048
1.7907e+06,0,0,0,1320,3072
1.7907e+06,0,0,0,808,3584
1.7907e+06,0,0,0,680,3712
1.7907e+06,0,0,0,410,3982
1.7907e+06,0,0,0,140,4252
1.79955e+06,0,0,0,2188,2204
1.79955e+06,0,0,0,1932,2460
1.79955e+06,0,0,0,1676,2716
1.79955e+06,0,0,0,1420,2972
1.79955e+06,0,0,0,1164,3228
1.79955e+06,0,0,0,908,3484
1.79955e+06,0,0,0,748,3644
1.79955e+06,0,0,0,588,3804
1.79955e+06,0,0,0,460,3932
1.80158e+06,0,0,0,972,3420
1.80159e+06,0,0,0,460,3932
1.80162e+06,0,0,0,588,3804
1.80166e+06,0,0,0,1612,2780
1.80546e+06,0,0,0,1484,2908
1.80677e+06,0,0,0,1356,3036
1.80998e+06,0,0,0,1484,2908
1.81041e+06,0,0,0,1644,2748
1.81045e+06,0,0,0,1804,2588
1.81238e+06,0,0,0,2074,2318
1.81241e+06,0,0,0,2344,2048
1.81634e+06,0,0,0,2472,1920
1.81723e+06,0,0,0,2984,1408
1.81777e+06,0,0,0,3112,1280
1.82109e+06,0,0,0,3368,1024
1.82111e+06,0,0,0,3624,768
1.82112e+06,0,0,0,3880,512
1.82112e+06,0,0,0,4136,256
1.82112e+06,0,0,0,40,4352
1.82114e+06,0,0,0,296,4096
1.82114e+06,0,0,0,40,4352
1.84275e+06,0,0,0,296,4096
1.84275e+06,0,0,0,40,4352
1.86447e+06,0,0,0,296,4096
1.86447e+06,0,0,0,168,4224
1.86447e+06,0,0,0,40,4352
1.87541e+06,0,0,0,168,4224
1.87541e+06,0,0,0,296,4096
1.87542e+06,0,0,0,168,4224
1.87542e+06,0,0,0,40,4352
1.8863e+06,0,0,0,168,4224
1.8863e+06,0,0,0,10,4382
1.88633e+06,0,0,0,138,4254
1.89717e+06,0,0,0,296,4096
1.90796e+06,0,0,0,4392,0
1.90796e+06,0,0,0,296,4096
1.90796e+06,0,0,0,40,4352
1.92971e+06,0,0,0,296,4096
1.92972e+06,0,0,0,40,4352
1.95129e+06,0,0,0,296,4096
1.95129e+06,0,0,0,168,4224
1.96133e+06,0,0,0,296,4096
1.96161e+06,0,0,0,4392,0
1.96162e+06,0,0,0,296,4096
1.96162e+06,0,0,0,40,4352
1.98321e+06,0,0,0,296,4096
1.98321e+06,0,0,0,40,4352
2.00474e+06,0,0,0,296,4096
2.00475e+06,0,0,0,40,4352
2.01568e+06,0,0,0,296,4096
2.01568e+06,0,0,0,136,4256
2.01568e+06,0,0,0,8,4384
2.02655e+06,0,0,0,136,4256
2.02655e+06,0,0,0,8,4384
2.0266e+06,0,0,0,168,4224
2.0266e+06,0,0,0,24,4368
2.03725e+06,0,0,0,152,4240
2.03725e+06,0,0,0,8,4384
2.03746e+06,0,0,0,152,4240
2.03746e+06,0,0,0,24,4368
2.04809e+06,0,0,0,168,4224
2.0481e+06,0,0,0,296,4096
2.04819e+06,0,0,0,4392,0
2.04819e+06,0,0,0,2856,1536
2.04819e+06,0,0,0,2344,2048
2.04819e+06,0,0,0,1832,2560
2.04819e+06,0,0,0,1320,3072
2.04819e+06,0,0,0,1176,3216
2.04819e+06,0,0,0,1048,3344
2.04819e+06,0,0,0,920,3472
2.04819e+06,0,0,0,760,3632
2.04819e+06,0,0,0,632,3760
2.04819e+06,0,0,0,504,3888
2.04819e+06,0,0,0,376,4016
2.04819e+06,0,0,0,248,4144
2.04819e+06,0,0,0,120,4272
2.059e+06,0,0,0,248,4144
2.05901e+06,0,0,0,120,4272
2.05902e+06,0,0,0,248,4144
2.05903e+06,0,0,0,88,4304
2.05903e+06,0,0,0,600,3792
2.05904e+06,0,0,0,472,3920
2.05904e+06,0,0,0,344,4048
2.05904e+06,0,0,0,184,4208
2.05904e+06,0,0,0,56,4336
2.05904e+06,0,0,0,216,4176
2.05904e+06,0,0,0,88,4304
2.05904e+06,0,0,0,232,4160
2.05904e+06,0,0,0,74,4318
2.05905e+06,0,0,0,202,4190
2.05905e+06,0,0,0,330,4062
2.05906e+06,0,0,0,202,4190
2.05906e+06,0,0,0,74,4318
2.05907e+06,0,0,0,202,4190
2.05907e+06,0,0,0,330,4062
2.05908e+06,0,0,0,130,4262
2.05908e+06,0,0,0,2,4390
2.05912e+06,0,0,0,130,4262
2.05912e+06,0,0,0,2,4390
2.05912e+06,0,0,0,514,3878
2.05913e+06,0,0,0,347,4045
2.05913e+06,0,0,0,131,4261
2.05913e+06,0,0,0,3,4389
2.06964e+06,0,0,0,131,4261
2.06971e+06,0,0,0,259,4133
2.06985e+06,0,0,0,771,3621
2.06988e+06,0,0,0,931,3461
2.06989e+06,0,0,0,1059,3333
2.0699e+06,0,0,0,1187,3205
2.0699e+06,0,0,0,1315,3077
2.06992e+06,0,0,0,1473,2919
2.06992e+06,0,0,0,1633,2759
2.06993e+06,0,0,0,1833,2559
2.06994e+06,0,0,0,1961,2431
2.06995e+06,0,0,0,2089,2303
2.06996e+06,0,0,0,2217,2175
2.06997e+06,0,0,0,2384,2008
2.06997e+06,0,0,0,2512,1880
2.06998e+06,0,0,0,2728,1664
2.06999e+06,0,0,0,2856,1536
2.07005e+06,0,0,0,4392,0
2.07006e+06,0,0,0,1320,3072
2.07006e+06,0,0,0,1079,3313
2.07006e+06,0,0,0,567,3825
2.07006e+06,0,0,0,55,4337
2.09466e+06,0,0,0,3127,1265
2.09466e+06,0,0,0,2615,1777
2.09466e+06,0,0,0,1574,2818
2.09466e+06,0,0,0,966,3426
2.10258e+06,0,0,0,1478,2914
2.10262e+06,0,0,0,1990,2402
2.10262e+06,0,0,0,454,3938
2.10262e+06,0,0,0,310,4082
2.10262e+06,0,0,0,146,4246
2.10262e+06,0,0,0,18,4374
2.11319e+06,0,0,0,162,4230
2.11347e+06,0,0,0,290,4102
2.1135e+06,0,0,0,454,3938
2.11632e+06,0,0,0,1062,3330
2.11632e+06,0,0,0,462,3930
2.11632e+06,0,0,0,206,4186
2.11632e+06,0,0,0,78,4314
2.12031e+06,0,0,0,1119,3273
2.12031e+06,0,0,0,991,3401
2.12031e+06,0,0,0,863,3529
2.12031e+06,0,0,0,735,3657
2.12031e+06,0,0,0,607,3785
2.12031e+06,0,0,0,479,3913
2.12031e+06,0,0,0,327,4065
2.12428e+06,0,0,0,1863,2529
2.12428e+06,0,0,0,1061,3331
2.12428e+06,0,0,0,903,3489
2.12428e+06,0,0,0,775,3617
2.12428e+06,0,0,0,343,4049
2.12428e+06,0,0,0,215,4177
2.12662e+06,0,0,0,87,4305
2.12721e+06,0,0,0,215,4177
2.12723e+06,0,0,0,727,3665
2.12733e+06,0,0,0,599,3793
2.12749e+06,0,0,0,471,3921
2.12897e+06,0,0,0,1071,3321
2.13038e+06,0,0,0,1199,3193
2.13072e+06,0,0,0,1327,3065
2.13076e+06,0,0,0,1583,2809
2.1308e+06,0,0,0,1711,2681
2.13115e+06,0,0,0,1839,2553
2.13118e+06,0,0,0,1967,2425
2.1312e+06,0,0,0,2119,2273
2.13444e+06,0,0,0,1991,2401
2.13514e+06,0,0,0,2119,2273
2.13519e+06,0,0,0,2277,2115
2.13521e+06,0,0,0,2405,1987
2.13524e+06,0,0,0,2837,1555
2.13756e+06,0,0,0,2965,1427
2.13763e+06,0,0,0,3093,1299
2.13845e+06,0,0,0,3221,1171
2.1453e+06,0,0,0,3349,1043
2.1455e+06,0,0,0,3221,1171
2.14697e+06,0,0,0,2021,2371
2.14699e+06,0,0,0,821,3571
2.15605e+06,0,0,0,693,3699
2.15635e+06,0,0,0,821,3571
2.16688e+06,0,0,0,949,3443
2.17765e+06,0,0,0,821,3571
2.1827e+06,0,0,0,437,3955
2.18544e+06,0,0,0,309,4083
2.18849e+06,0,0,0,437,3955
2.18924e+06,0,0,0,1239,3153
2.192e+06,0,0,0,2439,1953
2.19612e+06,0,0,0,2311,2081
2.19627e+06,0,0,0,2439,1953
2.19632e+06,0,0,0,3639,753
2.19633e+06,0,0,0,3511,881
2.19865e+06,0,0,0,3367,1025
2.20698e+06,0,0,0,3495,897
2.20727e+06,0,0,0,3623,769
2.20924e+06,0,0,0,3767,625
2.21515e+06,0,0,0,4151,241
2.21793e+06,0,0,0,4023,369
2.22486e+06,0,0,0,3895,497
2.22878e+06,0,0,0,4023,369
2.22953e+06,0,0,0,3895,497
2.23575e+06,0,0,0,4023,369
2.23954e+06,0,0,0,3895,497
2.24041e+06,0,0,0,4023,369
2.25043e+06,0,0,0,4151,241
2.25155e+06,0,0,0,4023,369
2.25457e+06,0,0,0,3895,497
2.25538e+06,0,0,0,3767,625
2.25621e+06,0,0,0,3639,753
2.26242e+06,0,0,0,3767,625
2.26541e+06,0,0,0,3895,497
2.26622e+06,0,0,0,4023,369
2.2671e+06,0,0,0,4151,241
2.2727e+06,0,0,0,2963,1429
2.28207e+06,0,0,0,3204,1188
2.3042e+06,0,0,0,1988,2404
2.30882e+06,0,0,0,1860,2532
2.30884e+06,0,0,0,1732,2660
2.30884e+06,0,0,0,1604,2788
2.31058e+06,0,0,0,2792,1600
2.31259e+06,0,0,0,2664,1728
2.31307e+06,0,0,0,2464,1928
2.3172e+06,0,0,0,1952,2440
2.31944e+06,0,0,0,2080,2312
2.31945e+06,0,0,0,2208,2184
2.31952e+06,0,0,0,2336,2056
2.32104e+06,0,0,0,2184,2208
2.32342e+06,0,0,0,2312,2080
2.32391e+06,0,0,0,2512,1880
2.32399e+06,0,0,0,2384,2008
2.32436e+06,0,0,0,3600,792
2.32439e+06,0,0,0,3400,992
2.32641e+06,0,0,0,2376,2016
2.32662e+06,0,0,0,1352,3040
2.32988e+06,0,0,0,1224,3168
2.33188e+06,0,0,0,1376,3016
2.33207e+06,0,0,0,1248,3144
2.33488e+06,0,0,0,1376,3016
2.33524e+06,0,0,0,1576,2816
2.33595e+06,0,0,0,1064,3328
2.33596e+06,0,0,0,552,3840
2.33679e+06,0,0,0,120,4272
2.34083e+06,0,0,0,248,4144
2.34083e+06,0,0,0,104,4288
2.34297e+06,0,0,0,232,4160
2.3468e+06,0,0,0,744,3648
2.34681e+06,0,0,0,144,4248
2.34681e+06,0,0,0,0,4392
2.34765e+06,0,0,0,432,3960
2.34769e+06,0,0,0,944,3448
2.3477e+06,0,0,0,432,3960
2.35131e+06,0,0,0,576,3816
2.35177e+06,0,0,0,1600,2792
2.35178e+06,0,0,0,798,3594
2.35178e+06,0,0,0,286,4106
2.35178e+06,0,0,0,86,4306
2.35331e+06,0,0,0,1110,3282
2.35331e+06,0,0,0,910,3482
2.35331e+06,0,0,0,710,3682
2.35331e+06,0,0,0,198,4194
2.35354e+06,0,0,0,710,3682
2.35354e+06,0,0,0,198,4194
2.35354e+06,0,0,0,40,4352
2.35723e+06,0,0,0,184,4208
2.35723e+06,0,0,0,56,4336
2.35854e+06,0,0,0,568,3824
2.35947e+06,0,0,0,1168,3224
2.35947e+06,0,0,0,90,4302
2.36261e+06,0,0,0,290,4102
2.36261e+06,0,0,0,162,4230
2.36419e+06,0,0,0,362,4030
2.36421e+06,0,0,0,874,3518
2.36426e+06,0,0,0,1074,3318
2.36443e+06,0,0,0,1232,3160
2.36813e+06,0,0,0,1360,3032
2.37126e+06,0,0,0,1872,2520
2.3735e+06,0,0,0,2000,2392
2.38611e+06,0,0,0,2512,1880
2.38781e+06,0,0,0,3314,1078
2.3931e+06,0,0,0,3186,1206
2.39724e+06,0,0,0,3058,1334
2.39822e+06,0,0,0,2930,1462
2.3984e+06,0,0,0,2802,1590
2.39875e+06,0,0,0,2674,1718
2.39894e+06,0,0,0,2546,1846
2.40087e+06,0,0,0,2418,1974
2.40271e+06,0,0,0,3496,896
2.40353e+06,0,0,0,3624,768
2.40561e+06,0,0,0,3472,920
2.40819e+06,0,0,0,3600,792
2.40831e+06,0,0,0,3472,920
2.40911e+06,0,0,0,3600,792
2.40924e+06,0,0,0,3728,664
2.40958e+06,0,0,0,3856,536
2.40963e+06,0,0,0,3656,736
2.40986e+06,0,0,0,3784,608
2.41172e+06,0,0,0,3912,480
2.41651e+06,0,0,0,4064,328
2.41652e+06,0,0,0,3464,928
2.41849e+06,0,0,0,1416,2976
2.41921e+06,0,0,0,1544,2848
2.4204e+06,0,0,0,1400,2992
2.42051e+06,0,0,0,1600,2792
2.42085e+06,0,0,0,1456,2936
2.42284e+06,0,0,0,1298,3094
2.42393e+06,0,0,0,1170,3222
2.42508e+06,0,0,0,786,3606
2.42917e+06,0,0,0,1386,3006
2.43083e+06,0,0,0,1530,2862
2.4314e+06,0,0,0,1674,2718
2.43367e+06,0,0,0,1832,2560
2.43852e+06,0,0,0,1448,2944
2.4417e+06,0,0,0,1576,2816
2.45633e+06,0,0,0,1448,2944
2.45762e+06,0,0,0,1832,2560
2.46718e+06,0,0,0,1960,2432
2.471e+06,0,0,0,2344,2048
2.47103e+06,0,0,0,2216,2176
2.47186e+06,0,0,0,2088,2304
2.47191e+06,0,0,0,1960,2432
2.47557e+06,0,0,0,1832,2560
2.47812e+06,0,0,0,1704,2688
2.48086e+06,0,0,0,1576,2816
2.48096e+06,0,0,0,1192,3200
2.48097e+06,0,0,0,808,3584
2.48114e+06,0,0,0,680,3712
2.4813e+06,0,0,0,552,3840
2.48184e+06,0,0,0,168,4224
2.48201e+06,0,0,0,296,4096
2.48276e+06,0,0,0,424,3968
2.48427e+06,0,0,0,552,3840
2.48442e+06,0,0,0,424,3968
2.48531e+06,0,0,0,296,4096
2.48647e+06,0,0,0,424,3968
2.49177e+06,0,0,0,552,3840
2.49204e+06,0,0,0,680,3712
2.49205e+06,0,0,0,80,4312
2.49217e+06,0,0,0,208,4184
2.49488e+06,0,0,0,336,4056
2.49628e+06,0,0,0,464,3928
2.49628e+06,0,0,0,32,4360
2.49992e+06,0,0,0,160,4232
2.49992e+06,0,0,0,32,4360
2.50468e+06,0,0,0,632,3760
2.50469e+06,0,0,0,504,3888
2.50469e+06,0,0,0,346,4046
2.50469e+06,0,0,0,338,4054
2.50469e+06,0,0,0,210,4182
2.50469e+06,0,0,0,208,4184
2.50469e+06,0,0,0,207,4185
2.50469e+06,0,0,0,206,4186
2.50469e+06,0,0,0,205,4187
2.50521e+06,0,0,0,2253,2139
2.50698e+06,0,0,0,1229,3163
2.50711e+06,0,0,0,1661,2731
2.51075e+06,0,0,0,1789,2603
2.51338e+06,0,0,0,2173,2219
2.5134e+06,0,0,0,2557,1835
2.51433e+06,0,0,0,2941,1451
2.51554e+06,0,0,0,3069,1323
2.51565e+06,0,0,0,3227,1165
2.51861e+06,0,0,0,3228,1164
2.51895e+06,0,0,0,3356,1036
2.51955e+06,0,0,0,3357,1035
2.51971e+06,0,0,0,3358,1034
2.52011e+06,0,0,0,3360,1032
2.5212e+06,0,0,0,3368,1024
2.57139e+06,0,0,0,3240,1152
2.57148e+06,0,0,0,2438,1954
2.57317e+06,0,0,0,2310,2082
2.57672e+06,0,0,0,2166,2226
2.57827e+06,0,0,0,2014,2378
2.58014e+06,0,0,0,1758,2634
2.58086e+06,0,0,0,1158,3234
2.58232e+06,0,0,0,1286,3106
2.58281e+06,0,0,0,1158,3234
2.58408e+06,0,0,0,1286,3106
2.58713e+06,0,0,0,1430,2962
2.5892e+06,0,0,0,1582,2810
2.59355e+06,0,0,0,2182,2210
2.59355e+06,0,0,0,134,4258
2.59368e+06,0,0,0,262,4130
2.59368e+06,0,0,0,6,4386
2.59386e+06,0,0,0,1030,3362
2.59386e+06,0,0,0,774,3618
2.59386e+06,0,0,0,630,3762
2.5961e+06,0,0,0,502,3890
2.59673e+06,0,0,0,374,4018
2.59698e+06,0,0,0,246,4146
2.60183e+06,0,0,0,502,3890
2.6043e+06,0,0,0,646,3746
2.60476e+06,0,0,0,488,3904
2.60696e+06,0,0,0,616,3776
2.60757e+06,0,0,0,744,3648
2.60787e+06,0,0,0,872,3520
2.61471e+06,0,0,0,616,3776
2.61534e+06,0,0,0,872,3520
2.61553e+06,0,0,0,1128,3264
2.61563e+06,0,0,0,1286,3106
2.61656e+06,0,0,0,1158,3234
2.61879e+06,0,0,0,134,4258
2.61912e+06,0,0,0,6,4386
2.6274e+06,0,0,0,134,4258
2.628e+06,0,0,0,6,4386
2.62911e+06,0,0,0,262,4130
2.62942e+06,0,0,0,390,4002
2.63285e+06,0,0,0,262,4130
2.63884e+06,0,0,0,390,4002
2.64045e+06,0,0,0,1414,2978
2.64374e+06,0,0,0,1542,2850
2.64606e+06,0,0,0,3590,802
2.64606e+06,0,0,0,1542,2850
2.64606e+06,0,0,0,1222,3170
2.64606e+06,0,0,0,22,4370
2.65802e+06,0,0,0,824,3568
2.65802e+06,0,0,0,696,3696
2.65802e+06,0,0,0,568,3824
2.66052e+06,0,0,0,440,3952
2.66362e+06,0,0,0,312,4080
2.66363e+06,0,0,0,184,4208
2.66363e+06,0,0,0,56,4336
2.66775e+06,0,0,0,376,4016
2.66889e+06,0,0,0,504,3888
2.66895e+06,0,0,0,632,3760
2.67141e+06,0,0,0,760,3632
2.67449e+06,0,0,0,888,3504
2.67451e+06,0,0,0,1016,3376
2.67453e+06,0,0,0,1144,3248
2.67699e+06,0,0,0,3192,1200
2.67699e+06,0,0,0,1144,3248
2.67699e+06,0,0,0,544,3848
2.67699e+06,0,0,0,416,3976
2.67699e+06,0,0,0,288,4104
2.67699e+06,0,0,0,160,4232
2.67699e+06,0,0,0,32,4360
2.68787e+06,0,0,0,160,4232
2.68788e+06,0,0,0,32,4360
2.68788e+06,0,0,0,160,4232
2.68788e+06,0,0,0,32,4360
2.68789e+06,0,0,0,160,4232
2.68789e+06,0,0,0,32,4360
2.68791e+06,0,0,0,160,4232
2.68791e+06,0,0,0,32,4360
2.68965e+06,0,0,0,632,3760
2.69875e+06,0,0,0,760,3632
2.69876e+06,0,0,0,888,3504
2.6988e+06,0,0,0,1016,3376
2.69884e+06,0,0,0,1144,3248
2.70025e+06,0,0,0,2344,2048
2.70026e+06,0,0,0,296,4096
2.70026e+06,0,0,0,40,4352
2.72193e+06,0,0,0,296,4096
2.72193e+06,0,0,0,40,4352
2.73934e+06,0,0,0,2088,2304
2.73934e+06,0,0,0,1832,2560
2.73934e+06,0,0,0,1576,2816
2.73934e+06,0,0,0,1320,3072
2.73934e+06,0,0,0,1192,3200
2.73934e+06,0,0,0,992,3400
2.73934e+06,0,0,0,864,3528
2.74364e+06,0,0,0,1120,3272
2.74364e+06,0,0,0,79,4313
2.75021e+06,0,0,0,279,4113
2.75021e+06,0,0,0,407,3985
2.75022e+06,0,0,0,279,4113
2.75022e+06,0,0,0,121,4271
2.75024e+06,0,0,0,249,4143
2.75024e+06,0,0,0,49,4343
2.76106e+06,0,0,0,177,4215
2.76106e+06,0,0,0,433,3959
2.7611e+06,0,0,0,591,3801
2.76112e+06,0,0,0,791,3601
2.76112e+06,0,0,0,1047,3345
2.76113e+06,0,0,0,183,4209
2.76116e+06,0,0,0,439,3953
2.76116e+06,0,0,0,55,4337
2.76354e+06,0,0,0,2103,2289
2.76354e+06,0,0,0,1975,2417
2.76354e+06,0,0,0,1719,2673
2.76354e+06,0,0,0,1591,2801
2.76354e+06,0,0,0,951,3441
2.76354e+06,0,0,0,751,3641
2.76354e+06,0,0,0,623,3769
2.76354e+06,0,0,0,495,3897
2.76354e+06,0,0,0,367,4025
2.76354e+06,0,0,0,239,4153
2.76354e+06,0,0,0,111,4281
2.77152e+06,0,0,0,975,3417
2.77152e+06,0,0,0,719,3673
2.77152e+06,0,0,0,119,4273
2.77438e+06,0,0,0,247,4145
2.77438e+06,0,0,0,119,4273
2.7744e+06,0,0,0,247,4145
2.7744e+06,0,0,0,119,4273
2.77444e+06,0,0,0,247,4145
2.77444e+06,0,0,0,375,4017
2.77444e+06,0,0,0,231,4161
2.77444e+06,0,0,0,87,4305
2.77447e+06,0,0,0,215,4177
2.77447e+06,0,0,0,71,4321
2.77447e+06,0,0,0,271,4121
2.77448e+06,0,0,0,127,4265
2.77449e+06,0,0,0,255,4137
2.77449e+06,0,0,0,55,4337
2.77455e+06,0,0,0,183,4209
2.77455e+06,0,0,0,55,4337
2.78417e+06,0,0,0,655,3737
2.78526e+06,0,0,0,783,3609
2.78527e+06,0,0,0,927,3465
2.78528e+06,0,0,0,1183,3209
2.78531e+06,0,0,0,1327,3065
2.78536e+06,0,0,0,1471,2921
2.78536e+06,0,0,0,1599,2793
2.78538e+06,0,0,0,1743,2649
2.78541e+06,0,0,0,1871,2521
2.78547e+06,0,0,0,2071,2321
2.79246e+06,0,0,0,2711,1681
2.7933e+06,0,0,0,2967,1425
2.79372e+06,0,0,0,3351,1041
2.79373e+06,0,0,0,171,4221
2.79373e+06,0,0,0,43,4349
2.80464e+06,0,0,0,171,4221
2.81279e+06,0,0,0,3351,1041
2.81279e+06,0,0,0,2967,1425
2.81279e+06,0,0,0,2583,1809
2.81279e+06,0,0,0,1943,2449
2.81279e+06,0,0,0,1303,3089
2.81279e+06,0,0,0,663,3729
2.81571e+06,0,0,0,1704,2688
2.81571e+06,0,0,0,488,3904
2.81571e+06,0,0,0,360,4032
2.81571e+06,0,0,0,232,4160
2.81571e+06,0,0,0,104,4288
2.82656e+06,0,0,0,232,4160
2.82657e+06,0,0,0,360,4032
2.8266e+06,0,0,0,488,3904
2.83719e+06,0,0,0,1704,2688
2.8372e+06,0,0,0,488,3904
2.8372e+06,0,0,0,232,4160
2.84163e+06,0,0,0,872,3520
2.84529e+06,0,0,0,1256,3136
2.8453e+06,0,0,0,232,4160
2.8453e+06,0,0,0,104,4288
2.84533e+06,0,0,0,488,3904
2.84533e+06,0,0,0,360,4032
2.84533e+06,0,0,0,232,4160
2.84533e+06,0,0,0,104,4288
2.85494e+06,0,0,0,744,3648
2.85494e+06,0,0,0,616,3776
2.85494e+06,0,0,0,488,3904
2.85494e+06,0,0,0,360,4032
2.85494e+06,0,0,0,232,4160
2.85494e+06,0,0,0,104,4288
2.85503e+06,0,0,0,744,3648
2.85503e+06,0,0,0,616,3776
2.85503e+06,0,0,0,488,3904
2.85503e+06,0,0,0,360,4032
2.85503e+06,0,0,0,232,4160
2.85615e+06,0,0,0,360,4032
2.8562e+06,0,0,0,488,3904
2.8562e+06,0,0,0,616,3776
2.85629e+06,0,0,0,744,3648
2.85773e+06,0,0,0,616,3776
2.85828e+06,0,0,0,445,3947
2.85887e+06,0,0,0,1661,2731
2.85887e+06,0,0,0,637,3755
2.85888e+06,0,0,0,893,3499
2.86577e+06,0,0,0,1021,3371
2.86583e+06,0,0,0,1149,3243
2.86587e+06,0,0,0,1277,3115
2.86587e+06,0,0,0,1405,2987
2.86588e+06,0,0,0,1533,2859
2.86591e+06,0,0,0,1661,2731
2.86591e+06,0,0,0,1789,2603
2.86593e+06,0,0,0,1917,2475
2.86595e+06,0,0,0,2045,2347
2.86866e+06,0,0,0,2173,2219
2.86868e+06,0,0,0,2344,2048
2.86964e+06,0,0,0,2216,2176
2.87791e+06,0,0,0,3240,1152
2.8806e+06,0,0,0,3368,1024
2.88861e+06,0,0,0,4392,0
2.88862e+06,0,0,0,296,4096
2.88862e+06,0,0,0,168,4224
2.89177e+06,0,0,0,6,4386
2.89949e+06,0,0,0,134,4258
2.90021e+06,0,0,0,6,4386
2.90198e+06,0,0,0,168,4224
2.90199e+06,0,0,0,40,4352
2.91106e+06,0,0,0,168,4224
2.91106e+06,0,0,0,40,4352
2.91282e+06,0,0,0,168,4224
2.92189e+06,0,0,0,296,4096
2.92274e+06,0,0,0,4392,0
2.92275e+06,0,0,0,3368,1024
2.92275e+06,0,0,0,2153,2239
2.92275e+06,0,0,0,938,3454
2.92275e+06,0,0,0,682,3710
2.92275e+06,0,0,0,554,3838
2.92275e+06,0,0,0,426,3966
2.92275e+06,0,0,0,298,4094
2.92275e+06,0,0,0,98,4294
2.9336e+06,0,0,0,298,4094
2.93361e+06,0,0,0,426,3966
2.93364e+06,0,0,0,554,3838
2.93365e+06,0,0,0,682,3710
2.94053e+06,0,0,0,1897,2495
2.94053e+06,0,0,0,873,3519
2.94053e+06,0,0,0,617,3775
2.94053e+06,0,0,0,417,3975
2.94053e+06,0,0,0,289,4103
2.94053e+06,0,0,0,131,4261
2.94053e+06,0,0,0,3,4389
2.94284e+06,0,0,0,1218,3174
2.94284e+06,0,0,0,706,3686
2.94284e+06,0,0,0,194,4198
2.94284e+06,0,0,0,66,4326
2.94439e+06,0,0,0,322,4070
2.9444e+06,0,0,0,194,4198
2.94794e+06,0,0,0,41,4351
2.95137e+06,0,0,0,169,4223
2.95141e+06,0,0,0,327,4065
2.95143e+06,0,0,0,455,3937
2.95145e+06,0,0,0,655,3737
2.95146e+06,0,0,0,1679,2713
2.95343e+06,0,0,0,2191,2201
2.95349e+06,0,0,0,2703,1689
2.9538e+06,0,0,0,2831,1561
2.95529e+06,0,0,0,2959,1433
2.95883e+06,0,0,0,3112,1280
2.96178e+06,0,0,0,3368,1024
2.96179e+06,0,0,0,188,4204
2.97186e+06,0,0,0,3368,1024
2.97186e+06,0,0,0,3112,1280
2.97186e+06,0,0,0,2088,2304
2.97186e+06,0,0,0,1576,2816
2.97186e+06,0,0,0,1064,3328
2.97186e+06,0,0,0,808,3584
2.97186e+06,0,0,0,552,3840
2.97186e+06,0,0,0,296,4096
2.97186e+06,0,0,0,40,4352
2.98756e+06,0,0,0,552,3840
2.98757e+06,0,0,0,1064,3328
2.99289e+06,0,0,0,2088,2304
2.9935e+06,0,0,0,2344,2048
2.99351e+06,0,0,0,2600,1792
2.99351e+06,0,0,0,2856,1536
2.99353e+06,0,0,0,3112,1280
2.99353e+06,0,0,0,3368,1024
2.99353e+06,0,0,0,188,4204
2.99353e+06,0,0,0,35,4357
3.00443e+06,0,0,0,188,4204
3.00443e+06,0,0,0,35,4357
3.0153e+06,0,0,0,188,4204
3.02244e+06,0,0,0,3368,1024
3.02244e+06,0,0,0,2344,2048
3.02244e+06,0,0,0,1542,2850
3.02244e+06,0,0,0,1286,3106
3.02244e+06,0,0,0,1030,3362
3.02244e+06,0,0,0,774,3618
3.02244e+06,0,0,0,518,3874
3.02244e+06,0,0,0,262,4130
3.02244e+06,0,0,0,6,4386
3.02467e+06,0,0,0,1030,3362
3.02467e+06,0,0,0,760,3632
3.02467e+06,0,0,0,490,3902
3.02467e+06,0,0,0,361,4031
3.02467e+06,0,0,0,233,4159
3.02467e+06,0,0,0,105,4287
3.02502e+06,0,0,0,97,4295
3.03554e+06,0,0,0,226,4166
3.03555e+06,0,0,0,354,4038
3.03555e+06,0,0,0,482,3910
3.0403e+06,0,0,0,490,3902
3.04408e+06,0,0,0,746,3646
3.04408e+06,0,0,0,206,4186
3.04414e+06,0,0,0,462,3930
3.04414e+06,0,0,0,206,4186
3.04416e+06,0,0,0,462,3930
3.04424e+06,0,0,0,718,3674
3.04424e+06,0,0,0,118,4274
3.04436e+06,0,0,0,374,4018
3.04437e+06,0,0,0,70,4322
3.0463e+06,0,0,0,340,4052
3.0463e+06,0,0,0,84,4308
3.04632e+06,0,0,0,354,4038
3.04632e+06,0,0,0,98,4294
3.05356e+06,0,0,0,354,4038
3.05696e+06,0,0,0,954,3438
3.05697e+06,0,0,0,90,4302
3.05697e+06,0,0,0,89,4303
3.063e+06,0,0,0,1113,3279
3.06575e+06,0,0,0,1653,2739
3.0658e+06,0,0,0,1909,2483
3.06606e+06,0,0,0,2213,2179
3.06724e+06,0,0,0,3077,1315
3.06724e+06,0,0,0,647,3745
3.06724e+06,0,0,0,494,3898
3.06724e+06,0,0,0,341,4051
3.06724e+06,0,0,0,183,4209
3.06724e+06,0,0,0,175,4217
3.06724e+06,0,0,0,47,4345
3.06768e+06,0,0,0,303,4089
3.06768e+06,0,0,0,175,4217
3.06796e+06,0,0,0,431,3961
3.07593e+06,0,0,0,303,4089
3.07732e+06,0,0,0,431,3961
3.07746e+06,0,0,0,584,3808
3.07803e+06,0,0,0,737,3655
3.07812e+06,0,0,0,895,3497
3.07846e+06,0,0,0,1023,3369
3.08095e+06,0,0,0,1031,3361
3.08676e+06,0,0,0,1159,3233
3.08798e+06,0,0,0,3589,803
3.08798e+06,0,0,0,1159,3233
3.08798e+06,0,0,0,1031,3361
3.09886e+06,0,0,0,1159,3233
3.10899e+06,0,0,0,1961,2431
3.10955e+06,0,0,0,4391,1
3.10955e+06,0,0,0,1961,2431
3.10955e+06,0,0,0,1577,2815
3.10955e+06,0,0,0,1193,3199
3.12912e+06,0,0,0,1194,3198
3.13663e+06,0,0,0,1578,2814
3.13664e+06,0,0,0,1962,2430
3.19595e+06,0,0,0,4392,0
3.19595e+06,0,0,0,1962,2430
3.20427e+06,0,0,0,1834,2558
3.21519e+06,0,0,0,1962,2430
3.21597e+06,0,0,0,1706,2686
3.2161e+06,0,0,0,1450,2942
3.21616e+06,0,0,0,1194,3198
3.21626e+06,0,0,0,938,3454
3.21641e+06,0,0,0,682,3710
3.21649e+06,0,0,0,529,3863
3.21649e+06,0,0,0,273,4119
3.21657e+06,0,0,0,17,4375
3.22666e+06,0,0,0,170,4222
3.22666e+06,0,0,0,17,4375
3.2343e+06,0,0,0,273,4119
3.2343e+06,0,0,0,17,4375
3.23446e+06,0,0,0,273,4119
3.23446e+06,0,0,0,17,4375
3.23463e+06,0,0,0,273,4119
3.23464e+06,0,0,0,17,4375
3.2355e+06,0,0,0,273,4119
3.2355e+06,0,0,0,17,4375
3.23574e+06,0,0,0,273,4119
3.23608e+06,0,0,0,529,3863
3.23608e+06,0,0,0,145,4247
3.23624e+06,0,0,0,401,3991
3.23752e+06,0,0,0,554,3838
3.25259e+06,0,0,0,298,4094
3.253e+06,0,0,0,554,3838
3.25354e+06,0,0,0,810,3582
3.25644e+06,0,0,0,1066,3326
3.25723e+06,0,0,0,1322,3070
3.2605e+06,0,0,0,810,3582
3.26057e+06,0,0,0,298,4094
3.26846e+06,0,0,0,682,3710
3.26846e+06,0,0,0,170,4222
3.27139e+06,0,0,0,682,3710
3.27432e+06,0,0,0,938,3454
3.27656e+06,0,0,0,1450,2942
3.27918e+06,0,0,0,1962,2430
3.28241e+06,0,0,0,4392,0
3.28241e+06,0,0,0,1962,2430
3.28241e+06,0,0,0,1834,2558
3.28241e+06,0,0,0,1578,2814
3.28241e+06,0,0,0,1450,2942
3.28241e+06,0,0,0,1322,3070
3.28241e+06,0,0,0,1194,3198
3.28241e+06,0,0,0,1066,3326
3.28241e+06,0,0,0,938,3454
3.28241e+06,0,0,0,810,3582
3.28241e+06,0,0,0,682,3710
3.28241e+06,0,0,0,554,3838
3.28661e+06,0,0,0,354,4038
3.28688e+06,0,0,0,154,4238
3.29323e+06,0,0,0,282,4110
3.29324e+06,0,0,0,82,4310
3.29324e+06,0,0,0,210,4182
3.29324e+06,0,0,0,10,4382
3.29328e+06,0,0,0,138,4254
3.29329e+06,0,0,0,266,4126
3.29331e+06,0,0,0,394,3998
3.29333e+06,0,0,0,522,3870
3.29334e+06,0,0,0,650,3742
3.29334e+06,0,0,0,50,4342
3.29335e+06,0,0,0,178,4214
3.29337e+06,0,0,0,306,4086
3.29579e+06,0,0,0,50,4342
3.29753e+06,0,0,0,250,4142
3.29774e+06,0,0,0,450,3942
3.30411e+06,0,0,0,650,3742
3.30412e+06,0,0,0,906,3486
3.30413e+06,0,0,0,1106,3286
3.30599e+06,0,0,0,1706,2686
3.31747e+06,0,0,0,1962,2430
3.33611e+06,0,0,0,1834,2558
3.33624e+06,0,0,0,1706,2686
3.33651e+06,0,0,0,1578,2814
3.33674e+06,0,0,0,1450,2942
3.33683e+06,0,0,0,1322,3070
3.33697e+06,0,0,0,1194,3198
3.34439e+06,0,0,0,354,4038
3.3462e+06,0,0,0,98,4294
3.34694e+06,0,0,0,226,4166
3.34712e+06,0,0,0,354,4038
3.34736e+06,0,0,0,482,3910
3.34761e+06,0,0,0,610,3782
3.34766e+06,0,0,0,738,3654
3.34785e+06,0,0,0,866,3526
3.3661e+06,0,0,0,1706,2686
3.36788e+06,0,0,0,1962,2430
3.36849e+06,0,0,0,4392,0
3.36849e+06,0,0,0,1962,2430
3.36849e+06,0,0,0,1122,3270
3.36849e+06,0,0,0,282,4110
3.36849e+06,0,0,0,26,4366
3.3902e+06,0,0,0,282,4110
3.3902e+06,0,0,0,129,4263
3.39557e+06,0,0,0,969,3423
3.39558e+06,0,0,0,129,4263
3.40107e+06,0,0,0,282,4110
3.40107e+06,0,0,0,129,4263
3.41168e+06,0,0,0,969,3423
3.41168e+06,0,0,0,129,4263
3.41193e+06,0,0,0,282,4110
3.41193e+06,0,0,0,129,4263
3.42202e+06,0,0,0,282,4110
3.42203e+06,0,0,0,147,4245
3.4328e+06,0,0,0,282,4110
3.43333e+06,0,0,0,1122,3270
3.437e+06,0,0,0,994,3398
3.43853e+06,0,0,0,1834,2558
3.43997e+06,0,0,0,1706,2686
3.44788e+06,0,0,0,1834,2558
3.45082e+06,0,0,0,1962,2430
3.45481e+06,0,0,0,4392,0
3.45482e+06,0,0,0,1962,2430
3.45482e+06,0,0,0,1122,3270
3.45482e+06,0,0,0,866,3526
3.45482e+06,0,0,0,610,3782
3.46566e+06,0,0,0,866,3526
3.46567e+06,0,0,0,1122,3270
3.48022e+06,0,0,0,994,3398
3.48022e+06,0,0,0,866,3526
3.48142e+06,0,0,0,738,3654
3.48262e+06,0,0,0,610,3782
3.48321e+06,0,0,0,1450,2942
3.48383e+06,0,0,0,1322,3070
3.48504e+06,0,0,0,1194,3198
3.49107e+06,0,0,0,1322,3070
3.49107e+06,0,0,0,1450,2942
3.49227e+06,0,0,0,1578,2814
3.49357e+06,0,0,0,1706,2686
3.49468e+06,0,0,0,1834,2558
3.49526e+06,0,0,0,1706,2686
3.4959e+06,0,0,0,1834,2558
3.50612e+06,0,0,0,1706,2686
3.50622e+06,0,0,0,1834,2558
3.51703e+06,0,0,0,1962,2430
3.5245e+06,0,0,0,1804,2588
3.52926e+06,0,0,0,1668,2724
3.53536e+06,0,0,0,1826,2566
3.54021e+06,0,0,0,1962,2430
3.54105e+06,0,0,0,4392,0
3.54105e+06,0,0,0,1962,2430
3.54105e+06,0,0,0,1762,2630
3.54105e+06,0,0,0,1562,2830
3.55192e+06,0,0,0,1762,2630
3.55194e+06,0,0,0,1962,2430
3.56269e+06,0,0,0,4392,0
3.56269e+06,0,0,0,1962,2430
3.56454e+06,0,0,0,1834,2558
3.57544e+06,0,0,0,1962,2430
3.5838e+06,0,0,0,4392,0
3.5838e+06,0,0,0,1962,2430
3.60538e+06,0,0,0,4392,0
3.60538e+06,0,0,0,1962,2430
3.60538e+06,0,0,0,1834,2558
3.60538e+06,0,0,0,1706,2686
3.60809e+06,0,0,0,1578,2814
3.60847e+06,0,0,0,1378,3014
3.60851e+06,0,0,0,1178,3214
3.6125e+06,0,0,0,578,3814
3.61252e+06,0,0,0,450,3942
3.61627e+06,0,0,0,578,3814
3.6163e+06,0,0,0,706,3686
3.61899e+06,0,0,0,834,3558
3.6194e+06,0,0,0,1034,3358
3.61944e+06,0,0,0,1234,3158
3.62338e+06,0,0,0,1362,3030
3.62516e+06,0,0,0,1962,2430
3.62596e+06,0,0,0,4392,0
3.62597e+06,0,0,0,1962,2430
3.62684e+06,0,0,0,1952,2440
3.63013e+06,0,0,0,1628,2764
3.64101e+06,0,0,0,1952,2440
3.64515e+06,0,0,0,1962,2430
3.64726e+06,0,0,0,4392,0
3.64727e+06,0,0,0,1962,2430
3.64727e+06,0,0,0,1122,3270
3.64727e+06,0,0,0,866,3526
3.64727e+06,0,0,0,610,3782
3.64727e+06,0,0,0,354,4038
3.64727e+06,0,0,0,98,4294
3.64727e+06,0,0,0,88,4304
3.66891e+06,0,0,0,344,4048
3.66891e+06,0,0,0,600,3792
3.66892e+06,0,0,0,344,4048
3.66892e+06,0,0,0,88,4304
3.66892e+06,0,0,0,344,4048
3.66893e+06,0,0,0,88,4304
3.66896e+06,0,0,0,344,4048
3.66897e+06,0,0,0,88,4304
3.66897e+06,0,0,0,98,4294
3.68893e+06,0,0,0,354,4038
3.68893e+06,0,0,0,98,4294
3.69054e+06,0,0,0,354,4038
3.69056e+06,0,0,0,610,3782
3.69066e+06,0,0,0,866,3526
3.69421e+06,0,0,0,856,3536
3.69634e+06,0,0,0,728,3664
3.7072e+06,0,0,0,856,3536
3.70787e+06,0,0,0,1112,3280
3.71268e+06,0,0,0,1122,3270
3.7196e+06,0,0,0,1120,3272
3.73121e+06,0,0,0,1122,3270
3.7336e+06,0,0,0,1962,2430
3.73376e+06,0,0,0,4392,0
3.73376e+06,0,0,0,1962,2430
3.73376e+06,0,0,0,1122,3270
3.73376e+06,0,0,0,320,4072
3.73376e+06,0,0,0,318,4074
3.74933e+06,0,0,0,320,4072
3.76196e+06,0,0,0,192,4200
3.77283e+06,0,0,0,320,4072
3.77283e+06,0,0,0,64,4328
3.7945e+06,0,0,0,320,4072
3.7945e+06,0,0,0,192,4200
3.7987e+06,0,0,0,63,4329
3.80531e+06,0,0,0,191,4201
3.80532e+06,0,0,0,63,4329
3.80959e+06,0,0,0,192,4200
3.81615e+06,0,0,0,320,4072
3.82027e+06,0,0,0,1122,3270
3.8203e+06,0,0,0,1962,2430
3.82033e+06,0,0,0,4392,0
3.82034e+06,0,0,0,1962,2430
3.82034e+06,0,0,0,1122,3270
3.82034e+06,0,0,0,320,4072
3.82747e+06,0,0,0,192,4200
3.83839e+06,0,0,0,320,4072
3.84001e+06,0,0,0,2750,1642
3.84001e+06,0,0,0,702,3690
3.84001e+06,0,0,0,318,4074
3.84001e+06,0,0,0,190,4202
3.84664e+06,0,0,0,62,4330
3.85089e+06,0,0,0,190,4202
3.85747e+06,0,0,0,318,4074
3.8593e+06,0,0,0,702,3690
3.8593e+06,0,0,0,318,4074
3.8593e+06,0,0,0,69,4323
3.89188e+06,0,0,0,453,3939
3.89188e+06,0,0,0,325,4067
3.89188e+06,0,0,0,69,4323
3.90275e+06,0,0,0,197,4195
3.90275e+06,0,0,0,69,4323
3.90691e+06,0,0,0,871,3521
3.91362e+06,0,0,0,999,3393
3.91363e+06,0,0,0,1255,3137
3.92652e+06,0,0,0,3303,1089
3.92653e+06,0,0,0,123,4269
3.94042e+06,0,0,0,963,3429
3.94456e+06,0,0,0,4143,249
3.94456e+06,0,0,0,3119,1273
3.94456e+06,0,0,0,2095,2297
3.94456e+06,0,0,0,1839,2553
3.94456e+06,0,0,0,1583,2809
3.94456e+06,0,0,0,1327,3065
3.94456e+06,0,0,0,1071,3321
3.94456e+06,0,0,0,815,3577
3.94456e+06,0,0,0,559,3833
3.96611e+06,0,0,0,815,3577
3.96612e+06,0,0,0,1071,3321
3.96612e+06,0,0,0,1327,3065
3.96614e+06,0,0,0,1583,2809
3.96618e+06,0,0,0,1839,2553
3.96625e+06,0,0,0,2095,2297
3.98484e+06,0,0,0,3119,1273
4.00043e+06,0,0,0,4143,249
4.02799e+06,0,0,0,4392,0
