time,nb_sleeping,nb_switching_on,nb_switching_off,nb_idle,nb_computing
0.00240003,0,0,0,4122,270
0.00300004,0,0,0,2074,2318
0.00360005,0,0,0,1050,3342
0.00420006,0,0,0,809,3583
0.00480006,0,0,0,681,3711
0.00540007,0,0,0,425,3967
0.00600008,0,0,0,155,4237
0.00660009,0,0,0,154,4238
0.0072001,0,0,0,26,4366
10415,0,0,0,154,4238
10904,0,0,0,155,4237
10905,0,0,0,283,4109
10910,0,0,0,13,4379
14455,0,0,0,269,4123
21681,0,0,0,539,3853
21684,0,0,0,27,4365
21684,0,0,0,26,4366
21684,0,0,0,25,4367
21684,0,0,0,24,4368
21684,0,0,0,23,4369
21684,0,0,0,22,4370
21684,0,0,0,21,4371
21684,0,0,0,20,4372
21700,0,0,0,290,4102
21703,0,0,0,34,4358
21703,0,0,0,2,4390
31800,0,0,0,258,4134
31803,0,0,0,130,4262
31803,0,0,0,2,4390
32550,0,0,0,272,4120
33025,0,0,0,304,4088
35895,0,0,0,305,4087
35913,0,0,0,306,4086
35926,0,0,0,307,4085
35944,0,0,0,308,4084
36014,0,0,0,309,4083
39721,0,0,0,310,4082
39765,0,0,0,311,4081
40329,0,0,0,552,3840
42634,0,0,0,680,3712
42675,0,0,0,808,3584
43359,0,0,0,1320,3072
43362,0,0,0,320,4072
43362,0,0,0,192,4200
43362,0,0,0,64,4328
54199,0,0,0,192,4200
54219,0,0,0,320,4072
54234,0,0,0,1320,3072
54237,0,0,0,518,3874
54237,0,0,0,6,4386
54237,0,0,0,5,4387
54237,0,0,0,4,4388
54237,0,0,0,3,4389
54237,0,0,0,2,4390
54237,0,0,0,1,4391
54237,0,0,0,0,4392
57834,0,0,0,1024,3368
57837,0,0,0,512,3880
57837,0,0,0,271,4121
57837,0,0,0,143,4249
57837,0,0,0,15,4377
68677,0,0,0,143,4249
68742,0,0,0,271,4121
69741,0,0,0,512,3880
72259,0,0,0,513,3879
72270,0,0,0,514,3878
72280,0,0,0,515,3877
72285,0,0,0,516,3876
72301,0,0,0,517,3875
72321,0,0,0,518,3874
72489,0,0,0,1030,3362
72492,0,0,0,510,3882
75217,0,0,0,1022,3370
75220,0,0,0,510,3882
75220,0,0,0,261,4131
75220,0,0,0,257,4135
75220,0,0,0,8,4384
85466,0,0,0,257,4135
85505,0,0,0,2305,2087
85508,0,0,0,1281,3111
85508,0,0,0,1153,3239
85508,0,0,0,1025,3367
85508,0,0,0,755,3637
85508,0,0,0,485,3907
85508,0,0,0,215,4177
85508,0,0,0,87,4305
85508,0,0,0,86,4306
96344,0,0,0,214,4178
96347,0,0,0,86,4306
96348,0,0,0,214,4178
96351,0,0,0,86,4306
96380,0,0,0,214,4178
96383,0,0,0,86,4306
103582,0,0,0,87,4305
104941,0,0,0,607,3785
107150,0,0,0,877,3515
107164,0,0,0,1147,3245
107174,0,0,0,1417,2975
107182,0,0,0,1545,2847
107207,0,0,0,1673,2719
107234,0,0,0,1801,2591
107722,0,0,0,2313,2079
107725,0,0,0,265,4127
107725,0,0,0,9,4383
115472,0,0,0,1033,3359
115475,0,0,0,9,4383
118496,0,0,0,13,4379
118571,0,0,0,269,4123
118574,0,0,0,13,4379
129883,0,0,0,1037,3355
129886,0,0,0,13,4379
134402,0,0,0,815,3577
140233,0,0,0,1071,3321
140236,0,0,0,47,4345
140236,0,0,0,46,4346
144874,0,0,0,295,4097
144877,0,0,0,39,4353
149395,0,0,0,2087,2305
149398,0,0,0,39,4353
149398,0,0,0,35,4357
156226,0,0,0,1059,3333
156229,0,0,0,547,3845
156229,0,0,0,27,4365
158277,0,0,0,28,4364
160757,0,0,0,32,4360
162932,0,0,0,288,4104
162935,0,0,0,18,4374
184576,0,0,0,288,4104
186405,0,0,0,800,3592
186408,0,0,0,280,4112
186408,0,0,0,152,4240
186408,0,0,0,24,4368
187913,0,0,0,1048,3344
187916,0,0,0,24,4368
188610,0,0,0,544,3848
188613,0,0,0,416,3976
188613,0,0,0,288,4104
188613,0,0,0,160,4232
188613,0,0,0,32,4360
194869,0,0,0,2080,2312
194872,0,0,0,1180,3212
194872,0,0,0,180,4212
197237,0,0,0,308,4084
197237,0,0,0,436,3956
197243,0,0,0,187,4205
199451,0,0,0,315,4077
199454,0,0,0,59,4333
199460,0,0,0,187,4205
199468,0,0,0,315,4077
199471,0,0,0,59,4333
199493,0,0,0,187,4205
205744,0,0,0,1187,3205
205747,0,0,0,931,3461
205747,0,0,0,502,3890
205747,0,0,0,374,4018
216598,0,0,0,502,3890
217550,0,0,0,758,3634
217553,0,0,0,238,4154
217553,0,0,0,110,4282
218809,0,0,0,630,3762
218812,0,0,0,374,4018
218812,0,0,0,118,4274
221154,0,0,0,374,4018
221157,0,0,0,118,4274
221177,0,0,0,374,4018
221180,0,0,0,118,4274
222894,0,0,0,114,4278
226516,0,0,0,110,4282
227453,0,0,0,539,3853
227456,0,0,0,19,4373
228427,0,0,0,147,4245
228430,0,0,0,3,4389
237091,0,0,0,259,4133
237094,0,0,0,3,4389
237331,0,0,0,7,4385
238540,0,0,0,151,4241
238543,0,0,0,23,4369
240430,0,0,0,27,4365
240537,0,0,0,283,4109
240540,0,0,0,27,4365
242515,0,0,0,283,4109
242518,0,0,0,27,4365
242847,0,0,0,283,4109
242850,0,0,0,13,4379
249457,0,0,0,141,4251
249460,0,0,0,13,4379
249946,0,0,0,533,3859
249949,0,0,0,263,4129
249949,0,0,0,7,4385
252658,0,0,0,263,4129
252661,0,0,0,7,4385
258721,0,0,0,263,4129
258724,0,0,0,119,4273
259813,0,0,0,639,3753
259816,0,0,0,127,4265
260304,0,0,0,255,4137
262173,0,0,0,511,3881
263566,0,0,0,767,3625
264551,0,0,0,1037,3355
269157,0,0,0,1181,3211
270654,0,0,0,1693,2699
271622,0,0,0,1949,2443
271664,0,0,0,2219,2173
274311,0,0,0,3243,1149
274314,0,0,0,171,4221
280486,0,0,0,1071,3321
280489,0,0,0,801,3591
280489,0,0,0,545,3847
280489,0,0,0,289,4103
280489,0,0,0,33,4359
302150,0,0,0,289,4103
302153,0,0,0,33,4359
302203,0,0,0,289,4103
302206,0,0,0,33,4359
302207,0,0,0,303,4089
302210,0,0,0,47,4345
302248,0,0,0,303,4089
302251,0,0,0,47,4345
323836,0,0,0,303,4089
323839,0,0,0,47,4345
323863,0,0,0,303,4089
323866,0,0,0,33,4359
323959,0,0,0,289,4103
323962,0,0,0,19,4373
323963,0,0,0,275,4117
323966,0,0,0,19,4373
345497,0,0,0,289,4103
345515,0,0,0,545,3847
345518,0,0,0,33,4359
345625,0,0,0,289,4103
345635,0,0,0,559,3833
356917,0,0,0,1071,3321
360823,0,0,0,4143,249
360826,0,0,0,47,4345
370142,0,0,0,296,4096
370145,0,0,0,55,4337
370145,0,0,0,51,4341
394819,0,0,0,55,4337
431514,0,0,0,296,4096
431517,0,0,0,47,4345
447231,0,0,0,4143,249
447234,0,0,0,2095,2297
447234,0,0,0,47,4345
482738,0,0,0,296,4096
482741,0,0,0,40,4352
504461,0,0,0,296,4096
504464,0,0,0,40,4352
526098,0,0,0,296,4096
532311,0,0,0,2344,2048
532314,0,0,0,1064,3328
532346,0,0,0,3112,1280
532349,0,0,0,1832,2560
532349,0,0,0,1320,3072
532349,0,0,0,1071,3321
532349,0,0,0,47,4345
564902,0,0,0,559,3833
564905,0,0,0,318,4074
564905,0,0,0,174,4218
564905,0,0,0,22,4370
572123,0,0,0,1046,3346
572126,0,0,0,406,3986
572269,0,0,0,1686,2706
572272,0,0,0,1046,3346
572272,0,0,0,526,3866
572272,0,0,0,117,4275
573047,0,0,0,1397,2995
573050,0,0,0,857,3535
573050,0,0,0,473,3919
575001,0,0,0,617,3775
575004,0,0,0,105,4287
575195,0,0,0,257,4135
575198,0,0,0,1,4391
590442,0,0,0,385,4007
590445,0,0,0,129,4263
590445,0,0,0,1,4391
593920,0,0,0,410,3982
596821,0,0,0,666,3726
601297,0,0,0,794,3598
601307,0,0,0,1050,3342
601310,0,0,0,154,4238
604608,0,0,0,674,3718
605500,0,0,0,1214,3178
607490,0,0,0,1726,2666
615333,0,0,0,2366,2026
615336,0,0,0,318,4074
615336,0,0,0,69,4323
615336,0,0,0,65,4327
615422,0,0,0,705,3687
615425,0,0,0,449,3943
615425,0,0,0,193,4199
615425,0,0,0,49,4343
625909,0,0,0,193,4199
625912,0,0,0,65,4327
626761,0,0,0,321,4071
626764,0,0,0,65,4327
629392,0,0,0,2113,2279
629395,0,0,0,1857,2535
629395,0,0,0,1601,2791
629395,0,0,0,1345,3047
629395,0,0,0,833,3559
635355,0,0,0,837,3555
636801,0,0,0,965,3427
637070,0,0,0,1221,3171
640224,0,0,0,1477,2915
640272,0,0,0,1989,2403
641187,0,0,0,2245,2147
641190,0,0,0,197,4195
644619,0,0,0,1093,3299
644622,0,0,0,709,3683
646627,0,0,0,950,3442
646630,0,0,0,110,4282
648437,0,0,0,366,4026
648440,0,0,0,238,4154
651050,0,0,0,494,3898
657509,0,0,0,366,4026
659280,0,0,0,494,3898
660139,0,0,0,366,4026
660695,0,0,0,2414,1978
660698,0,0,0,1612,2780
660698,0,0,0,1092,3300
660698,0,0,0,192,4200
660698,0,0,0,126,4266
668454,0,0,0,254,4138
668457,0,0,0,13,4379
670518,0,0,0,141,4251
677152,0,0,0,525,3867
677155,0,0,0,5,4387
693184,0,0,0,525,3867
693187,0,0,0,225,4167
693187,0,0,0,57,4335
696333,0,0,0,298,4094
696336,0,0,0,57,4335
701478,0,0,0,306,4086
701481,0,0,0,6,4386
703549,0,0,0,174,4218
709568,0,0,0,694,3698
709571,0,0,0,394,3998
709571,0,0,0,94,4298
713922,0,0,0,394,3998
713925,0,0,0,94,4298
715667,0,0,0,335,4057
715670,0,0,0,35,4357
723181,0,0,0,335,4057
723184,0,0,0,35,4357
730217,0,0,0,335,4057
730323,0,0,0,635,3757
732102,0,0,0,507,3885
732304,0,0,0,1347,3045
732307,0,0,0,323,4069
734546,0,0,0,623,3769
735937,0,0,0,495,3897
736328,0,0,0,795,3597
742992,0,0,0,923,3469
743131,0,0,0,1947,2445
743896,0,0,0,2247,2145
746314,0,0,0,3147,1245
746800,0,0,0,3275,1117
747217,0,0,0,3341,1051
747256,0,0,0,4143,249
747259,0,0,0,47,4345
789653,0,0,0,296,4096
789656,0,0,0,55,4337
808769,0,0,0,296,4096
808772,0,0,0,168,4224
808772,0,0,0,40,4352
819616,0,0,0,168,4224
819619,0,0,0,296,4096
819622,0,0,0,168,4224
819622,0,0,0,24,4368
829704,0,0,0,168,4224
830377,0,0,0,296,4096
833749,0,0,0,4392,0
833752,0,0,0,3752,640
833752,0,0,0,3503,889
833752,0,0,0,2663,1729
833752,0,0,0,2659,1733
833752,0,0,0,1618,2774
833752,0,0,0,1318,3074
833752,0,0,0,806,3586
833752,0,0,0,294,4098
845626,0,0,0,298,4094
849035,0,0,0,170,4222
854522,0,0,0,470,3922
855399,0,0,0,982,3410
855408,0,0,0,1494,2898
859937,0,0,0,1622,2770
860817,0,0,0,2663,1729
860820,0,0,0,615,3777
860820,0,0,0,366,4026
860820,0,0,0,362,4030
860820,0,0,0,121,4271
872530,0,0,0,370,4022
872533,0,0,0,114,4278
876806,0,0,0,754,3638
876809,0,0,0,114,4278
880438,0,0,0,355,4037
880441,0,0,0,99,4293
892667,0,0,0,739,3653
892670,0,0,0,227,4165
894194,0,0,0,483,3909
894197,0,0,0,227,4165
898551,0,0,0,2275,2117
898554,0,0,0,227,4165
902102,0,0,0,483,3909
914349,0,0,0,995,3397
914352,0,0,0,193,4199
915938,0,0,0,449,3943
919456,0,0,0,1289,3103
919459,0,0,0,389,4003
919459,0,0,0,140,4252
919459,0,0,0,12,4380
930428,0,0,0,140,4252
930544,0,0,0,389,4003
930547,0,0,0,5,4387
943403,0,0,0,254,4138
945108,0,0,0,2302,2090
945111,0,0,0,1500,2892
945111,0,0,0,698,3694
945111,0,0,0,186,4206
954708,0,0,0,570,3822
955987,0,0,0,1082,3310
955990,0,0,0,280,4112
955990,0,0,0,24,4368
964350,0,0,0,826,3566
964353,0,0,0,24,4368
964521,0,0,0,826,3566
964524,0,0,0,24,4368
975313,0,0,0,826,3566
975316,0,0,0,24,4368
977622,0,0,0,280,4112
983638,0,0,0,1082,3310
983641,0,0,0,280,4112
984142,0,0,0,1082,3310
984145,0,0,0,442,3950
994555,0,0,0,1244,3148
994558,0,0,0,220,4172
1.00089e+06,0,0,0,1022,3370
1.00292e+06,0,0,0,1824,2568
1.00293e+06,0,0,0,800,3592
1.00293e+06,0,0,0,551,3841
1.00293e+06,0,0,0,167,4225
1.00516e+06,0,0,0,1067,3325
1.00516e+06,0,0,0,683,3709
1.00516e+06,0,0,0,299,4093
1.02519e+06,0,0,0,1323,3069
1.02519e+06,0,0,0,939,3453
1.02519e+06,0,0,0,555,3837
1.02519e+06,0,0,0,171,4221
1.02721e+06,0,0,0,555,3837
1.02721e+06,0,0,0,171,4221
1.02742e+06,0,0,0,811,3581
1.0293e+06,0,0,0,1835,2557
1.02931e+06,0,0,0,811,3581
1.02931e+06,0,0,0,562,3830
1.02937e+06,0,0,0,946,3446
1.0294e+06,0,0,0,1330,3062
1.0294e+06,0,0,0,306,4086
1.0294e+06,0,0,0,178,4214
1.04032e+06,0,0,0,306,4086
1.04176e+06,0,0,0,178,4214
1.0445e+06,0,0,0,2,4390
1.04576e+06,0,0,0,251,4141
1.04935e+06,0,0,0,635,3757
1.04935e+06,0,0,0,115,4277
1.04937e+06,0,0,0,499,3893
1.0494e+06,0,0,0,883,3509
1.0494e+06,0,0,0,371,4021
1.05149e+06,0,0,0,755,3637
1.05265e+06,0,0,0,883,3509
1.05265e+06,0,0,0,43,4349
1.05265e+06,0,0,0,39,4353
1.05502e+06,0,0,0,215,4177
1.07398e+06,0,0,0,1239,3153
1.07399e+06,0,0,0,719,3673
1.07557e+06,0,0,0,1231,3161
1.07557e+06,0,0,0,429,3963
1.07557e+06,0,0,0,180,4212
1.07557e+06,0,0,0,114,4278
1.08171e+06,0,0,0,634,3758
1.08171e+06,0,0,0,122,4270
1.09234e+06,0,0,0,126,4266
1.09496e+06,0,0,0,375,4017
1.10339e+06,0,0,0,887,3505
1.1034e+06,0,0,0,375,4017
1.10402e+06,0,0,0,247,4145
1.10636e+06,0,0,0,767,3625
1.10753e+06,0,0,0,1791,2601
1.10753e+06,0,0,0,511,3881
1.10753e+06,0,0,0,255,4137
1.10753e+06,0,0,0,127,4265
1.11365e+06,0,0,0,639,3753
1.11365e+06,0,0,0,383,4009
1.11365e+06,0,0,0,255,4137
1.11365e+06,0,0,0,111,4281
1.11489e+06,0,0,0,239,4153
1.1149e+06,0,0,0,95,4297
1.1184e+06,0,0,0,223,4169
1.1184e+06,0,0,0,95,4297
1.12417e+06,0,0,0,239,4153
1.12417e+06,0,0,0,111,4281
1.12455e+06,0,0,0,360,4032
1.12457e+06,0,0,0,488,3904
1.12524e+06,0,0,0,632,3760
1.12916e+06,0,0,0,888,3504
1.12926e+06,0,0,0,1016,3376
1.1351e+06,0,0,0,1144,3248
1.1353e+06,0,0,0,1400,2992
1.1353e+06,0,0,0,120,4272
1.1382e+06,0,0,0,922,3470
1.13844e+06,0,0,0,1762,2630
1.13844e+06,0,0,0,738,3654
1.13844e+06,0,0,0,98,4294
1.14537e+06,0,0,0,1378,3014
1.14537e+06,0,0,0,1129,3263
1.14537e+06,0,0,0,289,4103
1.14537e+06,0,0,0,33,4359
1.1561e+06,0,0,0,282,4110
1.15739e+06,0,0,0,154,4238
1.16223e+06,0,0,0,220,4172
1.16707e+06,0,0,0,476,3916
1.16843e+06,0,0,0,604,3788
1.16843e+06,0,0,0,92,4300
1.17269e+06,0,0,0,1116,3276
1.17269e+06,0,0,0,476,3916
1.17269e+06,0,0,0,220,4172
1.17455e+06,0,0,0,1500,2892
1.17456e+06,0,0,0,1244,3148
1.17456e+06,0,0,0,988,3404
1.17456e+06,0,0,0,732,3660
1.17456e+06,0,0,0,476,3916
1.18155e+06,0,0,0,1116,3276
1.18155e+06,0,0,0,92,4300
1.19235e+06,0,0,0,1116,3276
1.19235e+06,0,0,0,860,3532
1.19235e+06,0,0,0,604,3788
1.19235e+06,0,0,0,348,4044
1.19235e+06,0,0,0,92,4300
1.19441e+06,0,0,0,348,4044
1.19442e+06,0,0,0,99,4293
1.1962e+06,0,0,0,355,4037
1.19621e+06,0,0,0,611,3781
1.19624e+06,0,0,0,867,3525
1.19628e+06,0,0,0,1123,3269
1.20094e+06,0,0,0,1635,2757
1.20782e+06,0,0,0,1443,2949
1.2109e+06,0,0,0,1699,2693
1.21092e+06,0,0,0,1955,2437
1.21398e+06,0,0,0,2211,2181
1.214e+06,0,0,0,2467,1925
1.21602e+06,0,0,0,3107,1285
1.21819e+06,0,0,0,3299,1093
1.23106e+06,0,0,0,4139,253
1.23107e+06,0,0,0,43,4349
1.24056e+06,0,0,0,292,4100
1.24056e+06,0,0,0,36,4356
1.25494e+06,0,0,0,292,4100
1.25495e+06,0,0,0,164,4228
1.26583e+06,0,0,0,292,4100
1.26583e+06,0,0,0,36,4356
1.26876e+06,0,0,0,40,4352
1.2875e+06,0,0,0,296,4096
1.2875e+06,0,0,0,40,4352
1.28941e+06,0,0,0,4136,256
1.28941e+06,0,0,0,3112,1280
1.28941e+06,0,0,0,2088,2304
1.28941e+06,0,0,0,1568,2824
1.28941e+06,0,0,0,736,3656
1.28941e+06,0,0,0,480,3912
1.28941e+06,0,0,0,224,4168
1.29721e+06,0,0,0,32,4360
1.30774e+06,0,0,0,224,4168
1.30915e+06,0,0,0,480,3912
1.30915e+06,0,0,0,224,4168
1.31099e+06,0,0,0,1248,3144
1.31099e+06,0,0,0,992,3400
1.31099e+06,0,0,0,736,3656
1.31099e+06,0,0,0,480,3912
1.31099e+06,0,0,0,224,4168
1.31108e+06,0,0,0,480,3912
1.31108e+06,0,0,0,224,4168
1.31113e+06,0,0,0,480,3912
1.31671e+06,0,0,0,1504,2888
1.31671e+06,0,0,0,992,3400
1.31671e+06,0,0,0,480,3912
1.32182e+06,0,0,0,1000,3392
1.32183e+06,0,0,0,488,3904
1.33089e+06,0,0,0,744,3648
1.33089e+06,0,0,0,104,4288
1.33268e+06,0,0,0,360,4032
1.33269e+06,0,0,0,119,4273
1.33272e+06,0,0,0,375,4017
1.33272e+06,0,0,0,126,4266
1.33273e+06,0,0,0,382,4010
1.33275e+06,0,0,0,638,3754
1.33275e+06,0,0,0,229,4163
1.33294e+06,0,0,0,485,3907
1.33837e+06,0,0,0,997,3395
1.33838e+06,0,0,0,457,3935
1.34288e+06,0,0,0,969,3423
1.34288e+06,0,0,0,251,4141
1.34288e+06,0,0,0,123,4269
1.34347e+06,0,0,0,635,3757
1.34347e+06,0,0,0,507,3885
1.34347e+06,0,0,0,379,4013
1.34875e+06,0,0,0,628,3764
1.35378e+06,0,0,0,756,3636
1.35434e+06,0,0,0,884,3508
1.35438e+06,0,0,0,1012,3380
1.3544e+06,0,0,0,1421,2971
1.3544e+06,0,0,0,397,3995
1.35843e+06,0,0,0,1229,3163
1.35843e+06,0,0,0,717,3675
1.35843e+06,0,0,0,205,4187
1.36535e+06,0,0,0,1229,3163
1.36536e+06,0,0,0,397,3995
1.37089e+06,0,0,0,937,3455
1.37089e+06,0,0,0,105,4287
1.37424e+06,0,0,0,745,3647
1.37424e+06,0,0,0,233,4159
1.37533e+06,0,0,0,951,3441
1.37533e+06,0,0,0,695,3697
1.37533e+06,0,0,0,439,3953
1.37533e+06,0,0,0,311,4081
1.37611e+06,0,0,0,183,4209
1.37963e+06,0,0,0,695,3697
1.37964e+06,0,0,0,183,4209
1.38596e+06,0,0,0,311,4081
1.38704e+06,0,0,0,439,3953
1.39052e+06,0,0,0,951,3441
1.39052e+06,0,0,0,119,4273
1.39052e+06,0,0,0,631,3761
1.39701e+06,0,0,0,887,3505
1.39702e+06,0,0,0,55,4337
1.39708e+06,0,0,0,311,4081
1.39708e+06,0,0,0,183,4209
1.39708e+06,0,0,0,55,4337
1.40427e+06,0,0,0,567,3825
1.40427e+06,0,0,0,55,4337
1.40793e+06,0,0,0,183,4209
1.40794e+06,0,0,0,39,4353
1.40802e+06,0,0,0,167,4225
1.40802e+06,0,0,0,23,4369
1.41394e+06,0,0,0,264,4128
1.41837e+06,0,0,0,408,3984
1.41844e+06,0,0,0,552,3840
1.41845e+06,0,0,0,40,4352
1.43678e+06,0,0,0,552,3840
1.44051e+06,0,0,0,424,3968
1.45094e+06,0,0,0,936,3456
1.45095e+06,0,0,0,104,4288
1.45102e+06,0,0,0,936,3456
1.45103e+06,0,0,0,39,4353
1.45143e+06,0,0,0,167,4225
1.45657e+06,0,0,0,999,3393
1.45657e+06,0,0,0,135,4257
1.46158e+06,0,0,0,7,4385
1.47246e+06,0,0,0,135,4257
1.47331e+06,0,0,0,999,3393
1.47332e+06,0,0,0,135,4257
1.4762e+06,0,0,0,967,3425
1.4762e+06,0,0,0,103,4289
1.48266e+06,0,0,0,935,3457
1.48345e+06,0,0,0,1832,2560
1.48345e+06,0,0,0,808,3584
1.48345e+06,0,0,0,552,3840
1.48345e+06,0,0,0,296,4096
1.48345e+06,0,0,0,40,4352
1.49e+06,0,0,0,904,3488
1.4929e+06,0,0,0,1768,2624
1.49487e+06,0,0,0,2024,2368
1.4949e+06,0,0,0,2280,2112
1.4949e+06,0,0,0,232,4160
1.49496e+06,0,0,0,488,3904
1.49497e+06,0,0,0,232,4160
1.51179e+06,0,0,0,88,4304
1.51677e+06,0,0,0,344,4048
1.51677e+06,0,0,0,44,4348
1.52215e+06,0,0,0,188,4204
1.52215e+06,0,0,0,44,4348
1.53277e+06,0,0,0,188,4204
1.53277e+06,0,0,0,60,4332
1.53661e+06,0,0,0,892,3500
1.53661e+06,0,0,0,380,4012
1.53661e+06,0,0,0,80,4312
1.53756e+06,0,0,0,380,4012
1.53757e+06,0,0,0,80,4312
1.54367e+06,0,0,0,208,4184
1.54367e+06,0,0,0,80,4312
1.55467e+06,0,0,0,208,4184
1.55467e+06,0,0,0,80,4312
1.55721e+06,0,0,0,380,4012
1.55721e+06,0,0,0,124,4268
1.55813e+06,0,0,0,424,3968
1.55813e+06,0,0,0,168,4224
1.55813e+06,0,0,0,40,4352
1.56559e+06,0,0,0,168,4224
1.56782e+06,0,0,0,1192,3200
1.5687e+06,0,0,0,1448,2944
1.56901e+06,0,0,0,1576,2816
1.56911e+06,0,0,0,2088,2304
1.56911e+06,0,0,0,40,4352
1.56958e+06,0,0,0,296,4096
1.56959e+06,0,0,0,40,4352
1.57998e+06,0,0,0,2088,2304
1.57998e+06,0,0,0,1064,3328
1.57998e+06,0,0,0,40,4352
1.58106e+06,0,0,0,296,4096
1.58107e+06,0,0,0,40,4352
1.59254e+06,0,0,0,296,4096
1.59254e+06,0,0,0,40,4352
1.60408e+06,0,0,0,296,4096
1.60408e+06,0,0,0,40,4352
1.6183e+06,0,0,0,296,4096
1.6183e+06,0,0,0,168,4224
1.6183e+06,0,0,0,40,4352
1.62921e+06,0,0,0,168,4224
1.62921e+06,0,0,0,40,4352
1.62924e+06,0,0,0,168,4224
1.62925e+06,0,0,0,40,4352
1.64015e+06,0,0,0,168,4224
1.64015e+06,0,0,0,40,4352
1.64015e+06,0,0,0,168,4224
1.64016e+06,0,0,0,40,4352
1.65098e+06,0,0,0,168,4224
1.65103e+06,0,0,0,296,4096
1.65434e+06,0,0,0,2344,2048
1.65435e+06,0,0,0,1320,3072
1.65435e+06,0,0,0,296,4096
1.65435e+06,0,0,0,168,4224
1.65435e+06,0,0,0,40,4352
1.66404e+06,0,0,0,1064,3328
1.66404e+06,0,0,0,40,4352
1.66412e+06,0,0,0,1064,3328
1.66413e+06,0,0,0,823,3569
1.66413e+06,0,0,0,574,3818
1.66517e+06,0,0,0,702,3690
1.66524e+06,0,0,0,830,3562
1.66524e+06,0,0,0,28,4364
1.70099e+06,0,0,0,269,4123
1.701e+06,0,0,0,13,4379
1.71908e+06,0,0,0,269,4123
1.71908e+06,0,0,0,13,4379
1.73848e+06,0,0,0,1037,3355
1.73849e+06,0,0,0,269,4123
1.7385e+06,0,0,0,1293,3099
1.73851e+06,0,0,0,653,3739
1.73851e+06,0,0,0,353,4039
1.73851e+06,0,0,0,53,4339
1.7407e+06,0,0,0,309,4083
1.7407e+06,0,0,0,9,4383
1.7455e+06,0,0,0,811,3581
1.74551e+06,0,0,0,511,3881
1.74551e+06,0,0,0,211,4181
1.74812e+06,0,0,0,1235,3157
1.74812e+06,0,0,0,211,4181
1.74812e+06,0,0,0,83,4309
1.759e+06,0,0,0,211,4181
1.75908e+06,0,0,0,511,3881
1.76023e+06,0,0,0,811,3581
1.76142e+06,0,0,0,1111,3281
1.76143e+06,0,0,0,87,4305
1.76613e+06,0,0,0,387,4005
1.76613e+06,0,0,0,243,4149
1.76613e+06,0,0,0,99,4293
1.76617e+06,0,0,0,399,3993
1.76617e+06,0,0,0,271,4121
1.76617e+06,0,0,0,143,4249
1.76617e+06,0,0,0,15,4377
1.77651e+06,0,0,0,159,4233
1.77653e+06,0,0,0,303,4089
1.77685e+06,0,0,0,431,3961
1.77687e+06,0,0,0,559,3833
1.77688e+06,0,0,0,687,3705
1.78183e+06,0,0,0,1327,3065
1.78183e+06,0,0,0,430,3962
1.78186e+06,0,0,0,1198,3194
1.78187e+06,0,0,0,686,3706
1.78187e+06,0,0,0,174,4218
1.78187e+06,0,0,0,46,4346
1.79125e+06,0,0,0,1070,3322
1.79125e+06,0,0,0,558,3834
1.79125e+06,0,0,0,302,4090
1.79125e+06,0,0,0,46,4346
1.79264e+06,0,0,0,1070,3322
1.79265e+06,0,0,0,814,3578
1.79265e+06,0,0,0,686,3706
1.79265e+06,0,0,0,558,3834
1.79265e+06,0,0,0,430,3962
1.79265e+06,0,0,0,302,4090
1.79265e+06,0,0,0,174,4218
1.79265e+06,0,0,0,46,4346
1.79289e+06,0,0,0,174,4218
1.79289e+06,0,0,0,30,4362
1.80333e+06,0,0,0,158,4234
1.80334e+06,0,0,0,14,4378
1.80335e+06,0,0,0,142,4250
1.80335e+06,0,0,0,14,4378
1.80337e+06,0,0,0,142,4250
1.80337e+06,0,0,0,14,4378
1.8034e+06,0,0,0,142,4250
1.8034e+06,0,0,0,14,4378
1.80342e+06,0,0,0,158,4234
1.80343e+06,0,0,0,30,4362
1.80352e+06,0,0,0,158,4234
1.80354e+06,0,0,0,670,3722
1.80354e+06,0,0,0,158,4234
1.80357e+06,0,0,0,286,4106
1.80516e+06,0,0,0,535,3857
1.8128e+06,0,0,0,791,3601
1.8129e+06,0,0,0,1303,3089
1.81294e+06,0,0,0,1559,2833
1.81373e+06,0,0,0,2071,2321
1.81406e+06,0,0,0,2215,2177
1.81425e+06,0,0,0,3112,1280
1.81426e+06,0,0,0,3240,1152
1.81427e+06,0,0,0,3368,1024
1.81434e+06,0,0,0,3496,896
1.81436e+06,0,0,0,3752,640
1.81437e+06,0,0,0,3880,512
1.81439e+06,0,0,0,4392,0
1.81439e+06,0,0,0,296,4096
1.81439e+06,0,0,0,40,4352
1.83609e+06,0,0,0,296,4096
1.83609e+06,0,0,0,40,4352
1.84754e+06,0,0,0,296,4096
1.84754e+06,0,0,0,40,4352
1.85909e+06,0,0,0,296,4096
1.85909e+06,0,0,0,168,4224
1.85909e+06,0,0,0,40,4352
1.86998e+06,0,0,0,168,4224
1.86998e+06,0,0,0,40,4352
1.87011e+06,0,0,0,168,4224
1.87012e+06,0,0,0,40,4352
1.88041e+06,0,0,0,4136,256
1.88041e+06,0,0,0,40,4352
1.88091e+06,0,0,0,168,4224
1.88102e+06,0,0,0,296,4096
1.88102e+06,0,0,0,55,4337
1.91116e+06,0,0,0,4151,241
1.91117e+06,0,0,0,1079,3313
1.91117e+06,0,0,0,55,4337
1.91813e+06,0,0,0,296,4096
1.91813e+06,0,0,0,168,4224
1.91813e+06,0,0,0,40,4352
1.92902e+06,0,0,0,168,4224
1.92902e+06,0,0,0,40,4352
1.92905e+06,0,0,0,168,4224
1.92905e+06,0,0,0,38,4354
1.93993e+06,0,0,0,166,4226
1.93993e+06,0,0,0,38,4354
1.93999e+06,0,0,0,168,4224
1.93999e+06,0,0,0,40,4352
1.9509e+06,0,0,0,168,4224
1.9509e+06,0,0,0,40,4352
1.95093e+06,0,0,0,168,4224
1.95093e+06,0,0,0,38,4354
1.95589e+06,0,0,0,33,4359
1.95596e+06,0,0,0,28,4364
1.95645e+06,0,0,0,23,4369
1.95804e+06,0,0,0,1047,3345
1.95804e+06,0,0,0,150,4242
1.96165e+06,0,0,0,278,4114
1.96165e+06,0,0,0,22,4370
1.96181e+06,0,0,0,152,4240
1.97755e+06,0,0,0,157,4235
1.97762e+06,0,0,0,162,4230
1.9778e+06,0,0,0,167,4225
1.97986e+06,0,0,0,3239,1153
1.97986e+06,0,0,0,2249,2143
1.97986e+06,0,0,0,1949,2443
1.97986e+06,0,0,0,1649,2743
1.97986e+06,0,0,0,1349,3043
1.97986e+06,0,0,0,1049,3343
1.97986e+06,0,0,0,749,3643
1.97986e+06,0,0,0,449,3943
1.97986e+06,0,0,0,149,4243
1.98334e+06,0,0,0,405,3987
1.98334e+06,0,0,0,105,4287
1.99051e+06,0,0,0,1002,3390
1.99052e+06,0,0,0,490,3902
2.0004e+06,0,0,0,790,3602
2.0004e+06,0,0,0,1090,3302
2.00041e+06,0,0,0,578,3814
2.00043e+06,0,0,0,878,3514
2.00043e+06,0,0,0,238,4154
2.00048e+06,0,0,0,538,3854
2.00048e+06,0,0,0,838,3554
2.00051e+06,0,0,0,1138,3254
2.00051e+06,0,0,0,241,4151
2.00082e+06,0,0,0,541,3851
2.00082e+06,0,0,0,157,4235
2.00507e+06,0,0,0,457,3935
2.00507e+06,0,0,0,201,4191
2.01229e+06,0,0,0,713,3679
2.01229e+06,0,0,0,201,4191
2.0222e+06,0,0,0,713,3679
2.0229e+06,0,0,0,1225,3167
2.02682e+06,0,0,0,1481,2911
2.0329e+06,0,0,0,2378,2014
2.0329e+06,0,0,0,330,4062
2.0329e+06,0,0,0,202,4190
2.03327e+06,0,0,0,586,3806
2.04295e+06,0,0,0,714,3678
2.04307e+06,0,0,0,1354,3038
2.04307e+06,0,0,0,330,4062
2.04307e+06,0,0,0,74,4318
2.05691e+06,0,0,0,1098,3294
2.05691e+06,0,0,0,74,4318
2.05802e+06,0,0,0,2122,2270
2.05802e+06,0,0,0,1866,2526
2.05802e+06,0,0,0,1610,2782
2.05802e+06,0,0,0,1354,3038
2.05802e+06,0,0,0,1098,3294
2.05802e+06,0,0,0,842,3550
2.05802e+06,0,0,0,586,3806
2.05802e+06,0,0,0,330,4062
2.05802e+06,0,0,0,74,4318
2.06478e+06,0,0,0,330,4062
2.06639e+06,0,0,0,1320,3072
2.06789e+06,0,0,0,2344,2048
2.06945e+06,0,0,0,2600,1792
2.06949e+06,0,0,0,2856,1536
2.0695e+06,0,0,0,3112,1280
2.06951e+06,0,0,0,3368,1024
2.06955e+06,0,0,0,3624,768
2.06955e+06,0,0,0,3880,512
2.06957e+06,0,0,0,4136,256
2.06958e+06,0,0,0,40,4352
2.06959e+06,0,0,0,296,4096
2.06959e+06,0,0,0,40,4352
2.0811e+06,0,0,0,296,4096
2.0811e+06,0,0,0,40,4352
2.09263e+06,0,0,0,296,4096
2.09263e+06,0,0,0,40,4352
2.09435e+06,0,0,0,4136,256
2.09435e+06,0,0,0,40,4352
2.10414e+06,0,0,0,296,4096
2.10415e+06,0,0,0,40,4352
2.11567e+06,0,0,0,296,4096
2.11567e+06,0,0,0,40,4352
2.13736e+06,0,0,0,4136,256
2.13736e+06,0,0,0,40,4352
2.1375e+06,0,0,0,296,4096
2.13751e+06,0,0,0,40,4352
2.15939e+06,0,0,0,296,4096
2.15939e+06,0,0,0,40,4352
2.15954e+06,0,0,0,4136,256
2.15954e+06,0,0,0,3112,1280
2.15954e+06,0,0,0,2088,2304
2.15954e+06,0,0,0,1191,3201
2.15954e+06,0,0,0,679,3713
2.15954e+06,0,0,0,167,4225
2.15954e+06,0,0,0,37,4355
2.1704e+06,0,0,0,549,3843
2.1704e+06,0,0,0,37,4355
2.17047e+06,0,0,0,167,4225
2.17047e+06,0,0,0,7,4385
2.17181e+06,0,0,0,1031,3361
2.17181e+06,0,0,0,519,3873
2.17181e+06,0,0,0,295,4097
2.17181e+06,0,0,0,167,4225
2.17181e+06,0,0,0,39,4353
2.1734e+06,0,0,0,1063,3329
2.1734e+06,0,0,0,919,3473
2.1734e+06,0,0,0,663,3729
2.1734e+06,0,0,0,407,3985
2.1734e+06,0,0,0,151,4241
2.1734e+06,0,0,0,23,4369
2.17748e+06,0,0,0,535,3857
2.17748e+06,0,0,0,279,4113
2.17748e+06,0,0,0,23,4369
2.18101e+06,0,0,0,183,4209
2.18114e+06,0,0,0,439,3953
2.182e+06,0,0,0,567,3825
2.18244e+06,0,0,0,695,3697
2.1829e+06,0,0,0,919,3473
2.18396e+06,0,0,0,1063,3329
2.18426e+06,0,0,0,1191,3201
2.18484e+06,0,0,0,1703,2689
2.18487e+06,0,0,0,1959,2433
2.1849e+06,0,0,0,2215,2177
2.1849e+06,0,0,0,2471,1921
2.18628e+06,0,0,0,2983,1409
2.18892e+06,0,0,0,3239,1153
2.18896e+06,0,0,0,3495,897
2.19202e+06,0,0,0,4392,0
2.19202e+06,0,0,0,296,4096
2.19202e+06,0,0,0,40,4352
2.21375e+06,0,0,0,296,4096
2.21375e+06,0,0,0,8,4384
2.21417e+06,0,0,0,4104,288
2.21418e+06,0,0,0,8,4384
2.23086e+06,0,0,0,296,4096
2.23087e+06,0,0,0,8,4384
2.2482e+06,0,0,0,296,4096
2.24821e+06,0,0,0,40,4352
2.2699e+06,0,0,0,296,4096
2.2699e+06,0,0,0,40,4352
2.28132e+06,0,0,0,296,4096
2.28133e+06,0,0,0,40,4352
2.29278e+06,0,0,0,296,4096
2.30073e+06,0,0,0,4392,0
2.30074e+06,0,0,0,3880,512
2.30074e+06,0,0,0,2856,1536
2.30074e+06,0,0,0,1832,2560
2.30074e+06,0,0,0,808,3584
2.30074e+06,0,0,0,296,4096
2.30074e+06,0,0,0,40,4352
2.31222e+06,0,0,0,296,4096
2.31222e+06,0,0,0,40,4352
2.32192e+06,0,0,0,552,3840
2.32192e+06,0,0,0,237,4155
2.32192e+06,0,0,0,109,4283
2.32375e+06,0,0,0,365,4027
2.33281e+06,0,0,0,493,3899
2.33283e+06,0,0,0,808,3584
2.33325e+06,0,0,0,1320,3072
2.33325e+06,0,0,0,120,4272
2.34768e+06,0,0,0,1144,3248
2.34768e+06,0,0,0,247,4145
2.34768e+06,0,0,0,119,4273
2.35242e+06,0,0,0,1143,3249
2.35242e+06,0,0,0,102,4290
2.35857e+06,0,0,0,230,4162
2.35857e+06,0,0,0,102,4290
2.35926e+06,0,0,0,1126,3266
2.35926e+06,0,0,0,324,4068
2.35926e+06,0,0,0,68,4324
2.36356e+06,0,0,0,1109,3283
2.36356e+06,0,0,0,212,4180
2.36356e+06,0,0,0,84,4308
2.36941e+06,0,0,0,212,4180
2.37078e+06,0,0,0,468,3924
2.37438e+06,0,0,0,596,3796
2.37657e+06,0,0,0,1796,2596
2.38013e+06,0,0,0,2693,1699
2.38014e+06,0,0,0,645,3747
2.38014e+06,0,0,0,389,4003
2.38014e+06,0,0,0,133,4259
2.38014e+06,0,0,0,5,4387
2.391e+06,0,0,0,133,4259
2.39158e+06,0,0,0,389,4003
2.39159e+06,0,0,0,645,3747
2.39592e+06,0,0,0,1542,2850
2.39593e+06,0,0,0,518,3874
2.39593e+06,0,0,0,262,4130
2.39593e+06,0,0,0,6,4386
2.40739e+06,0,0,0,262,4130
2.40739e+06,0,0,0,6,4386
2.40744e+06,0,0,0,262,4130
2.40745e+06,0,0,0,6,4386
2.41884e+06,0,0,0,262,4130
2.41884e+06,0,0,0,6,4386
2.41889e+06,0,0,0,262,4130
2.41889e+06,0,0,0,6,4386
2.43029e+06,0,0,0,262,4130
2.4303e+06,0,0,0,6,4386
2.43036e+06,0,0,0,262,4130
2.43037e+06,0,0,0,6,4386
2.43844e+06,0,0,0,1030,3362
2.43844e+06,0,0,0,774,3618
2.43844e+06,0,0,0,390,4002
2.43844e+06,0,0,0,134,4258
2.43976e+06,0,0,0,936,3456
2.43976e+06,0,0,0,621,3771
2.43976e+06,0,0,0,306,4086
2.43976e+06,0,0,0,50,4342
2.44184e+06,0,0,0,306,4086
2.44184e+06,0,0,0,50,4342
2.44188e+06,0,0,0,306,4086
2.44188e+06,0,0,0,50,4342
2.44931e+06,0,0,0,306,4086
2.45016e+06,0,0,0,621,3771
2.45016e+06,0,0,0,306,4086
2.45028e+06,0,0,0,621,3771
2.45028e+06,0,0,0,306,4086
2.46011e+06,0,0,0,562,3830
2.46012e+06,0,0,0,247,4145
2.46055e+06,0,0,0,562,3830
2.46056e+06,0,0,0,247,4145
2.46117e+06,0,0,0,562,3830
2.46143e+06,0,0,0,818,3574
2.46347e+06,0,0,0,1074,3318
2.46347e+06,0,0,0,177,4215
2.46347e+06,0,0,0,49,4343
2.46351e+06,0,0,0,305,4087
2.46352e+06,0,0,0,177,4215
2.46352e+06,0,0,0,33,4359
2.4651e+06,0,0,0,2081,2311
2.4651e+06,0,0,0,1825,2567
2.4651e+06,0,0,0,1569,2823
2.4651e+06,0,0,0,1313,3079
2.4651e+06,0,0,0,1057,3335
2.4651e+06,0,0,0,801,3591
2.4651e+06,0,0,0,545,3847
2.4651e+06,0,0,0,289,4103
2.4651e+06,0,0,0,33,4359
2.47039e+06,0,0,0,348,4044
2.4704e+06,0,0,0,92,4300
2.47095e+06,0,0,0,476,3916
2.47096e+06,0,0,0,220,4172
2.47096e+06,0,0,0,76,4316
2.47141e+06,0,0,0,391,4001
2.47142e+06,0,0,0,135,4257
2.47142e+06,0,0,0,7,4385
2.47403e+06,0,0,0,151,4241
2.47403e+06,0,0,0,23,4369
2.47432e+06,0,0,0,151,4241
2.47432e+06,0,0,0,23,4369
2.47438e+06,0,0,0,151,4241
2.47438e+06,0,0,0,23,4369
2.47652e+06,0,0,0,279,4113
2.47652e+06,0,0,0,23,4369
2.47653e+06,0,0,0,279,4113
2.47653e+06,0,0,0,23,4369
2.47653e+06,0,0,0,279,4113
2.47654e+06,0,0,0,23,4369
2.47654e+06,0,0,0,279,4113
2.47655e+06,0,0,0,23,4369
2.47655e+06,0,0,0,279,4113
2.47656e+06,0,0,0,23,4369
2.47656e+06,0,0,0,279,4113
2.47656e+06,0,0,0,23,4369
2.47658e+06,0,0,0,279,4113
2.47658e+06,0,0,0,23,4369
2.47661e+06,0,0,0,279,4113
2.47662e+06,0,0,0,23,4369
2.48135e+06,0,0,0,167,4225
2.48135e+06,0,0,0,23,4369
2.48186e+06,0,0,0,279,4113
2.48186e+06,0,0,0,23,4369
2.48227e+06,0,0,0,151,4241
2.48227e+06,0,0,0,7,4385
2.48245e+06,0,0,0,263,4129
2.48245e+06,0,0,0,135,4257
2.48245e+06,0,0,0,7,4385
2.48285e+06,0,0,0,263,4129
2.48286e+06,0,0,0,135,4257
2.48286e+06,0,0,0,7,4385
2.48436e+06,0,0,0,135,4257
2.48437e+06,0,0,0,7,4385
2.48448e+06,0,0,0,135,4257
2.48448e+06,0,0,0,7,4385
2.48517e+06,0,0,0,135,4257
2.48796e+06,0,0,0,391,4001
2.48798e+06,0,0,0,647,3745
2.48799e+06,0,0,0,903,3489
2.48799e+06,0,0,0,1159,3233
2.48801e+06,0,0,0,1415,2977
2.48808e+06,0,0,0,1671,2721
2.4881e+06,0,0,0,1927,2465
2.48816e+06,0,0,0,2183,2209
2.4919e+06,0,0,0,2327,2065
2.49271e+06,0,0,0,2471,1921
2.49336e+06,0,0,0,2599,1793
2.49338e+06,0,0,0,2727,1665
2.49341e+06,0,0,0,2983,1409
2.49377e+06,0,0,0,3111,1281
2.49377e+06,0,0,0,3239,1153
2.49526e+06,0,0,0,3367,1025
2.49534e+06,0,0,0,3495,897
2.4959e+06,0,0,0,4392,0
2.4959e+06,0,0,0,296,4096
2.4959e+06,0,0,0,40,4352
2.50738e+06,0,0,0,296,4096
2.50738e+06,0,0,0,40,4352
2.5188e+06,0,0,0,296,4096
2.5188e+06,0,0,0,40,4352
2.54049e+06,0,0,0,296,4096
2.54049e+06,0,0,0,40,4352
2.56215e+06,0,0,0,296,4096
2.56215e+06,0,0,0,168,4224
2.56215e+06,0,0,0,40,4352
2.57302e+06,0,0,0,168,4224
2.57303e+06,0,0,0,296,4096
2.58246e+06,0,0,0,4392,0
2.58247e+06,0,0,0,2344,2048
2.58247e+06,0,0,0,2029,2363
2.58247e+06,0,0,0,1714,2678
2.58247e+06,0,0,0,1465,2927
2.58247e+06,0,0,0,1081,3311
2.58247e+06,0,0,0,766,3626
2.58247e+06,0,0,0,451,3941
2.58247e+06,0,0,0,136,4256
2.58247e+06,0,0,0,8,4384
2.59274e+06,0,0,0,323,4069
2.59274e+06,0,0,0,8,4384
2.59276e+06,0,0,0,323,4069
2.59276e+06,0,0,0,8,4384
2.59296e+06,0,0,0,323,4069
2.59297e+06,0,0,0,8,4384
2.59304e+06,0,0,0,323,4069
2.59304e+06,0,0,0,8,4384
2.59332e+06,0,0,0,136,4256
2.59344e+06,0,0,0,520,3872
2.59344e+06,0,0,0,205,4187
2.59344e+06,0,0,0,77,4315
2.59451e+06,0,0,0,392,4000
2.59451e+06,0,0,0,264,4128
2.59451e+06,0,0,0,136,4256
2.59451e+06,0,0,0,8,4384
2.60301e+06,0,0,0,323,4069
2.60302e+06,0,0,0,638,3754
2.60326e+06,0,0,0,953,3439
2.60326e+06,0,0,0,56,4336
2.60328e+06,0,0,0,371,4021
2.60426e+06,0,0,0,499,3893
2.60523e+06,0,0,0,814,3578
2.60525e+06,0,0,0,942,3450
2.60525e+06,0,0,0,45,4347
2.60526e+06,0,0,0,173,4219
2.60526e+06,0,0,0,43,4349
2.6053e+06,0,0,0,171,4221
2.60531e+06,0,0,0,43,4349
2.61608e+06,0,0,0,171,4221
2.61608e+06,0,0,0,43,4349
2.61618e+06,0,0,0,173,4219
2.61618e+06,0,0,0,45,4347
2.62684e+06,0,0,0,173,4219
2.62704e+06,0,0,0,301,4091
2.63562e+06,0,0,0,1198,3194
2.63563e+06,0,0,0,686,3706
2.6376e+06,0,0,0,1583,2809
2.6376e+06,0,0,0,763,3629
2.6376e+06,0,0,0,448,3944
2.6376e+06,0,0,0,133,4259
2.6376e+06,0,0,0,5,4387
2.63933e+06,0,0,0,2053,2339
2.63933e+06,0,0,0,1797,2595
2.63933e+06,0,0,0,1541,2851
2.63933e+06,0,0,0,1285,3107
2.63933e+06,0,0,0,1029,3363
2.63933e+06,0,0,0,773,3619
2.63933e+06,0,0,0,517,3875
2.63933e+06,0,0,0,261,4131
2.63933e+06,0,0,0,5,4387
2.64782e+06,0,0,0,320,4072
2.64782e+06,0,0,0,64,4328
2.64788e+06,0,0,0,379,4013
2.64788e+06,0,0,0,123,4269
2.64845e+06,0,0,0,251,4141
2.6573e+06,0,0,0,763,3629
2.65731e+06,0,0,0,507,3885
2.66087e+06,0,0,0,763,3629
2.66087e+06,0,0,0,251,4141
2.66099e+06,0,0,0,507,3885
2.661e+06,0,0,0,763,3629
2.661e+06,0,0,0,1019,3373
2.661e+06,0,0,0,251,4141
2.66103e+06,0,0,0,507,3885
2.66104e+06,0,0,0,763,3629
2.66104e+06,0,0,0,123,4269
2.66105e+06,0,0,0,379,4013
2.66106e+06,0,0,0,123,4269
2.66171e+06,0,0,0,943,3449
2.66171e+06,0,0,0,687,3705
2.66171e+06,0,0,0,431,3961
2.66171e+06,0,0,0,175,4217
2.666e+06,0,0,0,431,3961
2.66601e+06,0,0,0,175,4217
2.66946e+06,0,0,0,431,3961
2.66946e+06,0,0,0,175,4217
2.67202e+06,0,0,0,431,3961
2.67202e+06,0,0,0,175,4217
2.6725e+06,0,0,0,431,3961
2.6725e+06,0,0,0,175,4217
2.67315e+06,0,0,0,431,3961
2.67315e+06,0,0,0,175,4217
2.67317e+06,0,0,0,431,3961
2.67318e+06,0,0,0,175,4217
2.67318e+06,0,0,0,431,3961
2.67319e+06,0,0,0,175,4217
2.67749e+06,0,0,0,431,3961
2.67749e+06,0,0,0,175,4217
2.67884e+06,0,0,0,431,3961
2.67885e+06,0,0,0,175,4217
2.68095e+06,0,0,0,431,3961
2.68095e+06,0,0,0,175,4217
2.68259e+06,0,0,0,687,3705
2.68259e+06,0,0,0,431,3961
2.68259e+06,0,0,0,175,4217
2.68345e+06,0,0,0,431,3961
2.68346e+06,0,0,0,175,4217
2.68397e+06,0,0,0,431,3961
2.68398e+06,0,0,0,175,4217
2.68464e+06,0,0,0,431,3961
2.68465e+06,0,0,0,175,4217
2.68465e+06,0,0,0,431,3961
2.68465e+06,0,0,0,182,4210
2.68467e+06,0,0,0,438,3954
2.68467e+06,0,0,0,182,4210
2.68893e+06,0,0,0,438,3954
2.68894e+06,0,0,0,197,4195
2.69033e+06,0,0,0,453,3939
2.69033e+06,0,0,0,69,4323
2.69244e+06,0,0,0,325,4067
2.69244e+06,0,0,0,197,4195
2.69244e+06,0,0,0,69,4323
2.69408e+06,0,0,0,325,4067
2.69408e+06,0,0,0,197,4195
2.69412e+06,0,0,0,453,3939
2.6949e+06,0,0,0,709,3683
2.69541e+06,0,0,0,965,3427
2.69612e+06,0,0,0,1221,3171
2.69613e+06,0,0,0,197,4195
2.69613e+06,0,0,0,453,3939
2.7012e+06,0,0,0,837,3555
2.70319e+06,0,0,0,965,3427
2.70329e+06,0,0,0,1093,3299
2.7033e+06,0,0,0,103,4289
2.70436e+06,0,0,0,743,3649
2.70436e+06,0,0,0,1511,2881
2.70436e+06,0,0,0,1255,3137
2.70436e+06,0,0,0,999,3393
2.70436e+06,0,0,0,871,3521
2.70484e+06,0,0,0,999,3393
2.70484e+06,0,0,0,9,4383
2.70484e+06,0,0,0,5,4387
2.71051e+06,0,0,0,254,4138
2.71051e+06,0,0,0,126,4266
2.71051e+06,0,0,0,110,4282
2.71051e+06,0,0,0,78,4314
2.71697e+06,0,0,0,82,4310
2.7214e+06,0,0,0,98,4294
2.72141e+06,0,0,0,226,4166
2.72146e+06,0,0,0,258,4134
2.72257e+06,0,0,0,514,3878
2.72257e+06,0,0,0,199,4193
2.7234e+06,0,0,0,327,4065
2.7234e+06,0,0,0,12,4380
2.726e+06,0,0,0,268,4124
2.726e+06,0,0,0,140,4252
2.726e+06,0,0,0,12,4380
2.7286e+06,0,0,0,253,4139
2.7286e+06,0,0,0,125,4267
2.73103e+06,0,0,0,374,4018
2.73103e+06,0,0,0,246,4146
2.73103e+06,0,0,0,118,4274
2.7349e+06,0,0,0,433,3959
2.73491e+06,0,0,0,305,4087
2.73491e+06,0,0,0,177,4215
2.73491e+06,0,0,0,49,4343
2.7352e+06,0,0,0,364,4028
2.73521e+06,0,0,0,236,4156
2.73521e+06,0,0,0,108,4284
2.73687e+06,0,0,0,236,4156
2.73689e+06,0,0,0,364,4028
2.7369e+06,0,0,0,108,4284
2.73957e+06,0,0,0,236,4156
2.74189e+06,0,0,0,364,4028
2.74189e+06,0,0,0,49,4343
2.74195e+06,0,0,0,177,4215
2.74195e+06,0,0,0,49,4343
2.74486e+06,0,0,0,1073,3319
2.74487e+06,0,0,0,32,4360
2.74487e+06,0,0,0,31,4361
2.74487e+06,0,0,0,23,4369
2.74575e+06,0,0,0,151,4241
2.74575e+06,0,0,0,23,4369
2.74577e+06,0,0,0,151,4241
2.74577e+06,0,0,0,23,4369
2.74583e+06,0,0,0,151,4241
2.74583e+06,0,0,0,23,4369
2.74611e+06,0,0,0,151,4241
2.74611e+06,0,0,0,279,4113
2.74612e+06,0,0,0,23,4369
2.75278e+06,0,0,0,151,4241
2.75278e+06,0,0,0,23,4369
2.75357e+06,0,0,0,338,4054
2.75357e+06,0,0,0,82,4310
2.75649e+06,0,0,0,83,4309
2.75675e+06,0,0,0,211,4181
2.75676e+06,0,0,0,83,4309
2.75698e+06,0,0,0,91,4301
2.76368e+06,0,0,0,219,4173
2.76369e+06,0,0,0,91,4301
2.76528e+06,0,0,0,219,4173
2.76528e+06,0,0,0,91,4301
2.76529e+06,0,0,0,219,4173
2.7653e+06,0,0,0,91,4301
2.76765e+06,0,0,0,219,4173
2.76766e+06,0,0,0,91,4301
2.7678e+06,0,0,0,347,4045
2.76781e+06,0,0,0,219,4173
2.76781e+06,0,0,0,91,4301
2.77446e+06,0,0,0,219,4173
2.77521e+06,0,0,0,475,3917
2.77603e+06,0,0,0,603,3789
2.77622e+06,0,0,0,731,3661
2.77862e+06,0,0,0,859,3533
2.77869e+06,0,0,0,987,3405
2.7787e+06,0,0,0,1115,3277
2.78019e+06,0,0,0,1371,3021
2.7802e+06,0,0,0,171,4221
2.7802e+06,0,0,0,43,4349
2.78245e+06,0,0,0,1084,3308
2.78985e+06,0,0,0,2074,2318
2.78986e+06,0,0,0,874,3518
2.78986e+06,0,0,0,362,4030
2.78986e+06,0,0,0,106,4286
2.79138e+06,0,0,0,234,4158
2.79141e+06,0,0,0,1224,3168
2.79142e+06,0,0,0,975,3417
2.79142e+06,0,0,0,734,3658
2.79142e+06,0,0,0,419,3973
2.79142e+06,0,0,0,104,4288
2.80229e+06,0,0,0,419,3973
2.80244e+06,0,0,0,734,3658
2.8113e+06,0,0,0,990,3402
2.8113e+06,0,0,0,93,4299
2.81157e+06,0,0,0,605,3787
2.81158e+06,0,0,0,221,4171
2.81158e+06,0,0,0,93,4299
2.81745e+06,0,0,0,1293,3099
2.81746e+06,0,0,0,978,3414
2.81746e+06,0,0,0,663,3729
2.81746e+06,0,0,0,407,3985
2.81746e+06,0,0,0,279,4113
2.81746e+06,0,0,0,23,4369
2.82254e+06,0,0,0,151,4241
2.82347e+06,0,0,0,1351,3041
2.82347e+06,0,0,0,1095,3297
2.82347e+06,0,0,0,780,3612
2.82347e+06,0,0,0,465,3927
2.82347e+06,0,0,0,150,4242
2.82779e+06,0,0,0,465,3927
2.82779e+06,0,0,0,150,4242
2.82863e+06,0,0,0,278,4114
2.82909e+06,0,0,0,593,3799
2.82909e+06,0,0,0,278,4114
2.83107e+06,0,0,0,519,3873
2.83108e+06,0,0,0,204,4188
2.83315e+06,0,0,0,453,3939
2.83316e+06,0,0,0,197,4195
2.83363e+06,0,0,0,512,3880
2.83363e+06,0,0,0,197,4195
2.83363e+06,0,0,0,69,4323
2.8348e+06,0,0,0,325,4067
2.8348e+06,0,0,0,69,4323
2.83506e+06,0,0,0,384,4008
2.83506e+06,0,0,0,128,4264
2.8354e+06,0,0,0,443,3949
2.83806e+06,0,0,0,758,3634
2.83909e+06,0,0,0,1014,3378
2.83943e+06,0,0,0,1329,3063
2.83944e+06,0,0,0,305,4087
2.84136e+06,0,0,0,620,3772
2.84374e+06,0,0,0,1517,2875
2.84375e+06,0,0,0,493,3899
2.84409e+06,0,0,0,877,3515
2.8443e+06,0,0,0,1192,3200
2.8443e+06,0,0,0,168,4224
2.8443e+06,0,0,0,40,4352
2.84442e+06,0,0,0,168,4224
2.84442e+06,0,0,0,40,4352
2.84513e+06,0,0,0,296,4096
2.84514e+06,0,0,0,40,4352
2.8527e+06,0,0,0,296,4096
2.85514e+06,0,0,0,424,3968
2.8553e+06,0,0,0,552,3840
2.85604e+06,0,0,0,808,3584
2.85643e+06,0,0,0,1064,3328
2.85644e+06,0,0,0,40,4352
2.8568e+06,0,0,0,296,4096
2.8568e+06,0,0,0,168,4224
2.8568e+06,0,0,0,38,4354
2.86769e+06,0,0,0,168,4224
2.86769e+06,0,0,0,40,4352
2.8677e+06,0,0,0,168,4224
2.86771e+06,0,0,0,40,4352
2.87858e+06,0,0,0,168,4224
2.87858e+06,0,0,0,40,4352
2.87858e+06,0,0,0,168,4224
2.87859e+06,0,0,0,40,4352
2.8894e+06,0,0,0,168,4224
2.8894e+06,0,0,0,40,4352
2.88949e+06,0,0,0,168,4224
2.8895e+06,0,0,0,40,4352
2.90016e+06,0,0,0,168,4224
2.90016e+06,0,0,0,40,4352
2.90042e+06,0,0,0,168,4224
2.91099e+06,0,0,0,296,4096
2.92354e+06,0,0,0,1320,3072
2.92355e+06,0,0,0,296,4096
2.92798e+06,0,0,0,1320,3072
2.92798e+06,0,0,0,296,4096
2.92835e+06,0,0,0,1320,3072
2.92835e+06,0,0,0,296,4096
2.93453e+06,0,0,0,1320,3072
2.93453e+06,0,0,0,120,4272
2.94051e+06,0,0,0,1144,3248
2.94051e+06,0,0,0,247,4145
2.97289e+06,0,0,0,1144,3248
2.97777e+06,0,0,0,2344,2048
2.97777e+06,0,0,0,1144,3248
2.97777e+06,0,0,0,103,4289
3.00795e+06,0,0,0,1144,3248
3.00795e+06,0,0,0,903,3489
3.00795e+06,0,0,0,654,3738
3.0121e+06,0,0,0,1678,2714
3.0121e+06,0,0,0,654,3738
3.01281e+06,0,0,0,1678,2714
3.01282e+06,0,0,0,142,4250
3.02105e+06,0,0,0,1342,3050
3.02105e+06,0,0,0,1027,3365
3.02105e+06,0,0,0,195,4197
3.02105e+06,0,0,0,67,4325
3.03193e+06,0,0,0,195,4197
3.03778e+06,0,0,0,1731,2661
3.03778e+06,0,0,0,1475,2917
3.03778e+06,0,0,0,578,3814
3.03778e+06,0,0,0,450,3942
3.03778e+06,0,0,0,322,4070
3.03778e+06,0,0,0,194,4198
3.03778e+06,0,0,0,66,4326
3.04028e+06,0,0,0,1090,3302
3.04028e+06,0,0,0,66,4326
3.04276e+06,0,0,0,381,4011
3.04276e+06,0,0,0,253,4139
3.04276e+06,0,0,0,125,4267
3.04864e+06,0,0,0,253,4139
3.04866e+06,0,0,0,381,4011
3.04866e+06,0,0,0,509,3883
3.04868e+06,0,0,0,637,3755
3.05365e+06,0,0,0,765,3627
3.05366e+06,0,0,0,893,3499
3.05946e+06,0,0,0,1149,3243
3.05947e+06,0,0,0,125,4267
3.07016e+06,0,0,0,1022,3370
3.07016e+06,0,0,0,766,3626
3.07016e+06,0,0,0,510,3882
3.07016e+06,0,0,0,254,4138
3.07016e+06,0,0,0,126,4266
3.08106e+06,0,0,0,254,4138
3.08106e+06,0,0,0,126,4266
3.08117e+06,0,0,0,382,4010
3.08117e+06,0,0,0,254,4138
3.08117e+06,0,0,0,126,4266
3.08127e+06,0,0,0,382,4010
3.08127e+06,0,0,0,126,4266
3.08227e+06,0,0,0,382,4010
3.08228e+06,0,0,0,126,4266
3.09193e+06,0,0,0,254,4138
3.09194e+06,0,0,0,126,4266
3.09202e+06,0,0,0,254,4138
3.09202e+06,0,0,0,126,4266
3.09204e+06,0,0,0,254,4138
3.09205e+06,0,0,0,126,4266
3.10163e+06,0,0,0,1150,3242
3.10163e+06,0,0,0,126,4266
3.10278e+06,0,0,0,254,4138
3.10281e+06,0,0,0,382,4010
3.10288e+06,0,0,0,510,3882
3.10293e+06,0,0,0,766,3626
3.10394e+06,0,0,0,1022,3370
3.10677e+06,0,0,0,1854,2538
3.10677e+06,0,0,0,830,3562
3.10677e+06,0,0,0,515,3877
3.10677e+06,0,0,0,259,4133
3.10677e+06,0,0,0,3,4389
3.11504e+06,0,0,0,252,4140
3.11505e+06,0,0,0,124,4268
3.11946e+06,0,0,0,439,3953
3.11947e+06,0,0,0,183,4209
3.11947e+06,0,0,0,53,4339
3.12073e+06,0,0,0,1077,3315
3.12073e+06,0,0,0,53,4339
3.12573e+06,0,0,0,309,4083
3.12589e+06,0,0,0,437,3955
3.12644e+06,0,0,0,309,4083
3.12841e+06,0,0,0,565,3827
3.13033e+06,0,0,0,695,3697
3.13731e+06,0,0,0,823,3569
3.14111e+06,0,0,0,1079,3313
3.14111e+06,0,0,0,55,4337
3.16172e+06,0,0,0,1079,3313
3.16172e+06,0,0,0,55,4337
3.16799e+06,0,0,0,1079,3313
3.168e+06,0,0,0,55,4337
3.18266e+06,0,0,0,1079,3313
3.18266e+06,0,0,0,55,4337
3.2027e+06,0,0,0,296,4096
3.2027e+06,0,0,0,40,4352
3.20594e+06,0,0,0,1064,3328
3.20595e+06,0,0,0,40,4352
3.22272e+06,0,0,0,1064,3328
3.22272e+06,0,0,0,40,4352
3.22439e+06,0,0,0,296,4096
3.22439e+06,0,0,0,40,4352
3.23114e+06,0,0,0,1064,3328
3.23115e+06,0,0,0,40,4352
3.24248e+06,0,0,0,296,4096
3.24249e+06,0,0,0,40,4352
3.24413e+06,0,0,0,1064,3328
3.24413e+06,0,0,0,167,4225
3.24413e+06,0,0,0,39,4353
3.25501e+06,0,0,0,167,4225
3.26412e+06,0,0,0,423,3969
3.26412e+06,0,0,0,182,4210
3.26412e+06,0,0,0,54,4338
3.26648e+06,0,0,0,1078,3314
3.26649e+06,0,0,0,829,3563
3.26649e+06,0,0,0,27,4365
3.27488e+06,0,0,0,155,4237
3.27648e+06,0,0,0,1052,3340
3.27648e+06,0,0,0,796,3596
3.27648e+06,0,0,0,540,3852
3.27648e+06,0,0,0,156,4236
3.28379e+06,0,0,0,1180,3212
3.2838e+06,0,0,0,156,4236
3.29276e+06,0,0,0,1180,3212
3.29276e+06,0,0,0,865,3527
3.29276e+06,0,0,0,550,3842
3.29276e+06,0,0,0,235,4157
3.29463e+06,0,0,0,1259,3133
3.29463e+06,0,0,0,944,3448
3.29463e+06,0,0,0,629,3763
3.29463e+06,0,0,0,314,4078
3.29814e+06,0,0,0,570,3822
3.2982e+06,0,0,0,826,3566
3.30311e+06,0,0,0,1141,3251
3.30406e+06,0,0,0,1456,2936
3.30406e+06,0,0,0,48,4344
3.30424e+06,0,0,0,363,4029
3.30539e+06,0,0,0,678,3714
3.30598e+06,0,0,0,993,3399
3.30644e+06,0,0,0,1308,3084
3.30911e+06,0,0,0,1692,2700
3.30912e+06,0,0,0,284,4108
3.30912e+06,0,0,0,28,4364
3.31211e+06,0,0,0,277,4115
3.31211e+06,0,0,0,21,4371
3.32189e+06,0,0,0,277,4115
3.32189e+06,0,0,0,21,4371
3.3338e+06,0,0,0,277,4115
3.34348e+06,0,0,0,533,3859
3.34685e+06,0,0,0,1335,3057
3.34685e+06,0,0,0,503,3889
3.34743e+06,0,0,0,1911,2481
3.34743e+06,0,0,0,1014,3378
3.35239e+06,0,0,0,2422,1970
3.35239e+06,0,0,0,1398,2994
3.35239e+06,0,0,0,374,4018
3.35239e+06,0,0,0,118,4274
3.37399e+06,0,0,0,374,4018
3.37983e+06,0,0,0,1271,3121
3.37983e+06,0,0,0,887,3505
3.37983e+06,0,0,0,503,3889
3.37983e+06,0,0,0,119,4273
3.38446e+06,0,0,0,1143,3249
3.38447e+06,0,0,0,759,3633
3.38447e+06,0,0,0,375,4017
3.38447e+06,0,0,0,119,4273
3.40338e+06,0,0,0,1143,3249
3.40338e+06,0,0,0,759,3633
3.40338e+06,0,0,0,375,4017
3.40607e+06,0,0,0,631,3761
3.40607e+06,0,0,0,247,4145
3.41246e+06,0,0,0,631,3761
3.41246e+06,0,0,0,247,4145
3.41248e+06,0,0,0,631,3761
3.41248e+06,0,0,0,247,4145
3.41248e+06,0,0,0,631,3761
3.41249e+06,0,0,0,247,4145
3.41709e+06,0,0,0,631,3761
3.4171e+06,0,0,0,247,4145
3.41713e+06,0,0,0,631,3761
3.41713e+06,0,0,0,247,4145
3.43249e+06,0,0,0,1079,3313
3.4325e+06,0,0,0,695,3697
3.4325e+06,0,0,0,311,4081
3.43583e+06,0,0,0,695,3697
3.43584e+06,0,0,0,311,4081
3.43599e+06,0,0,0,695,3697
3.43599e+06,0,0,0,311,4081
3.43851e+06,0,0,0,695,3697
3.43851e+06,0,0,0,311,4081
3.44488e+06,0,0,0,695,3697
3.44489e+06,0,0,0,311,4081
3.44489e+06,0,0,0,55,4337
3.44498e+06,0,0,0,439,3953
3.44499e+06,0,0,0,823,3569
3.44499e+06,0,0,0,567,3825
3.44499e+06,0,0,0,311,4081
3.44499e+06,0,0,0,55,4337
3.44845e+06,0,0,0,296,4096
3.44846e+06,0,0,0,40,4352
3.44958e+06,0,0,0,424,3968
3.44958e+06,0,0,0,109,4283
3.44962e+06,0,0,0,493,3899
3.45983e+06,0,0,0,749,3643
3.46054e+06,0,0,0,1064,3328
3.46055e+06,0,0,0,40,4352
3.46498e+06,0,0,0,424,3968
3.46498e+06,0,0,0,808,3584
3.46653e+06,0,0,0,1064,3328
3.46653e+06,0,0,0,167,4225
3.46661e+06,0,0,0,423,3969
3.46663e+06,0,0,0,679,3713
3.46664e+06,0,0,0,935,3457
3.46828e+06,0,0,0,1319,3073
3.46844e+06,0,0,0,1703,2689
3.47108e+06,0,0,0,2087,2305
3.47733e+06,0,0,0,2471,1921
3.49894e+06,0,0,0,3368,1024
3.51569e+06,0,0,0,4392,0
