time,nb_sleeping,nb_switching_on,nb_switching_off,nb_idle,nb_computing
0.00240003,0,0,0,4136,256
0.00300004,0,0,0,4008,384
0.00360005,0,0,0,3880,512
0.00420006,0,0,0,3368,1024
0.00480006,0,0,0,3240,1152
0.00540007,0,0,0,2984,1408
0.00600008,0,0,0,2728,1664
0.00660009,0,0,0,2600,1792
0.0072001,0,0,0,2344,2048
0.0078001,0,0,0,2088,2304
0.00840011,0,0,0,1704,2688
0.00900012,0,0,0,1448,2944
0.00960013,0,0,0,1192,3200
0.0102001,0,0,0,936,3456
0.0108001,0,0,0,680,3712
0.0114002,0,0,0,424,3968
0.0120002,0,0,0,168,4224
0.0126002,0,0,0,40,4352
10362,0,0,0,296,4096
10497,0,0,0,680,3712
10500,0,0,0,40,4352
10739,0,0,0,168,4224
10823,0,0,0,296,4096
10917,0,0,0,424,3968
10920,0,0,0,40,4352
10930,0,0,0,168,4224
12103,0,0,0,424,3968
12208,0,0,0,552,3840
12379,0,0,0,808,3584
12382,0,0,0,6,4386
12732,0,0,0,262,4130
12735,0,0,0,6,4386
12841,0,0,0,262,4130
12844,0,0,0,6,4386
13242,0,0,0,262,4130
13245,0,0,0,134,4258
13342,0,0,0,390,4002
13345,0,0,0,134,4258
13353,0,0,0,646,3746
13356,0,0,0,390,4002
21609,0,0,0,646,3746
21701,0,0,0,902,3490
21704,0,0,0,100,4292
21727,0,0,0,356,4036
21730,0,0,0,228,4164
21755,0,0,0,484,3908
21758,0,0,0,228,4164
23388,0,0,0,1030,3362
23391,0,0,0,774,3618
24236,0,0,0,902,3490
24239,0,0,0,100,4292
24569,0,0,0,356,4036
24572,0,0,0,228,4164
24572,0,0,0,100,4292
24730,0,0,0,356,4036
24733,0,0,0,100,4292
25152,0,0,0,356,4036
25155,0,0,0,100,4292
30463,0,0,0,356,4036
30898,0,0,0,740,3652
32558,0,0,0,868,3524
32561,0,0,0,66,4326
32619,0,0,0,868,3524
32622,0,0,0,484,3908
32622,0,0,0,228,4164
35143,0,0,0,1030,3362
35146,0,0,0,530,3862
35146,0,0,0,274,4118
35146,0,0,0,18,4374
35382,0,0,0,146,4246
35545,0,0,0,274,4118
36506,0,0,0,530,3862
43479,0,0,0,1332,3060
43482,0,0,0,530,3862
43482,0,0,0,402,3990
43482,0,0,0,274,4118
43482,0,0,0,18,4374
43531,0,0,0,274,4118
43534,0,0,0,146,4246
44455,0,0,0,402,3990
45081,0,0,0,658,3734
45161,0,0,0,914,3478
45164,0,0,0,112,4280
46531,0,0,0,368,4024
47002,0,0,0,624,3768
54353,0,0,0,752,3640
54400,0,0,0,880,3512
54403,0,0,0,78,4314
54421,0,0,0,880,3512
54424,0,0,0,624,3768
54424,0,0,0,496,3896
54424,0,0,0,368,4024
54424,0,0,0,240,4152
54427,0,0,0,368,4024
55044,0,0,0,1008,3384
55047,0,0,0,206,4186
55809,0,0,0,462,3930
56086,0,0,0,1264,3128
56089,0,0,0,462,3930
65185,0,0,0,846,3546
65188,0,0,0,44,4348
65334,0,0,0,846,3546
65337,0,0,0,590,3802
65337,0,0,0,334,4058
65337,0,0,0,206,4186
65337,0,0,0,78,4314
65938,0,0,0,880,3512
65941,0,0,0,78,4314
66536,0,0,0,206,4186
66539,0,0,0,78,4314
66610,0,0,0,206,4186
66672,0,0,0,334,4058
67118,0,0,0,1136,3256
67121,0,0,0,334,4058
67121,0,0,0,206,4186
67121,0,0,0,78,4314
68843,0,0,0,578,3814
68846,0,0,0,322,4070
68846,0,0,0,66,4326
76126,0,0,0,868,3524
76164,0,0,0,1124,3268
76167,0,0,0,100,4292
76241,0,0,0,228,4164
76576,0,0,0,484,3908
76883,0,0,0,1286,3106
76886,0,0,0,262,4130
76886,0,0,0,134,4258
76886,0,0,0,6,4386
77345,0,0,0,134,4258
77468,0,0,0,262,4130
77471,0,0,0,6,4386
78089,0,0,0,134,4258
78092,0,0,0,6,4386
78093,0,0,0,808,3584
78096,0,0,0,680,3712
78115,0,0,0,808,3584
78118,0,0,0,6,4386
86965,0,0,0,262,4130
87482,0,0,0,518,3874
87795,0,0,0,646,3746
87804,0,0,0,774,3618
88967,0,0,0,902,3490
88970,0,0,0,100,4292
89032,0,0,0,902,3490
89035,0,0,0,774,3618
89035,0,0,0,646,3746
89050,0,0,0,774,3618
90586,0,0,0,1030,3362
90589,0,0,0,228,4164
91799,0,0,0,484,3908
99883,0,0,0,612,3780
99915,0,0,0,1414,2978
99918,0,0,0,390,4002
100018,0,0,0,518,3874
100021,0,0,0,6,4386
101530,0,0,0,808,3584
101533,0,0,0,680,3712
101533,0,0,0,552,3840
101533,0,0,0,424,3968
101533,0,0,0,232,4160
101533,0,0,0,104,4288
111534,0,0,0,232,4160
111537,0,0,0,104,4288
111896,0,0,0,296,4096
111899,0,0,0,168,4224
111899,0,0,0,40,4352
112406,0,0,0,168,4224
112409,0,0,0,40,4352
112426,0,0,0,168,4224
112461,0,0,0,296,4096
121801,0,0,0,424,3968
121936,0,0,0,552,3840
122540,0,0,0,680,3712
122816,0,0,0,1704,2688
122819,0,0,0,902,3490
122819,0,0,0,774,3618
122819,0,0,0,646,3746
123084,0,0,0,1158,3234
123087,0,0,0,356,4036
123456,0,0,0,484,3908
131412,0,0,0,1508,2884
131415,0,0,0,706,3686
131415,0,0,0,442,3950
133736,0,0,0,570,3822
133742,0,0,0,1372,3020
133745,0,0,0,570,3822
133745,0,0,0,442,3950
133745,0,0,0,314,4078
133745,0,0,0,186,4206
133745,0,0,0,58,4334
134876,0,0,0,186,4206
135417,0,0,0,988,3404
135420,0,0,0,186,4206
143875,0,0,0,988,3404
143878,0,0,0,732,3660
143878,0,0,0,604,3788
143878,0,0,0,476,3916
144726,0,0,0,604,3788
144746,0,0,0,732,3660
144804,0,0,0,860,3532
144807,0,0,0,58,4334
145854,0,0,0,186,4206
146206,0,0,0,988,3404
146209,0,0,0,732,3660
146209,0,0,0,348,4044
146209,0,0,0,220,4172
146421,0,0,0,1022,3370
146424,0,0,0,766,3626
146424,0,0,0,510,3882
154326,0,0,0,774,3618
155734,0,0,0,1576,2816
155957,0,0,0,1704,2688
156007,0,0,0,1832,2560
156293,0,0,0,2088,2304
156296,0,0,0,40,4352
157362,0,0,0,296,4096
157365,0,0,0,168,4224
157365,0,0,0,40,4352
158428,0,0,0,168,4224
158431,0,0,0,40,4352
162617,0,0,0,296,4096
163406,0,0,0,1320,3072
167814,0,0,0,1576,2816
168968,0,0,0,1704,2688
169579,0,0,0,1832,2560
169666,0,0,0,1960,2432
170090,0,0,0,2344,2048
170093,0,0,0,296,4096
177940,0,0,0,2344,2048
177943,0,0,0,1542,2850
177943,0,0,0,740,3652
177943,0,0,0,612,3780
177943,0,0,0,484,3908
177943,0,0,0,356,4036
177943,0,0,0,228,4164
188482,0,0,0,356,4036
188762,0,0,0,484,3908
188777,0,0,0,612,3780
188811,0,0,0,740,3652
188841,0,0,0,1542,2850
188844,0,0,0,740,3652
188844,0,0,0,612,3780
188844,0,0,0,356,4036
188844,0,0,0,100,4292
188853,0,0,0,902,3490
191756,0,0,0,2950,1442
191759,0,0,0,1926,2466
191759,0,0,0,1798,2594
191759,0,0,0,1670,2722
191759,0,0,0,1542,2850
191759,0,0,0,1414,2978
191759,0,0,0,1286,3106
191759,0,0,0,1278,3114
191759,0,0,0,1270,3122
191759,0,0,0,1014,3378
191759,0,0,0,758,3634
191759,0,0,0,630,3762
191759,0,0,0,374,4018
191759,0,0,0,118,4274
199768,0,0,0,246,4146
199772,0,0,0,1048,3344
199775,0,0,0,792,3600
199775,0,0,0,152,4240
202668,0,0,0,280,4112
202671,0,0,0,408,3984
202674,0,0,0,24,4368
203808,0,0,0,152,4240
203821,0,0,0,280,4112
206288,0,0,0,536,3856
206737,0,0,0,792,3600
210460,0,0,0,1048,3344
210463,0,0,0,246,4146
210463,0,0,0,118,4274
213380,0,0,0,374,4018
213383,0,0,0,246,4146
213383,0,0,0,238,4154
213383,0,0,0,110,4282
213386,0,0,0,366,4026
213389,0,0,0,238,4154
213389,0,0,0,110,4282
213457,0,0,0,366,4026
219584,0,0,0,1390,3002
219587,0,0,0,1006,3386
219587,0,0,0,878,3514
221371,0,0,0,1134,3258
221389,0,0,0,1262,3130
221402,0,0,0,2064,2328
222501,0,0,0,1040,3352
224247,0,0,0,1168,3224
224249,0,0,0,1296,3096
224276,0,0,0,1424,2968
224286,0,0,0,1552,2840
227521,0,0,0,528,3864
229354,0,0,0,272,4120
229397,0,0,0,16,4376
230516,0,0,0,144,4248
235084,0,0,0,528,3864
235087,0,0,0,272,4120
237019,0,0,0,1296,3096
237022,0,0,0,272,4120
238713,0,0,0,1296,3096
238716,0,0,0,272,4120
240325,0,0,0,528,3864
240703,0,0,0,784,3608
243064,0,0,0,1424,2968
243067,0,0,0,400,3992
245592,0,0,0,656,3736
247264,0,0,0,1040,3352
247267,0,0,0,16,4376
258698,0,0,0,1040,3352
258701,0,0,0,784,3608
258701,0,0,0,528,3864
258701,0,0,0,272,4120
260399,0,0,0,1296,3096
260402,0,0,0,772,3620
264802,0,0,0,1796,2596
264805,0,0,0,988,3404
264805,0,0,0,592,3800
264805,0,0,0,336,4056
264805,0,0,0,80,4312
272576,0,0,0,88,4304
275728,0,0,0,344,4048
279370,0,0,0,600,3792
280309,0,0,0,856,3536
280328,0,0,0,1112,3280
280331,0,0,0,88,4304
280339,0,0,0,344,4048
280342,0,0,0,216,4176
286525,0,0,0,612,3780
286528,0,0,0,356,4036
286528,0,0,0,228,4164
287592,0,0,0,356,4036
287595,0,0,0,100,4292
287713,0,0,0,108,4284
287998,0,0,0,116,4276
290765,0,0,0,244,4148
291231,0,0,0,372,4020
293707,0,0,0,1180,3212
293710,0,0,0,796,3596
293710,0,0,0,540,3852
293906,0,0,0,412,3980
294227,0,0,0,936,3456
297489,0,0,0,1064,3328
301252,0,0,0,808,3584
304861,0,0,0,936,3456
307292,0,0,0,134,4258
308227,0,0,0,390,4002
310511,0,0,0,646,3746
312972,0,0,0,1030,3362
312975,0,0,0,228,4164
315471,0,0,0,484,3908
316842,0,0,0,356,4036
317162,0,0,0,228,4164
317662,0,0,0,1252,3140
317665,0,0,0,450,3942
318202,0,0,0,1252,3140
318205,0,0,0,450,3942
318852,0,0,0,706,3686
318855,0,0,0,194,4198
324011,0,0,0,996,3396
324014,0,0,0,194,4198
327180,0,0,0,322,4070
327183,0,0,0,66,4326
327787,0,0,0,194,4198
328689,0,0,0,996,3396
328692,0,0,0,740,3652
329126,0,0,0,1542,2850
332141,0,0,0,1286,3106
334937,0,0,0,2088,2304
340495,0,0,0,2600,1792
341013,0,0,0,2856,1536
342884,0,0,0,3112,1280
344149,0,0,0,3368,1024
346379,0,0,0,4392,0
346382,0,0,0,296,4096
357084,0,0,0,40,4352
375933,0,0,0,296,4096
389308,0,0,0,40,4352
400043,0,0,0,296,4096
403982,0,0,0,40,4352
415695,0,0,0,296,4096
419306,0,0,0,4392,0
419309,0,0,0,3590,802
419309,0,0,0,2566,1826
419309,0,0,0,518,3874
419309,0,0,0,198,4194
419309,0,0,0,70,4322
429344,0,0,0,198,4194
429347,0,0,0,6,4386
437145,0,0,0,326,4066
439483,0,0,0,518,3874
440916,0,0,0,1542,2850
440919,0,0,0,518,3874
440919,0,0,0,6,4386
440939,0,0,0,2054,2338
440942,0,0,0,1030,3362
440942,0,0,0,6,4386
443959,0,0,0,808,3584
443962,0,0,0,6,4386
454955,0,0,0,808,3584
462693,0,0,0,1320,3072
462696,0,0,0,296,4096
468811,0,0,0,1320,3072
468814,0,0,0,296,4096
470871,0,0,0,1320,3072
470874,0,0,0,296,4096
470874,0,0,0,40,4352
492537,0,0,0,296,4096
493203,0,0,0,1320,3072
493206,0,0,0,296,4096
498758,0,0,0,1320,3072
498761,0,0,0,296,4096
500687,0,0,0,1320,3072
500690,0,0,0,518,3874
500690,0,0,0,390,4002
500690,0,0,0,262,4130
500690,0,0,0,134,4258
500690,0,0,0,6,4386
511390,0,0,0,134,4258
511608,0,0,0,262,4130
511612,0,0,0,390,4002
511619,0,0,0,518,3874
511637,0,0,0,1320,3072
511640,0,0,0,518,3874
517734,0,0,0,1542,2850
517737,0,0,0,740,3652
520523,0,0,0,1764,2628
520526,0,0,0,962,3430
520526,0,0,0,433,3959
522616,0,0,0,1235,3157
522619,0,0,0,211,4181
526139,0,0,0,1235,3157
526142,0,0,0,211,4181
526142,0,0,0,83,4309
528676,0,0,0,885,3507
528679,0,0,0,83,4309
531495,0,0,0,885,3507
531498,0,0,0,373,4019
531498,0,0,0,245,4147
531498,0,0,0,117,4275
536359,0,0,0,245,4147
536362,0,0,0,117,4275
539615,0,0,0,919,3473
539618,0,0,0,117,4275
540073,0,0,0,1141,3251
540076,0,0,0,339,4053
540076,0,0,0,211,4181
540076,0,0,0,83,4309
541242,0,0,0,612,3780
541833,0,0,0,740,3652
542100,0,0,0,1252,3140
542449,0,0,0,1380,3012
547342,0,0,0,1508,2884
550282,0,0,0,1636,2756
550561,0,0,0,2438,1954
550974,0,0,0,3240,1152
551066,0,0,0,3368,1024
551630,0,0,0,4392,0
551633,0,0,0,296,4096
551633,0,0,0,40,4352
573260,0,0,0,296,4096
573263,0,0,0,40,4352
594879,0,0,0,296,4096
594882,0,0,0,168,4224
594882,0,0,0,40,4352
605774,0,0,0,168,4224
605818,0,0,0,296,4096
612045,0,0,0,4392,0
612048,0,0,0,3368,1024
612048,0,0,0,1320,3072
612048,0,0,0,296,4096
612048,0,0,0,40,4352
626056,0,0,0,1064,3328
626059,0,0,0,40,4352
626534,0,0,0,1064,3328
626537,0,0,0,808,3584
626537,0,0,0,424,3968
626537,0,0,0,40,4352
633694,0,0,0,296,4096
634866,0,0,0,2344,2048
634869,0,0,0,1960,2432
634869,0,0,0,936,3456
634869,0,0,0,552,3840
634869,0,0,0,296,4096
634869,0,0,0,168,4224
634869,0,0,0,40,4352
645310,0,0,0,168,4224
645782,0,0,0,296,4096
648181,0,0,0,552,3840
648889,0,0,0,936,3456
648892,0,0,0,134,4258
656485,0,0,0,390,4002
656488,0,0,0,134,4258
658952,0,0,0,518,3874
659032,0,0,0,902,3490
659035,0,0,0,100,4292
659820,0,0,0,902,3490
668446,0,0,0,1286,3106
668449,0,0,0,262,4130
669989,0,0,0,1064,3328
669992,0,0,0,552,3840
679405,0,0,0,808,3584
679408,0,0,0,6,4386
687389,0,0,0,1030,3362
687392,0,0,0,118,4274
690063,0,0,0,1142,3250
690066,0,0,0,618,3774
690066,0,0,0,106,4286
690345,0,0,0,908,3484
690348,0,0,0,780,3612
690348,0,0,0,652,3740
690348,0,0,0,524,3868
690348,0,0,0,268,4124
690348,0,0,0,140,4252
690348,0,0,0,12,4380
691611,0,0,0,524,3868
693363,0,0,0,1548,2844
701274,0,0,0,1676,2716
701283,0,0,0,1804,2588
701291,0,0,0,1932,2460
701305,0,0,0,2060,2332
701308,0,0,0,60,4332
701349,0,0,0,188,4204
701352,0,0,0,60,4332
711752,0,0,0,572,3820
711755,0,0,0,444,3948
711755,0,0,0,316,4076
711755,0,0,0,60,4332
712318,0,0,0,188,4204
713264,0,0,0,444,3948
721920,0,0,0,572,3820
721973,0,0,0,700,3692
722307,0,0,0,956,3436
722615,0,0,0,1480,2912
722618,0,0,0,280,4112
731316,0,0,0,2280,2112
731319,0,0,0,680,3712
731319,0,0,0,424,3968
731319,0,0,0,168,4224
731319,0,0,0,40,4352
742256,0,0,0,168,4224
745557,0,0,0,1368,3024
752918,0,0,0,1624,2768
752951,0,0,0,1880,2512
752959,0,0,0,3480,912
752962,0,0,0,1480,2912
752962,0,0,0,1224,3168
752962,0,0,0,968,3424
752962,0,0,0,712,3680
752962,0,0,0,456,3936
752962,0,0,0,72,4320
755687,0,0,0,984,3408
755690,0,0,0,728,3664
755690,0,0,0,472,3920
755690,0,0,0,216,4176
755690,0,0,0,88,4304
766628,0,0,0,216,4176
772365,0,0,0,600,3792
772368,0,0,0,216,4176
774560,0,0,0,2216,2176
774563,0,0,0,1568,2824
774563,0,0,0,1312,3080
774563,0,0,0,812,3580
774623,0,0,0,1068,3324
774626,0,0,0,44,4348
774631,0,0,0,300,4092
774634,0,0,0,44,4348
774661,0,0,0,300,4092
774664,0,0,0,44,4348
774723,0,0,0,300,4092
777280,0,0,0,556,3836
777292,0,0,0,812,3580
777345,0,0,0,1068,3324
777348,0,0,0,244,4148
784716,0,0,0,892,3500
784719,0,0,0,380,4012
784719,0,0,0,124,4268
785631,0,0,0,380,4012
785633,0,0,0,636,3756
785637,0,0,0,380,4012
794541,0,0,0,880,3512
794544,0,0,0,368,4024
794987,0,0,0,624,3768
794990,0,0,0,112,4280
796218,0,0,0,1136,3256
796221,0,0,0,120,4272
804768,0,0,0,504,3888
804771,0,0,0,376,4016
806307,0,0,0,888,3504
806466,0,0,0,1144,3248
806469,0,0,0,120,4272
807363,0,0,0,376,4016
807366,0,0,0,120,4272
816325,0,0,0,248,4144
821901,0,0,0,504,3888
821904,0,0,0,248,4144
823489,0,0,0,760,3632
823492,0,0,0,504,3888
823918,0,0,0,1016,3376
823921,0,0,0,376,4016
823921,0,0,0,248,4144
832831,0,0,0,504,3888
832834,0,0,0,120,4272
834408,0,0,0,376,4016
834411,0,0,0,248,4144
834411,0,0,0,120,4272
834839,0,0,0,248,4144
837766,0,0,0,888,3504
837769,0,0,0,632,3760
837769,0,0,0,504,3888
837769,0,0,0,248,4144
845223,0,0,0,376,4016
845226,0,0,0,120,4272
845342,0,0,0,248,4144
848673,0,0,0,504,3888
848676,0,0,0,248,4144
848711,0,0,0,376,4016
848714,0,0,0,120,4272
854317,0,0,0,504,3888
854320,0,0,0,248,4144
854320,0,0,0,120,4272
855541,0,0,0,376,4016
855544,0,0,0,248,4144
859056,0,0,0,504,3888
859059,0,0,0,120,4272
859366,0,0,0,1136,3256
859367,0,0,0,1392,3000
859372,0,0,0,1264,3128
859372,0,0,0,1008,3384
859372,0,0,0,496,3896
859372,0,0,0,240,4152
859667,0,0,0,496,3896
859670,0,0,0,240,4152
863862,0,0,0,1064,3328
863865,0,0,0,808,3584
863865,0,0,0,424,3968
863865,0,0,0,40,4352
865201,0,0,0,296,4096
865211,0,0,0,424,3968
865214,0,0,0,40,4352
866486,0,0,0,168,4224
866489,0,0,0,40,4352
870107,0,0,0,296,4096
870287,0,0,0,424,3968
870328,0,0,0,680,3712
870331,0,0,0,168,4224
873252,0,0,0,1192,3200
873255,0,0,0,936,3456
873255,0,0,0,680,3712
873255,0,0,0,424,3968
873255,0,0,0,296,4096
873255,0,0,0,168,4224
874790,0,0,0,424,3968
875784,0,0,0,680,3712
877425,0,0,0,808,3584
880780,0,0,0,1192,3200
880783,0,0,0,168,4224
880783,0,0,0,40,4352
881261,0,0,0,552,3840
881264,0,0,0,296,4096
881264,0,0,0,168,4224
884167,0,0,0,296,4096
884170,0,0,0,40,4352
884192,0,0,0,296,4096
884195,0,0,0,40,4352
884201,0,0,0,296,4096
884204,0,0,0,40,4352
884237,0,0,0,168,4224
888415,0,0,0,680,3712
888418,0,0,0,424,3968
888418,0,0,0,296,4096
888418,0,0,0,168,4224
888418,0,0,0,40,4352
891692,0,0,0,168,4224
892200,0,0,0,296,4096
892203,0,0,0,40,4352
892205,0,0,0,296,4096
892208,0,0,0,40,4352
895004,0,0,0,296,4096
895007,0,0,0,168,4224
895114,0,0,0,424,3968
895117,0,0,0,40,4352
896300,0,0,0,424,3968
896303,0,0,0,168,4224
896307,0,0,0,552,3840
896310,0,0,0,296,4096
896310,0,0,0,168,4224
896310,0,0,0,40,4352
896997,0,0,0,296,4096
897000,0,0,0,40,4352
897787,0,0,0,424,3968
897790,0,0,0,168,4224
898467,0,0,0,424,3968
898470,0,0,0,168,4224
899346,0,0,0,296,4096
899349,0,0,0,40,4352
899368,0,0,0,168,4224
899392,0,0,0,296,4096
899395,0,0,0,40,4352
905929,0,0,0,168,4224
905932,0,0,0,40,4352
907110,0,0,0,296,4096
907113,0,0,0,40,4352
907240,0,0,0,168,4224
907329,0,0,0,296,4096
907332,0,0,0,40,4352
910142,0,0,0,296,4096
910145,0,0,0,40,4352
910297,0,0,0,296,4096
910300,0,0,0,40,4352
911047,0,0,0,296,4096
911667,0,0,0,552,3840
911670,0,0,0,52,4340
913009,0,0,0,308,4084
913012,0,0,0,52,4340
913083,0,0,0,308,4084
913086,0,0,0,180,4212
913086,0,0,0,52,4340
913464,0,0,0,308,4084
913467,0,0,0,180,4212
913467,0,0,0,52,4340
913958,0,0,0,308,4084
916885,0,0,0,436,3956
916895,0,0,0,820,3572
917931,0,0,0,1076,3316
923799,0,0,0,1204,3188
923903,0,0,0,1332,3060
924376,0,0,0,1460,2932
924410,0,0,0,1588,2804
928600,0,0,0,1844,2548
928816,0,0,0,2100,2292
928968,0,0,0,2356,2036
929438,0,0,0,2856,1536
931790,0,0,0,3112,1280
932023,0,0,0,3368,1024
948738,0,0,0,2566,1826
951182,0,0,0,2310,2082
961226,0,0,0,3334,1058
964897,0,0,0,3590,802
967748,0,0,0,3334,1058
967961,0,0,0,3078,1314
969467,0,0,0,2822,1570
969480,0,0,0,2566,1826
989393,0,0,0,2822,1570
989558,0,0,0,3078,1314
991099,0,0,0,3334,1058
991600,0,0,0,3078,1314
992378,0,0,0,3334,1058
994130,0,0,0,2694,1698
995007,0,0,0,578,3814
1.00263e+06,0,0,0,834,3558
1.00519e+06,0,0,0,178,4214
1.0065e+06,0,0,0,818,3574
1.0065e+06,0,0,0,306,4086
1.01513e+06,0,0,0,2422,1970
1.01514e+06,0,0,0,1398,2994
1.02008e+06,0,0,0,374,4018
1.0205e+06,0,0,0,886,3506
1.02361e+06,0,0,0,630,3762
1.03375e+06,0,0,0,886,3506
1.03638e+06,0,0,0,1688,2704
1.03638e+06,0,0,0,664,3728
1.05403e+06,0,0,0,1688,2704
1.07012e+06,0,0,0,1304,3088
1.09095e+06,0,0,0,1048,3344
1.09097e+06,0,0,0,792,3600
1.09117e+06,0,0,0,536,3856
1.09119e+06,0,0,0,280,4112
1.09175e+06,0,0,0,936,3456
1.09531e+06,0,0,0,412,3980
1.10165e+06,0,0,0,1436,2956
1.10243e+06,0,0,0,1820,2572
1.10409e+06,0,0,0,1692,2700
1.11261e+06,0,0,0,1948,2444
1.11262e+06,0,0,0,2204,2188
1.11399e+06,0,0,0,88,4304
1.11402e+06,0,0,0,344,4048
1.11403e+06,0,0,0,600,3792
1.11504e+06,0,0,0,728,3664
1.12185e+06,0,0,0,600,3792
1.12205e+06,0,0,0,472,3920
1.12431e+06,0,0,0,216,4176
1.1246e+06,0,0,0,1240,3152
1.12786e+06,0,0,0,1764,2628
1.13281e+06,0,0,0,1892,2500
1.13298e+06,0,0,0,2020,2372
1.13413e+06,0,0,0,4136,256
1.13601e+06,0,0,0,4008,384
1.13702e+06,0,0,0,3752,640
1.146e+06,0,0,0,4008,384
1.14811e+06,0,0,0,4136,256
1.15995e+06,0,0,0,4392,0
1.16063e+06,0,0,0,3368,1024
1.16064e+06,0,0,0,2344,2048
1.16064e+06,0,0,0,1320,3072
1.16065e+06,0,0,0,296,4096
1.17069e+06,0,0,0,1320,3072
1.1707e+06,0,0,0,296,4096
1.17079e+06,0,0,0,1320,3072
1.17079e+06,0,0,0,296,4096
1.1708e+06,0,0,0,1320,3072
1.1708e+06,0,0,0,296,4096
1.17084e+06,0,0,0,1320,3072
1.17085e+06,0,0,0,296,4096
1.18082e+06,0,0,0,1320,3072
1.18082e+06,0,0,0,296,4096
1.18089e+06,0,0,0,1320,3072
1.18089e+06,0,0,0,296,4096
1.18204e+06,0,0,0,1320,3072
1.18205e+06,0,0,0,296,4096
1.18225e+06,0,0,0,1320,3072
1.18225e+06,0,0,0,296,4096
1.19088e+06,0,0,0,1320,3072
1.19088e+06,0,0,0,296,4096
1.19093e+06,0,0,0,1320,3072
1.19093e+06,0,0,0,296,4096
1.19093e+06,0,0,0,40,4352
1.20186e+06,0,0,0,296,4096
1.21062e+06,0,0,0,1320,3072
1.21062e+06,0,0,0,296,4096
1.21281e+06,0,0,0,1320,3072
1.21281e+06,0,0,0,296,4096
1.21995e+06,0,0,0,1320,3072
1.21995e+06,0,0,0,296,4096
1.21995e+06,0,0,0,168,4224
1.22034e+06,0,0,0,1192,3200
1.22034e+06,0,0,0,936,3456
1.22034e+06,0,0,0,552,3840
1.22034e+06,0,0,0,296,4096
1.22034e+06,0,0,0,168,4224
1.22034e+06,0,0,0,40,4352
1.23131e+06,0,0,0,168,4224
1.23206e+06,0,0,0,296,4096
1.23247e+06,0,0,0,424,3968
1.23253e+06,0,0,0,680,3712
1.23264e+06,0,0,0,1064,3328
1.23264e+06,0,0,0,262,4130
1.23264e+06,0,0,0,6,4386
1.23964e+06,0,0,0,1030,3362
1.23964e+06,0,0,0,518,3874
1.23964e+06,0,0,0,255,4137
1.2416e+06,0,0,0,1279,3113
1.2416e+06,0,0,0,1023,3369
1.2416e+06,0,0,0,767,3625
1.2416e+06,0,0,0,256,4136
1.2416e+06,0,0,0,0,4392
1.24213e+06,0,0,0,256,4136
1.24358e+06,0,0,0,1058,3334
1.24359e+06,0,0,0,256,4136
1.24359e+06,0,0,0,128,4264
1.24771e+06,0,0,0,1152,3240
1.24771e+06,0,0,0,896,3496
1.24771e+06,0,0,0,640,3752
1.24771e+06,0,0,0,384,4008
1.24771e+06,0,0,0,0,4392
1.25261e+06,0,0,0,256,4136
1.25261e+06,0,0,0,64,4328
1.25279e+06,0,0,0,576,3816
1.25319e+06,0,0,0,192,4200
1.254e+06,0,0,0,64,4328
1.25434e+06,0,0,0,320,4072
1.25435e+06,0,0,0,192,4200
1.25451e+06,0,0,0,994,3398
1.25561e+06,0,0,0,738,3654
1.25568e+06,0,0,0,482,3910
1.25583e+06,0,0,0,610,3782
1.25583e+06,0,0,0,98,4294
1.25839e+06,0,0,0,354,4038
1.25914e+06,0,0,0,610,3782
1.25915e+06,0,0,0,482,3910
1.25993e+06,0,0,0,738,3654
1.26101e+06,0,0,0,482,3910
1.26128e+06,0,0,0,738,3654
1.26276e+06,0,0,0,930,3462
1.26353e+06,0,0,0,450,3942
1.26612e+06,0,0,0,578,3814
1.26612e+06,0,0,0,98,4294
1.26646e+06,0,0,0,226,4166
1.27009e+06,0,0,0,354,4038
1.27064e+06,0,0,0,610,3782
1.27064e+06,0,0,0,130,4262
1.2711e+06,0,0,0,514,3878
1.27111e+06,0,0,0,34,4358
1.27119e+06,0,0,0,290,4102
1.27406e+06,0,0,0,801,3591
1.27406e+06,0,0,0,481,3911
1.27406e+06,0,0,0,161,4231
1.27423e+06,0,0,0,417,3975
1.27423e+06,0,0,0,97,4295
1.27785e+06,0,0,0,577,3815
1.27785e+06,0,0,0,257,4135
1.27785e+06,0,0,0,1,4391
1.27999e+06,0,0,0,385,4007
1.27999e+06,0,0,0,129,4263
1.28056e+06,0,0,0,609,3783
1.28056e+06,0,0,0,353,4039
1.28056e+06,0,0,0,225,4167
1.28393e+06,0,0,0,481,3911
1.28394e+06,0,0,0,225,4167
1.28484e+06,0,0,0,545,3847
1.28545e+06,0,0,0,865,3527
1.28553e+06,0,0,0,225,4167
1.28623e+06,0,0,0,545,3847
1.28649e+06,0,0,0,1025,3367
1.28694e+06,0,0,0,1537,2855
1.28736e+06,0,0,0,2017,2375
1.28926e+06,0,0,0,2273,2119
1.28926e+06,0,0,0,225,4167
1.29032e+06,0,0,0,545,3847
1.29038e+06,0,0,0,801,3591
1.2907e+06,0,0,0,1057,3335
1.2907e+06,0,0,0,33,4359
1.2926e+06,0,0,0,161,4231
1.29554e+06,0,0,0,801,3591
1.29554e+06,0,0,0,545,3847
1.30269e+06,0,0,0,417,3975
1.30401e+06,0,0,0,673,3719
1.30694e+06,0,0,0,929,3463
1.31091e+06,0,0,0,2977,1415
1.31091e+06,0,0,0,929,3463
1.31489e+06,0,0,0,1057,3335
1.31661e+06,0,0,0,673,3719
1.3264e+06,0,0,0,289,4103
1.33528e+06,0,0,0,1313,3079
1.33734e+06,0,0,0,1697,2695
1.34558e+06,0,0,0,1569,2823
1.34561e+06,0,0,0,1441,2951
1.3469e+06,0,0,0,801,3591
1.34698e+06,0,0,0,2849,1543
1.35293e+06,0,0,0,2721,1671
1.35648e+06,0,0,0,2849,1543
1.3572e+06,0,0,0,2721,1671
1.35738e+06,0,0,0,3361,1031
1.35765e+06,0,0,0,3489,903
1.3587e+06,0,0,0,3873,519
1.36142e+06,0,0,0,3617,775
1.36142e+06,0,0,0,3361,1031
1.3617e+06,0,0,0,2849,1543
1.36172e+06,0,0,0,2337,2055
1.36368e+06,0,0,0,2209,2183
1.36387e+06,0,0,0,2337,2055
1.36815e+06,0,0,0,2465,1927
1.37454e+06,0,0,0,2593,1799
1.37777e+06,0,0,0,2465,1927
1.38127e+06,0,0,0,2209,2183
1.38321e+06,0,0,0,2465,1927
1.38433e+06,0,0,0,2721,1671
1.38867e+06,0,0,0,2849,1543
1.39096e+06,0,0,0,3112,1280
1.3916e+06,0,0,0,3368,1024
1.3942e+06,0,0,0,3880,512
1.39425e+06,0,0,0,4392,0
1.39425e+06,0,0,0,296,4096
1.41062e+06,0,0,0,4392,0
1.41062e+06,0,0,0,3368,1024
1.41062e+06,0,0,0,2566,1826
1.41062e+06,0,0,0,2438,1954
1.41062e+06,0,0,0,2182,2210
1.42147e+06,0,0,0,2310,2082
1.42151e+06,0,0,0,3112,1280
1.43211e+06,0,0,0,2856,1536
1.43229e+06,0,0,0,3880,512
1.43344e+06,0,0,0,4136,256
1.43874e+06,0,0,0,4008,384
1.43919e+06,0,0,0,3744,648
1.44133e+06,0,0,0,3481,911
1.44156e+06,0,0,0,3218,1174
1.44172e+06,0,0,0,2955,1437
1.44856e+06,0,0,0,2699,1693
1.44934e+06,0,0,0,2443,1949
1.44963e+06,0,0,0,2571,1821
1.45304e+06,0,0,0,2042,2350
1.45355e+06,0,0,0,1786,2606
1.45386e+06,0,0,0,2042,2350
1.45591e+06,0,0,0,1786,2606
1.45596e+06,0,0,0,1262,3130
1.45806e+06,0,0,0,246,4146
1.45944e+06,0,0,0,502,3890
1.46034e+06,0,0,0,758,3634
1.46095e+06,0,0,0,1022,3370
1.46447e+06,0,0,0,1278,3114
1.46687e+06,0,0,0,1534,2858
1.47719e+06,0,0,0,2063,2329
1.47774e+06,0,0,0,1261,3131
1.48503e+06,0,0,0,1524,2868
1.48852e+06,0,0,0,2048,2344
1.48864e+06,0,0,0,2850,1542
1.50689e+06,0,0,0,1826,2566
1.51001e+06,0,0,0,1570,2822
1.51003e+06,0,0,0,1314,3078
1.51011e+06,0,0,0,1058,3334
1.51014e+06,0,0,0,802,3590
1.51015e+06,0,0,0,546,3846
1.51042e+06,0,0,0,290,4102
1.51709e+06,0,0,0,1314,3078
1.51709e+06,0,0,0,802,3590
1.51709e+06,0,0,0,290,4102
1.51709e+06,0,0,0,34,4358
1.52095e+06,0,0,0,290,4102
1.52096e+06,0,0,0,34,4358
1.52201e+06,0,0,0,290,4102
1.52557e+06,0,0,0,546,3846
1.52591e+06,0,0,0,802,3590
1.52757e+06,0,0,0,546,3846
1.52783e+06,0,0,0,809,3583
1.528e+06,0,0,0,1065,3327
1.52909e+06,0,0,0,937,3455
1.53171e+06,0,0,0,1193,3199
1.53186e+06,0,0,0,1449,2943
1.53219e+06,0,0,0,1705,2687
1.53251e+06,0,0,0,1193,3199
1.5385e+06,0,0,0,1449,2943
1.53944e+06,0,0,0,1193,3199
1.54003e+06,0,0,0,1321,3071
1.54463e+06,0,0,0,2337,2055
1.5453e+06,0,0,0,2849,1543
1.54706e+06,0,0,0,3361,1031
1.54959e+06,0,0,0,3873,519
1.55921e+06,0,0,0,4129,263
1.5634e+06,0,0,0,4001,391
1.56898e+06,0,0,0,3617,775
1.56977e+06,0,0,0,3489,903
1.5743e+06,0,0,0,3617,775
1.57733e+06,0,0,0,3361,1031
1.57911e+06,0,0,0,3105,1287
1.58064e+06,0,0,0,3233,1159
1.59909e+06,0,0,0,3489,903
1.60082e+06,0,0,0,3745,647
1.60089e+06,0,0,0,3553,839
1.60097e+06,0,0,0,3297,1095
1.60132e+06,0,0,0,3681,711
1.60964e+06,0,0,0,2879,1513
1.61144e+06,0,0,0,3071,1321
1.61552e+06,0,0,0,2943,1449
1.61603e+06,0,0,0,3199,1193
1.62058e+06,0,0,0,4001,391
1.62085e+06,0,0,0,3873,519
1.62252e+06,0,0,0,3617,775
1.62407e+06,0,0,0,2793,1599
1.62413e+06,0,0,0,2281,2111
1.62649e+06,0,0,0,2409,1983
1.6281e+06,0,0,0,1385,3007
1.62962e+06,0,0,0,1129,3263
1.63031e+06,0,0,0,745,3647
1.63179e+06,0,0,0,873,3519
1.64257e+06,0,0,0,1129,3263
1.64446e+06,0,0,0,873,3519
1.64448e+06,0,0,0,617,3775
1.64454e+06,0,0,0,361,4031
1.64455e+06,0,0,0,105,4287
1.64586e+06,0,0,0,617,3775
1.65133e+06,0,0,0,873,3519
1.65201e+06,0,0,0,1257,3135
1.66611e+06,0,0,0,1513,2879
1.66612e+06,0,0,0,1769,2623
1.66614e+06,0,0,0,2025,2367
1.66615e+06,0,0,0,2281,2111
1.6677e+06,0,0,0,3305,1087
1.68276e+06,0,0,0,3177,1215
1.68454e+06,0,0,0,2921,1471
1.68458e+06,0,0,0,2665,1727
1.68461e+06,0,0,0,2409,1983
1.68509e+06,0,0,0,2265,2127
1.68609e+06,0,0,0,1241,3151
1.68611e+06,0,0,0,217,4175
1.69488e+06,0,0,0,345,4047
1.69598e+06,0,0,0,489,3903
1.70138e+06,0,0,0,752,3640
1.70624e+06,0,0,0,1008,3384
1.7063e+06,0,0,0,1264,3128
1.70631e+06,0,0,0,240,4152
1.70631e+06,0,0,0,496,3896
1.71059e+06,0,0,0,1320,3072
1.71059e+06,0,0,0,296,4096
1.71059e+06,0,0,0,40,4352
1.73228e+06,0,0,0,296,4096
1.73228e+06,0,0,0,168,4224
1.74258e+06,0,0,0,296,4096
1.74258e+06,0,0,0,40,4352
1.75387e+06,0,0,0,1064,3328
1.75387e+06,0,0,0,552,3840
1.75387e+06,0,0,0,296,4096
1.76415e+06,0,0,0,552,3840
1.76428e+06,0,0,0,808,3584
1.76429e+06,0,0,0,6,4386
1.77263e+06,0,0,0,1030,3362
1.77264e+06,0,0,0,774,3618
1.77264e+06,0,0,0,518,3874
1.77267e+06,0,0,0,1542,2850
1.77267e+06,0,0,0,740,3652
1.77518e+06,0,0,0,1542,2850
1.77518e+06,0,0,0,740,3652
1.77518e+06,0,0,0,484,3908
1.78257e+06,0,0,0,996,3396
1.78608e+06,0,0,0,1798,2594
1.78608e+06,0,0,0,774,3618
1.79185e+06,0,0,0,1030,3362
1.79185e+06,0,0,0,6,4386
1.79287e+06,0,0,0,1030,3362
1.79287e+06,0,0,0,774,3618
1.79287e+06,0,0,0,646,3746
1.79287e+06,0,0,0,390,4002
1.79436e+06,0,0,0,646,3746
1.79437e+06,0,0,0,134,4258
1.79441e+06,0,0,0,390,4002
1.80379e+06,0,0,0,646,3746
1.80379e+06,0,0,0,134,4258
1.80384e+06,0,0,0,262,4130
1.80429e+06,0,0,0,518,3874
1.8043e+06,0,0,0,6,4386
1.81587e+06,0,0,0,808,3584
1.81587e+06,0,0,0,680,3712
1.81587e+06,0,0,0,424,3968
1.81587e+06,0,0,0,168,4224
1.82326e+06,0,0,0,680,3712
1.82326e+06,0,0,0,168,4224
1.82675e+06,0,0,0,424,3968
1.82675e+06,0,0,0,168,4224
1.82675e+06,0,0,0,296,4096
1.82676e+06,0,0,0,40,4352
1.82677e+06,0,0,0,296,4096
1.83268e+06,0,0,0,808,3584
1.83268e+06,0,0,0,296,4096
1.83321e+06,0,0,0,808,3584
1.83322e+06,0,0,0,424,3968
1.83359e+06,0,0,0,1448,2944
1.8336e+06,0,0,0,646,3746
1.8336e+06,0,0,0,134,4258
1.83767e+06,0,0,0,390,4002
1.84452e+06,0,0,0,1192,3200
1.84845e+06,0,0,0,1448,2944
1.85218e+06,0,0,0,1960,2432
1.85439e+06,0,0,0,2472,1920
1.85455e+06,0,0,0,2328,2064
1.86252e+06,0,0,0,2840,1552
1.86546e+06,0,0,0,2984,1408
1.86554e+06,0,0,0,3368,1024
1.86646e+06,0,0,0,2984,1408
1.86979e+06,0,0,0,2728,1664
1.86986e+06,0,0,0,2472,1920
1.87229e+06,0,0,0,3496,896
1.88373e+06,0,0,0,3240,1152
1.88648e+06,0,0,0,3624,768
1.8878e+06,0,0,0,3880,512
1.88912e+06,0,0,0,4136,256
1.89103e+06,0,0,0,3752,640
1.89462e+06,0,0,0,4008,384
1.89855e+06,0,0,0,3752,640
1.90565e+06,0,0,0,3496,896
1.90571e+06,0,0,0,2984,1408
1.90578e+06,0,0,0,2472,1920
1.90723e+06,0,0,0,2344,2048
1.90738e+06,0,0,0,2088,2304
1.90754e+06,0,0,0,1576,2816
1.90765e+06,0,0,0,1064,3328
1.90869e+06,0,0,0,1448,2944
1.90887e+06,0,0,0,936,3456
1.91817e+06,0,0,0,1064,3328
1.92027e+06,0,0,0,1320,3072
1.92439e+06,0,0,0,1576,2816
1.92735e+06,0,0,0,1832,2560
1.93464e+06,0,0,0,2344,2048
1.93469e+06,0,0,0,2856,1536
1.93652e+06,0,0,0,3368,1024
1.93653e+06,0,0,0,3880,512
1.93779e+06,0,0,0,4392,0
1.9441e+06,0,0,0,4136,256
1.94425e+06,0,0,0,3880,512
1.9445e+06,0,0,0,3624,768
1.9459e+06,0,0,0,3480,912
1.9502e+06,0,0,0,2968,1424
1.95261e+06,0,0,0,2166,2226
1.95682e+06,0,0,0,2310,2082
1.96351e+06,0,0,0,3112,1280
1.96581e+06,0,0,0,3368,1024
1.966e+06,0,0,0,3624,768
1.96621e+06,0,0,0,3880,512
1.97538e+06,0,0,0,3736,656
1.97914e+06,0,0,0,4248,144
1.98096e+06,0,0,0,3864,528
1.98143e+06,0,0,0,2840,1552
1.98249e+06,0,0,0,2328,2064
1.98258e+06,0,0,0,1816,2576
1.98277e+06,0,0,0,792,3600
1.98333e+06,0,0,0,280,4112
1.98635e+06,0,0,0,424,3968
1.99563e+06,0,0,0,936,3456
1.99564e+06,0,0,0,424,3968
1.99822e+06,0,0,0,936,3456
1.99822e+06,0,0,0,134,4258
1.99862e+06,0,0,0,646,3746
1.99862e+06,0,0,0,390,4002
1.99862e+06,0,0,0,134,4258
2.00139e+06,0,0,0,518,3874
2.00711e+06,0,0,0,374,4018
2.00817e+06,0,0,0,886,3506
2.00817e+06,0,0,0,502,3890
2.00914e+06,0,0,0,1304,3088
2.01443e+06,0,0,0,502,3890
2.01697e+06,0,0,0,758,3634
2.01801e+06,0,0,0,902,3490
2.02033e+06,0,0,0,1158,3234
2.02459e+06,0,0,0,1030,3362
2.02539e+06,0,0,0,1832,2560
2.02593e+06,0,0,0,2216,2176
2.02779e+06,0,0,0,1832,2560
2.02975e+06,0,0,0,2856,1536
2.03551e+06,0,0,0,2984,1408
2.04242e+06,0,0,0,3368,1024
2.0632e+06,0,0,0,4392,0
2.06738e+06,0,0,0,4129,263
2.06753e+06,0,0,0,3873,519
2.06764e+06,0,0,0,3617,775
2.07068e+06,0,0,0,3361,1031
2.07256e+06,0,0,0,2337,2055
2.07613e+06,0,0,0,2081,2311
2.07699e+06,0,0,0,1825,2567
2.07884e+06,0,0,0,1697,2695
2.08009e+06,0,0,0,673,3719
2.08604e+06,0,0,0,289,4103
2.08789e+06,0,0,0,545,3847
2.08924e+06,0,0,0,801,3591
2.08936e+06,0,0,0,1057,3335
2.08936e+06,0,0,0,255,4137
2.08976e+06,0,0,0,383,4009
2.09239e+06,0,0,0,639,3753
2.09784e+06,0,0,0,895,3497
2.09785e+06,0,0,0,93,4299
2.09978e+06,0,0,0,477,3915
2.09978e+06,0,0,0,93,4299
2.10028e+06,0,0,0,895,3497
2.10028e+06,0,0,0,751,3641
2.1091e+06,0,0,0,495,3897
2.10976e+06,0,0,0,239,4153
2.11125e+06,0,0,0,383,4009
2.11126e+06,0,0,0,127,4265
2.12055e+06,0,0,0,383,4009
2.12056e+06,0,0,0,127,4265
2.12111e+06,0,0,0,383,4009
2.12111e+06,0,0,0,127,4265
2.12902e+06,0,0,0,383,4009
2.12902e+06,0,0,0,127,4265
2.13218e+06,0,0,0,511,3881
2.13219e+06,0,0,0,255,4137
2.13989e+06,0,0,0,511,3881
2.14102e+06,0,0,0,1313,3079
2.14229e+06,0,0,0,1569,2823
2.14284e+06,0,0,0,1825,2567
2.14312e+06,0,0,0,2081,2311
2.14489e+06,0,0,0,3105,1287
2.14489e+06,0,0,0,545,3847
2.15384e+06,0,0,0,1569,2823
2.15674e+06,0,0,0,4129,263
2.15674e+06,0,0,0,1569,2823
2.15674e+06,0,0,0,767,3625
2.15674e+06,0,0,0,623,3769
2.16768e+06,0,0,0,1425,2967
2.16769e+06,0,0,0,1569,2823
2.16858e+06,0,0,0,4129,263
2.16858e+06,0,0,0,1569,2823
2.16858e+06,0,0,0,1040,3352
2.16858e+06,0,0,0,656,3736
2.16858e+06,0,0,0,272,4120
2.16863e+06,0,0,0,144,4248
2.16875e+06,0,0,0,16,4376
2.17955e+06,0,0,0,144,4248
2.17967e+06,0,0,0,272,4120
2.18107e+06,0,0,0,656,3736
2.18165e+06,0,0,0,1040,3352
2.18165e+06,0,0,0,238,4154
2.18682e+06,0,0,0,2798,1594
2.18682e+06,0,0,0,2414,1978
2.18682e+06,0,0,0,1390,3002
2.18682e+06,0,0,0,1006,3386
2.18682e+06,0,0,0,204,4188
2.18682e+06,0,0,0,60,4332
2.19268e+06,0,0,0,589,3803
2.19453e+06,0,0,0,205,4187
2.19624e+06,0,0,0,61,4331
2.19773e+06,0,0,0,205,4187
2.1985e+06,0,0,0,1007,3385
2.20461e+06,0,0,0,751,3641
2.20621e+06,0,0,0,495,3897
2.20626e+06,0,0,0,239,4153
2.20716e+06,0,0,0,383,4009
2.20716e+06,0,0,0,127,4265
2.20719e+06,0,0,0,511,3881
2.2072e+06,0,0,0,255,4137
2.20988e+06,0,0,0,111,4281
2.2192e+06,0,0,0,495,3897
2.21932e+06,0,0,0,879,3513
2.22084e+06,0,0,0,1023,3369
2.22086e+06,0,0,0,1279,3113
2.22086e+06,0,0,0,1535,2857
2.22086e+06,0,0,0,511,3881
2.22123e+06,0,0,0,767,3625
2.22792e+06,0,0,0,1023,3369
2.228e+06,0,0,0,1279,3113
2.228e+06,0,0,0,255,4137
2.24421e+06,0,0,0,1057,3335
2.24421e+06,0,0,0,673,3719
2.24421e+06,0,0,0,289,4103
2.24421e+06,0,0,0,33,4359
2.24981e+06,0,0,0,1057,3335
2.24982e+06,0,0,0,801,3591
2.24982e+06,0,0,0,545,3847
2.24982e+06,0,0,0,289,4103
2.24982e+06,0,0,0,33,4359
2.26052e+06,0,0,0,417,3975
2.26053e+06,0,0,0,161,4231
2.26053e+06,0,0,0,33,4359
2.26343e+06,0,0,0,289,4103
2.2658e+06,0,0,0,545,3847
2.26747e+06,0,0,0,401,3991
2.27142e+06,0,0,0,657,3735
2.27143e+06,0,0,0,913,3479
2.27144e+06,0,0,0,1169,3223
2.27147e+06,0,0,0,1297,3095
2.27506e+06,0,0,0,1553,2839
2.27674e+06,0,0,0,1937,2455
2.27837e+06,0,0,0,2081,2311
2.28302e+06,0,0,0,1697,2695
2.28394e+06,0,0,0,2721,1671
2.28645e+06,0,0,0,2465,1927
2.28648e+06,0,0,0,2209,2183
2.2892e+06,0,0,0,1953,2439
2.28922e+06,0,0,0,1697,2695
2.28925e+06,0,0,0,1441,2951
2.29461e+06,0,0,0,1185,3207
2.29814e+06,0,0,0,929,3463
2.29965e+06,0,0,0,1192,3200
2.30149e+06,0,0,0,2216,2176
2.30233e+06,0,0,0,2472,1920
2.30253e+06,0,0,0,2728,1664
2.30283e+06,0,0,0,2984,1408
2.30479e+06,0,0,0,3368,1024
2.30481e+06,0,0,0,3624,768
2.3082e+06,0,0,0,3880,512
2.30837e+06,0,0,0,3624,768
2.30987e+06,0,0,0,3368,1024
2.31631e+06,0,0,0,3624,768
2.31988e+06,0,0,0,3880,512
2.32182e+06,0,0,0,4136,256
2.32183e+06,0,0,0,40,4352
2.32277e+06,0,0,0,296,4096
2.33645e+06,0,0,0,4392,0
2.33645e+06,0,0,0,3368,1024
2.33645e+06,0,0,0,3112,1280
2.33645e+06,0,0,0,2968,1424
2.33699e+06,0,0,0,2776,1616
2.34706e+06,0,0,0,2968,1424
2.34739e+06,0,0,0,3112,1280
2.35032e+06,0,0,0,3368,1024
2.37017e+06,0,0,0,3112,1280
2.37031e+06,0,0,0,2856,1536
2.37392e+06,0,0,0,2600,1792
2.37396e+06,0,0,0,2344,2048
2.37399e+06,0,0,0,2088,2304
2.37526e+06,0,0,0,1944,2448
2.3836e+06,0,0,0,1688,2704
2.38631e+06,0,0,0,1832,2560
2.38688e+06,0,0,0,2088,2304
2.38765e+06,0,0,0,2344,2048
2.38844e+06,0,0,0,2600,1792
2.39187e+06,0,0,0,2856,1536
2.39202e+06,0,0,0,3112,1280
2.4053e+06,0,0,0,3368,1024
2.40858e+06,0,0,0,3224,1168
2.41948e+06,0,0,0,3368,1024
2.42298e+06,0,0,0,4392,0
2.43261e+06,0,0,0,3590,802
2.45077e+06,0,0,0,3334,1058
2.45077e+06,0,0,0,3078,1314
2.45079e+06,0,0,0,2822,1570
2.45983e+06,0,0,0,2678,1714
2.46078e+06,0,0,0,2934,1458
2.4616e+06,0,0,0,3736,656
2.46397e+06,0,0,0,2934,1458
2.46581e+06,0,0,0,2132,2260
2.46778e+06,0,0,0,1330,3062
2.47079e+06,0,0,0,1474,2918
2.47251e+06,0,0,0,1730,2662
2.47252e+06,0,0,0,1986,2406
2.4749e+06,0,0,0,2788,1604
2.47677e+06,0,0,0,3590,802
2.4786e+06,0,0,0,3462,930
2.47873e+06,0,0,0,3206,1186
2.47878e+06,0,0,0,4008,384
2.48297e+06,0,0,0,3816,576
2.48373e+06,0,0,0,3014,1378
2.48553e+06,0,0,0,2758,1634
2.48957e+06,0,0,0,2886,1506
2.49031e+06,0,0,0,2742,1650
2.49137e+06,0,0,0,2998,1394
2.49185e+06,0,0,0,2742,1650
2.49195e+06,0,0,0,2486,1906
2.49204e+06,0,0,0,2230,2162
2.49215e+06,0,0,0,1974,2418
2.49372e+06,0,0,0,2166,2226
2.49465e+06,0,0,0,2968,1424
2.4964e+06,0,0,0,2166,2226
2.49785e+06,0,0,0,1910,2482
2.50128e+06,0,0,0,2054,2338
2.50253e+06,0,0,0,1910,2482
2.50272e+06,0,0,0,1108,3284
2.50376e+06,0,0,0,852,3540
2.50536e+06,0,0,0,50,4342
2.50558e+06,0,0,0,306,4086
2.50577e+06,0,0,0,562,3830
2.50586e+06,0,0,0,818,3574
2.5063e+06,0,0,0,1074,3318
2.50733e+06,0,0,0,1330,3062
2.50735e+06,0,0,0,2132,2260
2.51345e+06,0,0,0,2276,2116
2.51603e+06,0,0,0,1474,2918
2.51627e+06,0,0,0,2276,2116
2.51956e+06,0,0,0,2532,1860
2.52348e+06,0,0,0,1730,2662
2.52372e+06,0,0,0,2532,1860
2.52548e+06,0,0,0,2788,1604
2.52675e+06,0,0,0,2644,1748
2.52696e+06,0,0,0,3446,946
2.52897e+06,0,0,0,2644,1748
2.53437e+06,0,0,0,3446,946
2.53766e+06,0,0,0,3590,802
2.53989e+06,0,0,0,4392,0
2.54067e+06,0,0,0,3590,802
2.54137e+06,0,0,0,3462,930
2.54173e+06,0,0,0,2660,1732
2.54391e+06,0,0,0,1858,2534
2.54609e+06,0,0,0,1602,2790
2.55054e+06,0,0,0,1346,3046
2.55156e+06,0,0,0,2148,2244
2.55231e+06,0,0,0,2276,2116
2.55245e+06,0,0,0,2020,2372
2.55249e+06,0,0,0,1764,2628
2.55258e+06,0,0,0,1508,2884
2.55265e+06,0,0,0,2310,2082
2.55439e+06,0,0,0,1508,2884
2.55482e+06,0,0,0,2310,2082
2.55791e+06,0,0,0,1508,2884
2.56146e+06,0,0,0,1764,2628
2.56357e+06,0,0,0,962,3430
2.5653e+06,0,0,0,1764,2628
2.56553e+06,0,0,0,2020,2372
2.56614e+06,0,0,0,2276,2116
2.56632e+06,0,0,0,2532,1860
2.56704e+06,0,0,0,2404,1988
2.56829e+06,0,0,0,1602,2790
2.56884e+06,0,0,0,2404,1988
2.56913e+06,0,0,0,2660,1732
2.57186e+06,0,0,0,2404,1988
2.5745e+06,0,0,0,3206,1186
2.57688e+06,0,0,0,2950,1442
2.57797e+06,0,0,0,3078,1314
2.57921e+06,0,0,0,3880,512
2.58778e+06,0,0,0,4136,256
2.58908e+06,0,0,0,3880,512
2.58915e+06,0,0,0,3624,768
2.58918e+06,0,0,0,3368,1024
2.58988e+06,0,0,0,3624,768
2.59693e+06,0,0,0,2822,1570
2.597e+06,0,0,0,2020,2372
2.5983e+06,0,0,0,1218,3174
2.60061e+06,0,0,0,962,3430
2.60083e+06,0,0,0,160,4232
2.60211e+06,0,0,0,416,3976
2.60212e+06,0,0,0,160,4232
2.60218e+06,0,0,0,416,3976
2.60255e+06,0,0,0,672,3720
2.60447e+06,0,0,0,416,3976
2.60494e+06,0,0,0,32,4360
2.60787e+06,0,0,0,834,3558
2.60922e+06,0,0,0,1636,2756
2.61174e+06,0,0,0,2438,1954
2.61266e+06,0,0,0,2310,2082
2.61662e+06,0,0,0,2566,1826
2.61902e+06,0,0,0,2950,1442
2.62033e+06,0,0,0,3206,1186
2.62218e+06,0,0,0,2404,1988
2.62233e+06,0,0,0,2020,2372
2.62234e+06,0,0,0,2276,2116
2.62356e+06,0,0,0,2404,1988
2.62594e+06,0,0,0,3206,1186
2.63209e+06,0,0,0,2950,1442
2.63244e+06,0,0,0,2148,2244
2.63308e+06,0,0,0,2950,1442
2.63565e+06,0,0,0,2148,2244
2.63571e+06,0,0,0,1764,2628
2.63575e+06,0,0,0,2148,2244
2.6391e+06,0,0,0,1892,2500
2.64234e+06,0,0,0,868,3524
2.64237e+06,0,0,0,612,3780
2.64333e+06,0,0,0,1414,2978
2.64497e+06,0,0,0,612,3780
2.64659e+06,0,0,0,1414,2978
2.64996e+06,0,0,0,890,3502
2.6502e+06,0,0,0,88,4304
2.65381e+06,0,0,0,344,4048
2.65422e+06,0,0,0,728,3664
2.65587e+06,0,0,0,1530,2862
2.65588e+06,0,0,0,514,3878
2.66079e+06,0,0,0,770,3622
2.66112e+06,0,0,0,1572,2820
2.66112e+06,0,0,0,748,3644
2.66259e+06,0,0,0,1004,3388
2.66259e+06,0,0,0,202,4190
2.67348e+06,0,0,0,1004,3388
2.67349e+06,0,0,0,492,3900
2.6826e+06,0,0,0,1016,3376
2.6826e+06,0,0,0,504,3888
2.6826e+06,0,0,0,248,4144
2.6943e+06,0,0,0,504,3888
2.70237e+06,0,0,0,1016,3376
2.70237e+06,0,0,0,504,3888
2.7115e+06,0,0,0,1016,3376
2.7115e+06,0,0,0,504,3888
2.72284e+06,0,0,0,1528,2864
2.72284e+06,0,0,0,1016,3376
2.72284e+06,0,0,0,504,3888
2.73127e+06,0,0,0,1016,3376
2.73127e+06,0,0,0,504,3888
2.74042e+06,0,0,0,1016,3376
2.74042e+06,0,0,0,504,3888
2.74241e+06,0,0,0,1520,2872
2.74241e+06,0,0,0,1008,3384
2.74241e+06,0,0,0,496,3896
2.74764e+06,0,0,0,1320,3072
2.74764e+06,0,0,0,518,3874
2.74764e+06,0,0,0,134,4258
2.75173e+06,0,0,0,646,3746
2.75173e+06,0,0,0,390,4002
2.75174e+06,0,0,0,902,3490
2.75175e+06,0,0,0,100,4292
2.75857e+06,0,0,0,902,3490
2.75858e+06,0,0,0,100,4292
2.76023e+06,0,0,0,612,3780
2.76024e+06,0,0,0,356,4036
2.76024e+06,0,0,0,100,4292
2.76282e+06,0,0,0,902,3490
2.76282e+06,0,0,0,646,3746
2.76748e+06,0,0,0,1030,3362
2.76748e+06,0,0,0,228,4164
2.7688e+06,0,0,0,484,3908
2.76934e+06,0,0,0,996,3396
2.76934e+06,0,0,0,194,4198
2.76951e+06,0,0,0,996,3396
2.7713e+06,0,0,0,1508,2884
2.7713e+06,0,0,0,484,3908
2.7713e+06,0,0,0,100,4292
2.77134e+06,0,0,0,612,3780
2.77135e+06,0,0,0,356,4036
2.77506e+06,0,0,0,612,3780
2.77506e+06,0,0,0,228,4164
2.77506e+06,0,0,0,100,4292
2.77619e+06,0,0,0,356,4036
2.77619e+06,0,0,0,100,4292
2.77835e+06,0,0,0,902,3490
2.77836e+06,0,0,0,646,3746
2.77836e+06,0,0,0,502,3890
2.77836e+06,0,0,0,374,4018
2.77836e+06,0,0,0,118,4274
2.7803e+06,0,0,0,920,3472
2.7803e+06,0,0,0,520,3872
2.7803e+06,0,0,0,392,4000
2.7803e+06,0,0,0,8,4384
2.78131e+06,0,0,0,264,4128
2.78131e+06,0,0,0,136,4256
2.78597e+06,0,0,0,264,4128
2.78837e+06,0,0,0,520,3872
2.78927e+06,0,0,0,664,3728
2.78927e+06,0,0,0,135,4257
2.78932e+06,0,0,0,263,4129
2.78947e+06,0,0,0,647,3745
2.78947e+06,0,0,0,263,4129
2.78947e+06,0,0,0,7,4385
2.79136e+06,0,0,0,135,4257
2.79192e+06,0,0,0,519,3873
2.79226e+06,0,0,0,647,3745
2.79304e+06,0,0,0,903,3489
2.79304e+06,0,0,0,101,4291
2.79588e+06,0,0,0,485,3907
2.79795e+06,0,0,0,741,3651
2.79795e+06,0,0,0,997,3395
2.79795e+06,0,0,0,195,4197
2.80201e+06,0,0,0,595,3797
2.80327e+06,0,0,0,979,3413
2.80394e+06,0,0,0,1781,2611
2.80394e+06,0,0,0,757,3635
2.80394e+06,0,0,0,373,4019
2.80394e+06,0,0,0,229,4163
2.80887e+06,0,0,0,1031,3361
2.80887e+06,0,0,0,647,3745
2.80887e+06,0,0,0,503,3889
2.80887e+06,0,0,0,247,4145
2.81118e+06,0,0,0,503,3889
2.81459e+06,0,0,0,1032,3360
2.81459e+06,0,0,0,520,3872
2.81459e+06,0,0,0,264,4128
2.81484e+06,0,0,0,408,3984
2.81845e+06,0,0,0,1432,2960
2.81845e+06,0,0,0,408,3984
2.81845e+06,0,0,0,264,4128
2.81919e+06,0,0,0,648,3744
2.8198e+06,0,0,0,792,3600
2.82676e+06,0,0,0,1176,3216
2.82676e+06,0,0,0,152,4240
2.82939e+06,0,0,0,296,4096
2.82939e+06,0,0,0,40,4352
2.8306e+06,0,0,0,296,4096
2.8306e+06,0,0,0,40,4352
2.8363e+06,0,0,0,552,3840
2.8363e+06,0,0,0,168,4224
2.83633e+06,0,0,0,424,3968
2.83633e+06,0,0,0,168,4224
2.85111e+06,0,0,0,424,3968
2.85203e+06,0,0,0,1448,2944
2.85229e+06,0,0,0,1704,2688
2.85378e+06,0,0,0,2088,2304
2.85679e+06,0,0,0,2344,2048
2.8568e+06,0,0,0,3368,1024
2.8568e+06,0,0,0,296,4096
2.86578e+06,0,0,0,1320,3072
2.86578e+06,0,0,0,296,4096
2.86578e+06,0,0,0,40,4352
2.88754e+06,0,0,0,296,4096
2.88755e+06,0,0,0,40,4352
2.90933e+06,0,0,0,296,4096
2.91008e+06,0,0,0,3368,1024
2.91008e+06,0,0,0,2566,1826
2.91008e+06,0,0,0,2310,2082
2.91008e+06,0,0,0,2054,2338
2.91008e+06,0,0,0,1798,2594
2.91008e+06,0,0,0,1542,2850
2.91008e+06,0,0,0,1286,3106
2.91008e+06,0,0,0,1030,3362
2.91008e+06,0,0,0,768,3624
2.91008e+06,0,0,0,512,3880
2.91008e+06,0,0,0,384,4008
2.92028e+06,0,0,0,640,3752
2.9209e+06,0,0,0,768,3624
2.92102e+06,0,0,0,1570,2822
2.92102e+06,0,0,0,746,3646
2.92102e+06,0,0,0,490,3902
2.92102e+06,0,0,0,234,4158
2.9316e+06,0,0,0,490,3902
2.93179e+06,0,0,0,746,3646
2.9318e+06,0,0,0,234,4158
2.9318e+06,0,0,0,490,3902
2.93181e+06,0,0,0,746,3646
2.93183e+06,0,0,0,1002,3390
2.93183e+06,0,0,0,252,4140
2.93184e+06,0,0,0,508,3884
2.93184e+06,0,0,0,252,4140
2.93185e+06,0,0,0,508,3884
2.93186e+06,0,0,0,124,4268
2.93237e+06,0,0,0,380,4012
2.93237e+06,0,0,0,236,4156
2.94279e+06,0,0,0,492,3900
2.9428e+06,0,0,0,236,4156
2.94331e+06,0,0,0,380,4012
2.94331e+06,0,0,0,124,4268
2.94603e+06,0,0,0,1148,3244
2.94603e+06,0,0,0,1004,3388
2.94603e+06,0,0,0,748,3644
2.94603e+06,0,0,0,108,4284
2.94793e+06,0,0,0,492,3900
2.95297e+06,0,0,0,1004,3388
2.95297e+06,0,0,0,492,3900
2.95697e+06,0,0,0,636,3756
2.95697e+06,0,0,0,124,4268
2.96425e+06,0,0,0,874,3518
2.96425e+06,0,0,0,362,4030
2.96457e+06,0,0,0,618,3774
2.96457e+06,0,0,0,106,4286
2.96502e+06,0,0,0,362,4030
2.96774e+06,0,0,0,618,3774
2.96774e+06,0,0,0,106,4286
2.98091e+06,0,0,0,746,3646
2.98092e+06,0,0,0,234,4158
2.98092e+06,0,0,0,106,4286
2.98189e+06,0,0,0,618,3774
2.98189e+06,0,0,0,362,4030
2.98189e+06,0,0,0,218,4174
2.98189e+06,0,0,0,74,4318
2.98588e+06,0,0,0,586,3806
2.99185e+06,0,0,0,714,3678
2.99278e+06,0,0,0,858,3534
2.99281e+06,0,0,0,1002,3390
2.99329e+06,0,0,0,1258,3134
2.99348e+06,0,0,0,1770,2622
2.99439e+06,0,0,0,2282,2110
2.99667e+06,0,0,0,2794,1598
2.99667e+06,0,0,0,234,4158
2.99667e+06,0,0,0,106,4286
3.00754e+06,0,0,0,930,3462
3.00759e+06,0,0,0,1058,3334
3.00984e+06,0,0,0,1570,2822
3.0184e+06,0,0,0,4130,262
3.0184e+06,0,0,0,1570,2822
3.0184e+06,0,0,0,768,3624
3.0184e+06,0,0,0,624,3768
3.0184e+06,0,0,0,495,3897
3.0184e+06,0,0,0,367,4025
3.02929e+06,0,0,0,496,3896
3.02932e+06,0,0,0,624,3768
3.02932e+06,0,0,0,768,3624
3.02936e+06,0,0,0,1570,2822
3.0306e+06,0,0,0,4130,262
3.03061e+06,0,0,0,1570,2822
3.03061e+06,0,0,0,768,3624
3.04148e+06,0,0,0,1570,2822
3.0428e+06,0,0,0,4130,262
3.0428e+06,0,0,0,1570,2822
3.0428e+06,0,0,0,1314,3078
3.0428e+06,0,0,0,1058,3334
3.0428e+06,0,0,0,802,3590
3.0428e+06,0,0,0,290,4102
3.0428e+06,0,0,0,34,4358
3.0564e+06,0,0,0,290,4102
3.06138e+06,0,0,0,2850,1542
3.06138e+06,0,0,0,2338,2054
3.06138e+06,0,0,0,1826,2566
3.06138e+06,0,0,0,1314,3078
3.06138e+06,0,0,0,930,3462
3.06158e+06,0,0,0,1186,3206
3.06158e+06,0,0,0,162,4230
3.06451e+06,0,0,0,418,3974
3.06452e+06,0,0,0,674,3718
3.06675e+06,0,0,0,1186,3206
3.06675e+06,0,0,0,162,4230
3.07608e+06,0,0,0,1186,3206
3.07608e+06,0,0,0,162,4230
3.07608e+06,0,0,0,18,4374
3.07679e+06,0,0,0,402,3990
3.07679e+06,0,0,0,274,4118
3.087e+06,0,0,0,418,3974
3.08779e+06,0,0,0,546,3846
3.09028e+06,0,0,0,1058,3334
3.09028e+06,0,0,0,1570,2822
3.09029e+06,0,0,0,546,3846
3.09032e+06,0,0,0,1058,3334
3.092e+06,0,0,0,2082,2310
3.092e+06,0,0,0,34,4358
3.10138e+06,0,0,0,1058,3334
3.10138e+06,0,0,0,34,4358
3.11366e+06,0,0,0,2082,2310
3.11366e+06,0,0,0,1826,2566
3.11366e+06,0,0,0,1570,2822
3.11366e+06,0,0,0,1058,3334
3.11366e+06,0,0,0,546,3846
3.11366e+06,0,0,0,290,4102
3.11557e+06,0,0,0,1314,3078
3.11557e+06,0,0,0,306,4086
3.11557e+06,0,0,0,50,4342
3.12648e+06,0,0,0,306,4086
3.13539e+06,0,0,0,562,3830
3.1354e+06,0,0,0,38,4354
3.13541e+06,0,0,0,294,4098
3.13541e+06,0,0,0,38,4354
3.13541e+06,0,0,0,294,4098
3.13541e+06,0,0,0,38,4354
3.13676e+06,0,0,0,550,3842
3.13866e+06,0,0,0,1062,3330
3.13866e+06,0,0,0,260,4132
3.14954e+06,0,0,0,1062,3330
3.14955e+06,0,0,0,260,4132
3.14955e+06,0,0,0,4,4388
3.15713e+06,0,0,0,260,4132
3.15715e+06,0,0,0,516,3876
3.15715e+06,0,0,0,132,4260
3.16045e+06,0,0,0,934,3458
3.16046e+06,0,0,0,422,3970
3.1691e+06,0,0,0,946,3446
3.1691e+06,0,0,0,434,3958
3.1691e+06,0,0,0,178,4214
3.1691e+06,0,0,0,49,4343
3.17128e+06,0,0,0,305,4087
3.17128e+06,0,0,0,161,4231
3.18115e+06,0,0,0,290,4102
3.18224e+06,0,0,0,434,3958
3.18692e+06,0,0,0,1458,2934
3.18692e+06,0,0,0,656,3736
3.18967e+06,0,0,0,1040,3352
3.18968e+06,0,0,0,238,4154
3.19031e+06,0,0,0,750,3642
3.19083e+06,0,0,0,1006,3386
3.1971e+06,0,0,0,1518,2874
3.1971e+06,0,0,0,494,3898
3.199e+06,0,0,0,1296,3096
3.20063e+06,0,0,0,2098,2294
3.20063e+06,0,0,0,50,4342
3.20211e+06,0,0,0,1058,3334
3.20212e+06,0,0,0,34,4358
3.22058e+06,0,0,0,1058,3334
3.22058e+06,0,0,0,802,3590
3.22227e+06,0,0,0,2850,1542
3.22228e+06,0,0,0,1826,2566
3.22228e+06,0,0,0,802,3590
3.22559e+06,0,0,0,1826,2566
3.22559e+06,0,0,0,802,3590
3.23424e+06,0,0,0,1064,3328
3.23424e+06,0,0,0,40,4352
3.24226e+06,0,0,0,296,4096
3.24226e+06,0,0,0,152,4240
3.24226e+06,0,0,0,23,4369
3.25318e+06,0,0,0,152,4240
3.25318e+06,0,0,0,23,4369
3.25321e+06,0,0,0,167,4225
3.25322e+06,0,0,0,23,4369
3.2641e+06,0,0,0,152,4240
3.26416e+06,0,0,0,296,4096
3.26416e+06,0,0,0,40,4352
3.28588e+06,0,0,0,296,4096
3.28588e+06,0,0,0,104,4288
3.29675e+06,0,0,0,296,4096
3.30531e+06,0,0,0,1320,3072
3.30531e+06,0,0,0,296,4096
3.30533e+06,0,0,0,1320,3072
3.30533e+06,0,0,0,296,4096
3.30533e+06,0,0,0,104,4288
3.30858e+06,0,0,0,1128,3264
3.30859e+06,0,0,0,872,3520
3.30859e+06,0,0,0,488,3904
3.30859e+06,0,0,0,104,4288
3.31554e+06,0,0,0,296,4096
3.31554e+06,0,0,0,40,4352
3.31727e+06,0,0,0,1064,3328
3.31728e+06,0,0,0,872,3520
3.31728e+06,0,0,0,680,3712
3.31728e+06,0,0,0,424,3968
3.31728e+06,0,0,0,168,4224
3.31728e+06,0,0,0,24,4368
3.31867e+06,0,0,0,408,3984
3.31867e+06,0,0,0,216,4176
3.32187e+06,0,0,0,600,3792
3.32318e+06,0,0,0,344,4048
3.32536e+06,0,0,0,136,4256
3.32602e+06,0,0,0,8,4384
3.32747e+06,0,0,0,200,4192
3.32819e+06,0,0,0,344,4048
3.3282e+06,0,0,0,536,3856
3.3282e+06,0,0,0,152,4240
3.32865e+06,0,0,0,408,3984
3.32868e+06,0,0,0,600,3792
3.32912e+06,0,0,0,856,3536
3.33262e+06,0,0,0,344,4048
3.33556e+06,0,0,0,88,4304
3.33572e+06,0,0,0,78,4314
3.33626e+06,0,0,0,286,4106
3.33626e+06,0,0,0,30,4362
3.33649e+06,0,0,0,20,4372
3.33702e+06,0,0,0,148,4244
3.3377e+06,0,0,0,404,3988
3.3377e+06,0,0,0,20,4372
3.33897e+06,0,0,0,276,4116
3.33899e+06,0,0,0,532,3860
3.33899e+06,0,0,0,20,4372
3.34593e+06,0,0,0,404,3988
3.34593e+06,0,0,0,276,4116
3.34593e+06,0,0,0,20,4372
3.34663e+06,0,0,0,30,4362
3.34744e+06,0,0,0,40,4352
3.34787e+06,0,0,0,424,3968
3.34787e+06,0,0,0,168,4224
3.34787e+06,0,0,0,24,4368
3.35674e+06,0,0,0,152,4240
3.35674e+06,0,0,0,24,4368
3.35687e+06,0,0,0,280,4112
3.35687e+06,0,0,0,24,4368
3.35728e+06,0,0,0,8,4384
3.3573e+06,0,0,0,264,4128
3.35731e+06,0,0,0,8,4384
3.35878e+06,0,0,0,152,4240
3.35878e+06,0,0,0,136,4256
3.36159e+06,0,0,0,648,3744
3.36159e+06,0,0,0,392,4000
3.36159e+06,0,0,0,136,4256
3.36739e+06,0,0,0,152,4240
3.36764e+06,0,0,0,408,3984
3.36764e+06,0,0,0,152,4240
3.36769e+06,0,0,0,280,4112
3.3677e+06,0,0,0,24,4368
3.36789e+06,0,0,0,536,3856
3.36789e+06,0,0,0,280,4112
3.36789e+06,0,0,0,24,4368
3.36862e+06,0,0,0,280,4112
3.36862e+06,0,0,0,24,4368
3.3688e+06,0,0,0,280,4112
3.36881e+06,0,0,0,24,4368
3.36947e+06,0,0,0,40,4352
3.3696e+06,0,0,0,296,4096
3.3696e+06,0,0,0,46,4346
3.37319e+06,0,0,0,302,4090
3.37331e+06,0,0,0,558,3834
3.37525e+06,0,0,0,174,4218
3.38053e+06,0,0,0,424,3968
3.38142e+06,0,0,0,680,3712
3.38161e+06,0,0,0,936,3456
3.38674e+06,0,0,0,1192,3200
3.38691e+06,0,0,0,1448,2944
3.38744e+06,0,0,0,1832,2560
3.38825e+06,0,0,0,2088,2304
3.38828e+06,0,0,0,2344,2048
3.3884e+06,0,0,0,3368,1024
3.38841e+06,0,0,0,4392,0
3.38841e+06,0,0,0,296,4096
3.38841e+06,0,0,0,104,4288
3.39931e+06,0,0,0,296,4096
3.40247e+06,0,0,0,4392,0
3.40248e+06,0,0,0,3368,1024
3.40248e+06,0,0,0,2344,2048
3.40248e+06,0,0,0,1320,3072
3.40248e+06,0,0,0,296,4096
3.40248e+06,0,0,0,40,4352
3.42302e+06,0,0,0,296,4096
3.42547e+06,0,0,0,1320,3072
3.42547e+06,0,0,0,808,3584
3.42547e+06,0,0,0,296,4096
3.42547e+06,0,0,0,40,4352
3.43558e+06,0,0,0,1064,3328
3.43558e+06,0,0,0,152,4240
3.43558e+06,0,0,0,8,4384
3.44552e+06,0,0,0,264,4128
3.4465e+06,0,0,0,408,3984
3.45439e+06,0,0,0,920,3472
3.45439e+06,0,0,0,280,4112
3.45439e+06,0,0,0,24,4368
3.4544e+06,0,0,0,536,3856
3.4544e+06,0,0,0,280,4112
3.4544e+06,0,0,0,88,4304
3.45629e+06,0,0,0,1112,3280
3.4563e+06,0,0,0,728,3664
3.4563e+06,0,0,0,584,3808
3.4563e+06,0,0,0,456,3936
3.46532e+06,0,0,0,648,3744
3.46712e+06,0,0,0,776,3616
3.46718e+06,0,0,0,920,3472
3.47614e+06,0,0,0,1176,3216
3.47618e+06,0,0,0,1432,2960
3.47639e+06,0,0,0,2456,1936
3.47809e+06,0,0,0,2840,1552
3.48837e+06,0,0,0,3480,912
3.50397e+06,0,0,0,4392,0
