job_id,workload_name,profile,submission_time,requested_number_of_resources,requested_time,success,final_state,starting_time,execution_time,finish_time,waiting_time,turnaround_time,stretch,allocated_resources,consumed_energy,metadata
11_0_1,w0,profile_11,0.000000,1024,61200.000000,1,COMPLETED_SUCCESSFULLY,0.003600,20733.000000,20733.003600,0.003600,20733.003600,1.000000,1058-2081,-1.000000,""
24_0_1,w0,profile_24,0.000000,256,21600.000000,1,COMPLETED_SUCCESSFULLY,0.007200,21589.000000,21589.007200,0.007200,21589.007200,1.000000,4130-4385,-1.000000,""
14_0_1,w0,profile_14,0.000000,256,21601.000000,1,COMPLETED_SUCCESSFULLY,0.005400,21600.000000,21600.005400,0.005400,21600.005400,1.000000,3362-3617,-1.000000,""
1_0_1,w0,profile_1,0.000000,256,21602.000000,1,COMPLETED_SUCCESSFULLY,0.006600,21601.000000,21601.006600,0.006600,21601.006600,1.000000,3874-4129,-1.000000,""
15_0_1,w0,profile_15,0.000000,256,21628.000000,1,COMPLETED_SUCCESSFULLY,0.006000,21627.000000,21627.006000,0.006000,21627.006000,1.000000,3618-3873,-1.000000,""
0_0_1,w0,profile_0,0.000000,256,21643.000000,1,COMPLETED_SUCCESSFULLY,0.002400,21642.000000,21642.002400,0.002400,21642.002400,1.000000,0-255,-1.000000,""
13_0_1,w0,profile_13,0.000000,256,21805.000000,1,COMPLETED_SUCCESSFULLY,0.004800,21804.000000,21804.004800,0.004800,21804.004800,1.000000,3106-3361,-1.000000,""
12_0_1,w0,profile_12,0.000000,1024,30600.000000,1,COMPLETED_SUCCESSFULLY,0.004200,24817.000000,24817.004200,0.004200,24817.004200,1.000000,2082-3105,-1.000000,""
17_0_1,w0,profile_17,0.000000,256,21697.000000,1,COMPLETED_SUCCESSFULLY,21592.008850,21696.000000,43288.008850,21592.008850,43288.008850,1.995207,1860-2081 4130-4163,-1.000000,""
19_0_1,w0,profile_19,0.000000,256,21757.000000,1,COMPLETED_SUCCESSFULLY,21645.004050,21756.000000,43401.004050,21645.004050,43401.004050,1.994898,0-255,-1.000000,""
20_0_1,w0,profile_20,0.000000,256,21652.000000,1,COMPLETED_SUCCESSFULLY,21807.006450,21651.000000,43458.006450,21807.006450,43458.006450,2.007206,3106-3361,-1.000000,""
25_0_1,w0,profile_25,0.000000,256,21600.000000,1,COMPLETED_SUCCESSFULLY,24820.007650,21549.000000,46369.007650,24820.007650,46369.007650,2.151794,2850-3105,-1.000000,""
23_0_1,w0,profile_23,0.000000,256,21630.000000,1,COMPLETED_SUCCESSFULLY,24820.007050,21629.000000,46449.007050,24820.007050,46449.007050,2.147534,2594-2849,-1.000000,""
22_0_1,w0,profile_22,0.000000,256,21642.000000,1,COMPLETED_SUCCESSFULLY,24820.006450,21641.000000,46461.006450,24820.006450,46461.006450,2.146897,2338-2593,-1.000000,""
21_0_1,w0,profile_21,0.000000,256,21659.000000,1,COMPLETED_SUCCESSFULLY,24820.005850,21658.000000,46478.005850,24820.005850,46478.005850,2.145997,2082-2337,-1.000000,""
26_0_1,w0,profile_26,0.000000,256,21600.000000,1,COMPLETED_SUCCESSFULLY,43291.010500,21540.000000,64831.010500,43291.010500,64831.010500,3.009796,1860-2081 4130-4163,-1.000000,""
27_0_1,w0,profile_27,0.000000,256,21600.000000,1,COMPLETED_SUCCESSFULLY,43404.005700,21581.000000,64985.005700,43404.005700,64985.005700,3.011214,0-255,-1.000000,""
29_0_1,w0,profile_29,0.000000,256,21600.000000,1,COMPLETED_SUCCESSFULLY,46372.009300,21597.000000,67969.009300,46372.009300,67969.009300,3.147150,2850-3105,-1.000000,""
30_0_1,w0,profile_30,0.000000,256,21600.000000,1,COMPLETED_SUCCESSFULLY,46464.008100,21560.000000,68024.008100,46464.008100,68024.008100,3.155102,2338-2593,-1.000000,""
2_0_1,w0,profile_2,0.000000,256,21600.000000,1,COMPLETED_SUCCESSFULLY,46452.008700,21574.000000,68026.008700,46452.008700,68026.008700,3.153148,2594-2849,-1.000000,""
28_0_1,w0,profile_28,0.000000,384,32433.000000,1,COMPLETED_SUCCESSFULLY,43461.008100,32432.000000,75893.008100,43461.008100,75893.008100,2.340066,3106-3361 4198-4325,-1.000000,""
10_0_1,w0,profile_10,0.000000,802,86529.000000,1,COMPLETED_SUCCESSFULLY,0.003000,86528.000000,86528.003000,0.003000,86528.003000,1.000000,256-1057,-1.000000,""
32_0_1,w0,profile_32,0.000000,512,28800.000000,1,COMPLETED_SUCCESSFULLY,68030.010800,26911.000000,94941.010800,68030.010800,94941.010800,3.527963,2338-2849,-1.000000,""
3_0_1,w0,profile_3,0.000000,256,21635.000000,1,COMPLETED_SUCCESSFULLY,75896.009750,21634.000000,97530.009750,75896.009750,97530.009750,4.508182,3106-3361,-1.000000,""
16_0_1,w0,profile_16,0.000000,802,86507.000000,1,COMPLETED_SUCCESSFULLY,20736.005250,86506.000000,107242.005250,20736.005250,107242.005250,1.239706,1058-1859,-1.000000,""
18_0_1,w0,profile_18,0.000000,802,86518.000000,1,COMPLETED_SUCCESSFULLY,21630.007650,86517.000000,108147.007650,21630.007650,108147.007650,1.250009,3362-4129 4164-4197,-1.000000,""
31_0_1,w0,profile_31,0.000000,1024,46800.000000,1,COMPLETED_SUCCESSFULLY,67972.010950,42638.000000,110610.010950,67972.010950,110610.010950,2.594165,0-255 1860-2337 2850-3105 4130-4163,-1.000000,""
6_0_1,w0,profile_6,0.000000,256,21739.000000,1,COMPLETED_SUCCESSFULLY,94944.012450,21738.000000,116682.012450,94944.012450,116682.012450,5.367652,1024-1057 2338-2559,-1.000000,""
5_0_1,w0,profile_5,0.000000,384,32431.000000,1,COMPLETED_SUCCESSFULLY,86531.005250,32430.000000,118961.005250,86531.005250,118961.005250,3.668239,640-1023,-1.000000,""
4_0_1,w0,profile_4,0.000000,384,32445.000000,1,COMPLETED_SUCCESSFULLY,86531.004650,32444.000000,118975.004650,86531.004650,118975.004650,3.667088,256-639,-1.000000,""
7_0_1,w0,profile_7,0.000000,384,32510.000000,1,COMPLETED_SUCCESSFULLY,94944.013050,32509.000000,127453.013050,94944.013050,127453.013050,3.920545,2560-2849 4198-4291,-1.000000,""
33_0_1,w0,profile_33,141.000000,512,22200.000000,1,COMPLETED_SUCCESSFULLY,108150.009900,20708.000000,128858.009900,108009.009900,128717.009900,6.215811,3577-4088,-1.000000,""
36_0_1,w0,profile_36,59928.000000,256,21653.000000,1,COMPLETED_SUCCESSFULLY,110613.013800,21652.000000,132265.013800,50685.013800,72337.013800,3.340893,2116-2337 2850-2883,-1.000000,""
35_0_1,w0,profile_35,32004.000000,256,21664.000000,1,COMPLETED_SUCCESSFULLY,110613.013200,21663.000000,132276.013200,78609.013200,100272.013200,4.628722,1860-2115,-1.000000,""
34_0_1,w0,profile_34,27318.000000,256,21674.000000,1,COMPLETED_SUCCESSFULLY,110613.012600,21673.000000,132286.012600,83295.012600,104968.012600,4.843262,0-255,-1.000000,""
9_0_1,w0,profile_9,0.000000,1024,64200.000000,1,COMPLETED_SUCCESSFULLY,108150.009300,42124.000000,150274.009300,108150.009300,150274.009300,3.567420,1058-1859 3355-3576,-1.000000,""
38_0_1,w0,profile_38,151465.000000,384,32508.000000,1,COMPLETED_SUCCESSFULLY,151465.001800,32507.000000,183972.001800,0.001800,32507.001800,1.000000,0-255 1058-1185,-1.000000,""
39_0_1,w0,profile_39,161259.000000,1024,64800.000000,1,COMPLETED_SUCCESSFULLY,161259.001800,43065.000000,204324.001800,0.001800,43065.001800,1.000000,1186-2209,-1.000000,""
41_0_1,w0,profile_41,166129.000000,256,21718.000000,1,COMPLETED_SUCCESSFULLY,183975.004050,21717.000000,205692.004050,17846.004050,39563.004050,1.821753,4123-4378,-1.000000,""
37_0_1,w0,profile_37,95520.000000,2048,86400.000000,1,COMPLETED_SUCCESSFULLY,128861.011550,85257.000000,214118.011550,33341.011550,118598.011550,1.391065,256-1057 2338-2849 2884-3105 3577-4088,-1.000000,""
8_0_1,w0,profile_8,0.000000,249,468000.000000,1,COMPLETED_SUCCESSFULLY,97533.011400,127963.000000,225496.011400,97533.011400,225496.011400,1.762197,3106-3354,-1.000000,""
42_0_1,w0,profile_42,166317.000000,1024,64800.000000,1,COMPLETED_SUCCESSFULLY,204327.003450,43510.000000,247837.003450,38010.003450,81520.003450,1.873592,1186-2209,-1.000000,""
43_0_1,w0,profile_43,184683.000000,1024,61200.000000,1,COMPLETED_SUCCESSFULLY,214121.013200,48788.000000,262909.013200,29438.013200,78226.013200,1.603386,256-1057 2338-2559,-1.000000,""
40_0_1,w0,profile_40,166031.000000,802,86400.000000,1,COMPLETED_SUCCESSFULLY,183975.003450,79879.000000,263854.003450,17944.003450,97823.003450,1.224640,0-255 1058-1185 2210-2337 2850-2883 3355-3576 4089-4122,-1.000000,""
44_0_1,w0,profile_44,260011.000000,1024,21700.000000,1,COMPLETED_SUCCESSFULLY,260011.001800,21699.000000,281710.001800,0.001800,21699.001800,1.000000,1186-2209,-1.000000,""
47_0_1,w0,profile_47,311715.000000,256,21695.000000,1,COMPLETED_SUCCESSFULLY,311715.001800,21694.000000,333409.001800,0.001800,21694.001800,1.000000,1186-1441,-1.000000,""
46_0_1,w0,profile_46,271575.000000,802,86400.000000,1,COMPLETED_SUCCESSFULLY,271575.001800,84082.000000,355657.001800,0.001800,84082.001800,1.000000,802-1185 2210-2627,-1.000000,""
45_0_1,w0,profile_45,271569.000000,802,86400.000000,1,COMPLETED_SUCCESSFULLY,271569.001800,84090.000000,355659.001800,0.001800,84090.001800,1.000000,0-801,-1.000000,""
49_0_1,w0,profile_49,346990.000000,1024,30600.000000,1,COMPLETED_SUCCESSFULLY,346990.001800,23961.000000,370951.001800,0.001800,23961.001800,1.000000,1186-1441 1691-2209 2628-2876,-1.000000,""
55_0_1,w0,profile_55,369911.000000,256,21679.000000,1,COMPLETED_SUCCESSFULLY,370954.004050,21678.000000,392632.004050,1043.004050,22721.004050,1.048113,2655-2876 3679-3712,-1.000000,""
56_0_1,w0,profile_56,371511.000000,256,21636.000000,1,COMPLETED_SUCCESSFULLY,371511.001800,21635.000000,393146.001800,0.001800,21635.001800,1.000000,3713-3968,-1.000000,""
58_0_1,w0,profile_58,396181.000000,256,21662.000000,1,COMPLETED_SUCCESSFULLY,396181.001800,21661.000000,417842.001800,0.001800,21661.001800,1.000000,2655-2876 3679-3712,-1.000000,""
50_0_1,w0,profile_50,352535.000000,802,86400.000000,1,COMPLETED_SUCCESSFULLY,352535.001800,84050.000000,436585.001800,0.001800,84050.001800,1.000000,2877-3678,-1.000000,""
52_0_1,w0,profile_52,352560.000000,802,86400.000000,1,COMPLETED_SUCCESSFULLY,355663.005100,84051.000000,439714.005100,3103.005100,87154.005100,1.036918,802-1185 2210-2627,-1.000000,""
51_0_1,w0,profile_51,352554.000000,802,86400.000000,1,COMPLETED_SUCCESSFULLY,355663.004500,84054.000000,439717.004500,3109.004500,87163.004500,1.036988,0-801,-1.000000,""
53_0_1,w0,profile_53,352573.000000,802,86529.000000,1,COMPLETED_SUCCESSFULLY,370954.003450,86528.000000,457482.003450,18381.003450,104909.003450,1.212428,1186-1441 1691-2209 2628-2654,-1.000000,""
54_0_1,w0,profile_54,367898.000000,1024,31500.000000,1,COMPLETED_SUCCESSFULLY,436588.003450,25286.000000,461874.003450,68690.003450,93976.003450,3.716523,2655-3678,-1.000000,""
57_0_1,w0,profile_57,376557.000000,1024,31500.000000,1,COMPLETED_SUCCESSFULLY,439720.007800,25230.000000,464950.007800,63163.007800,88393.007800,3.503488,0-1023,-1.000000,""
60_0_1,w0,profile_60,421174.000000,1024,28800.000000,1,COMPLETED_SUCCESSFULLY,457485.005100,22862.000000,480347.005100,36311.005100,59173.005100,2.588269,1186-1441 1691-2209 2628-2654 4123-4344,-1.000000,""
62_0_1,w0,profile_62,428380.000000,256,21697.000000,1,COMPLETED_SUCCESSFULLY,461877.005700,21696.000000,483573.005700,33497.005700,55193.005700,2.543925,3039-3294,-1.000000,""
59_0_1,w0,profile_59,413774.000000,1024,61200.000000,1,COMPLETED_SUCCESSFULLY,439720.008400,50393.000000,490113.008400,25946.008400,76339.008400,1.514873,1024-1185 2210-2627 3679-4122,-1.000000,""
61_0_1,w0,profile_61,424914.000000,384,32450.000000,1,COMPLETED_SUCCESSFULLY,461877.005100,32449.000000,494326.005100,36963.005100,69412.005100,2.139111,2655-3038,-1.000000,""
48_0_1,w0,profile_48,329511.000000,249,187363.000000,1,COMPLETED_SUCCESSFULLY,329511.001800,187362.000000,516873.001800,0.001800,187362.001800,1.000000,1442-1690,-1.000000,""
63_0_1,w0,profile_63,433620.000000,1024,84600.000000,1,COMPLETED_SUCCESSFULLY,464953.009450,53694.000000,518647.009450,31333.009450,85027.009450,1.583548,0-1023,-1.000000,""
64_0_1,w0,profile_64,433620.000000,1024,73800.000000,1,COMPLETED_SUCCESSFULLY,480350.006750,39539.000000,519889.006750,46730.006750,86269.006750,2.181871,1186-1441 1691-2209 2628-2654 3295-3516,-1.000000,""
66_0_1,w0,profile_66,481063.000000,256,21649.000000,1,COMPLETED_SUCCESSFULLY,516876.003450,21648.000000,538524.003450,35813.003450,57461.003450,2.654333,1442-1690 4345-4351,-1.000000,""
68_0_1,w0,profile_68,504288.000000,256,21705.000000,1,COMPLETED_SUCCESSFULLY,519892.008400,21704.000000,541596.008400,15604.008400,37308.008400,1.718946,1186-1441,-1.000000,""
67_0_1,w0,profile_67,497983.000000,1024,57600.000000,1,COMPLETED_SUCCESSFULLY,518650.011100,49062.000000,567712.011100,20667.011100,69729.011100,1.421243,0-1023,-1.000000,""
70_0_1,w0,profile_70,517075.000000,602,32489.000000,1,COMPLETED_SUCCESSFULLY,538527.005100,32488.000000,571015.005100,21452.005100,53940.005100,1.660306,1442-1690 1940-2209 2628-2654 3295-3350,-1.000000,""
65_0_1,w0,profile_65,445267.000000,2048,86400.000000,1,COMPLETED_SUCCESSFULLY,494329.006750,85581.000000,579910.006750,49062.006750,134643.006750,1.573282,1024-1185 2210-2627 2655-3294 3517-4344,-1.000000,""
72_0_1,w0,profile_72,520993.000000,640,28845.000000,1,COMPLETED_SUCCESSFULLY,567715.013350,28844.000000,596559.013350,46722.013350,75566.013350,2.619817,640-1023 1186-1441,-1.000000,""
71_0_1,w0,profile_71,520897.000000,640,28883.000000,1,COMPLETED_SUCCESSFULLY,567715.012750,28882.000000,596597.012750,46818.012750,75700.012750,2.621010,0-639,-1.000000,""
76_0_1,w0,profile_76,568547.000000,256,21626.000000,1,COMPLETED_SUCCESSFULLY,579913.010200,21625.000000,601538.010200,11366.010200,32991.010200,1.525596,3097-3352,-1.000000,""
75_0_1,w0,profile_75,558084.000000,256,21633.000000,1,COMPLETED_SUCCESSFULLY,579913.009600,21632.000000,601545.009600,21829.009600,43461.009600,2.009107,2841-3096,-1.000000,""
74_0_1,w0,profile_74,556207.000000,288,21692.000000,1,COMPLETED_SUCCESSFULLY,579913.009000,21691.000000,601604.009000,23706.009000,45397.009000,2.092896,2553-2840,-1.000000,""
78_0_1,w0,profile_78,594071.000000,256,21539.000000,1,COMPLETED_SUCCESSFULLY,596562.015000,21538.000000,618100.015000,2491.015000,24029.015000,1.115657,640-895,-1.000000,""
73_0_1,w0,profile_73,523862.000000,1024,59400.000000,1,COMPLETED_SUCCESSFULLY,579913.008400,43883.000000,623796.008400,56051.008400,99934.008400,2.277283,1024-1185 1442-1690 1940-2552,-1.000000,""
81_0_1,w0,profile_81,611854.000000,256,21661.000000,1,COMPLETED_SUCCESSFULLY,611854.001800,21660.000000,633514.001800,0.001800,21660.001800,1.000000,2809-3064,-1.000000,""
79_0_1,w0,profile_79,605456.000000,640,43200.000000,1,COMPLETED_SUCCESSFULLY,605456.001800,33947.000000,639403.001800,0.001800,33947.001800,1.000000,0-639,-1.000000,""
80_0_1,w0,profile_80,605495.000000,640,43200.000000,1,COMPLETED_SUCCESSFULLY,605495.001800,33994.000000,639489.001800,0.001800,33994.001800,1.000000,896-1023 1186-1441 2553-2808,-1.000000,""
77_0_1,w0,profile_77,586619.000000,1024,61200.000000,1,COMPLETED_SUCCESSFULLY,586619.001800,55783.000000,642402.001800,0.001800,55783.001800,1.000000,3353-4376,-1.000000,""
82_0_1,w0,profile_82,611919.000000,602,32438.000000,1,COMPLETED_SUCCESSFULLY,623799.010050,32437.000000,656236.010050,11880.010050,44317.010050,1.366249,640-895 1024-1185 1442-1625,-1.000000,""
69_0_1,w0,profile_69,517070.000000,249,187200.000000,1,COMPLETED_SUCCESSFULLY,519892.009000,169959.000000,689851.009000,2822.009000,172781.009000,1.016604,1691-1939,-1.000000,""
85_0_1,w0,profile_85,686803.000000,256,21644.000000,1,COMPLETED_SUCCESSFULLY,686803.001800,21643.000000,708446.001800,0.001800,21643.001800,1.000000,3321-3576,-1.000000,""
83_0_1,w0,profile_83,670443.000000,1024,57600.000000,1,COMPLETED_SUCCESSFULLY,670443.001800,50274.000000,720717.001800,0.001800,50274.001800,1.000000,0-1023,-1.000000,""
88_0_1,w0,profile_88,692423.000000,279,21651.000000,1,COMPLETED_SUCCESSFULLY,720720.003450,21650.000000,742370.003450,28297.003450,49947.003450,2.307021,0-278,-1.000000,""
89_0_1,w0,profile_89,745351.000000,256,21646.000000,1,COMPLETED_SUCCESSFULLY,745351.001800,21645.000000,766996.001800,0.001800,21645.001800,1.000000,0-255,-1.000000,""
84_0_1,w0,profile_84,684130.000000,2048,86400.000000,1,COMPLETED_SUCCESSFULLY,684130.001800,85281.000000,769411.001800,0.001800,85281.001800,1.000000,1024-1690 1940-3320,-1.000000,""
87_0_1,w0,profile_87,688707.000000,802,86524.000000,1,COMPLETED_SUCCESSFULLY,689854.010650,86523.000000,776377.010650,1147.010650,87670.010650,1.013257,1691-1939 3826-4378,-1.000000,""
92_0_1,w0,profile_92,783492.000000,256,21706.000000,1,COMPLETED_SUCCESSFULLY,783492.001800,21705.000000,805197.001800,0.001800,21705.001800,1.000000,1691-1939 2041-2047,-1.000000,""
90_0_1,w0,profile_90,746249.000000,1024,61312.000000,1,COMPLETED_SUCCESSFULLY,746249.001800,61311.000000,807560.001800,0.001800,61311.001800,1.000000,256-1023 3321-3576,-1.000000,""
93_0_1,w0,profile_93,789681.000000,256,21698.000000,1,COMPLETED_SUCCESSFULLY,789681.001800,21697.000000,811378.001800,0.001800,21697.001800,1.000000,2048-2303,-1.000000,""
91_0_1,w0,profile_91,761371.000000,1024,57600.000000,1,COMPLETED_SUCCESSFULLY,769414.003450,49764.000000,819178.003450,8043.003450,57807.003450,1.161623,0-255 1024-1690 1940-2040,-1.000000,""
86_0_1,w0,profile_86,687002.000000,249,144000.000000,1,COMPLETED_SUCCESSFULLY,687002.001800,133994.000000,820996.001800,0.001800,133994.001800,1.000000,3577-3825,-1.000000,""
94_0_1,w0,profile_94,803960.000000,512,21600.000000,1,COMPLETED_SUCCESSFULLY,803960.001800,21536.000000,825496.001800,0.001800,21536.001800,1.000000,2304-2815,-1.000000,""
95_0_1,w0,profile_95,813427.000000,256,21673.000000,1,COMPLETED_SUCCESSFULLY,813427.001800,21672.000000,835099.001800,0.001800,21672.001800,1.000000,256-511,-1.000000,""
96_0_1,w0,profile_96,816473.000000,256,21648.000000,1,COMPLETED_SUCCESSFULLY,816473.001800,21647.000000,838120.001800,0.001800,21647.001800,1.000000,512-767,-1.000000,""
97_0_1,w0,profile_97,826977.000000,256,21652.000000,1,COMPLETED_SUCCESSFULLY,826977.001800,21651.000000,848628.001800,0.001800,21651.001800,1.000000,0-255,-1.000000,""
98_0_1,w0,profile_98,837849.000000,1024,82800.000000,1,COMPLETED_SUCCESSFULLY,837849.001800,59333.000000,897182.001800,0.001800,59333.001800,1.000000,256-511 768-1535,-1.000000,""
99_0_1,w0,profile_99,1064372.000000,256,21661.000000,1,COMPLETED_SUCCESSFULLY,1064372.001800,21660.000000,1086032.001800,0.001800,21660.001800,1.000000,0-255,-1.000000,""
100_0_1,w0,profile_100,1064609.000000,256,21650.000000,1,COMPLETED_SUCCESSFULLY,1064609.001800,21649.000000,1086258.001800,0.001800,21649.001800,1.000000,256-511,-1.000000,""
102_0_1,w0,profile_102,1115925.000000,256,21714.000000,1,COMPLETED_SUCCESSFULLY,1115925.001800,21713.000000,1137638.001800,0.001800,21713.001800,1.000000,249-504,-1.000000,""
103_0_1,w0,profile_103,1116508.000000,256,21729.000000,1,COMPLETED_SUCCESSFULLY,1116508.001800,21728.000000,1138236.001800,0.001800,21728.001800,1.000000,505-760,-1.000000,""
105_0_1,w0,profile_105,1121235.000000,256,21644.000000,1,COMPLETED_SUCCESSFULLY,1121235.001800,21643.000000,1142878.001800,0.001800,21643.001800,1.000000,1401-1656,-1.000000,""
107_0_1,w0,profile_107,1128166.000000,403,32450.000000,1,COMPLETED_SUCCESSFULLY,1128166.001800,32449.000000,1160615.001800,0.001800,32449.001800,1.000000,3705-4107,-1.000000,""
104_0_1,w0,profile_104,1120834.000000,640,43228.000000,1,COMPLETED_SUCCESSFULLY,1120834.001800,43227.000000,1164061.001800,0.001800,43227.001800,1.000000,761-1400,-1.000000,""
108_0_1,w0,profile_108,1156698.000000,256,21719.000000,1,COMPLETED_SUCCESSFULLY,1156698.001800,21718.000000,1178416.001800,0.001800,21718.001800,1.000000,249-504,-1.000000,""
109_0_1,w0,profile_109,1176318.000000,256,21716.000000,1,COMPLETED_SUCCESSFULLY,1176318.001800,21715.000000,1198033.001800,0.001800,21715.001800,1.000000,505-760,-1.000000,""
106_0_1,w0,profile_106,1121756.000000,2048,86400.000000,1,COMPLETED_SUCCESSFULLY,1121756.001800,85013.000000,1206769.001800,0.001800,85013.001800,1.000000,1657-3704,-1.000000,""
110_0_1,w0,profile_110,1182286.000000,384,32411.000000,1,COMPLETED_SUCCESSFULLY,1182286.001800,32410.000000,1214696.001800,0.001800,32410.001800,1.000000,249-504 761-888,-1.000000,""
111_0_1,w0,profile_111,1182299.000000,384,32426.000000,1,COMPLETED_SUCCESSFULLY,1182299.001800,32425.000000,1214724.001800,0.001800,32425.001800,1.000000,889-1272,-1.000000,""
101_0_1,w0,profile_101,1092925.000000,249,187200.000000,1,COMPLETED_SUCCESSFULLY,1092925.001800,173423.000000,1266348.001800,0.001800,173423.001800,1.000000,0-248,-1.000000,""
112_0_1,w0,profile_112,1201449.000000,2048,86400.000000,1,COMPLETED_SUCCESSFULLY,1206772.003450,85259.000000,1292031.003450,5323.003450,90582.003450,1.062433,505-760 1273-3064,-1.000000,""
118_0_1,w0,profile_118,1279272.000000,256,21634.000000,1,COMPLETED_SUCCESSFULLY,1292034.005100,21633.000000,1313667.005100,12762.005100,34395.005100,1.589932,505-760,-1.000000,""
119_0_1,w0,profile_119,1291461.000000,256,21663.000000,1,COMPLETED_SUCCESSFULLY,1292034.005700,21662.000000,1313696.005700,573.005700,22235.005700,1.026452,1273-1528,-1.000000,""
114_0_1,w0,profile_114,1273150.000000,1024,86400.000000,1,COMPLETED_SUCCESSFULLY,1273150.001800,57653.000000,1330803.001800,0.001800,57653.001800,1.000000,249-504 761-1272 3065-3320,-1.000000,""
120_0_1,w0,profile_120,1313242.000000,256,21526.000000,1,COMPLETED_SUCCESSFULLY,1313242.001800,21525.000000,1334767.001800,0.001800,21525.001800,1.000000,1529-1784,-1.000000,""
121_0_1,w0,profile_121,1313278.000000,256,21586.000000,1,COMPLETED_SUCCESSFULLY,1313278.001800,21585.000000,1334863.001800,0.001800,21585.001800,1.000000,1785-2040,-1.000000,""
122_0_1,w0,profile_122,1313428.000000,256,21681.000000,1,COMPLETED_SUCCESSFULLY,1313428.001800,21680.000000,1335108.001800,0.001800,21680.001800,1.000000,2041-2296,-1.000000,""
115_0_1,w0,profile_115,1273623.000000,1024,72000.000000,1,COMPLETED_SUCCESSFULLY,1273623.001800,61797.000000,1335420.001800,0.001800,61797.001800,1.000000,3321-4344,-1.000000,""
116_0_1,w0,profile_116,1276007.000000,4096,86400.000000,1,COMPLETED_SUCCESSFULLY,1335423.003450,86383.000000,1421806.003450,59416.003450,145799.003450,1.687821,249-4344,-1.000000,""
113_0_1,w0,profile_113,1267191.000000,249,187200.000000,1,COMPLETED_SUCCESSFULLY,1267191.001800,179817.000000,1447008.001800,0.001800,179817.001800,1.000000,0-248,-1.000000,""
123_0_1,w0,profile_123,1400329.000000,256,21664.000000,1,COMPLETED_SUCCESSFULLY,1447011.003450,21663.000000,1468674.003450,46682.003450,68345.003450,3.154919,0-248 4345-4351,-1.000000,""
124_0_1,w0,profile_124,1400572.000000,256,21655.000000,1,COMPLETED_SUCCESSFULLY,1468677.005100,21654.000000,1490331.005100,68105.005100,89759.005100,4.145147,0-248 4345-4351,-1.000000,""
117_0_1,w0,profile_117,1276011.000000,4096,86422.000000,1,COMPLETED_SUCCESSFULLY,1421809.005100,86421.000000,1508230.005100,145798.005100,232219.005100,2.687067,249-4344,-1.000000,""
126_0_1,w0,profile_126,1507529.000000,256,21663.000000,1,COMPLETED_SUCCESSFULLY,1508233.006750,21662.000000,1529895.006750,704.006750,22366.006750,1.032500,249-504,-1.000000,""
127_0_1,w0,profile_127,1510268.000000,256,21647.000000,1,COMPLETED_SUCCESSFULLY,1510268.001800,21646.000000,1531914.001800,0.001800,21646.001800,1.000000,505-760,-1.000000,""
128_0_1,w0,profile_128,1511922.000000,256,21648.000000,1,COMPLETED_SUCCESSFULLY,1511922.001800,21647.000000,1533569.001800,0.001800,21647.001800,1.000000,761-1016,-1.000000,""
129_0_1,w0,profile_129,1512282.000000,256,21632.000000,1,COMPLETED_SUCCESSFULLY,1512282.001800,21631.000000,1533913.001800,0.001800,21631.001800,1.000000,1017-1272,-1.000000,""
130_0_1,w0,profile_130,1513722.000000,256,21691.000000,1,COMPLETED_SUCCESSFULLY,1513722.001800,21690.000000,1535412.001800,0.001800,21690.001800,1.000000,1273-1528,-1.000000,""
133_0_1,w0,profile_133,1527467.000000,256,21732.000000,1,COMPLETED_SUCCESSFULLY,1527467.001800,21731.000000,1549198.001800,0.001800,21731.001800,1.000000,3029-3284,-1.000000,""
125_0_1,w0,profile_125,1456005.000000,249,64800.000000,1,COMPLETED_SUCCESSFULLY,1490334.006750,60560.000000,1550894.006750,34329.006750,94889.006750,1.566859,0-248,-1.000000,""
131_0_1,w0,profile_131,1526847.000000,1251,35143.000000,1,COMPLETED_SUCCESSFULLY,1526847.001800,35142.000000,1561989.001800,0.001800,35142.001800,1.000000,1529-2779,-1.000000,""
136_0_1,w0,profile_136,1563615.000000,1024,66600.000000,1,COMPLETED_SUCCESSFULLY,1563615.001800,38837.000000,1602452.001800,0.001800,38837.001800,1.000000,1529-2552,-1.000000,""
135_0_1,w0,profile_135,1559830.000000,802,86400.000000,1,COMPLETED_SUCCESSFULLY,1559830.001800,84780.000000,1644610.001800,0.001800,84780.001800,1.000000,802-1528 3029-3103,-1.000000,""
134_0_1,w0,profile_134,1559826.000000,802,86400.000000,1,COMPLETED_SUCCESSFULLY,1559826.001800,84785.000000,1644611.001800,0.001800,84785.001800,1.000000,0-801,-1.000000,""
138_0_1,w0,profile_138,1634809.000000,256,21612.000000,1,COMPLETED_SUCCESSFULLY,1634809.001800,21611.000000,1656420.001800,0.001800,21611.001800,1.000000,2131-2386,-1.000000,""
139_0_1,w0,profile_139,1636099.000000,256,21551.000000,1,COMPLETED_SUCCESSFULLY,1636099.001800,21550.000000,1657649.001800,0.001800,21550.001800,1.000000,2387-2642,-1.000000,""
137_0_1,w0,profile_137,1634371.000000,602,32524.000000,1,COMPLETED_SUCCESSFULLY,1634371.001800,32523.000000,1666894.001800,0.001800,32523.001800,1.000000,1529-2130,-1.000000,""
140_0_1,w0,profile_140,1659083.000000,1,21688.000000,1,COMPLETED_SUCCESSFULLY,1659083.001800,21687.000000,1680770.001800,0.001800,21687.001800,1.000000,0,-1.000000,""
141_0_1,w0,profile_141,1659327.000000,1,21702.000000,1,COMPLETED_SUCCESSFULLY,1659327.001800,21701.000000,1681028.001800,0.001800,21701.001800,1.000000,1,-1.000000,""
142_0_1,w0,profile_142,1669815.000000,1,21635.000000,1,COMPLETED_SUCCESSFULLY,1669815.001800,21634.000000,1691449.001800,0.001800,21634.001800,1.000000,2,-1.000000,""
143_0_1,w0,profile_143,1669856.000000,1,21656.000000,1,COMPLETED_SUCCESSFULLY,1669856.001800,21655.000000,1691511.001800,0.001800,21655.001800,1.000000,3,-1.000000,""
144_0_1,w0,profile_144,1669998.000000,1,21643.000000,1,COMPLETED_SUCCESSFULLY,1669998.001800,21642.000000,1691640.001800,0.001800,21642.001800,1.000000,4,-1.000000,""
145_0_1,w0,profile_145,1670119.000000,1,21661.000000,1,COMPLETED_SUCCESSFULLY,1670119.001800,21660.000000,1691779.001800,0.001800,21660.001800,1.000000,5,-1.000000,""
146_0_1,w0,profile_146,1679435.000000,128,23925.000000,1,COMPLETED_SUCCESSFULLY,1679435.001800,23924.000000,1703359.001800,0.001800,23924.001800,1.000000,6-133,-1.000000,""
147_0_1,w0,profile_147,1682467.000000,128,24148.000000,0,COMPLETED_WALLTIME_REACHED,1682467.001800,24148.000000,1706615.001800,0.001800,24148.001800,1.000000,0-1 134-259,-1.000000,""
132_0_1,w0,profile_132,1527051.000000,249,200132.000000,1,COMPLETED_SUCCESSFULLY,1527051.001800,200131.000000,1727182.001800,0.001800,200131.001800,1.000000,2780-3028,-1.000000,""
148_0_1,w0,profile_148,1707306.000000,2304,28800.000000,1,COMPLETED_SUCCESSFULLY,1707306.001800,24656.000000,1731962.001800,0.001800,24656.001800,1.000000,0-2303,-1.000000,""
149_0_1,w0,profile_149,1712919.000000,128,22923.000000,1,COMPLETED_SUCCESSFULLY,1712919.001800,22922.000000,1735841.001800,0.001800,22922.001800,1.000000,2304-2431,-1.000000,""
151_0_1,w0,profile_151,1714919.000000,256,21712.000000,1,COMPLETED_SUCCESSFULLY,1714919.001800,21711.000000,1736630.001800,0.001800,21711.001800,1.000000,3321-3576,-1.000000,""
152_0_1,w0,profile_152,1715915.000000,8,28451.000000,1,COMPLETED_SUCCESSFULLY,1715915.001800,28450.000000,1744365.001800,0.001800,28450.001800,1.000000,3577-3584,-1.000000,""
153_0_1,w0,profile_153,1720508.000000,1,23967.000000,1,COMPLETED_SUCCESSFULLY,1720508.001800,23966.000000,1744474.001800,0.001800,23966.001800,1.000000,3585,-1.000000,""
154_0_1,w0,profile_154,1721271.000000,2,23223.000000,1,COMPLETED_SUCCESSFULLY,1721271.001800,23222.000000,1744493.001800,0.001800,23222.001800,1.000000,3586-3587,-1.000000,""
155_0_1,w0,profile_155,1723070.000000,8,21439.000000,1,COMPLETED_SUCCESSFULLY,1723070.001800,21438.000000,1744508.001800,0.001800,21438.001800,1.000000,3588-3595,-1.000000,""
156_0_1,w0,profile_156,1724415.000000,1,20121.000000,1,COMPLETED_SUCCESSFULLY,1724415.001800,20120.000000,1744535.001800,0.001800,20120.001800,1.000000,3596,-1.000000,""
150_0_1,w0,profile_150,1713272.000000,640,32471.000000,1,COMPLETED_SUCCESSFULLY,1713272.001800,32470.000000,1745742.001800,0.001800,32470.001800,1.000000,2432-2779 3029-3320,-1.000000,""
157_0_1,w0,profile_157,1727899.000000,1024,72114.000000,1,COMPLETED_SUCCESSFULLY,1727899.001800,72113.000000,1800012.001800,0.001800,72113.001800,1.000000,2780-3028 3597-4371,-1.000000,""
158_0_1,w0,profile_158,1785832.000000,249,187200.000000,1,COMPLETED_SUCCESSFULLY,1785832.001800,34474.000000,1820306.001800,0.001800,34474.001800,1.000000,0-248,-1.000000,""
160_0_1,w0,profile_160,1810540.000000,512,25232.000000,1,COMPLETED_SUCCESSFULLY,1810540.001800,25231.000000,1835771.001800,0.001800,25231.001800,1.000000,761-1272,-1.000000,""
159_0_1,w0,profile_159,1810539.000000,512,25251.000000,1,COMPLETED_SUCCESSFULLY,1810539.001800,25250.000000,1835789.001800,0.001800,25250.001800,1.000000,249-760,-1.000000,""
161_0_1,w0,profile_161,1815723.000000,409,21645.000000,1,COMPLETED_SUCCESSFULLY,1815723.001800,21644.000000,1837367.001800,0.001800,21644.001800,1.000000,1273-1681,-1.000000,""
162_0_1,w0,profile_162,1816929.000000,301,21680.000000,1,COMPLETED_SUCCESSFULLY,1816929.001800,21679.000000,1838608.001800,0.001800,21679.001800,1.000000,1682-1982,-1.000000,""
164_0_1,w0,profile_164,1854866.000000,256,21645.000000,1,COMPLETED_SUCCESSFULLY,1854866.001800,21644.000000,1876510.001800,0.001800,21644.001800,1.000000,249-504,-1.000000,""
165_0_1,w0,profile_165,1882678.000000,9,230400.000000,1,COMPLETED_SUCCESSFULLY,1882678.001800,23822.000000,1906500.001800,0.001800,23822.001800,1.000000,249-257,-1.000000,""
167_0_1,w0,profile_167,1889560.000000,512,28800.000000,1,COMPLETED_SUCCESSFULLY,1889560.001800,23322.000000,1912882.001800,0.001800,23322.001800,1.000000,507-1018,-1.000000,""
169_0_1,w0,profile_169,1915307.000000,256,21697.000000,1,COMPLETED_SUCCESSFULLY,1915307.001800,21696.000000,1937003.001800,0.001800,21696.001800,1.000000,249-257 507-753,-1.000000,""
170_0_1,w0,profile_170,1915558.000000,256,21721.000000,1,COMPLETED_SUCCESSFULLY,1915558.001800,21720.000000,1937278.001800,0.001800,21720.001800,1.000000,754-1009,-1.000000,""
171_0_1,w0,profile_171,1932679.000000,256,21622.000000,1,COMPLETED_SUCCESSFULLY,1932679.001800,21621.000000,1954300.001800,0.001800,21621.001800,1.000000,1010-1018 2043-2289,-1.000000,""
168_0_1,w0,profile_168,1897819.000000,1024,66681.000000,1,COMPLETED_SUCCESSFULLY,1897819.001800,66680.000000,1964499.001800,0.001800,66680.001800,1.000000,1019-2042,-1.000000,""
163_0_1,w0,profile_163,1820389.000000,249,172800.000000,1,COMPLETED_SUCCESSFULLY,1820389.001800,145703.000000,1966092.001800,0.001800,145703.001800,1.000000,0-248,-1.000000,""
172_0_1,w0,profile_172,1951907.000000,256,21635.000000,1,COMPLETED_SUCCESSFULLY,1951907.001800,21634.000000,1973541.001800,0.001800,21634.001800,1.000000,249-257 507-753,-1.000000,""
173_0_1,w0,profile_173,1956001.000000,256,21622.000000,1,COMPLETED_SUCCESSFULLY,1956001.001800,21621.000000,1977622.001800,0.001800,21621.001800,1.000000,754-1009,-1.000000,""
174_0_1,w0,profile_174,1956605.000000,256,21670.000000,1,COMPLETED_SUCCESSFULLY,1956605.001800,21669.000000,1978274.001800,0.001800,21669.001800,1.000000,1010-1018 2043-2289,-1.000000,""
175_0_1,w0,profile_175,1981777.000000,256,21650.000000,1,COMPLETED_SUCCESSFULLY,1981777.001800,21649.000000,2003426.001800,0.001800,21649.001800,1.000000,0-255,-1.000000,""
176_0_1,w0,profile_176,1982019.000000,256,21623.000000,1,COMPLETED_SUCCESSFULLY,1982019.001800,21622.000000,2003641.001800,0.001800,21622.001800,1.000000,256-257 507-760,-1.000000,""
177_0_1,w0,profile_177,2003657.000000,256,21700.000000,1,COMPLETED_SUCCESSFULLY,2003657.001800,21699.000000,2025356.001800,0.001800,21699.001800,1.000000,0-255,-1.000000,""
178_0_1,w0,profile_178,2004217.000000,256,21709.000000,1,COMPLETED_SUCCESSFULLY,2004217.001800,21708.000000,2025925.001800,0.001800,21708.001800,1.000000,256-257 507-760,-1.000000,""
166_0_1,w0,profile_166,1883034.000000,249,187200.000000,1,COMPLETED_SUCCESSFULLY,1883034.001800,145060.000000,2028094.001800,0.001800,145060.001800,1.000000,258-506,-1.000000,""
179_0_1,w0,profile_179,2020749.000000,384,32450.000000,1,COMPLETED_SUCCESSFULLY,2020749.001800,32449.000000,2053198.001800,0.001800,32449.001800,1.000000,761-1144,-1.000000,""
180_0_1,w0,profile_180,2039200.000000,256,21638.000000,1,COMPLETED_SUCCESSFULLY,2039200.001800,21637.000000,2060837.001800,0.001800,21637.001800,1.000000,0-255,-1.000000,""
181_0_1,w0,profile_181,2039752.000000,256,21600.000000,1,COMPLETED_SUCCESSFULLY,2039752.001800,21193.000000,2060945.001800,0.001800,21193.001800,1.000000,256-511,-1.000000,""
182_0_1,w0,profile_182,2064146.000000,512,21651.000000,1,COMPLETED_SUCCESSFULLY,2064146.001800,21650.000000,2085796.001800,0.001800,21650.001800,1.000000,0-511,-1.000000,""
183_0_1,w0,profile_183,2064447.000000,512,21671.000000,1,COMPLETED_SUCCESSFULLY,2064447.001800,21670.000000,2086117.001800,0.001800,21670.001800,1.000000,512-1023,-1.000000,""
184_0_1,w0,profile_184,2070109.000000,256,20446.000000,1,COMPLETED_SUCCESSFULLY,2070109.001800,20445.000000,2090554.001800,0.001800,20445.001800,1.000000,1024-1279,-1.000000,""
185_0_1,w0,profile_185,2070167.000000,256,20446.000000,1,COMPLETED_SUCCESSFULLY,2070167.001800,20445.000000,2090612.001800,0.001800,20445.001800,1.000000,1280-1535,-1.000000,""
186_0_1,w0,profile_186,2072137.000000,608,21600.000000,1,COMPLETED_SUCCESSFULLY,2072137.001800,21078.000000,2093215.001800,0.001800,21078.001800,1.000000,1536-2143,-1.000000,""
187_0_1,w0,profile_187,2092384.000000,298,21734.000000,1,COMPLETED_SUCCESSFULLY,2092384.001800,21733.000000,2114117.001800,0.001800,21733.001800,1.000000,0-297,-1.000000,""
189_0_1,w0,profile_189,2095309.000000,256,21693.000000,1,COMPLETED_SUCCESSFULLY,2095309.001800,21692.000000,2117001.001800,0.001800,21692.001800,1.000000,1322-1577,-1.000000,""
190_0_1,w0,profile_190,2097418.000000,256,21600.000000,1,COMPLETED_SUCCESSFULLY,2097418.001800,21220.000000,2118638.001800,0.001800,21220.001800,1.000000,1578-1833,-1.000000,""
191_0_1,w0,profile_191,2097865.000000,256,21600.000000,1,COMPLETED_SUCCESSFULLY,2097865.001800,20778.000000,2118643.001800,0.001800,20778.001800,1.000000,1834-2089,-1.000000,""
193_0_1,w0,profile_193,2098763.000000,256,20434.000000,1,COMPLETED_SUCCESSFULLY,2098763.001800,20433.000000,2119196.001800,0.001800,20433.001800,1.000000,2346-2601,-1.000000,""
192_0_1,w0,profile_192,2098757.000000,256,20458.000000,1,COMPLETED_SUCCESSFULLY,2098757.001800,20457.000000,2119214.001800,0.001800,20457.001800,1.000000,2090-2345,-1.000000,""
194_0_1,w0,profile_194,2126981.000000,256,21649.000000,1,COMPLETED_SUCCESSFULLY,2126981.001800,21648.000000,2148629.001800,0.001800,21648.001800,1.000000,0-255,-1.000000,""
195_0_1,w0,profile_195,2127176.000000,256,21625.000000,1,COMPLETED_SUCCESSFULLY,2127176.001800,21624.000000,2148800.001800,0.001800,21624.001800,1.000000,256-297 1322-1535,-1.000000,""
196_0_1,w0,profile_196,2127806.000000,256,21646.000000,1,COMPLETED_SUCCESSFULLY,2127806.001800,21644.000000,2149450.001800,0.001800,21644.001800,1.000000,1536-1791,-1.000000,""
198_0_1,w0,profile_198,2134343.000000,256,21654.000000,1,COMPLETED_SUCCESSFULLY,2134343.001800,21653.000000,2155996.001800,0.001800,21653.001800,1.000000,2041-2296,-1.000000,""
199_0_1,w0,profile_199,2146556.000000,256,21698.000000,1,COMPLETED_SUCCESSFULLY,2146556.001800,21697.000000,2168253.001800,0.001800,21697.001800,1.000000,2297-2552,-1.000000,""
202_0_1,w0,profile_202,2151672.000000,292,21679.000000,1,COMPLETED_SUCCESSFULLY,2151672.001800,21678.000000,2173350.001800,0.001800,21678.001800,1.000000,0-291,-1.000000,""
188_0_1,w0,profile_188,2094047.000000,1024,86557.000000,1,COMPLETED_SUCCESSFULLY,2094047.001800,86556.000000,2180603.001800,0.001800,86556.001800,1.000000,298-1321,-1.000000,""
204_0_1,w0,profile_204,2161713.000000,256,21733.000000,1,COMPLETED_SUCCESSFULLY,2173353.003450,21732.000000,2195085.003450,11640.003450,33372.003450,1.535616,0-255,-1.000000,""
206_0_1,w0,profile_206,2162574.000000,256,21716.000000,1,COMPLETED_SUCCESSFULLY,2180606.004050,21715.000000,2202321.004050,18032.004050,39747.004050,1.830394,646-901,-1.000000,""
207_0_1,w0,profile_207,2164125.000000,409,21751.000000,1,COMPLETED_SUCCESSFULLY,2180606.004650,21750.000000,2202356.004650,16481.004650,38231.004650,1.757747,902-1310,-1.000000,""
203_0_1,w0,profile_203,2158839.000000,1024,66600.000000,1,COMPLETED_SUCCESSFULLY,2168256.003450,42344.000000,2210600.003450,9417.003450,51761.003450,1.222393,292-297 1322-1791 2041-2552 4157-4192,-1.000000,""
205_0_1,w0,profile_205,2162384.000000,384,32477.000000,1,COMPLETED_SUCCESSFULLY,2180606.003450,32476.000000,2213082.003450,18222.003450,50698.003450,1.561091,256-291 298-645,-1.000000,""
201_0_1,w0,profile_201,2148105.000000,802,86400.000000,1,COMPLETED_SUCCESSFULLY,2148105.001800,71737.000000,2219842.001800,0.001800,71737.001800,1.000000,3355-4156,-1.000000,""
209_0_1,w0,profile_209,2165300.000000,256,21348.000000,1,COMPLETED_SUCCESSFULLY,2202359.006300,21347.000000,2223706.006300,37059.006300,58406.006300,2.736029,902-1157,-1.000000,""
200_0_1,w0,profile_200,2148102.000000,802,86400.000000,1,COMPLETED_SUCCESSFULLY,2148102.001800,84888.000000,2232990.001800,0.001800,84888.001800,1.000000,2553-3354,-1.000000,""
212_0_1,w0,profile_212,2172967.000000,256,21678.000000,1,COMPLETED_SUCCESSFULLY,2213085.005100,21677.000000,2234762.005100,40118.005100,61795.005100,2.850718,256-291 298-517,-1.000000,""
208_0_1,w0,profile_208,2164521.000000,600,32529.000000,1,COMPLETED_SUCCESSFULLY,2202324.005700,32528.000000,2234852.005700,37803.005700,70331.005700,2.162168,0-255 646-901 1311-1321 4193-4269,-1.000000,""
213_0_1,w0,profile_213,2174103.000000,256,21678.000000,1,COMPLETED_SUCCESSFULLY,2219845.003450,21677.000000,2241522.003450,45742.003450,67419.003450,3.110163,518-645 3355-3482,-1.000000,""
211_0_1,w0,profile_211,2168850.000000,600,32439.000000,1,COMPLETED_SUCCESSFULLY,2210603.005700,32438.000000,2243041.005700,41753.005700,74191.005700,2.287163,1739-1791 2041-2552 4157-4191,-1.000000,""
210_0_1,w0,profile_210,2168686.000000,576,32448.000000,1,COMPLETED_SUCCESSFULLY,2210603.005100,32447.000000,2243050.005100,41917.005100,74364.005100,2.291861,292-297 1158-1310 1322-1738,-1.000000,""
215_0_1,w0,profile_215,2214352.000000,608,21646.000000,1,COMPLETED_SUCCESSFULLY,2232993.003450,21645.000000,2254638.003450,18641.003450,40286.003450,1.861215,2553-3160,-1.000000,""
216_0_1,w0,profile_216,2230577.000000,420,21642.000000,1,COMPLETED_SUCCESSFULLY,2234765.006750,21641.000000,2256406.006750,4188.006750,25829.006750,1.193522,256-291 298-517 3161-3324,-1.000000,""
220_0_1,w0,profile_220,2240912.000000,256,21754.000000,1,COMPLETED_SUCCESSFULLY,2243053.007350,21753.000000,2264806.007350,2141.007350,23894.007350,1.098424,2460-2552 3342-3482 4157-4178,-1.000000,""
217_0_1,w0,profile_217,2233527.000000,540,32426.000000,1,COMPLETED_SUCCESSFULLY,2234855.007350,32425.000000,2267280.007350,1328.007350,33753.007350,1.040956,0-255 646-901 1311-1321 3325-3341,-1.000000,""
214_0_1,w0,profile_214,2188309.000000,1024,72000.000000,1,COMPLETED_SUCCESSFULLY,2223709.007950,46084.000000,2269793.007950,35400.007950,81484.007950,1.768163,902-1157 3483-4156 4192 4270-4362,-1.000000,""
219_0_1,w0,profile_219,2239751.000000,600,32485.000000,1,COMPLETED_SUCCESSFULLY,2243053.006750,32484.000000,2275537.006750,3302.006750,35786.006750,1.101650,292-297 1158-1310 1322-1738 2436-2459,-1.000000,""
218_0_1,w0,profile_218,2238273.000000,576,32502.000000,1,COMPLETED_SUCCESSFULLY,2243044.007350,32501.000000,2275545.007350,4771.007350,37272.007350,1.146796,518-645 1739-1791 2041-2435,-1.000000,""
224_0_1,w0,profile_224,2277820.000000,256,21673.000000,1,COMPLETED_SUCCESSFULLY,2277820.001800,21672.000000,2299492.001800,0.001800,21672.001800,1.000000,292-297 518-645 1158-1279,-1.000000,""
223_0_1,w0,profile_223,2269370.000000,1024,64800.000000,1,COMPLETED_SUCCESSFULLY,2269796.009600,36933.000000,2306729.009600,426.009600,37359.009600,1.011535,902-1157 3285-4052,-1.000000,""
197_0_1,w0,profile_197,2129033.000000,249,187315.000000,1,COMPLETED_SUCCESSFULLY,2129033.001800,187314.000000,2316347.001800,0.001800,187314.001800,1.000000,1792-2040,-1.000000,""
225_0_1,w0,profile_225,2311081.000000,256,21630.000000,1,COMPLETED_SUCCESSFULLY,2311081.001800,21629.000000,2332710.001800,0.001800,21629.001800,1.000000,292-297 518-645 902-1023,-1.000000,""
230_0_1,w0,profile_230,2316463.000000,256,21696.000000,1,COMPLETED_SUCCESSFULLY,2316463.001800,21695.000000,2338158.001800,0.001800,21695.001800,1.000000,1792-2040 3767-3773,-1.000000,""
231_0_1,w0,profile_231,2317838.000000,400,21697.000000,1,COMPLETED_SUCCESSFULLY,2317838.001800,21696.000000,2339534.001800,0.001800,21696.001800,1.000000,3774-4173,-1.000000,""
227_0_1,w0,profile_227,2312666.000000,1,27032.000000,1,COMPLETED_SUCCESSFULLY,2312666.001800,27031.000000,2339697.001800,0.001800,27031.001800,1.000000,1419,-1.000000,""
221_0_1,w0,profile_221,2242988.000000,802,86400.000000,1,COMPLETED_SUCCESSFULLY,2256409.008400,84823.000000,2341232.008400,13421.008400,98244.008400,1.158224,256-291 298-517 2553-3098,-1.000000,""
226_0_1,w0,profile_226,2311967.000000,384,32400.000000,1,COMPLETED_SUCCESSFULLY,2311967.001800,30583.000000,2342550.001800,0.001800,30583.001800,1.000000,1024-1310 1322-1418,-1.000000,""
222_0_1,w0,profile_222,2243035.000000,802,86400.000000,1,COMPLETED_SUCCESSFULLY,2267283.009000,84816.000000,2352099.009000,24248.009000,109064.009000,1.285890,0-255 646-901 1311-1321 2460-2552 3099-3284,-1.000000,""
235_0_1,w0,profile_235,2322671.000000,256,21600.000000,1,COMPLETED_SUCCESSFULLY,2341235.011250,21572.000000,2362807.011250,18564.011250,40136.011250,1.860561,4051-4173 4238-4370,-1.000000,""
236_0_1,w0,profile_236,2322892.000000,256,21632.000000,1,COMPLETED_SUCCESSFULLY,2342553.003450,21631.000000,2364184.003450,19661.003450,41292.003450,1.908927,1024-1279,-1.000000,""
232_0_1,w0,profile_232,2317996.000000,576,32480.000000,1,COMPLETED_SUCCESSFULLY,2338161.003450,32479.000000,2370640.003450,20165.003450,52644.003450,1.620863,292-297 518-645 902-1023 1792-2040 3767-3773 4174-4237,-1.000000,""
238_0_1,w0,profile_238,2324413.000000,256,21607.000000,1,COMPLETED_SUCCESSFULLY,2352102.011250,21606.000000,2373708.011250,27689.011250,49295.011250,2.281543,646-901,-1.000000,""
233_0_1,w0,profile_233,2318137.000000,600,32484.000000,1,COMPLETED_SUCCESSFULLY,2341235.010050,32483.000000,2373718.010050,23098.010050,55581.010050,1.711080,256-291 298-517 1419 2553-2895,-1.000000,""
237_0_1,w0,profile_237,2323253.000000,256,21633.000000,1,COMPLETED_SUCCESSFULLY,2352102.010650,21632.000000,2373734.010650,28849.010650,50481.010650,2.333627,0-255,-1.000000,""
234_0_1,w0,profile_234,2318960.000000,480,32506.000000,1,COMPLETED_SUCCESSFULLY,2341235.010650,32505.000000,2373740.010650,22275.010650,54780.010650,1.685280,2896-3098 3774-4050,-1.000000,""
239_0_1,w0,profile_239,2331365.000000,1,21691.000000,1,COMPLETED_SUCCESSFULLY,2352102.011850,21690.000000,2373792.011850,20737.011850,42427.011850,1.956063,1280,-1.000000,""
240_0_1,w0,profile_240,2331682.000000,384,32400.000000,1,COMPLETED_SUCCESSFULLY,2352102.012450,27600.000000,2379702.012450,20420.012450,48020.012450,1.739856,1281-1418 2460-2552 3099-3251,-1.000000,""
241_0_1,w0,profile_241,2331816.000000,384,32400.000000,1,COMPLETED_SUCCESSFULLY,2364187.005100,27697.000000,2391884.005100,32371.005100,60068.005100,2.168755,1024-1279 3252-3284 4051-4145,-1.000000,""
243_0_1,w0,profile_243,2340932.000000,256,21629.000000,1,COMPLETED_SUCCESSFULLY,2370643.005700,21628.000000,2392271.005700,29711.005700,51339.005700,2.373729,1792-2040 3767-3773,-1.000000,""
242_0_1,w0,profile_242,2335109.000000,256,21638.000000,1,COMPLETED_SUCCESSFULLY,2370643.005100,21637.000000,2392280.005100,35534.005100,57171.005100,2.642280,292-297 518-645 902-1023,-1.000000,""
245_0_1,w0,profile_245,2348433.000000,256,21645.000000,1,COMPLETED_SUCCESSFULLY,2373721.011700,21644.000000,2395365.011700,25288.011700,46932.011700,2.168361,256-291 298-517,-1.000000,""
229_0_1,w0,profile_229,2314713.000000,1024,86400.000000,1,COMPLETED_SUCCESSFULLY,2314713.001800,82222.000000,2396935.001800,0.001800,82222.001800,1.000000,1669-1791 2041-2459 3285-3766,-1.000000,""
246_0_1,w0,profile_246,2376525.000000,256,21674.000000,1,COMPLETED_SUCCESSFULLY,2376525.001800,21673.000000,2398198.001800,0.001800,21673.001800,1.000000,0-255,-1.000000,""
247_0_1,w0,profile_247,2379902.000000,256,21674.000000,1,COMPLETED_SUCCESSFULLY,2379902.001800,21673.000000,2401575.001800,0.001800,21673.001800,1.000000,1280-1419 2460-2575,-1.000000,""
244_0_1,w0,profile_244,2343579.000000,384,32400.000000,1,COMPLETED_SUCCESSFULLY,2373711.012900,30779.000000,2404490.012900,30132.012900,60911.012900,1.978980,646-901 4146-4273,-1.000000,""
254_0_1,w0,profile_254,2409241.000000,360,21722.000000,1,COMPLETED_SUCCESSFULLY,2409241.001800,21721.000000,2430962.001800,0.001800,21721.001800,1.000000,646-901 4146-4249,-1.000000,""
251_0_1,w0,profile_251,2399813.000000,576,32460.000000,1,COMPLETED_SUCCESSFULLY,2401578.003450,32459.000000,2434037.003450,1765.003450,34224.003450,1.054376,1280-1419 2460-2575 3833-4145 4274-4280,-1.000000,""
250_0_1,w0,profile_250,2399812.000000,1024,86400.000000,1,COMPLETED_SUCCESSFULLY,2399812.001800,44126.000000,2443938.001800,0.001800,44126.001800,1.000000,2809-3832,-1.000000,""
259_0_1,w0,profile_259,2441484.000000,256,21664.000000,1,COMPLETED_SUCCESSFULLY,2443941.004650,21663.000000,2465604.004650,2457.004650,24120.004650,1.113419,3484-3739,-1.000000,""
256_0_1,w0,profile_256,2409926.000000,291,21730.000000,1,COMPLETED_SUCCESSFULLY,2443941.003450,21729.000000,2465670.003450,34015.003450,55744.003450,2.565420,2809-3099,-1.000000,""
252_0_1,w0,profile_252,2399955.000000,600,32454.000000,1,COMPLETED_SUCCESSFULLY,2434040.005100,32453.000000,2466493.005100,34085.005100,66538.005100,2.050288,646-901 1280-1419 2460-2575 3833-3920,-1.000000,""
255_0_1,w0,profile_255,2409416.000000,440,32454.000000,1,COMPLETED_SUCCESSFULLY,2434040.005700,32453.000000,2466493.005700,24624.005700,57077.005700,1.758759,3921-4360,-1.000000,""
258_0_1,w0,profile_258,2437104.000000,384,32400.000000,1,COMPLETED_SUCCESSFULLY,2443941.004050,30720.000000,2474661.004050,6837.004050,37557.004050,1.222559,3100-3483,-1.000000,""
248_0_1,w0,profile_248,2399669.000000,1024,86400.000000,1,COMPLETED_SUCCESSFULLY,2399669.001800,82199.000000,2481868.001800,0.001800,82199.001800,1.000000,0-645 902-1279,-1.000000,""
249_0_1,w0,profile_249,2399790.000000,1024,86400.000000,1,COMPLETED_SUCCESSFULLY,2399790.001800,82220.000000,2482010.001800,0.001800,82220.001800,1.000000,1669-2459 2576-2808,-1.000000,""
253_0_1,w0,profile_253,2408070.000000,2430,21717.000000,1,COMPLETED_SUCCESSFULLY,2481871.003450,21716.000000,2503587.003450,73801.003450,95517.003450,4.398462,0-1419 2460-2575 2809-3702,-1.000000,""
228_0_1,w0,profile_228,2312998.000000,249,216000.000000,1,COMPLETED_SUCCESSFULLY,2312998.001800,199612.000000,2512610.001800,0.001800,199612.001800,1.000000,1420-1668,-1.000000,""
268_0_1,w0,profile_268,2500302.000000,256,21600.000000,1,COMPLETED_SUCCESSFULLY,2503590.006300,21544.000000,2525134.006300,3288.006300,24832.006300,1.152618,3959-4214,-1.000000,""
267_0_1,w0,profile_267,2493861.000000,256,21631.000000,1,COMPLETED_SUCCESSFULLY,2503590.005700,21630.000000,2525220.005700,9729.005700,31359.005700,1.449792,3703-3958,-1.000000,""
260_0_1,w0,profile_260,2447059.000000,2430,21634.000000,1,COMPLETED_SUCCESSFULLY,2503590.005100,21633.000000,2525223.005100,56531.005100,78164.005100,3.613184,0-1419 2460-2575 2809-3702,-1.000000,""
257_0_1,w0,profile_257,2428713.000000,1024,66600.000000,1,COMPLETED_SUCCESSFULLY,2482013.003450,50358.000000,2532371.003450,53300.003450,103658.003450,2.058422,1669-2459 2576-2808,-1.000000,""
261_0_1,w0,profile_261,2447062.000000,2430,21600.000000,1,COMPLETED_SUCCESSFULLY,2525226.008400,20586.000000,2545812.008400,78164.008400,98750.008400,4.796950,0-1668 2460-2575 2809-3453,-1.000000,""
262_0_1,w0,profile_262,2447065.000000,2430,21600.000000,1,COMPLETED_SUCCESSFULLY,2545815.010050,20938.000000,2566753.010050,98750.010050,119688.010050,5.716306,0-2429,-1.000000,""
265_0_1,w0,profile_265,2492942.000000,300,21637.000000,1,COMPLETED_SUCCESSFULLY,2545815.011850,21636.000000,2567451.011850,52873.011850,74509.011850,3.443752,2687-2986,-1.000000,""
270_0_1,w0,profile_270,2531931.000000,576,21639.000000,1,COMPLETED_SUCCESSFULLY,2545815.013650,21638.000000,2567453.013650,13884.013650,35522.013650,1.641650,3697-4272,-1.000000,""
263_0_1,w0,profile_263,2484315.000000,256,21653.000000,1,COMPLETED_SUCCESSFULLY,2545815.010650,21652.000000,2567467.010650,61500.010650,83152.010650,3.840385,2430-2685,-1.000000,""
269_0_1,w0,profile_269,2507420.000000,290,21662.000000,1,COMPLETED_SUCCESSFULLY,2545815.013050,21661.000000,2567476.013050,38395.013050,60056.013050,2.772541,3407-3696,-1.000000,""
264_0_1,w0,profile_264,2486093.000000,1,21676.000000,1,COMPLETED_SUCCESSFULLY,2545815.011250,21675.000000,2567490.011250,59722.011250,81397.011250,3.755341,2686,-1.000000,""
266_0_1,w0,profile_266,2493149.000000,420,32434.000000,1,COMPLETED_SUCCESSFULLY,2545815.012450,32433.000000,2578248.012450,52666.012450,85099.012450,2.623840,2987-3406,-1.000000,""
274_0_1,w0,profile_274,2566751.000000,256,21323.000000,1,COMPLETED_SUCCESSFULLY,2566756.013500,21322.000000,2588078.013500,5.013500,21327.013500,1.000235,768-1023,-1.000000,""
272_0_1,w0,profile_272,2566578.000000,256,21324.000000,1,COMPLETED_SUCCESSFULLY,2566756.012300,21323.000000,2588079.012300,178.012300,21501.012300,1.008348,256-511,-1.000000,""
273_0_1,w0,profile_273,2566657.000000,256,21335.000000,1,COMPLETED_SUCCESSFULLY,2566756.012900,21334.000000,2588090.012900,99.012900,21433.012900,1.004641,512-767,-1.000000,""
275_0_1,w0,profile_275,2566791.000000,256,21363.000000,1,COMPLETED_SUCCESSFULLY,2566791.001800,21362.000000,2588153.001800,0.001800,21362.001800,1.000000,1024-1279,-1.000000,""
276_0_1,w0,profile_276,2566899.000000,256,21361.000000,1,COMPLETED_SUCCESSFULLY,2566899.001800,21360.000000,2588259.001800,0.001800,21360.001800,1.000000,1280-1535,-1.000000,""
277_0_1,w0,profile_277,2566952.000000,256,21343.000000,1,COMPLETED_SUCCESSFULLY,2566952.001800,21342.000000,2588294.001800,0.001800,21342.001800,1.000000,1536-1791,-1.000000,""
271_0_1,w0,profile_271,2563536.000000,256,21637.000000,1,COMPLETED_SUCCESSFULLY,2566756.011700,21636.000000,2588392.011700,3220.011700,24856.011700,1.148827,0-255,-1.000000,""
278_0_1,w0,profile_278,2584207.000000,256,21656.000000,1,COMPLETED_SUCCESSFULLY,2584207.001800,21655.000000,2605862.001800,0.001800,21655.001800,1.000000,1792-2047,-1.000000,""
280_0_1,w0,profile_280,2609892.000000,256,21659.000000,1,COMPLETED_SUCCESSFULLY,2609892.001800,21658.000000,2631550.001800,0.001800,21658.001800,1.000000,384-639,-1.000000,""
281_0_1,w0,profile_281,2611976.000000,256,21676.000000,1,COMPLETED_SUCCESSFULLY,2611976.001800,21675.000000,2633651.001800,0.001800,21675.001800,1.000000,640-895,-1.000000,""
279_0_1,w0,profile_279,2607324.000000,384,32400.000000,1,COMPLETED_SUCCESSFULLY,2607324.001800,30754.000000,2638078.001800,0.001800,30754.001800,1.000000,0-383,-1.000000,""
282_0_1,w0,profile_282,2616906.000000,256,21649.000000,1,COMPLETED_SUCCESSFULLY,2616906.001800,21648.000000,2638554.001800,0.001800,21648.001800,1.000000,896-1151,-1.000000,""
283_0_1,w0,profile_283,2616921.000000,256,21674.000000,1,COMPLETED_SUCCESSFULLY,2616921.001800,21673.000000,2638594.001800,0.001800,21673.001800,1.000000,1152-1407,-1.000000,""
284_0_1,w0,profile_284,2616943.000000,256,21674.000000,1,COMPLETED_SUCCESSFULLY,2616943.001800,21673.000000,2638616.001800,0.001800,21673.001800,1.000000,1408-1663,-1.000000,""
285_0_1,w0,profile_285,2636166.000000,256,21651.000000,1,COMPLETED_SUCCESSFULLY,2636166.001800,21650.000000,2657816.001800,0.001800,21650.001800,1.000000,384-639,-1.000000,""
287_0_1,w0,profile_287,2650306.000000,512,21682.000000,1,COMPLETED_SUCCESSFULLY,2650306.001800,21681.000000,2671987.001800,0.001800,21681.001800,1.000000,249-383 640-1016,-1.000000,""
288_0_1,w0,profile_288,2650610.000000,256,21691.000000,1,COMPLETED_SUCCESSFULLY,2650610.001800,21690.000000,2672300.001800,0.001800,21690.001800,1.000000,1017-1272,-1.000000,""
289_0_1,w0,profile_289,2652339.000000,300,21720.000000,1,COMPLETED_SUCCESSFULLY,2652339.001800,21719.000000,2674058.001800,0.001800,21719.001800,1.000000,1273-1572,-1.000000,""
286_0_1,w0,profile_286,2649774.000000,249,43200.000000,1,COMPLETED_SUCCESSFULLY,2649774.001800,40522.000000,2690296.001800,0.001800,40522.001800,1.000000,0-248,-1.000000,""
290_0_1,w0,profile_290,2669420.000000,256,21400.000000,1,COMPLETED_SUCCESSFULLY,2669420.001800,21399.000000,2690819.001800,0.001800,21399.001800,1.000000,384-639,-1.000000,""
291_0_1,w0,profile_291,2674722.000000,256,21395.000000,1,COMPLETED_SUCCESSFULLY,2674722.001800,21394.000000,2696116.001800,0.001800,21394.001800,1.000000,249-383 640-760,-1.000000,""
292_0_1,w0,profile_292,2674731.000000,256,21418.000000,1,COMPLETED_SUCCESSFULLY,2674731.001800,21417.000000,2696148.001800,0.001800,21417.001800,1.000000,761-1016,-1.000000,""
293_0_1,w0,profile_293,2674742.000000,256,21471.000000,1,COMPLETED_SUCCESSFULLY,2674742.001800,21470.000000,2696212.001800,0.001800,21470.001800,1.000000,1017-1272,-1.000000,""
294_0_1,w0,profile_294,2675518.000000,256,21643.000000,1,COMPLETED_SUCCESSFULLY,2675518.001800,21642.000000,2697160.001800,0.001800,21642.001800,1.000000,1273-1528,-1.000000,""
295_0_1,w0,profile_295,2697453.000000,256,21711.000000,1,COMPLETED_SUCCESSFULLY,2697453.001800,21710.000000,2719163.001800,0.001800,21710.001800,1.000000,0-255,-1.000000,""
296_0_1,w0,profile_296,2701145.000000,256,21623.000000,1,COMPLETED_SUCCESSFULLY,2701145.001800,21622.000000,2722767.001800,0.001800,21622.001800,1.000000,256-511,-1.000000,""
297_0_1,w0,profile_297,2701269.000000,256,21664.000000,1,COMPLETED_SUCCESSFULLY,2701269.001800,21663.000000,2722932.001800,0.001800,21663.001800,1.000000,512-767,-1.000000,""
298_0_1,w0,profile_298,2727702.000000,512,21712.000000,1,COMPLETED_SUCCESSFULLY,2727702.001800,21711.000000,2749413.001800,0.001800,21711.001800,1.000000,0-511,-1.000000,""
299_0_1,w0,profile_299,2727902.000000,256,21720.000000,1,COMPLETED_SUCCESSFULLY,2727902.001800,21719.000000,2749621.001800,0.001800,21719.001800,1.000000,512-767,-1.000000,""
300_0_1,w0,profile_300,2736824.000000,384,32403.000000,1,COMPLETED_SUCCESSFULLY,2736824.001800,32402.000000,2769226.001800,0.001800,32402.001800,1.000000,768-1151,-1.000000,""
301_0_1,w0,profile_301,2738367.000000,249,187200.000000,1,COMPLETED_SUCCESSFULLY,2738367.001800,45071.000000,2783438.001800,0.001800,45071.001800,1.000000,1152-1400,-1.000000,""
302_0_1,w0,profile_302,2799062.000000,256,21649.000000,1,COMPLETED_SUCCESSFULLY,2799062.001800,21648.000000,2820710.001800,0.001800,21648.001800,1.000000,0-255,-1.000000,""
303_0_1,w0,profile_303,2827395.000000,256,21421.000000,1,COMPLETED_SUCCESSFULLY,2827395.001800,21420.000000,2848815.001800,0.001800,21420.001800,1.000000,0-255,-1.000000,""
304_0_1,w0,profile_304,2827822.000000,256,21737.000000,1,COMPLETED_SUCCESSFULLY,2827822.001800,21736.000000,2849558.001800,0.001800,21736.001800,1.000000,256-511,-1.000000,""
305_0_1,w0,profile_305,2829525.000000,256,21678.000000,1,COMPLETED_SUCCESSFULLY,2829525.001800,21677.000000,2851202.001800,0.001800,21677.001800,1.000000,512-767,-1.000000,""
307_0_1,w0,profile_307,2830316.000000,576,21624.000000,1,COMPLETED_SUCCESSFULLY,2830316.001800,21623.000000,2851939.001800,0.001800,21623.001800,1.000000,1368-1943,-1.000000,""
306_0_1,w0,profile_306,2830212.000000,600,21781.000000,1,COMPLETED_SUCCESSFULLY,2830212.001800,21780.000000,2851992.001800,0.001800,21780.001800,1.000000,768-1367,-1.000000,""
309_0_1,w0,profile_309,2835886.000000,290,21678.000000,1,COMPLETED_SUCCESSFULLY,2835886.001800,21677.000000,2857563.001800,0.001800,21677.001800,1.000000,2193-2482,-1.000000,""
310_0_1,w0,profile_310,2845981.000000,1024,21656.000000,1,COMPLETED_SUCCESSFULLY,2845981.001800,21655.000000,2867636.001800,0.001800,21655.001800,1.000000,2483-3506,-1.000000,""
311_0_1,w0,profile_311,2852062.000000,256,21702.000000,1,COMPLETED_SUCCESSFULLY,2852062.001800,21701.000000,2873763.001800,0.001800,21701.001800,1.000000,0-255,-1.000000,""
314_0_1,w0,profile_314,2855320.000000,512,21678.000000,1,COMPLETED_SUCCESSFULLY,2855320.001800,21677.000000,2876997.001800,0.001800,21677.001800,1.000000,1024-1535,-1.000000,""
316_0_1,w0,profile_316,2858441.000000,256,21685.000000,1,COMPLETED_SUCCESSFULLY,2858441.001800,21684.000000,2880125.001800,0.001800,21684.001800,1.000000,1920-1943 2193-2424,-1.000000,""
312_0_1,w0,profile_312,2854013.000000,384,32510.000000,1,COMPLETED_SUCCESSFULLY,2854013.001800,32509.000000,2886522.001800,0.001800,32509.001800,1.000000,256-639,-1.000000,""
313_0_1,w0,profile_313,2854172.000000,384,32480.000000,1,COMPLETED_SUCCESSFULLY,2854172.001800,32479.000000,2886651.001800,0.001800,32479.001800,1.000000,640-1023,-1.000000,""
315_0_1,w0,profile_315,2858428.000000,384,32411.000000,1,COMPLETED_SUCCESSFULLY,2858428.001800,32410.000000,2890838.001800,0.001800,32410.001800,1.000000,1536-1919,-1.000000,""
317_0_1,w0,profile_317,2879472.000000,802,36076.000000,1,COMPLETED_SUCCESSFULLY,2879472.001800,36075.000000,2915547.001800,0.001800,36075.001800,1.000000,0-255 1024-1535 2425-2458,-1.000000,""
318_0_1,w0,profile_318,2897112.000000,256,21644.000000,1,COMPLETED_SUCCESSFULLY,2897112.001800,21643.000000,2918755.001800,0.001800,21643.001800,1.000000,256-511,-1.000000,""
319_0_1,w0,profile_319,2915556.000000,256,21645.000000,1,COMPLETED_SUCCESSFULLY,2915556.001800,21644.000000,2937200.001800,0.001800,21644.001800,1.000000,0-255,-1.000000,""
320_0_1,w0,profile_320,2916640.000000,512,21625.000000,1,COMPLETED_SUCCESSFULLY,2916640.001800,21624.000000,2938264.001800,0.001800,21624.001800,1.000000,512-1023,-1.000000,""
321_0_1,w0,profile_321,2921391.000000,576,21648.000000,1,COMPLETED_SUCCESSFULLY,2921391.001800,21647.000000,2943038.001800,0.001800,21647.001800,1.000000,256-511 1024-1343,-1.000000,""
322_0_1,w0,profile_322,2921464.000000,256,21748.000000,1,COMPLETED_SUCCESSFULLY,2921464.001800,21747.000000,2943211.001800,0.001800,21747.001800,1.000000,1344-1599,-1.000000,""
323_0_1,w0,profile_323,2921725.000000,600,21732.000000,1,COMPLETED_SUCCESSFULLY,2921725.001800,21731.000000,2943456.001800,0.001800,21731.001800,1.000000,1600-1943 2193-2448,-1.000000,""
324_0_1,w0,profile_324,2936733.000000,256,21661.000000,1,COMPLETED_SUCCESSFULLY,2936733.002400,21660.000000,2958393.002400,0.002400,21660.002400,1.000000,2449-2704,-1.000000,""
308_0_1,w0,profile_308,2834987.000000,249,187200.000000,1,COMPLETED_SUCCESSFULLY,2834987.001800,162853.000000,2997840.001800,0.001800,162853.001800,1.000000,1944-2192,-1.000000,""
